3.9185,4.0468,4.2356,0,0,0,0,0,0,0,0,0,0,0,0
3.9185,4.0468,4.2356,0,0,0,0,0,0,0,0,0,0,0,0
3.9185,4.0468,4.2356,0,0,0,0,0,0,0,0,0,0,0,0
3.9185,4.0468,4.2356,0,0,0,0,0,0,0,0,0,0,0,0
3.9185,4.0468,4.2356,0,0,0,0,0,0,0,0,0,0,0,0
3.9185,4.0468,4.2356,0,0,0,0,0,0,0,0,0,0,0,0
3.9185,4.0468,4.2356,0,0,0,0,0,0,0,0,0,0,0,0
3.9185,4.0468,4.2356,0,0,0,0,0,0,0,0,0,0,0,0
3.9185,4.0468,4.2356,0,0,0,0,0,0,0,0,0,0,0,0
3.9185,4.0468,4.2356,0,0,0,0,0,0,0,0,0,0,0,0
3.9185,4.0468,4.2356,0,0,0,0,0,0,0,0,0,0,0,0
3.9185,4.0468,4.2356,0,0,0,0,0,0,0,0,0,0,0,0
3.9185,4.0468,4.2356,0,0,0,0,0,0,0,0,0,0,0,0
3.9185,4.0468,4.2356,0,0,0,0,0,0,0,0,0,0,0,0
3.9185,4.0468,4.2356,0,0,0,0,0,0,0,0,0,0,0,0
3.9185,4.0468,4.2356,0,0,0,0,0,0,0,0,0,0,0,0
3.9185,4.0468,4.2356,0,0,0,0,0,0,0,0,0,0,0,0
3.9185,4.0468,4.2356,0,0,0,0,0,0,0,0,0,0,0,0
3.9185,4.0468,4.2356,0,0,0,0,0,0,0,0,0,0,0,0
3.9185,4.0468,4.2356,0,0,0,0,0,0,0,0,0,0,0,0
3.9185,4.0468,4.2356,0,0,0,0,0,0,0,0,0,0,0,0
3.9185,4.0468,4.2356,0,0,0,0,0,0,0,0,0,0,0,0
3.9185,4.0468,4.2356,0,0,0,0,0,0,0,0,0,0,0,0
3.9185,4.0468,4.2356,0,0,0,0,0,0,0,0,0,0,0,0
3.9185,4.0468,4.2356,0,0,0,0,0,0,0,0,0,0,0,0
3.9185,4.0468,4.2356,0,0,0,0,0,0,0,0,0,0,0,0
3.9185,4.0468,4.2356,0,0,0,0,0,0,0,0,0,0,0,0
3.9185,4.0468,4.2356,0,0,0,0,0,0,0,0,0,0,0,0
3.9185,4.0468,4.2356,0,0,0,0,0,0,0,0,0,0,0,0
3.9185,4.0468,4.2356,0,0,0,0,0,0,0,0,0,0,0,0
3.9185,4.0468,4.2356,0,0,0,0,0,0,0,0,0,0,0,0
3.9185,4.0468,4.2356,0,0,0,0,0,0,0,0,0,0,0,0
3.9185,4.0468,4.2356,0,0,0,0,0,0,0,0,0,0,0,0
3.9185,4.0468,4.2356,0,0,0,0,0,0,0,0,0,0,0,0
3.9185,4.0468,4.2356,0,0,0,0,0,0,0,0,0,0,0,0
3.9185,4.0468,4.2356,0,0,0,0,0,0,0,0,0,0,0,0
3.9185,4.0468,4.2356,0,0,0,0,0,0,0,0,0,0,0,0
3.9185,4.0468,4.2356,0,0,0,0,0,0,0,0,0,0,0,0
3.9185,4.0468,4.2356,0,0,0,0,0,0,0,0,0,0,0,0
3.9185,4.0468,4.2356,0,0,0,0,0,0,0,0,0,0,0,0
3.9185,4.0468,4.2356,0,0,0,0,0,0,0,0,0,0,0,0
3.9185,4.0468,4.2356,0,0,0,0,0,0,0,0,0,0,0,0
3.9185,4.0468,4.2356,0,0,0,0,0,0,0,0,0,0,0,0
3.9185,4.0468,4.2356,0,0,0,0,0,0,0,0,0,0,0,0
3.9185,4.0468,4.2356,0,0,0,0,0,0,0,0,0,0,0,0
3.9185,4.0468,4.2356,0,0,0,0,0,0,0,0,0,0,0,0
3.9185,4.0468,4.2356,0,0,0,0,0,0,0,0,0,0,0,0
3.9185,4.0468,4.2356,0,0,0,0,0,0,0,0,0,0,0,0
3.9185,4.0468,4.2356,0,0,0,0,0,0,0,0,0,0,0,0
3.9185,4.0468,4.2356,0,0,0,0,0,0,0,0,0,0,0,0
3.9185,4.0468,4.2356,0,0,0,0,0,0,0,0,0,0,0,0
3.9185,4.0468,4.2356,0,0,0,0,0,0,0,0,0,0,0,0
3.9185,4.0468,4.2356,0,0,0,0,0,0,0,0,0,0,0,0
3.9185,4.0468,4.2356,0,0,0,0,0,0,0,0,0,0,0,0
3.9185,4.0468,4.2356,0,0,0,0,0,0,0,0,0,0,0,0
3.9185,4.0468,4.2356,0,0,0,0,0,0,0,0,0,0,0,0
3.9185,4.0468,4.2356,0,0,0,0,0,0,0,0,0,0,0,0
3.9185,4.0468,4.2356,0,0,0,0,0,0,0,0,0,0,0,0
3.9185,4.0468,4.2356,0,0,0,0,0,0,0,0,0,0,0,0
3.9185,4.0468,4.2356,0,0,0,0,0,0,0,0,0,0,0,0
3.9185,4.0468,4.2356,0,0,0,0,0,0,0,0,0,0,0,0
