1
336.500000,167.000000,25.000000,52.000000
336.500000,167.000000,25.000000,52.000000
336.500000,163.000000,25.000000,52.000000
336.500000,167.000000,25.000000,52.000000
336.500000,167.000000,25.000000,52.000000
332.500000,167.000000,25.000000,52.000000
332.500000,167.000000,25.000000,52.000000
332.500000,167.000000,25.000000,52.000000
332.500000,167.000000,25.000000,52.000000
332.500000,167.000000,25.000000,52.000000
332.500000,167.000000,25.000000,52.000000
332.500000,167.000000,25.000000,52.000000
328.500000,167.000000,25.000000,52.000000
328.500000,167.000000,25.000000,52.000000
328.500000,167.000000,25.000000,52.000000
328.500000,167.000000,25.000000,52.000000
328.500000,167.000000,25.000000,52.000000
328.500000,167.000000,25.000000,52.000000
332.500000,163.000000,25.000000,52.000000
328.500000,163.000000,25.000000,52.000000
328.500000,163.000000,25.000000,52.000000
328.500000,163.000000,25.000000,52.000000
328.500000,163.000000,25.000000,52.000000
328.500000,159.000000,25.000000,52.000000
328.500000,159.000000,25.000000,52.000000
328.500000,159.000000,25.000000,52.000000
328.500000,159.000000,25.000000,52.000000
328.500000,159.000000,25.000000,52.000000
328.500000,159.000000,25.000000,52.000000
328.500000,159.000000,25.000000,52.000000
328.500000,155.000000,25.000000,52.000000
328.500000,155.000000,25.000000,52.000000
332.500000,155.000000,25.000000,52.000000
332.500000,155.000000,25.000000,52.000000
332.500000,155.000000,25.000000,52.000000
332.500000,155.000000,25.000000,52.000000
332.500000,155.000000,25.000000,52.000000
332.500000,155.000000,25.000000,52.000000
332.500000,159.000000,25.000000,52.000000
336.500000,155.000000,25.000000,52.000000
332.500000,155.000000,25.000000,52.000000
332.500000,155.000000,25.000000,52.000000
332.500000,155.000000,25.000000,52.000000
332.500000,155.000000,25.000000,52.000000
332.500000,155.000000,25.000000,52.000000
332.500000,155.000000,25.000000,52.000000
332.500000,155.000000,25.000000,52.000000
332.500000,155.000000,25.000000,52.000000
332.500000,155.000000,25.000000,52.000000
332.500000,155.000000,25.000000,52.000000
332.500000,155.000000,25.000000,52.000000
336.500000,155.000000,25.000000,52.000000
336.500000,155.000000,25.000000,52.000000
336.500000,155.000000,25.000000,52.000000
336.500000,155.000000,25.000000,52.000000
336.500000,155.000000,25.000000,52.000000
336.500000,155.000000,25.000000,52.000000
336.500000,155.000000,25.000000,52.000000
336.500000,155.000000,25.000000,52.000000
336.500000,155.000000,25.000000,52.000000
336.500000,155.000000,25.000000,52.000000
332.500000,155.000000,25.000000,52.000000
332.500000,155.000000,25.000000,52.000000
332.500000,155.000000,25.000000,52.000000
328.500000,155.000000,25.000000,52.000000
328.500000,155.000000,25.000000,52.000000
324.500000,155.000000,25.000000,52.000000
324.500000,155.000000,25.000000,52.000000
324.500000,155.000000,25.000000,52.000000
324.500000,155.000000,25.000000,52.000000
324.500000,155.000000,25.000000,52.000000
324.500000,155.000000,25.000000,52.000000
324.500000,155.000000,25.000000,52.000000
324.500000,155.000000,25.000000,52.000000
324.500000,155.000000,25.000000,52.000000
324.500000,155.000000,25.000000,52.000000
324.500000,155.000000,25.000000,52.000000
324.500000,155.000000,25.000000,52.000000
324.500000,155.000000,25.000000,52.000000
324.500000,155.000000,25.000000,52.000000
324.500000,155.000000,25.000000,52.000000
324.500000,155.000000,25.000000,52.000000
324.500000,155.000000,25.000000,52.000000
320.500000,159.000000,25.000000,52.000000
320.500000,159.000000,25.000000,52.000000
324.500000,155.000000,25.000000,52.000000
324.500000,155.000000,25.000000,52.000000
324.500000,155.000000,25.000000,52.000000
324.500000,155.000000,25.000000,52.000000
328.500000,159.000000,25.000000,52.000000
328.500000,159.000000,25.000000,52.000000
328.500000,159.000000,25.000000,52.000000
332.500000,159.000000,25.000000,52.000000
332.500000,159.000000,25.000000,52.000000
332.500000,159.000000,25.000000,52.000000
336.500000,159.000000,25.000000,52.000000
336.500000,159.000000,25.000000,52.000000
336.500000,155.000000,25.000000,52.000000
336.500000,155.000000,25.000000,52.000000
336.500000,155.000000,25.000000,52.000000
340.500000,159.000000,25.000000,52.000000
340.500000,159.000000,25.000000,52.000000
340.500000,159.000000,25.000000,52.000000
340.500000,159.000000,25.000000,52.000000
340.500000,159.000000,25.000000,52.000000
340.500000,159.000000,25.000000,52.000000
340.500000,159.000000,25.000000,52.000000
344.500000,159.000000,25.000000,52.000000
344.500000,159.000000,25.000000,52.000000
344.500000,159.000000,25.000000,52.000000
348.500000,159.000000,25.000000,52.000000
352.500000,163.000000,25.000000,52.000000
352.500000,163.000000,25.000000,52.000000
356.500000,163.000000,25.000000,52.000000
356.500000,163.000000,25.000000,52.000000
360.500000,163.000000,25.000000,52.000000
364.500000,163.000000,25.000000,52.000000
364.500000,163.000000,25.000000,52.000000
368.500000,163.000000,25.000000,52.000000
368.500000,163.000000,25.000000,52.000000
368.500000,163.000000,25.000000,52.000000
368.500000,163.000000,25.000000,52.000000
368.500000,163.000000,25.000000,52.000000
368.500000,163.000000,25.000000,52.000000
368.500000,163.000000,25.000000,52.000000
368.500000,163.000000,25.000000,52.000000
368.500000,163.000000,25.000000,52.000000
372.500000,163.000000,25.000000,52.000000
372.500000,163.000000,25.000000,52.000000
372.500000,163.000000,25.000000,52.000000
376.500000,167.000000,25.000000,52.000000
376.500000,167.000000,25.000000,52.000000
380.500000,167.000000,25.000000,52.000000
380.500000,167.000000,25.000000,52.000000
380.500000,171.000000,25.000000,52.000000
380.500000,171.000000,25.000000,52.000000
384.500000,171.000000,25.000000,52.000000
388.500000,171.000000,25.000000,52.000000
388.500000,171.000000,25.000000,52.000000
392.500000,171.000000,25.000000,52.000000
392.500000,171.000000,25.000000,52.000000
392.500000,171.000000,25.000000,52.000000
396.500000,175.000000,25.000000,52.000000
396.500000,175.000000,25.000000,52.000000
400.500000,179.000000,25.000000,52.000000
400.500000,179.000000,25.000000,52.000000
404.500000,179.000000,25.000000,52.000000
404.500000,179.000000,25.000000,52.000000
412.500000,179.000000,25.000000,52.000000
412.500000,179.000000,25.000000,52.000000
412.500000,175.000000,25.000000,52.000000
412.500000,175.000000,25.000000,52.000000
412.500000,175.000000,25.000000,52.000000
412.500000,175.000000,25.000000,52.000000
412.500000,175.000000,25.000000,52.000000
412.500000,175.000000,25.000000,52.000000
412.500000,175.000000,25.000000,52.000000
412.500000,175.000000,25.000000,52.000000
412.500000,175.000000,25.000000,52.000000
416.500000,175.000000,25.000000,52.000000
416.500000,175.000000,25.000000,52.000000
416.500000,175.000000,25.000000,52.000000
416.500000,175.000000,25.000000,52.000000
420.500000,175.000000,25.000000,52.000000
424.500000,179.000000,25.000000,52.000000
428.500000,179.000000,25.000000,52.000000
432.500000,179.000000,25.000000,52.000000
440.500000,179.000000,25.000000,52.000000
444.500000,179.000000,25.000000,52.000000
448.500000,179.000000,25.000000,52.000000
452.500000,179.000000,25.000000,52.000000
456.500000,179.000000,25.000000,52.000000
456.500000,175.000000,25.000000,52.000000
460.500000,175.000000,25.000000,52.000000
460.500000,175.000000,25.000000,52.000000
464.500000,175.000000,25.000000,52.000000
464.500000,171.000000,25.000000,52.000000
464.500000,171.000000,25.000000,52.000000
468.500000,167.000000,25.000000,52.000000
468.500000,167.000000,25.000000,52.000000
468.500000,167.000000,25.000000,52.000000
468.500000,167.000000,25.000000,52.000000
468.500000,167.000000,25.000000,52.000000
468.500000,171.000000,25.000000,52.000000
468.500000,171.000000,25.000000,52.000000
472.500000,175.000000,25.000000,52.000000
472.500000,175.000000,25.000000,52.000000
472.500000,175.000000,25.000000,52.000000
472.500000,175.000000,25.000000,52.000000
472.500000,175.000000,25.000000,52.000000
468.500000,175.000000,25.000000,52.000000
464.500000,175.000000,25.000000,52.000000
464.500000,175.000000,25.000000,52.000000
460.500000,175.000000,25.000000,52.000000
456.500000,175.000000,25.000000,52.000000
456.500000,175.000000,25.000000,52.000000
456.500000,175.000000,25.000000,52.000000
456.500000,175.000000,25.000000,52.000000
456.500000,175.000000,25.000000,52.000000
456.500000,175.000000,25.000000,52.000000
456.500000,175.000000,25.000000,52.000000
456.500000,175.000000,25.000000,52.000000
456.500000,171.000000,25.000000,52.000000
456.500000,171.000000,25.000000,52.000000
456.500000,171.000000,25.000000,52.000000
456.500000,167.000000,25.000000,52.000000
456.500000,167.000000,25.000000,52.000000
452.500000,167.000000,25.000000,52.000000
452.500000,167.000000,25.000000,52.000000
452.500000,167.000000,25.000000,52.000000
452.500000,163.000000,25.000000,52.000000
448.500000,163.000000,25.000000,52.000000
448.500000,167.000000,25.000000,52.000000
448.500000,167.000000,25.000000,52.000000
448.500000,163.000000,25.000000,52.000000
448.500000,163.000000,25.000000,52.000000
448.500000,163.000000,25.000000,52.000000
448.500000,163.000000,25.000000,52.000000
448.500000,163.000000,25.000000,52.000000
452.500000,163.000000,25.000000,52.000000
452.500000,163.000000,25.000000,52.000000
452.500000,163.000000,25.000000,52.000000
452.500000,163.000000,25.000000,52.000000
452.500000,163.000000,25.000000,52.000000
452.500000,163.000000,25.000000,52.000000
452.500000,159.000000,25.000000,52.000000
452.500000,159.000000,25.000000,52.000000
456.500000,155.000000,25.000000,52.000000
456.500000,155.000000,25.000000,52.000000
456.500000,155.000000,25.000000,52.000000
456.500000,155.000000,25.000000,52.000000
460.500000,155.000000,25.000000,52.000000
464.500000,155.000000,25.000000,52.000000
468.500000,155.000000,25.000000,52.000000
468.500000,155.000000,25.000000,52.000000
476.500000,151.000000,25.000000,52.000000
476.500000,151.000000,25.000000,52.000000
484.500000,151.000000,25.000000,52.000000
496.500000,147.000000,25.000000,52.000000
504.500000,143.000000,25.000000,52.000000
508.500000,143.000000,25.000000,52.000000
512.500000,143.000000,25.000000,52.000000
520.500000,139.000000,25.000000,52.000000
528.500000,139.000000,25.000000,52.000000
532.500000,139.000000,25.000000,52.000000
536.500000,135.000000,25.000000,52.000000
536.500000,135.000000,25.000000,52.000000
536.500000,135.000000,25.000000,52.000000
536.500000,131.000000,25.000000,52.000000
536.500000,131.000000,25.000000,52.000000
536.500000,131.000000,25.000000,52.000000
536.500000,127.000000,25.000000,52.000000
532.500000,127.000000,25.000000,52.000000
532.500000,127.000000,25.000000,52.000000
528.500000,131.000000,25.000000,52.000000
528.500000,131.000000,25.000000,52.000000
524.500000,131.000000,25.000000,52.000000
524.500000,131.000000,25.000000,52.000000
520.500000,131.000000,25.000000,52.000000
520.500000,131.000000,25.000000,52.000000
516.500000,131.000000,25.000000,52.000000
516.500000,127.000000,25.000000,52.000000
512.500000,123.000000,25.000000,52.000000
512.500000,123.000000,25.000000,52.000000
508.500000,123.000000,25.000000,52.000000
504.500000,123.000000,25.000000,52.000000
504.500000,123.000000,25.000000,52.000000
504.500000,123.000000,25.000000,52.000000
500.500000,119.000000,25.000000,52.000000
500.500000,115.000000,25.000000,52.000000
496.500000,111.000000,25.000000,52.000000
492.500000,111.000000,25.000000,52.000000
492.500000,111.000000,25.000000,52.000000
488.500000,107.000000,25.000000,52.000000
488.500000,103.000000,25.000000,52.000000
488.500000,103.000000,25.000000,52.000000
488.500000,99.000000,25.000000,52.000000
488.500000,99.000000,25.000000,52.000000
488.500000,99.000000,25.000000,52.000000
488.500000,103.000000,25.000000,52.000000
488.500000,99.000000,25.000000,52.000000
492.500000,99.000000,25.000000,52.000000
492.500000,99.000000,25.000000,52.000000
492.500000,99.000000,25.000000,52.000000
492.500000,95.000000,25.000000,52.000000
492.500000,95.000000,25.000000,52.000000
492.500000,95.000000,25.000000,52.000000
496.500000,95.000000,25.000000,52.000000
496.500000,91.000000,25.000000,52.000000
496.500000,91.000000,25.000000,52.000000
496.500000,91.000000,25.000000,52.000000
496.500000,91.000000,25.000000,52.000000
496.500000,95.000000,25.000000,52.000000
496.500000,95.000000,25.000000,52.000000
496.500000,95.000000,25.000000,52.000000
492.500000,95.000000,25.000000,52.000000
492.500000,95.000000,25.000000,52.000000
488.500000,95.000000,25.000000,52.000000
484.500000,95.000000,25.000000,52.000000
484.500000,95.000000,25.000000,52.000000
480.500000,95.000000,25.000000,52.000000
476.500000,95.000000,25.000000,52.000000
468.500000,95.000000,25.000000,52.000000
464.500000,95.000000,25.000000,52.000000
460.500000,95.000000,25.000000,52.000000
456.500000,99.000000,25.000000,52.000000
452.500000,99.000000,25.000000,52.000000
448.500000,99.000000,25.000000,52.000000
444.500000,99.000000,25.000000,52.000000
444.500000,99.000000,25.000000,52.000000
444.500000,103.000000,25.000000,52.000000
440.500000,103.000000,25.000000,52.000000
440.500000,103.000000,25.000000,52.000000
440.500000,103.000000,25.000000,52.000000
436.500000,103.000000,25.000000,52.000000
436.500000,103.000000,25.000000,52.000000
436.500000,103.000000,25.000000,52.000000
432.500000,103.000000,25.000000,52.000000
432.500000,103.000000,25.000000,52.000000
432.500000,103.000000,25.000000,52.000000
432.500000,103.000000,25.000000,52.000000
432.500000,103.000000,25.000000,52.000000
432.500000,103.000000,25.000000,52.000000
432.500000,103.000000,25.000000,52.000000
432.500000,103.000000,25.000000,52.000000
428.500000,99.000000,25.000000,52.000000
428.500000,99.000000,25.000000,52.000000
428.500000,99.000000,25.000000,52.000000
424.500000,99.000000,25.000000,52.000000
424.500000,103.000000,25.000000,52.000000
420.500000,99.000000,25.000000,52.000000
416.500000,99.000000,25.000000,52.000000
416.500000,99.000000,25.000000,52.000000
412.500000,99.000000,25.000000,52.000000
412.500000,99.000000,25.000000,52.000000
412.500000,99.000000,25.000000,52.000000
408.500000,99.000000,25.000000,52.000000
404.500000,95.000000,25.000000,52.000000
404.500000,95.000000,25.000000,52.000000
400.500000,99.000000,25.000000,52.000000
396.500000,99.000000,25.000000,52.000000
396.500000,99.000000,25.000000,52.000000
392.500000,99.000000,25.000000,52.000000
388.500000,99.000000,25.000000,52.000000
384.500000,99.000000,25.000000,52.000000
380.500000,99.000000,25.000000,52.000000
376.500000,95.000000,25.000000,52.000000
376.500000,95.000000,25.000000,52.000000
376.500000,95.000000,25.000000,52.000000
