1.16,1.1462,1.2063,0,0,0,0,0,0,0,0,0,0,0,0
1.16,1.1462,1.2063,0,0,0,0,0,0,0,0,0,0,0,0
1.16,1.1462,1.2063,0,0,0,0,0,0,0,0,0,0,0,0
1.16,1.1462,1.2063,0,0,0,0,0,0,0,0,0,0,0,0
1.16,1.1462,1.2063,0,0,0,0,0,0,0,0,0,0,0,0
1.16,1.1462,1.2063,0,0,0,0,0,0,0,0,0,0,0,0
1.16,1.1462,1.2063,0,0,0,0,0,0,0,0,0,0,0,0
1.16,1.1462,1.2063,0,0,0,0,0,0,0,0,0,0,0,0
1.16,1.1462,1.2063,0,0,0,0,0,0,0,0,0,0,0,0
1.16,1.1462,1.2063,0,0,0,0,0,0,0,0,0,0,0,0
1.16,1.1462,1.2063,0,0,0,0,0,0,0,0,0,0,0,0
1.16,1.1462,1.2063,0,0,0,0,0,0,0,0,0,0,0,0
1.16,1.1462,1.2063,0,0,0,0,0,0,0,0,0,0,0,0
1.16,1.1462,1.2063,0,0,0,0,0,0,0,0,0,0,0,0
1.16,1.1462,1.2063,0,0,0,0,0,0,0,0,0,0,0,0
1.16,1.1462,1.2063,0,0,0,0,0,0,0,0,0,0,0,0
1.16,1.1462,1.2063,0,0,0,0,0,0,0,0,0,0,0,0
1.16,1.1462,1.2063,0,0,0,0,0,0,0,0,0,0,0,0
1.16,1.1462,1.2063,0,0,0,0,0,0,0,0,0,0,0,0
1.16,1.1462,1.2063,0,0,0,0,0,0,0,0,0,0,0,0
1.16,1.1462,1.2063,0,0,0,0,0,0,0,0,0,0,0,0
1.16,1.1462,1.2063,0,0,0,0,0,0,0,0,0,0,0,0
1.16,1.1462,1.2063,0,0,0,0,0,0,0,0,0,0,0,0
1.16,1.1462,1.2063,0,0,0,0,0,0,0,0,0,0,0,0
1.16,1.1462,1.2063,0,0,0,0,0,0,0,0,0,0,0,0
1.16,1.1462,1.2063,0,0,0,0,0,0,0,0,0,0,0,0
1.16,1.1462,1.2063,0,0,0,0,0,0,0,0,0,0,0,0
1.16,1.1462,1.2063,0,0,0,0,0,0,0,0,0,0,0,0
1.16,1.1462,1.2063,0,0,0,0,0,0,0,0,0,0,0,0
1.16,1.1462,1.2063,0,0,0,0,0,0,0,0,0,0,0,0
1.16,1.1462,1.2063,0,0,0,0,0,0,0,0,0,0,0,0
1.16,1.1462,1.2063,0,0,0,0,0,0,0,0,0,0,0,0
1.16,1.1462,1.2063,0,0,0,0,0,0,0,0,0,0,0,0
1.16,1.1462,1.2063,0,0,0,0,0,0,0,0,0,0,0,0
1.16,1.1462,1.2063,0,0,0,0,0,0,0,0,0,0,0,0
1.16,1.1462,1.2063,0,0,0,0,0,0,0,0,0,0,0,0
1.16,1.1462,1.2063,0,0,0,0,0,0,0,0,0,0,0,0
1.16,1.1462,1.2063,0,0,0,0,0,0,0,0,0,0,0,0
1.16,1.1462,1.2063,0,0,0,0,0,0,0,0,0,0,0,0
1.16,1.1462,1.2063,0,0,0,0,0,0,0,0,0,0,0,0
1.16,1.1462,1.2063,0,0,0,0,0,0,0,0,0,0,0,0
1.16,1.1462,1.2063,0,0,0,0,0,0,0,0,0,0,0,0
1.16,1.1462,1.2063,0,0,0,0,0,0,0,0,0,0,0,0
1.16,1.1462,1.2063,0,0,0,0,0,0,0,0,0,0,0,0
1.16,1.1462,1.2063,0,0,0,0,0,0,0,0,0,0,0,0
1.16,1.1462,1.2063,0,0,0,0,0,0,0,0,0,0,0,0
1.16,1.1462,1.2063,0,0,0,0,0,0,0,0,0,0,0,0
1.16,1.1462,1.2063,0,0,0,0,0,0,0,0,0,0,0,0
1.16,1.1462,1.2063,0,0,0,0,0,0,0,0,0,0,0,0
1.16,1.1462,1.2063,0,0,0,0,0,0,0,0,0,0,0,0
1.16,1.1462,1.2063,0,0,0,0,0,0,0,0,0,0,0,0
1.16,1.1462,1.2063,0,0,0,0,0,0,0,0,0,0,0,0
1.16,1.1462,1.2063,0,0,0,0,0,0,0,0,0,0,0,0
1.16,1.1462,1.2063,0,0,0,0,0,0,0,0,0,0,0,0
1.16,1.1462,1.2063,0,0,0,0,0,0,0,0,0,0,0,0
1.16,1.1462,1.2063,0,0,0,0,0,0,0,0,0,0,0,0
1.16,1.1462,1.2063,0,0,0,0,0,0,0,0,0,0,0,0
1.16,1.1462,1.2063,0,0,0,0,0,0,0,0,0,0,0,0
1.16,1.1462,1.2063,0,0,0,0,0,0,0,0,0,0,0,0
1.16,1.1462,1.2063,0,0,0,0,0,0,0,0,0,0,0,0
1.16,1.1462,1.2063,0,0,0,0,0,0,0,0,0,0,0,0
1.16,1.1462,1.2063,0,0,0,0,0,0,0,0,0,0,0,0
1.16,1.1462,1.2063,0,0,0,0,0,0,0,0,0,0,0,0
1.16,1.1462,1.2063,0,0,0,0,0,0,0,0,0,0,0,0
1.16,1.1462,1.2063,0,0,0,0,0,0,0,0,0,0,0,0
1.16,1.1462,1.2063,0,0,0,0,0,0,0,0,0,0,0,0
1.16,1.1462,1.2063,0,0,0,0,0,0,0,0,0,0,0,0
1.16,1.1462,1.2063,0,0,0,0,0,0,0,0,0,0,0,0
1.16,1.1462,1.2063,0,0,0,0,0,0,0,0,0,0,0,0
1.16,1.1462,1.2063,0,0,0,0,0,0,0,0,0,0,0,0
1.16,1.1462,1.2063,0,0,0,0,0,0,0,0,0,0,0,0
1.16,1.1462,1.2063,0,0,0,0,0,0,0,0,0,0,0,0
1.16,1.1462,1.2063,0,0,0,0,0,0,0,0,0,0,0,0
1.16,1.1462,1.2063,0,0,0,0,0,0,0,0,0,0,0,0
1.16,1.1462,1.2063,0,0,0,0,0,0,0,0,0,0,0,0
1.16,1.1462,1.2063,0,0,0,0,0,0,0,0,0,0,0,0
1.16,1.1462,1.2063,0,0,0,0,0,0,0,0,0,0,0,0
1.16,1.1462,1.2063,0,0,0,0,0,0,0,0,0,0,0,0
1.16,1.1462,1.2063,0,0,0,0,0,0,0,0,0,0,0,0
1.16,1.1462,1.2063,0,0,0,0,0,0,0,0,0,0,0,0
1.16,1.1462,1.2063,0,0,0,0,0,0,0,0,0,0,0,0
1.16,1.1462,1.2063,0,0,0,0,0,0,0,0,0,0,0,0
1.16,1.1462,1.2063,0,0,0,0,0,0,0,0,0,0,0,0
1.16,1.1462,1.2063,0,0,0,0,0,0,0,0,0,0,0,0
1.16,1.1462,1.2063,0,0,0,0,0,0,0,0,0,0,0,0
1.16,1.1462,1.2063,0,0,0,0,0,0,0,0,0,0,0,0
1.16,1.1462,1.2063,0,0,0,0,0,0,0,0,0,0,0,0
1.16,1.1462,1.2063,0,0,0,0,0,0,0,0,0,0,0,0
1.16,1.1462,1.2063,0,0,0,0,0,0,0,0,0,0,0,0
1.16,1.1462,1.2063,0,0,0,0,0,0,0,0,0,0,0,0
1.16,1.1462,1.2063,0,0,0,0,0,0,0,0,0,0,0,0
1.16,1.1462,1.2063,0,0,0,0,0,0,0,0,0,0,0,0
1.16,1.1462,1.2063,0,0,0,0,0,0,0,0,0,0,0,0
1.16,1.1462,1.2063,0,0,0,0,0,0,0,0,0,0,0,0
1.16,1.1462,1.2063,0,0,0,0,0,0,0,0,0,0,0,0
1.16,1.1462,1.2063,0,0,0,0,0,0,0,0,0,0,0,0
1.16,1.1462,1.2063,0,0,0,0,0,0,0,0,0,0,0,0
1.16,1.1462,1.2063,0,0,0,0,0,0,0,0,0,0,0,0
1.16,1.1462,1.2063,0,0,0,0,0,0,0,0,0,0,0,0
1.16,1.1462,1.2063,0,0,0,0,0,0,0,0,0,0,0,0
1.16,1.1462,1.2063,0,0,0,0,0,0,0,0,0,0,0,0
1.16,1.1462,1.2063,0,0,0,0,0,0,0,0,0,0,0,0
1.16,1.1462,1.2063,0,0,0,0,0,0,0,0,0,0,0,0
1.16,1.1462,1.2063,0,0,0,0,0,0,0,0,0,0,0,0
1.16,1.1462,1.2063,0,0,0,0,0,0,0,0,0,0,0,0
1.16,1.1462,1.2063,0,0,0,0,0,0,0,0,0,0,0,0
1.16,1.1462,1.2063,0,0,0,0,0,0,0,0,0,0,0,0
1.16,1.1462,1.2063,0,0,0,0,0,0,0,0,0,0,0,0
1.16,1.1462,1.2063,0,0,0,0,0,0,0,0,0,0,0,0
1.16,1.1462,1.2063,0,0,0,0,0,0,0,0,0,0,0,0
1.16,1.1462,1.2063,0,0,0,0,0,0,0,0,0,0,0,0
1.16,1.1462,1.2063,0,0,0,0,0,0,0,0,0,0,0,0
1.16,1.1462,1.2063,0,0,0,0,0,0,0,0,0,0,0,0
1.16,1.1462,1.2063,0,0,0,0,0,0,0,0,0,0,0,0
1.16,1.1462,1.2063,0,0,0,0,0,0,0,0,0,0,0,0
1.16,1.1462,1.2063,0,0,0,0,0,0,0,0,0,0,0,0
1.16,1.1462,1.2063,0,0,0,0,0,0,0,0,0,0,0,0
1.16,1.1462,1.2063,0,0,0,0,0,0,0,0,0,0,0,0
1.16,1.1462,1.2063,0,0,0,0,0,0,0,0,0,0,0,0
1.16,1.1462,1.2063,0,0,0,0,0,0,0,0,0,0,0,0
1.16,1.1462,1.2063,0,0,0,0,0,0,0,0,0,0,0,0
1.16,1.1462,1.2063,0,0,0,0,0,0,0,0,0,0,0,0
1.16,1.1462,1.2063,0,0,0,0,0,0,0,0,0,0,0,0
1.16,1.1462,1.2063,0,0,0,0,0,0,0,0,0,0,0,0
1.16,1.1462,1.2063,0,0,0,0,0,0,0,0,0,0,0,0
1.16,1.1462,1.2063,0,0,0,0,0,0,0,0,0,0,0,0
1.16,1.1462,1.2063,0,0,0,0,0,0,0,0,0,0,0,0
1.16,1.1462,1.2063,0,0,0,0,0,0,0,0,0,0,0,0
1.16,1.1462,1.2063,0,0,0,0,0,0,0,0,0,0,0,0
1.16,1.1462,1.2063,0,0,0,0,0,0,0,0,0,0,0,0
1.16,1.1462,1.2063,0,0,0,0,0,0,0,0,0,0,0,0
1.16,1.1462,1.2063,0,0,0,0,0,0,0,0,0,0,0,0
1.16,1.1462,1.2063,0,0,0,0,0,0,0,0,0,0,0,0
1.16,1.1462,1.2063,0,0,0,0,0,0,0,0,0,0,0,0
1.16,1.1462,1.2063,0,0,0,0,0,0,0,0,0,0,0,0
1.16,1.1462,1.2063,0,0,0,0,0,0,0,0,0,0,0,0
1.16,1.1462,1.2063,0,0,0,0,0,0,0,0,0,0,0,0
1.16,1.1462,1.2063,0,0,0,0,0,0,0,0,0,0,0,0
1.16,1.1462,1.2063,0,0,0,0,0,0,0,0,0,0,0,0
1.16,1.1462,1.2063,0,0,0,0,0,0,0,0,0,0,0,0
1.16,1.1462,1.2063,0,0,0,0,0,0,0,0,0,0,0,0
1.16,1.1462,1.2063,0,0,0,0,0,0,0,0,0,0,0,0
1.16,1.1462,1.2063,0,0,0,0,0,0,0,0,0,0,0,0
1.16,1.1462,1.2063,0,0,0,0,0,0,0,0,0,0,0,0
1.16,1.1462,1.2063,0,0,0,0,0,0,0,0,0,0,0,0
1.16,1.1462,1.2063,0,0,0,0,0,0,0,0,0,0,0,0
1.16,1.1462,1.2063,0,0,0,0,0,0,0,0,0,0,0,0
1.16,1.1462,1.2063,0,0,0,0,0,0,0,0,0,0,0,0
1.16,1.1462,1.2063,0,0,0,0,0,0,0,0,0,0,0,0
1.16,1.1462,1.2063,0,0,0,0,0,0,0,0,0,0,0,0
1.16,1.1462,1.2063,0,0,0,0,0,0,0,0,0,0,0,0
1.16,1.1462,1.2063,0,0,0,0,0,0,0,0,0,0,0,0
1.16,1.1462,1.2063,0,0,0,0,0,0,0,0,0,0,0,0
1.16,1.1462,1.2063,0,0,0,0,0,0,0,0,0,0,0,0
1.16,1.1462,1.2063,0,0,0,0,0,0,0,0,0,0,0,0
1.16,1.1462,1.2063,0,0,0,0,0,0,0,0,0,0,0,0
1.16,1.1462,1.2063,0,0,0,0,0,0,0,0,0,0,0,0
1.16,1.1462,1.2063,0,0,0,0,0,0,0,0,0,0,0,0
1.16,1.1462,1.2063,0,0,0,0,0,0,0,0,0,0,0,0
1.16,1.1462,1.2063,0,0,0,0,0,0,0,0,0,0,0,0
1.16,1.1462,1.2063,0,0,0,0,0,0,0,0,0,0,0,0
1.16,1.1462,1.2063,0,0,0,0,0,0,0,0,0,0,0,0
1.16,1.1462,1.2063,0,0,0,0,0,0,0,0,0,0,0,0
1.16,1.1462,1.2063,0,0,0,0,0,0,0,0,0,0,0,0
1.16,1.1462,1.2063,0,0,0,0,0,0,0,0,0,0,0,0
1.16,1.1462,1.2063,0,0,0,0,0,0,0,0,0,0,0,0
1.16,1.1462,1.2063,0,0,0,0,0,0,0,0,0,0,0,0
1.16,1.1462,1.2063,0,0,0,0,0,0,0,0,0,0,0,0
1.16,1.1462,1.2063,0,0,0,0,0,0,0,0,0,0,0,0
1.16,1.1462,1.2063,0,0,0,0,0,0,0,0,0,0,0,0
1.16,1.1462,1.2063,0,0,0,0,0,0,0,0,0,0,0,0
1.16,1.1462,1.2063,0,0,0,0,0,0,0,0,0,0,0,0
1.16,1.1462,1.2063,0,0,0,0,0,0,0,0,0,0,0,0
1.16,1.1462,1.2063,0,0,0,0,0,0,0,0,0,0,0,0
1.16,1.1462,1.2063,0,0,0,0,0,0,0,0,0,0,0,0
1.16,1.1462,1.2063,0,0,0,0,0,0,0,0,0,0,0,0
1.16,1.1462,1.2063,0,0,0,0,0,0,0,0,0,0,0,0
1.16,1.1462,1.2063,0,0,0,0,0,0,0,0,0,0,0,0
1.16,1.1462,1.2063,0,0,0,0,0,0,0,0,0,0,0,0
1.16,1.1462,1.2063,0,0,0,0,0,0,0,0,0,0,0,0
1.16,1.1462,1.2063,0,0,0,0,0,0,0,0,0,0,0,0
1.16,1.1462,1.2063,0,0,0,0,0,0,0,0,0,0,0,0
1.16,1.1462,1.2063,0,0,0,0,0,0,0,0,0,0,0,0
1.16,1.1462,1.2063,0,0,0,0,0,0,0,0,0,0,0,0
1.16,1.1462,1.2063,0,0,0,0,0,0,0,0,0,0,0,0
1.16,1.1462,1.2063,0,0,0,0,0,0,0,0,0,0,0,0
1.16,1.1462,1.2063,0,0,0,0,0,0,0,0,0,0,0,0
1.16,1.1462,1.2063,0,0,0,0,0,0,0,0,0,0,0,0
1.16,1.1462,1.2063,0,0,0,0,0,0,0,0,0,0,0,0
1.16,1.1462,1.2063,0,0,0,0,0,0,0,0,0,0,0,0
1.16,1.1462,1.2063,0,0,0,0,0,0,0,0,0,0,0,0
1.16,1.1462,1.2063,0,0,0,0,0,0,0,0,0,0,0,0
1.16,1.1462,1.2063,0,0,0,0,0,0,0,0,0,0,0,0
1.16,1.1462,1.2063,0,0,0,0,0,0,0,0,0,0,0,0
1.16,1.1462,1.2063,0,0,0,0,0,0,0,0,0,0,0,0
1.16,1.1462,1.2063,0,0,0,0,0,0,0,0,0,0,0,0
1.16,1.1462,1.2063,0,0,0,0,0,0,0,0,0,0,0,0
1.16,1.1462,1.2063,0,0,0,0,0,0,0,0,0,0,0,0
1.16,1.1462,1.2063,0,0,0,0,0,0,0,0,0,0,0,0
1.16,1.1462,1.2063,0,0,0,0,0,0,0,0,0,0,0,0
1.16,1.1462,1.2063,0,0,0,0,0,0,0,0,0,0,0,0
1.16,1.1462,1.2063,0,0,0,0,0,0,0,0,0,0,0,0
1.16,1.1462,1.2063,0,0,0,0,0,0,0,0,0,0,0,0
1.16,1.1462,1.2063,0,0,0,0,0,0,0,0,0,0,0,0
1.16,1.1462,1.2063,0,0,0,0,0,0,0,0,0,0,0,0
1.16,1.1462,1.2063,0,0,0,0,0,0,0,0,0,0,0,0
1.16,1.1462,1.2063,0,0,0,0,0,0,0,0,0,0,0,0
1.16,1.1462,1.2063,0,0,0,0,0,0,0,0,0,0,0,0
1.16,1.1462,1.2063,0,0,0,0,0,0,0,0,0,0,0,0
1.16,1.1462,1.2063,0,0,0,0,0,0,0,0,0,0,0,0
1.16,1.1462,1.2063,0,0,0,0,0,0,0,0,0,0,0,0
1.16,1.1462,1.2063,0,0,0,0,0,0,0,0,0,0,0,0
1.16,1.1462,1.2063,0,0,0,0,0,0,0,0,0,0,0,0
1.16,1.1462,1.2063,0,0,0,0,0,0,0,0,0,0,0,0
1.16,1.1462,1.2063,0,0,0,0,0,0,0,0,0,0,0,0
1.16,1.1462,1.2063,0,0,0,0,0,0,0,0,0,0,0,0
1.16,1.1462,1.2063,0,0,0,0,0,0,0,0,0,0,0,0
1.16,1.1462,1.2063,0,0,0,0,0,0,0,0,0,0,0,0
1.16,1.1462,1.2063,0,0,0,0,0,0,0,0,0,0,0,0
1.16,1.1462,1.2063,0,0,0,0,0,0,0,0,0,0,0,0
1.16,1.1462,1.2063,0,0,0,0,0,0,0,0,0,0,0,0
1.16,1.1462,1.2063,0,0,0,0,0,0,0,0,0,0,0,0
1.16,1.1462,1.2063,0,0,0,0,0,0,0,0,0,0,0,0
1.16,1.1462,1.2063,0,0,0,0,0,0,0,0,0,0,0,0
1.16,1.1462,1.2063,0,0,0,0,0,0,0,0,0,0,0,0
1.16,1.1462,1.2063,0,0,0,0,0,0,0,0,0,0,0,0
1.16,1.1462,1.2063,0,0,0,0,0,0,0,0,0,0,0,0
1.16,1.1462,1.2063,0,0,0,0,0,0,0,0,0,0,0,0
1.16,1.1462,1.2063,0,0,0,0,0,0,0,0,0,0,0,0
1.16,1.1462,1.2063,0,0,0,0,0,0,0,0,0,0,0,0
1.16,1.1462,1.2063,0,0,0,0,0,0,0,0,0,0,0,0
1.16,1.1462,1.2063,0,0,0,0,0,0,0,0,0,0,0,0
1.16,1.1462,1.2063,0,0,0,0,0,0,0,0,0,0,0,0
1.16,1.1462,1.2063,0,0,0,0,0,0,0,0,0,0,0,0
1.16,1.1462,1.2063,0,0,0,0,0,0,0,0,0,0,0,0
1.16,1.1462,1.2063,0,0,0,0,0,0,0,0,0,0,0,0
1.16,1.1462,1.2063,0,0,0,0,0,0,0,0,0,0,0,0
1.16,1.1462,1.2063,0,0,0,0,0,0,0,0,0,0,0,0
1.16,1.1462,1.2063,0,0,0,0,0,0,0,0,0,0,0,0
1.16,1.1462,1.2063,0,0,0,0,0,0,0,0,0,0,0,0
1.16,1.1462,1.2063,0,0,0,0,0,0,0,0,0,0,0,0
1.16,1.1462,1.2063,0,0,0,0,0,0,0,0,0,0,0,0
1.16,1.1462,1.2063,0,0,0,0,0,0,0,0,0,0,0,0
1.16,1.1462,1.2063,0,0,0,0,0,0,0,0,0,0,0,0
1.16,1.1462,1.2063,0,0,0,0,0,0,0,0,0,0,0,0
1.16,1.1462,1.2063,0,0,0,0,0,0,0,0,0,0,0,0
1.16,1.1462,1.2063,0,0,0,0,0,0,0,0,0,0,0,0
1.16,1.1462,1.2063,0,0,0,0,0,0,0,0,0,0,0,0
1.16,1.1462,1.2063,0,0,0,0,0,0,0,0,0,0,0,0
1.16,1.1462,1.2063,0,0,0,0,0,0,0,0,0,0,0,0
1.16,1.1462,1.2063,0,0,0,0,0,0,0,0,0,0,0,0
1.16,1.1462,1.2063,0,0,0,0,0,0,0,0,0,0,0,0
1.16,1.1462,1.2063,0,0,0,0,0,0,0,0,0,0,0,0
1.16,1.1462,1.2063,0,0,0,0,0,0,0,0,0,0,0,0
1.16,1.1462,1.2063,0,0,0,0,0,0,0,0,0,0,0,0
1.16,1.1462,1.2063,0,0,0,0,0,0,0,0,0,0,0,0
1.16,1.1462,1.2063,0,0,0,0,0,0,0,0,0,0,0,0
1.16,1.1462,1.2063,0,0,0,0,0,0,0,0,0,0,0,0
1.16,1.1462,1.2063,0,0,0,0,0,0,0,0,0,0,0,0
1.16,1.1462,1.2063,0,0,0,0,0,0,0,0,0,0,0,0
1.16,1.1462,1.2063,0,0,0,0,0,0,0,0,0,0,0,0
1.16,1.1462,1.2063,0,0,0,0,0,0,0,0,0,0,0,0
1.16,1.1462,1.2063,0,0,0,0,0,0,0,0,0,0,0,0
1.16,1.1462,1.2063,0,0,0,0,0,0,0,0,0,0,0,0
1.16,1.1462,1.2063,0,0,0,0,0,0,0,0,0,0,0,0
1.16,1.1462,1.2063,0,0,0,0,0,0,0,0,0,0,0,0
1.16,1.1462,1.2063,0,0,0,0,0,0,0,0,0,0,0,0
1.16,1.1462,1.2063,0,0,0,0,0,0,0,0,0,0,0,0
1.16,1.1462,1.2063,0,0,0,0,0,0,0,0,0,0,0,0
1.16,1.1462,1.2063,0,0,0,0,0,0,0,0,0,0,0,0
1.16,1.1462,1.2063,0,0,0,0,0,0,0,0,0,0,0,0
1.16,1.1462,1.2063,0,0,0,0,0,0,0,0,0,0,0,0
1.16,1.1462,1.2063,0,0,0,0,0,0,0,0,0,0,0,0
1.16,1.1462,1.2063,0,0,0,0,0,0,0,0,0,0,0,0
1.16,1.1462,1.2063,0,0,0,0,0,0,0,0,0,0,0,0
1.16,1.1462,1.2063,0,0,0,0,0,0,0,0,0,0,0,0
1.16,1.1462,1.2063,0,0,0,0,0,0,0,0,0,0,0,0
1.16,1.1462,1.2063,0,0,0,0,0,0,0,0,0,0,0,0
1.16,1.1462,1.2063,0,0,0,0,0,0,0,0,0,0,0,0
1.16,1.1462,1.2063,0,0,0,0,0,0,0,0,0,0,0,0
1.16,1.1462,1.2063,0,0,0,0,0,0,0,0,0,0,0,0
1.16,1.1462,1.2063,0,0,0,0,0,0,0,0,0,0,0,0
1.16,1.1462,1.2063,0,0,0,0,0,0,0,0,0,0,0,0
1.16,1.1462,1.2063,0,0,0,0,0,0,0,0,0,0,0,0
1.16,1.1462,1.2063,0,0,0,0,0,0,0,0,0,0,0,0
1.16,1.1462,1.2063,0,0,0,0,0,0,0,0,0,0,0,0
1.16,1.1462,1.2063,0,0,0,0,0,0,0,0,0,0,0,0
1.16,1.1462,1.2063,0,0,0,0,0,0,0,0,0,0,0,0
1.16,1.1462,1.2063,0,0,0,0,0,0,0,0,0,0,0,0
1.16,1.1462,1.2063,0,0,0,0,0,0,0,0,0,0,0,0
1.16,1.1462,1.2063,0,0,0,0,0,0,0,0,0,0,0,0
1.16,1.1462,1.2063,0,0,0,0,0,0,0,0,0,0,0,0
1.16,1.1462,1.2063,0,0,0,0,0,0,0,0,0,0,0,0
1.16,1.1462,1.2063,0,0,0,0,0,0,0,0,0,0,0,0
1.16,1.1462,1.2063,0,0,0,0,0,0,0,0,0,0,0,0
1.16,1.1462,1.2063,0,0,0,0,0,0,0,0,0,0,0,0
1.16,1.1462,1.2063,0,0,0,0,0,0,0,0,0,0,0,0
1.16,1.1462,1.2063,0,0,0,0,0,0,0,0,0,0,0,0
1.16,1.1462,1.2063,0,0,0,0,0,0,0,0,0,0,0,0
1.16,1.1462,1.2063,0,0,0,0,0,0,0,0,0,0,0,0
1.16,1.1462,1.2063,0,0,0,0,0,0,0,0,0,0,0,0
1.16,1.1462,1.2063,0,0,0,0,0,0,0,0,0,0,0,0
1.16,1.1462,1.2063,0,0,0,0,0,0,0,0,0,0,0,0
1.16,1.1462,1.2063,0,0,0,0,0,0,0,0,0,0,0,0
1.16,1.1462,1.2063,0,0,0,0,0,0,0,0,0,0,0,0
1.16,1.1462,1.2063,0,0,0,0,0,0,0,0,0,0,0,0
1.16,1.1462,1.2063,0,0,0,0,0,0,0,0,0,0,0,0
1.16,1.1462,1.2063,0,0,0,0,0,0,0,0,0,0,0,0
1.16,1.1462,1.2063,0,0,0,0,0,0,0,0,0,0,0,0
1.16,1.1462,1.2063,0,0,0,0,0,0,0,0,0,0,0,0
1.16,1.1462,1.2063,0,0,0,0,0,0,0,0,0,0,0,0
1.16,1.1462,1.2063,0,0,0,0,0,0,0,0,0,0,0,0
1.16,1.1462,1.2063,0,0,0,0,0,0,0,0,0,0,0,0
1.16,1.1462,1.2063,0,0,0,0,0,0,0,0,0,0,0,0
1.16,1.1462,1.2063,0,0,0,0,0,0,0,0,0,0,0,0
1.16,1.1462,1.2063,0,0,0,0,0,0,0,0,0,0,0,0
1.16,1.1462,1.2063,0,0,0,0,0,0,0,0,0,0,0,0
1.16,1.1462,1.2063,0,0,0,0,0,0,0,0,0,0,0,0
1.16,1.1462,1.2063,0,0,0,0,0,0,0,0,0,0,0,0
1.16,1.1462,1.2063,0,0,0,0,0,0,0,0,0,0,0,0
1.16,1.1462,1.2063,0,0,0,0,0,0,0,0,0,0,0,0
1.16,1.1462,1.2063,0,0,0,0,0,0,0,0,0,0,0,0
1.16,1.1462,1.2063,0,0,0,0,0,0,0,0,0,0,0,0
1.16,1.1462,1.2063,0,0,0,0,0,0,0,0,0,0,0,0
1.16,1.1462,1.2063,0,0,0,0,0,0,0,0,0,0,0,0
1.16,1.1462,1.2063,0,0,0,0,0,0,0,0,0,0,0,0
1.16,1.1462,1.2063,0,0,0,0,0,0,0,0,0,0,0,0
1.16,1.1462,1.2063,0,0,0,0,0,0,0,0,0,0,0,0
1.16,1.1462,1.2063,0,0,0,0,0,0,0,0,0,0,0,0
1.16,1.1462,1.2063,0,0,0,0,0,0,0,0,0,0,0,0
1.16,1.1462,1.2063,0,0,0,0,0,0,0,0,0,0,0,0
1.16,1.1462,1.2063,0,0,0,0,0,0,0,0,0,0,0,0
1.16,1.1462,1.2063,0,0,0,0,0,0,0,0,0,0,0,0
1.16,1.1462,1.2063,0,0,0,0,0,0,0,0,0,0,0,0
1.16,1.1462,1.2063,0,0,0,0,0,0,0,0,0,0,0,0
1.16,1.1462,1.2063,0,0,0,0,0,0,0,0,0,0,0,0
1.16,1.1462,1.2063,0,0,0,0,0,0,0,0,0,0,0,0
1.16,1.1462,1.2063,0,0,0,0,0,0,0,0,0,0,0,0
1.16,1.1462,1.2063,0,0,0,0,0,0,0,0,0,0,0,0
1.16,1.1462,1.2063,0,0,0,0,0,0,0,0,0,0,0,0
1.16,1.1462,1.2063,0,0,0,0,0,0,0,0,0,0,0,0
1.16,1.1462,1.2063,0,0,0,0,0,0,0,0,0,0,0,0
1.16,1.1462,1.2063,0,0,0,0,0,0,0,0,0,0,0,0
1.16,1.1462,1.2063,0,0,0,0,0,0,0,0,0,0,0,0
1.16,1.1462,1.2063,0,0,0,0,0,0,0,0,0,0,0,0
1.16,1.1462,1.2063,0,0,0,0,0,0,0,0,0,0,0,0
1.16,1.1462,1.2063,0,0,0,0,0,0,0,0,0,0,0,0
1.16,1.1462,1.2063,0,0,0,0,0,0,0,0,0,0,0,0
1.16,1.1462,1.2063,0,0,0,0,0,0,0,0,0,0,0,0
1.16,1.1462,1.2063,0,0,0,0,0,0,0,0,0,0,0,0
