1
328.000000,307.500000,22.000000,31.000000
328.000000,303.500000,22.000000,31.000000
328.000000,303.500000,22.000000,31.000000
328.000000,307.500000,22.000000,31.000000
324.000000,311.500000,22.000000,31.000000
324.000000,307.500000,22.000000,31.000000
324.000000,303.500000,22.000000,31.000000
324.000000,303.500000,22.000000,31.000000
320.000000,303.500000,22.000000,31.000000
320.000000,307.500000,22.000000,31.000000
320.000000,303.500000,22.000000,31.000000
320.000000,299.500000,22.000000,31.000000
324.000000,303.500000,22.000000,31.000000
324.000000,307.500000,22.000000,31.000000
324.000000,307.500000,22.000000,31.000000
324.000000,307.500000,22.000000,31.000000
328.000000,307.500000,22.000000,31.000000
328.000000,307.500000,22.000000,31.000000
328.000000,307.500000,22.000000,31.000000
328.000000,311.500000,22.000000,31.000000
328.000000,311.500000,22.000000,31.000000
332.000000,311.500000,22.000000,31.000000
332.000000,311.500000,22.000000,31.000000
328.000000,311.500000,22.000000,31.000000
328.000000,311.500000,22.000000,31.000000
328.000000,311.500000,22.000000,31.000000
324.000000,311.500000,22.000000,31.000000
324.000000,311.500000,22.000000,31.000000
324.000000,311.500000,22.000000,31.000000
324.000000,311.500000,22.000000,31.000000
324.000000,311.500000,22.000000,31.000000
320.000000,311.500000,22.000000,31.000000
320.000000,311.500000,22.000000,31.000000
324.000000,311.500000,22.000000,31.000000
324.000000,311.500000,22.000000,31.000000
324.000000,311.500000,22.000000,31.000000
324.000000,315.500000,22.000000,31.000000
324.000000,315.500000,22.000000,31.000000
328.000000,311.500000,22.000000,31.000000
328.000000,311.500000,22.000000,31.000000
328.000000,311.500000,22.000000,31.000000
328.000000,307.500000,22.000000,31.000000
324.000000,307.500000,22.000000,31.000000
324.000000,311.500000,22.000000,31.000000
324.000000,315.500000,22.000000,31.000000
324.000000,315.500000,22.000000,31.000000
324.000000,315.500000,22.000000,31.000000
320.000000,315.500000,22.000000,31.000000
320.000000,311.500000,22.000000,31.000000
320.000000,307.500000,22.000000,31.000000
324.000000,303.500000,22.000000,31.000000
324.000000,303.500000,22.000000,31.000000
324.000000,303.500000,22.000000,31.000000
324.000000,303.500000,22.000000,31.000000
328.000000,303.500000,22.000000,31.000000
328.000000,303.500000,22.000000,31.000000
332.000000,303.500000,22.000000,31.000000
336.000000,307.500000,22.000000,31.000000
336.000000,303.500000,22.000000,31.000000
336.000000,299.500000,22.000000,31.000000
336.000000,299.500000,22.000000,31.000000
336.000000,299.500000,22.000000,31.000000
336.000000,291.500000,22.000000,31.000000
336.000000,287.500000,22.000000,31.000000
336.000000,287.500000,22.000000,31.000000
336.000000,283.500000,22.000000,31.000000
336.000000,283.500000,22.000000,31.000000
336.000000,295.500000,22.000000,31.000000
336.000000,295.500000,22.000000,31.000000
336.000000,291.500000,22.000000,31.000000
332.000000,291.500000,22.000000,31.000000
332.000000,291.500000,22.000000,31.000000
328.000000,291.500000,22.000000,31.000000
328.000000,291.500000,22.000000,31.000000
324.000000,283.500000,22.000000,31.000000
324.000000,283.500000,22.000000,31.000000
320.000000,283.500000,22.000000,31.000000
320.000000,287.500000,22.000000,31.000000
320.000000,283.500000,22.000000,31.000000
320.000000,283.500000,22.000000,31.000000
320.000000,283.500000,22.000000,31.000000
324.000000,279.500000,22.000000,31.000000
324.000000,279.500000,22.000000,31.000000
320.000000,279.500000,22.000000,31.000000
320.000000,279.500000,22.000000,31.000000
316.000000,283.500000,22.000000,31.000000
316.000000,283.500000,22.000000,31.000000
316.000000,287.500000,22.000000,31.000000
312.000000,287.500000,22.000000,31.000000
312.000000,287.500000,22.000000,31.000000
312.000000,283.500000,22.000000,31.000000
316.000000,279.500000,22.000000,31.000000
316.000000,279.500000,22.000000,31.000000
320.000000,279.500000,22.000000,31.000000
320.000000,283.500000,22.000000,31.000000
320.000000,283.500000,22.000000,31.000000
320.000000,287.500000,22.000000,31.000000
324.000000,287.500000,22.000000,31.000000
324.000000,287.500000,22.000000,31.000000
324.000000,283.500000,22.000000,31.000000
324.000000,287.500000,22.000000,31.000000
324.000000,291.500000,22.000000,31.000000
324.000000,291.500000,22.000000,31.000000
328.000000,287.500000,22.000000,31.000000
328.000000,287.500000,22.000000,31.000000
324.000000,283.500000,22.000000,31.000000
324.000000,283.500000,22.000000,31.000000
324.000000,279.500000,22.000000,31.000000
324.000000,279.500000,22.000000,31.000000
328.000000,283.500000,22.000000,31.000000
328.000000,287.500000,22.000000,31.000000
328.000000,287.500000,22.000000,31.000000
328.000000,287.500000,22.000000,31.000000
328.000000,287.500000,22.000000,31.000000
328.000000,287.500000,22.000000,31.000000
324.000000,283.500000,22.000000,31.000000
324.000000,283.500000,22.000000,31.000000
324.000000,283.500000,22.000000,31.000000
324.000000,287.500000,22.000000,31.000000
320.000000,287.500000,22.000000,31.000000
320.000000,287.500000,22.000000,31.000000
320.000000,279.500000,22.000000,31.000000
320.000000,271.500000,22.000000,31.000000
320.000000,275.500000,22.000000,31.000000
320.000000,279.500000,22.000000,31.000000
320.000000,283.500000,22.000000,31.000000
320.000000,283.500000,22.000000,31.000000
320.000000,283.500000,22.000000,31.000000
324.000000,283.500000,22.000000,31.000000
324.000000,283.500000,22.000000,31.000000
324.000000,283.500000,22.000000,31.000000
324.000000,283.500000,22.000000,31.000000
324.000000,283.500000,22.000000,31.000000
324.000000,283.500000,22.000000,31.000000
324.000000,283.500000,22.000000,31.000000
324.000000,283.500000,22.000000,31.000000
324.000000,283.500000,22.000000,31.000000
324.000000,283.500000,22.000000,31.000000
324.000000,283.500000,22.000000,31.000000
324.000000,283.500000,22.000000,31.000000
320.000000,283.500000,22.000000,31.000000
320.000000,283.500000,22.000000,31.000000
320.000000,283.500000,22.000000,31.000000
320.000000,283.500000,22.000000,31.000000
320.000000,283.500000,22.000000,31.000000
320.000000,283.500000,22.000000,31.000000
324.000000,283.500000,22.000000,31.000000
324.000000,283.500000,22.000000,31.000000
324.000000,283.500000,22.000000,31.000000
324.000000,283.500000,22.000000,31.000000
324.000000,283.500000,22.000000,31.000000
324.000000,283.500000,22.000000,31.000000
324.000000,283.500000,22.000000,31.000000
320.000000,283.500000,22.000000,31.000000
320.000000,283.500000,22.000000,31.000000
320.000000,283.500000,22.000000,31.000000
320.000000,283.500000,22.000000,31.000000
320.000000,279.500000,22.000000,31.000000
320.000000,279.500000,22.000000,31.000000
320.000000,279.500000,22.000000,31.000000
320.000000,279.500000,22.000000,31.000000
320.000000,275.500000,22.000000,31.000000
320.000000,283.500000,22.000000,31.000000
320.000000,283.500000,22.000000,31.000000
316.000000,287.500000,22.000000,31.000000
316.000000,287.500000,22.000000,31.000000
316.000000,287.500000,22.000000,31.000000
320.000000,287.500000,22.000000,31.000000
320.000000,287.500000,22.000000,31.000000
320.000000,283.500000,22.000000,31.000000
320.000000,283.500000,22.000000,31.000000
320.000000,283.500000,22.000000,31.000000
316.000000,283.500000,22.000000,31.000000
316.000000,283.500000,22.000000,31.000000
316.000000,283.500000,22.000000,31.000000
316.000000,287.500000,22.000000,31.000000
320.000000,287.500000,22.000000,31.000000
320.000000,283.500000,22.000000,31.000000
320.000000,283.500000,22.000000,31.000000
320.000000,283.500000,22.000000,31.000000
320.000000,283.500000,22.000000,31.000000
324.000000,287.500000,22.000000,31.000000
324.000000,283.500000,22.000000,31.000000
324.000000,283.500000,22.000000,31.000000
324.000000,283.500000,22.000000,31.000000
324.000000,283.500000,22.000000,31.000000
324.000000,283.500000,22.000000,31.000000
324.000000,283.500000,22.000000,31.000000
324.000000,283.500000,22.000000,31.000000
328.000000,287.500000,22.000000,31.000000
324.000000,287.500000,22.000000,31.000000
324.000000,287.500000,22.000000,31.000000
324.000000,291.500000,22.000000,31.000000
324.000000,291.500000,22.000000,31.000000
324.000000,291.500000,22.000000,31.000000
324.000000,287.500000,22.000000,31.000000
324.000000,287.500000,22.000000,31.000000
324.000000,287.500000,22.000000,31.000000
324.000000,287.500000,22.000000,31.000000
320.000000,287.500000,22.000000,31.000000
320.000000,291.500000,22.000000,31.000000
320.000000,299.500000,22.000000,31.000000
320.000000,295.500000,22.000000,31.000000
320.000000,291.500000,22.000000,31.000000
320.000000,291.500000,22.000000,31.000000
324.000000,299.500000,22.000000,31.000000
324.000000,299.500000,22.000000,31.000000
324.000000,299.500000,22.000000,31.000000
324.000000,295.500000,22.000000,31.000000
324.000000,295.500000,22.000000,31.000000
324.000000,295.500000,22.000000,31.000000
328.000000,295.500000,22.000000,31.000000
328.000000,295.500000,22.000000,31.000000
328.000000,295.500000,22.000000,31.000000
324.000000,299.500000,22.000000,31.000000
324.000000,303.500000,22.000000,31.000000
324.000000,299.500000,22.000000,31.000000
324.000000,299.500000,22.000000,31.000000
324.000000,299.500000,22.000000,31.000000
324.000000,299.500000,22.000000,31.000000
324.000000,299.500000,22.000000,31.000000
328.000000,299.500000,22.000000,31.000000
328.000000,299.500000,22.000000,31.000000
328.000000,299.500000,22.000000,31.000000
328.000000,299.500000,22.000000,31.000000
328.000000,299.500000,22.000000,31.000000
328.000000,299.500000,22.000000,31.000000
328.000000,299.500000,22.000000,31.000000
328.000000,299.500000,22.000000,31.000000
328.000000,299.500000,22.000000,31.000000
328.000000,299.500000,22.000000,31.000000
328.000000,299.500000,22.000000,31.000000
328.000000,303.500000,22.000000,31.000000
328.000000,303.500000,22.000000,31.000000
324.000000,303.500000,22.000000,31.000000
324.000000,303.500000,22.000000,31.000000
324.000000,307.500000,22.000000,31.000000
324.000000,307.500000,22.000000,31.000000
324.000000,303.500000,22.000000,31.000000
324.000000,303.500000,22.000000,31.000000
324.000000,303.500000,22.000000,31.000000
324.000000,303.500000,22.000000,31.000000
324.000000,307.500000,22.000000,31.000000
324.000000,307.500000,22.000000,31.000000
324.000000,307.500000,22.000000,31.000000
320.000000,307.500000,22.000000,31.000000
320.000000,311.500000,22.000000,31.000000
320.000000,311.500000,22.000000,31.000000
320.000000,307.500000,22.000000,31.000000
320.000000,307.500000,22.000000,31.000000
320.000000,307.500000,22.000000,31.000000
320.000000,303.500000,22.000000,31.000000
320.000000,303.500000,22.000000,31.000000
320.000000,303.500000,22.000000,31.000000
320.000000,307.500000,22.000000,31.000000
320.000000,307.500000,22.000000,31.000000
320.000000,307.500000,22.000000,31.000000
320.000000,307.500000,22.000000,31.000000
320.000000,307.500000,22.000000,31.000000
320.000000,307.500000,22.000000,31.000000
320.000000,307.500000,22.000000,31.000000
320.000000,307.500000,22.000000,31.000000
320.000000,307.500000,22.000000,31.000000
320.000000,307.500000,22.000000,31.000000
320.000000,307.500000,22.000000,31.000000
324.000000,307.500000,22.000000,31.000000
324.000000,311.500000,22.000000,31.000000
324.000000,307.500000,22.000000,31.000000
324.000000,303.500000,22.000000,31.000000
324.000000,303.500000,22.000000,31.000000
324.000000,307.500000,22.000000,31.000000
320.000000,307.500000,22.000000,31.000000
320.000000,307.500000,22.000000,31.000000
320.000000,307.500000,22.000000,31.000000
320.000000,307.500000,22.000000,31.000000
320.000000,307.500000,22.000000,31.000000
320.000000,307.500000,22.000000,31.000000
320.000000,307.500000,22.000000,31.000000
320.000000,307.500000,22.000000,31.000000
316.000000,311.500000,22.000000,31.000000
316.000000,311.500000,22.000000,31.000000
316.000000,311.500000,22.000000,31.000000
320.000000,311.500000,22.000000,31.000000
320.000000,311.500000,22.000000,31.000000
320.000000,311.500000,22.000000,31.000000
320.000000,311.500000,22.000000,31.000000
320.000000,311.500000,22.000000,31.000000
324.000000,315.500000,22.000000,31.000000
324.000000,319.500000,22.000000,31.000000
324.000000,319.500000,22.000000,31.000000
324.000000,311.500000,22.000000,31.000000
324.000000,311.500000,22.000000,31.000000
324.000000,311.500000,22.000000,31.000000
328.000000,311.500000,22.000000,31.000000
328.000000,311.500000,22.000000,31.000000
324.000000,311.500000,22.000000,31.000000
324.000000,311.500000,22.000000,31.000000
324.000000,311.500000,22.000000,31.000000
324.000000,311.500000,22.000000,31.000000
324.000000,315.500000,22.000000,31.000000
324.000000,311.500000,22.000000,31.000000
324.000000,315.500000,22.000000,31.000000
320.000000,315.500000,22.000000,31.000000
320.000000,315.500000,22.000000,31.000000
320.000000,315.500000,22.000000,31.000000
324.000000,315.500000,22.000000,31.000000
324.000000,315.500000,22.000000,31.000000
320.000000,311.500000,22.000000,31.000000
324.000000,315.500000,22.000000,31.000000
324.000000,323.500000,22.000000,31.000000
320.000000,323.500000,22.000000,31.000000
