2.4233,2.2827,2.2536,0,0,0,0,0,0,0,0,0,0,0,0
2.4233,2.2827,2.2536,0,0,0,0,0,0,0,0,0,0,0,0
2.4233,2.2827,2.2536,0,0,0,0,0,0,0,0,0,0,0,0
2.4233,2.2827,2.2536,0,0,0,0,0,0,0,0,0,0,0,0
2.4233,2.2827,2.2536,0,0,0,0,0,0,0,0,0,0,0,0
2.4233,2.2827,2.2536,0,0,0,0,0,0,0,0,0,0,0,0
2.4233,2.2827,2.2536,0,0,0,0,0,0,0,0,0,0,0,0
2.4233,2.2827,2.2536,0,0,0,0,0,0,0,0,0,0,0,0
2.4233,2.2827,2.2536,0,0,0,0,0,0,0,0,0,0,0,0
2.4233,2.2827,2.2536,0,0,0,0,0,0,0,0,0,0,0,0
2.4233,2.2827,2.2536,0,0,0,0,0,0,0,0,0,0,0,0
2.4233,2.2827,2.2536,0,0,0,0,0,0,0,0,0,0,0,0
2.4233,2.2827,2.2536,0,0,0,0,0,0,0,0,0,0,0,0
2.4233,2.2827,2.2536,0,0,0,0,0,0,0,0,0,0,0,0
2.4233,2.2827,2.2536,0,0,0,0,0,0,0,0,0,0,0,0
2.4233,2.2827,2.2536,0,0,0,0,0,0,0,0,0,0,0,0
2.4233,2.2827,2.2536,0,0,0,0,0,0,0,0,0,0,0,0
2.4233,2.2827,2.2536,0,0,0,0,0,0,0,0,0,0,0,0
2.4233,2.2827,2.2536,0,0,0,0,0,0,0,0,0,0,0,0
2.4233,2.2827,2.2536,0,0,0,0,0,0,0,0,0,0,0,0
2.4233,2.2827,2.2536,0,0,0,0,0,0,0,0,0,0,0,0
2.4233,2.2827,2.2536,0,0,0,0,0,0,0,0,0,0,0,0
2.4233,2.2827,2.2536,0,0,0,0,0,0,0,0,0,0,0,0
2.4233,2.2827,2.2536,0,0,0,0,0,0,0,0,0,0,0,0
2.4233,2.2827,2.2536,0,0,0,0,0,0,0,0,0,0,0,0
2.4233,2.2827,2.2536,0,0,0,0,0,0,0,0,0,0,0,0
2.4233,2.2827,2.2536,0,0,0,0,0,0,0,0,0,0,0,0
2.4233,2.2827,2.2536,0,0,0,0,0,0,0,0,0,0,0,0
2.4233,2.2827,2.2536,0,0,0,0,0,0,0,0,0,0,0,0
2.4233,2.2827,2.2536,0,0,0,0,0,0,0,0,0,0,0,0
2.4233,2.2827,2.2536,0,0,0,0,0,0,0,0,0,0,0,0
2.4233,2.2827,2.2536,0,0,0,0,0,0,0,0,0,0,0,0
2.4233,2.2827,2.2536,0,0,0,0,0,0,0,0,0,0,0,0
2.4233,2.2827,2.2536,0,0,0,0,0,0,0,0,0,0,0,0
2.4233,2.2827,2.2536,0,0,0,0,0,0,0,0,0,0,0,0
2.4233,2.2827,2.2536,0,0,0,0,0,0,0,0,0,0,0,0
2.4233,2.2827,2.2536,0,0,0,0,0,0,0,0,0,0,0,0
2.4233,2.2827,2.2536,0,0,0,0,0,0,0,0,0,0,0,0
2.4233,2.2827,2.2536,0,0,0,0,0,0,0,0,0,0,0,0
2.4233,2.2827,2.2536,0,0,0,0,0,0,0,0,0,0,0,0
2.4233,2.2827,2.2536,0,0,0,0,0,0,0,0,0,0,0,0
2.4233,2.2827,2.2536,0,0,0,0,0,0,0,0,0,0,0,0
2.4233,2.2827,2.2536,0,0,0,0,0,0,0,0,0,0,0,0
2.4233,2.2827,2.2536,0,0,0,0,0,0,0,0,0,0,0,0
2.4233,2.2827,2.2536,0,0,0,0,0,0,0,0,0,0,0,0
2.4233,2.2827,2.2536,0,0,0,0,0,0,0,0,0,0,0,0
2.4233,2.2827,2.2536,0,0,0,0,0,0,0,0,0,0,0,0
2.4233,2.2827,2.2536,0,0,0,0,0,0,0,0,0,0,0,0
2.4233,2.2827,2.2536,0,0,0,0,0,0,0,0,0,0,0,0
2.4233,2.2827,2.2536,0,0,0,0,0,0,0,0,0,0,0,0
2.4233,2.2827,2.2536,0,0,0,0,0,0,0,0,0,0,0,0
2.4233,2.2827,2.2536,0,0,0,0,0,0,0,0,0,0,0,0
2.4233,2.2827,2.2536,0,0,0,0,0,0,0,0,0,0,0,0
2.4233,2.2827,2.2536,0,0,0,0,0,0,0,0,0,0,0,0
2.4233,2.2827,2.2536,0,0,0,0,0,0,0,0,0,0,0,0
2.4233,2.2827,2.2536,0,0,0,0,0,0,0,0,0,0,0,0
2.4233,2.2827,2.2536,0,0,0,0,0,0,0,0,0,0,0,0
2.4233,2.2827,2.2536,0,0,0,0,0,0,0,0,0,0,0,0
2.4233,2.2827,2.2536,0,0,0,0,0,0,0,0,0,0,0,0
2.4233,2.2827,2.2536,0,0,0,0,0,0,0,0,0,0,0,0
2.4233,2.2827,2.2536,0,0,0,0,0,0,0,0,0,0,0,0
2.4233,2.2827,2.2536,0,0,0,0,0,0,0,0,0,0,0,0
2.4233,2.2827,2.2536,0,0,0,0,0,0,0,0,0,0,0,0
2.4233,2.2827,2.2536,0,0,0,0,0,0,0,0,0,0,0,0
2.4233,2.2827,2.2536,0,0,0,0,0,0,0,0,0,0,0,0
2.4233,2.2827,2.2536,0,0,0,0,0,0,0,0,0,0,0,0
2.4233,2.2827,2.2536,0,0,0,0,0,0,0,0,0,0,0,0
2.4233,2.2827,2.2536,0,0,0,0,0,0,0,0,0,0,0,0
2.4233,2.2827,2.2536,0,0,0,0,0,0,0,0,0,0,0,0
2.4233,2.2827,2.2536,0,0,0,0,0,0,0,0,0,0,0,0
2.4233,2.2827,2.2536,0,0,0,0,0,0,0,0,0,0,0,0
2.4233,2.2827,2.2536,0,0,0,0,0,0,0,0,0,0,0,0
2.4233,2.2827,2.2536,0,0,0,0,0,0,0,0,0,0,0,0
2.4233,2.2827,2.2536,0,0,0,0,0,0,0,0,0,0,0,0
2.4233,2.2827,2.2536,0,0,0,0,0,0,0,0,0,0,0,0
2.4233,2.2827,2.2536,0,0,0,0,0,0,0,0,0,0,0,0
2.4233,2.2827,2.2536,0,0,0,0,0,0,0,0,0,0,0,0
2.4233,2.2827,2.2536,0,0,0,0,0,0,0,0,0,0,0,0
2.4233,2.2827,2.2536,0,0,0,0,0,0,0,0,0,0,0,0
2.4233,2.2827,2.2536,0,0,0,0,0,0,0,0,0,0,0,0
2.4233,2.2827,2.2536,0,0,0,0,0,0,0,0,0,0,0,0
2.4233,2.2827,2.2536,0,0,0,0,0,0,0,0,0,0,0,0
2.4233,2.2827,2.2536,0,0,0,0,0,0,0,0,0,0,0,0
2.4233,2.2827,2.2536,0,0,0,0,0,0,0,0,0,0,0,0
2.4233,2.2827,2.2536,0,0,0,0,0,0,0,0,0,0,0,0
2.4233,2.2827,2.2536,0,0,0,0,0,0,0,0,0,0,0,0
2.4233,2.2827,2.2536,0,0,0,0,0,0,0,0,0,0,0,0
2.4233,2.2827,2.2536,0,0,0,0,0,0,0,0,0,0,0,0
2.4233,2.2827,2.2536,0,0,0,0,0,0,0,0,0,0,0,0
2.4233,2.2827,2.2536,0,0,0,0,0,0,0,0,0,0,0,0
2.4233,2.2827,2.2536,0,0,0,0,0,0,0,0,0,0,0,0
2.4233,2.2827,2.2536,0,0,0,0,0,0,0,0,0,0,0,0
2.4233,2.2827,2.2536,0,0,0,0,0,0,0,0,0,0,0,0
2.4233,2.2827,2.2536,0,0,0,0,0,0,0,0,0,0,0,0
2.4233,2.2827,2.2536,0,0,0,0,0,0,0,0,0,0,0,0
2.4233,2.2827,2.2536,0,0,0,0,0,0,0,0,0,0,0,0
2.4233,2.2827,2.2536,0,0,0,0,0,0,0,0,0,0,0,0
2.4233,2.2827,2.2536,0,0,0,0,0,0,0,0,0,0,0,0
2.4233,2.2827,2.2536,0,0,0,0,0,0,0,0,0,0,0,0
2.4233,2.2827,2.2536,0,0,0,0,0,0,0,0,0,0,0,0
2.4233,2.2827,2.2536,0,0,0,0,0,0,0,0,0,0,0,0
2.4233,2.2827,2.2536,0,0,0,0,0,0,0,0,0,0,0,0
2.4233,2.2827,2.2536,0,0,0,0,0,0,0,0,0,0,0,0
2.4233,2.2827,2.2536,0,0,0,0,0,0,0,0,0,0,0,0
2.4233,2.2827,2.2536,0,0,0,0,0,0,0,0,0,0,0,0
2.4233,2.2827,2.2536,0,0,0,0,0,0,0,0,0,0,0,0
2.4233,2.2827,2.2536,0,0,0,0,0,0,0,0,0,0,0,0
2.4233,2.2827,2.2536,0,0,0,0,0,0,0,0,0,0,0,0
2.4233,2.2827,2.2536,0,0,0,0,0,0,0,0,0,0,0,0
2.4233,2.2827,2.2536,0,0,0,0,0,0,0,0,0,0,0,0
2.4233,2.2827,2.2536,0,0,0,0,0,0,0,0,0,0,0,0
2.4233,2.2827,2.2536,0,0,0,0,0,0,0,0,0,0,0,0
2.4233,2.2827,2.2536,0,0,0,0,0,0,0,0,0,0,0,0
2.4233,2.2827,2.2536,0,0,0,0,0,0,0,0,0,0,0,0
2.4233,2.2827,2.2536,0,0,0,0,0,0,0,0,0,0,0,0
2.4233,2.2827,2.2536,0,0,0,0,0,0,0,0,0,0,0,0
2.4233,2.2827,2.2536,0,0,0,0,0,0,0,0,0,0,0,0
2.4233,2.2827,2.2536,0,0,0,0,0,0,0,0,0,0,0,0
