1
69.000000,65.000000,70.000000,270.000000
69.000000,65.000000,70.000000,270.000000
73.000000,65.000000,70.000000,270.000000
77.000000,65.000000,70.000000,270.000000
77.000000,65.000000,70.000000,270.000000
81.000000,65.000000,70.000000,270.000000
85.000000,65.000000,70.000000,270.000000
89.000000,65.000000,70.000000,270.000000
89.000000,65.000000,70.000000,270.000000
93.000000,65.000000,70.000000,270.000000
97.000000,65.000000,70.000000,270.000000
97.000000,65.000000,70.000000,270.000000
101.000000,65.000000,70.000000,270.000000
105.000000,65.000000,70.000000,270.000000
109.000000,65.000000,70.000000,270.000000
109.000000,65.000000,70.000000,270.000000
113.000000,65.000000,70.000000,270.000000
117.000000,65.000000,70.000000,270.000000
121.000000,65.000000,70.000000,270.000000
121.000000,65.000000,70.000000,270.000000
125.000000,65.000000,70.000000,270.000000
129.000000,65.000000,70.000000,270.000000
129.000000,65.000000,70.000000,270.000000
133.000000,65.000000,70.000000,270.000000
133.000000,65.000000,70.000000,270.000000
137.000000,65.000000,70.000000,270.000000
141.000000,65.000000,70.000000,270.000000
141.000000,65.000000,70.000000,270.000000
145.000000,65.000000,70.000000,270.000000
149.000000,65.000000,70.000000,270.000000
149.000000,65.000000,70.000000,270.000000
153.000000,65.000000,70.000000,270.000000
153.000000,65.000000,70.000000,270.000000
157.000000,65.000000,70.000000,270.000000
161.000000,65.000000,70.000000,270.000000
161.000000,65.000000,70.000000,270.000000
165.000000,61.000000,70.000000,270.000000
165.000000,61.000000,70.000000,270.000000
169.000000,61.000000,70.000000,270.000000
173.000000,61.000000,70.000000,270.000000
173.000000,61.000000,70.000000,270.000000
177.000000,61.000000,70.000000,270.000000
177.000000,61.000000,70.000000,270.000000
177.000000,61.000000,70.000000,270.000000
181.000000,61.000000,70.000000,270.000000
181.000000,61.000000,70.000000,270.000000
185.000000,61.000000,70.000000,270.000000
185.000000,61.000000,70.000000,270.000000
189.000000,61.000000,70.000000,270.000000
189.000000,61.000000,70.000000,270.000000
189.000000,57.000000,70.000000,270.000000
193.000000,57.000000,70.000000,270.000000
193.000000,57.000000,70.000000,270.000000
197.000000,57.000000,70.000000,270.000000
197.000000,57.000000,70.000000,270.000000
201.000000,57.000000,70.000000,270.000000
201.000000,57.000000,70.000000,270.000000
201.000000,57.000000,70.000000,270.000000
205.000000,53.000000,70.000000,270.000000
205.000000,53.000000,70.000000,270.000000
205.000000,53.000000,70.000000,270.000000
209.000000,53.000000,70.000000,270.000000
209.000000,53.000000,70.000000,270.000000
209.000000,53.000000,70.000000,270.000000
213.000000,53.000000,70.000000,270.000000
213.000000,53.000000,70.000000,270.000000
213.000000,49.000000,70.000000,270.000000
213.000000,49.000000,70.000000,270.000000
217.000000,49.000000,70.000000,270.000000
217.000000,49.000000,70.000000,270.000000
221.000000,49.000000,70.000000,270.000000
221.000000,49.000000,70.000000,270.000000
221.000000,49.000000,70.000000,270.000000
221.000000,49.000000,70.000000,270.000000
225.000000,49.000000,70.000000,270.000000
225.000000,45.000000,70.000000,270.000000
225.000000,45.000000,70.000000,270.000000
225.000000,41.000000,70.000000,270.000000
229.000000,41.000000,70.000000,270.000000
229.000000,37.000000,70.000000,270.000000
229.000000,37.000000,70.000000,270.000000
229.000000,37.000000,70.000000,270.000000
233.000000,37.000000,70.000000,270.000000
237.000000,37.000000,70.000000,270.000000
237.000000,37.000000,70.000000,270.000000
237.000000,37.000000,70.000000,270.000000
237.000000,37.000000,70.000000,270.000000
237.000000,37.000000,70.000000,270.000000
237.000000,41.000000,70.000000,270.000000
241.000000,41.000000,70.000000,270.000000
241.000000,41.000000,70.000000,270.000000
245.000000,41.000000,70.000000,270.000000
245.000000,41.000000,70.000000,270.000000
245.000000,41.000000,70.000000,270.000000
249.000000,41.000000,70.000000,270.000000
249.000000,41.000000,70.000000,270.000000
249.000000,41.000000,70.000000,270.000000
253.000000,41.000000,70.000000,270.000000
253.000000,41.000000,70.000000,270.000000
253.000000,41.000000,70.000000,270.000000
257.000000,41.000000,70.000000,270.000000
257.000000,41.000000,70.000000,270.000000
257.000000,41.000000,70.000000,270.000000
257.000000,41.000000,70.000000,270.000000
261.000000,41.000000,70.000000,270.000000
261.000000,41.000000,70.000000,270.000000
261.000000,37.000000,70.000000,270.000000
261.000000,37.000000,70.000000,270.000000
265.000000,37.000000,70.000000,270.000000
265.000000,37.000000,70.000000,270.000000
265.000000,37.000000,70.000000,270.000000
265.000000,37.000000,70.000000,270.000000
265.000000,37.000000,70.000000,270.000000
265.000000,37.000000,70.000000,270.000000
265.000000,37.000000,70.000000,270.000000
269.000000,37.000000,70.000000,270.000000
269.000000,37.000000,70.000000,270.000000
269.000000,37.000000,70.000000,270.000000
269.000000,33.000000,70.000000,270.000000
269.000000,33.000000,70.000000,270.000000
269.000000,33.000000,70.000000,270.000000
269.000000,33.000000,70.000000,270.000000
269.000000,33.000000,70.000000,270.000000
269.000000,33.000000,70.000000,270.000000
269.000000,33.000000,70.000000,270.000000
269.000000,33.000000,70.000000,270.000000
269.000000,29.000000,70.000000,270.000000
269.000000,29.000000,70.000000,270.000000
269.000000,29.000000,70.000000,270.000000
269.000000,29.000000,70.000000,270.000000
269.000000,29.000000,70.000000,270.000000
269.000000,29.000000,70.000000,270.000000
269.000000,29.000000,70.000000,270.000000
269.000000,29.000000,70.000000,270.000000
273.000000,29.000000,70.000000,270.000000
273.000000,29.000000,70.000000,270.000000
273.000000,29.000000,70.000000,270.000000
273.000000,29.000000,70.000000,270.000000
277.000000,29.000000,70.000000,270.000000
277.000000,29.000000,70.000000,270.000000
277.000000,29.000000,70.000000,270.000000
277.000000,29.000000,70.000000,270.000000
281.000000,29.000000,70.000000,270.000000
281.000000,29.000000,70.000000,270.000000
281.000000,29.000000,70.000000,270.000000
281.000000,29.000000,70.000000,270.000000
285.000000,29.000000,70.000000,270.000000
285.000000,29.000000,70.000000,270.000000
285.000000,29.000000,70.000000,270.000000
289.000000,29.000000,70.000000,270.000000
289.000000,29.000000,70.000000,270.000000
289.000000,29.000000,70.000000,270.000000
289.000000,29.000000,70.000000,270.000000
293.000000,29.000000,70.000000,270.000000
293.000000,29.000000,70.000000,270.000000
293.000000,29.000000,70.000000,270.000000
293.000000,29.000000,70.000000,270.000000
297.000000,29.000000,70.000000,270.000000
297.000000,29.000000,70.000000,270.000000
297.000000,29.000000,70.000000,270.000000
297.000000,29.000000,70.000000,270.000000
297.000000,29.000000,70.000000,270.000000
297.000000,29.000000,70.000000,270.000000
297.000000,29.000000,70.000000,270.000000
297.000000,29.000000,70.000000,270.000000
297.000000,29.000000,70.000000,270.000000
297.000000,29.000000,70.000000,270.000000
297.000000,25.000000,70.000000,270.000000
297.000000,25.000000,70.000000,270.000000
297.000000,25.000000,70.000000,270.000000
297.000000,25.000000,70.000000,270.000000
301.000000,25.000000,70.000000,270.000000
301.000000,25.000000,70.000000,270.000000
301.000000,25.000000,70.000000,270.000000
301.000000,25.000000,70.000000,270.000000
301.000000,25.000000,70.000000,270.000000
301.000000,25.000000,70.000000,270.000000
305.000000,25.000000,70.000000,270.000000
305.000000,25.000000,70.000000,270.000000
305.000000,25.000000,70.000000,270.000000
305.000000,25.000000,70.000000,270.000000
305.000000,25.000000,70.000000,270.000000
305.000000,25.000000,70.000000,270.000000
309.000000,25.000000,70.000000,270.000000
309.000000,25.000000,70.000000,270.000000
309.000000,25.000000,70.000000,270.000000
309.000000,25.000000,70.000000,270.000000
309.000000,25.000000,70.000000,270.000000
309.000000,25.000000,70.000000,270.000000
313.000000,25.000000,70.000000,270.000000
313.000000,25.000000,70.000000,270.000000
313.000000,25.000000,70.000000,270.000000
313.000000,25.000000,70.000000,270.000000
313.000000,25.000000,70.000000,270.000000
313.000000,25.000000,70.000000,270.000000
313.000000,25.000000,70.000000,270.000000
313.000000,25.000000,70.000000,270.000000
313.000000,25.000000,70.000000,270.000000
317.000000,25.000000,70.000000,270.000000
317.000000,25.000000,70.000000,270.000000
317.000000,25.000000,70.000000,270.000000
317.000000,25.000000,70.000000,270.000000
317.000000,25.000000,70.000000,270.000000
317.000000,25.000000,70.000000,270.000000
317.000000,25.000000,70.000000,270.000000
317.000000,25.000000,70.000000,270.000000
321.000000,25.000000,70.000000,270.000000
321.000000,25.000000,70.000000,270.000000
321.000000,25.000000,70.000000,270.000000
321.000000,25.000000,70.000000,270.000000
321.000000,25.000000,70.000000,270.000000
321.000000,25.000000,70.000000,270.000000
321.000000,25.000000,70.000000,270.000000
321.000000,25.000000,70.000000,270.000000
321.000000,25.000000,70.000000,270.000000
321.000000,25.000000,70.000000,270.000000
321.000000,25.000000,70.000000,270.000000
321.000000,25.000000,70.000000,270.000000
321.000000,25.000000,70.000000,270.000000
321.000000,25.000000,70.000000,270.000000
321.000000,25.000000,70.000000,270.000000
321.000000,25.000000,70.000000,270.000000
321.000000,25.000000,70.000000,270.000000
321.000000,25.000000,70.000000,270.000000
321.000000,25.000000,70.000000,270.000000
321.000000,25.000000,70.000000,270.000000
321.000000,25.000000,70.000000,270.000000
321.000000,25.000000,70.000000,270.000000
321.000000,25.000000,70.000000,270.000000
321.000000,25.000000,70.000000,270.000000
321.000000,25.000000,70.000000,270.000000
325.000000,25.000000,70.000000,270.000000
325.000000,25.000000,70.000000,270.000000
321.000000,25.000000,70.000000,270.000000
325.000000,25.000000,70.000000,270.000000
325.000000,25.000000,70.000000,270.000000
325.000000,25.000000,70.000000,270.000000
325.000000,25.000000,70.000000,270.000000
325.000000,25.000000,70.000000,270.000000
325.000000,25.000000,70.000000,270.000000
325.000000,25.000000,70.000000,270.000000
325.000000,25.000000,70.000000,270.000000
325.000000,25.000000,70.000000,270.000000
325.000000,25.000000,70.000000,270.000000
325.000000,25.000000,70.000000,270.000000
325.000000,25.000000,70.000000,270.000000
325.000000,25.000000,70.000000,270.000000
325.000000,25.000000,70.000000,270.000000
325.000000,25.000000,70.000000,270.000000
325.000000,25.000000,70.000000,270.000000
325.000000,25.000000,70.000000,270.000000
325.000000,25.000000,70.000000,270.000000
325.000000,25.000000,70.000000,270.000000
325.000000,25.000000,70.000000,270.000000
325.000000,25.000000,70.000000,270.000000
325.000000,25.000000,70.000000,270.000000
325.000000,25.000000,70.000000,270.000000
325.000000,25.000000,70.000000,270.000000
325.000000,25.000000,70.000000,270.000000
325.000000,25.000000,70.000000,270.000000
325.000000,25.000000,70.000000,270.000000
325.000000,25.000000,70.000000,270.000000
325.000000,25.000000,70.000000,270.000000
325.000000,25.000000,70.000000,270.000000
325.000000,25.000000,70.000000,270.000000
325.000000,25.000000,70.000000,270.000000
325.000000,25.000000,70.000000,270.000000
325.000000,25.000000,70.000000,270.000000
325.000000,25.000000,70.000000,270.000000
325.000000,25.000000,70.000000,270.000000
325.000000,25.000000,70.000000,270.000000
325.000000,25.000000,70.000000,270.000000
325.000000,25.000000,70.000000,270.000000
325.000000,25.000000,70.000000,270.000000
325.000000,25.000000,70.000000,270.000000
325.000000,25.000000,70.000000,270.000000
325.000000,25.000000,70.000000,270.000000
325.000000,25.000000,70.000000,270.000000
325.000000,25.000000,70.000000,270.000000
325.000000,25.000000,70.000000,270.000000
325.000000,25.000000,70.000000,270.000000
325.000000,25.000000,70.000000,270.000000
325.000000,25.000000,70.000000,270.000000
325.000000,25.000000,70.000000,270.000000
325.000000,25.000000,70.000000,270.000000
325.000000,25.000000,70.000000,270.000000
325.000000,25.000000,70.000000,270.000000
325.000000,25.000000,70.000000,270.000000
325.000000,25.000000,70.000000,270.000000
325.000000,25.000000,70.000000,270.000000
325.000000,25.000000,70.000000,270.000000
325.000000,25.000000,70.000000,270.000000
329.000000,25.000000,70.000000,270.000000
329.000000,25.000000,70.000000,270.000000
329.000000,25.000000,70.000000,270.000000
329.000000,25.000000,70.000000,270.000000
329.000000,25.000000,70.000000,270.000000
329.000000,25.000000,70.000000,270.000000
329.000000,25.000000,70.000000,270.000000
329.000000,25.000000,70.000000,270.000000
329.000000,25.000000,70.000000,270.000000
329.000000,25.000000,70.000000,270.000000
329.000000,25.000000,70.000000,270.000000
329.000000,25.000000,70.000000,270.000000
329.000000,25.000000,70.000000,270.000000
329.000000,25.000000,70.000000,270.000000
329.000000,25.000000,70.000000,270.000000
329.000000,25.000000,70.000000,270.000000
329.000000,25.000000,70.000000,270.000000
329.000000,25.000000,70.000000,270.000000
329.000000,25.000000,70.000000,270.000000
329.000000,25.000000,70.000000,270.000000
329.000000,25.000000,70.000000,270.000000
329.000000,25.000000,70.000000,270.000000
329.000000,25.000000,70.000000,270.000000
329.000000,25.000000,70.000000,270.000000
329.000000,25.000000,70.000000,270.000000
329.000000,25.000000,70.000000,270.000000
329.000000,25.000000,70.000000,270.000000
329.000000,25.000000,70.000000,270.000000
329.000000,25.000000,70.000000,270.000000
329.000000,25.000000,70.000000,270.000000
329.000000,25.000000,70.000000,270.000000
329.000000,25.000000,70.000000,270.000000
329.000000,25.000000,70.000000,270.000000
329.000000,25.000000,70.000000,270.000000
329.000000,25.000000,70.000000,270.000000
329.000000,25.000000,70.000000,270.000000
329.000000,25.000000,70.000000,270.000000
329.000000,25.000000,70.000000,270.000000
329.000000,25.000000,70.000000,270.000000
329.000000,25.000000,70.000000,270.000000
329.000000,25.000000,70.000000,270.000000
329.000000,25.000000,70.000000,270.000000
329.000000,25.000000,70.000000,270.000000
329.000000,25.000000,70.000000,270.000000
329.000000,25.000000,70.000000,270.000000
329.000000,25.000000,70.000000,270.000000
329.000000,25.000000,70.000000,270.000000
329.000000,25.000000,70.000000,270.000000
329.000000,25.000000,70.000000,270.000000
329.000000,25.000000,70.000000,270.000000
329.000000,25.000000,70.000000,270.000000
329.000000,25.000000,70.000000,270.000000
329.000000,25.000000,70.000000,270.000000
329.000000,25.000000,70.000000,270.000000
329.000000,25.000000,70.000000,270.000000
329.000000,25.000000,70.000000,270.000000
329.000000,25.000000,70.000000,270.000000
329.000000,25.000000,70.000000,270.000000
