1.4575,1.3936,1.4111,0,0,0,0,0,0,0,0,0,0,0,0
1.4575,1.3936,1.4111,0,0,0,0,0,0,0,0,0,0,0,0
1.4575,1.3936,1.4111,0,0,0,0,0,0,0,0,0,0,0,0
1.4575,1.3936,1.4111,0,0,0,0,0,0,0,0,0,0,0,0
1.4575,1.3936,1.4111,0,0,0,0,0,0,0,0,0,0,0,0
1.4575,1.3936,1.4111,0,0,0,0,0,0,0,0,0,0,0,0
1.4575,1.3936,1.4111,0,0,0,0,0,0,0,0,0,0,0,0
1.4575,1.3936,1.4111,0,0,0,0,0,0,0,0,0,0,0,0
1.4575,1.3936,1.4111,0,0,0,0,0,0,0,0,0,0,0,0
1.4575,1.3936,1.4111,0,0,0,0,0,0,0,0,0,0,0,0
1.4575,1.3936,1.4111,0,0,0,0,0,0,0,0,0,0,0,0
1.4575,1.3936,1.4111,0,0,0,0,0,0,0,0,0,0,0,0
1.4575,1.3936,1.4111,0,0,0,0,0,0,0,0,0,0,0,0
1.4575,1.3936,1.4111,0,0,0,0,0,0,0,0,0,0,0,0
1.4575,1.3936,1.4111,0,0,0,0,0,0,0,0,0,0,0,0
1.4575,1.3936,1.4111,0,0,0,0,0,0,0,0,0,0,0,0
1.4575,1.3936,1.4111,0,0,0,0,0,0,0,0,0,0,0,0
1.4575,1.3936,1.4111,0,0,0,0,0,0,0,0,0,0,0,0
1.4575,1.3936,1.4111,0,0,0,0,0,0,0,0,0,0,0,0
1.4575,1.3936,1.4111,0,0,0,0,0,0,0,0,0,0,0,0
1.4575,1.3936,1.4111,0,0,0,0,0,0,0,0,0,0,0,0
1.4575,1.3936,1.4111,0,0,0,0,0,0,0,0,0,0,0,0
1.4575,1.3936,1.4111,0,0,0,0,0,0,0,0,0,0,0,0
1.4575,1.3936,1.4111,0,0,0,0,0,0,0,0,0,0,0,0
1.4575,1.3936,1.4111,0,0,0,0,0,0,0,0,0,0,0,0
1.4575,1.3936,1.4111,0,0,0,0,0,0,0,0,0,0,0,0
1.4575,1.3936,1.4111,0,0,0,0,0,0,0,0,0,0,0,0
1.4575,1.3936,1.4111,0,0,0,0,0,0,0,0,0,0,0,0
1.4575,1.3936,1.4111,0,0,0,0,0,0,0,0,0,0,0,0
1.4575,1.3936,1.4111,0,0,0,0,0,0,0,0,0,0,0,0
1.4575,1.3936,1.4111,0,0,0,0,0,0,0,0,0,0,0,0
1.4575,1.3936,1.4111,0,0,0,0,0,0,0,0,0,0,0,0
1.4575,1.3936,1.4111,0,0,0,0,0,0,0,0,0,0,0,0
1.4575,1.3936,1.4111,0,0,0,0,0,0,0,0,0,0,0,0
1.4575,1.3936,1.4111,0,0,0,0,0,0,0,0,0,0,0,0
1.4575,1.3936,1.4111,0,0,0,0,0,0,0,0,0,0,0,0
1.4575,1.3936,1.4111,0,0,0,0,0,0,0,0,0,0,0,0
1.4575,1.3936,1.4111,0,0,0,0,0,0,0,0,0,0,0,0
1.4575,1.3936,1.4111,0,0,0,0,0,0,0,0,0,0,0,0
1.4575,1.3936,1.4111,0,0,0,0,0,0,0,0,0,0,0,0
1.4575,1.3936,1.4111,0,0,0,0,0,0,0,0,0,0,0,0
1.4575,1.3936,1.4111,0,0,0,0,0,0,0,0,0,0,0,0
1.4575,1.3936,1.4111,0,0,0,0,0,0,0,0,0,0,0,0
1.4575,1.3936,1.4111,0,0,0,0,0,0,0,0,0,0,0,0
1.4575,1.3936,1.4111,0,0,0,0,0,0,0,0,0,0,0,0
1.4575,1.3936,1.4111,0,0,0,0,0,0,0,0,0,0,0,0
1.4575,1.3936,1.4111,0,0,0,0,0,0,0,0,0,0,0,0
1.4575,1.3936,1.4111,0,0,0,0,0,0,0,0,0,0,0,0
1.4575,1.3936,1.4111,0,0,0,0,0,0,0,0,0,0,0,0
1.4575,1.3936,1.4111,0,0,0,0,0,0,0,0,0,0,0,0
1.4575,1.3936,1.4111,0,0,0,0,0,0,0,0,0,0,0,0
1.4575,1.3936,1.4111,0,0,0,0,0,0,0,0,0,0,0,0
1.4575,1.3936,1.4111,0,0,0,0,0,0,0,0,0,0,0,0
1.4575,1.3936,1.4111,0,0,0,0,0,0,0,0,0,0,0,0
1.4575,1.3936,1.4111,0,0,0,0,0,0,0,0,0,0,0,0
1.4575,1.3936,1.4111,0,0,0,0,0,0,0,0,0,0,0,0
1.4575,1.3936,1.4111,0,0,0,0,0,0,0,0,0,0,0,0
1.4575,1.3936,1.4111,0,0,0,0,0,0,0,0,0,0,0,0
1.4575,1.3936,1.4111,0,0,0,0,0,0,0,0,0,0,0,0
1.4575,1.3936,1.4111,0,0,0,0,0,0,0,0,0,0,0,0
1.4575,1.3936,1.4111,0,0,0,0,0,0,0,0,0,0,0,0
1.4575,1.3936,1.4111,0,0,0,0,0,0,0,0,0,0,0,0
1.4575,1.3936,1.4111,0,0,0,0,0,0,0,0,0,0,0,0
1.4575,1.3936,1.4111,0,0,0,0,0,0,0,0,0,0,0,0
1.4575,1.3936,1.4111,0,0,0,0,0,0,0,0,0,0,0,0
1.4575,1.3936,1.4111,0,0,0,0,0,0,0,0,0,0,0,0
1.4575,1.3936,1.4111,0,0,0,0,0,0,0,0,0,0,0,0
1.4575,1.3936,1.4111,0,0,0,0,0,0,0,0,0,0,0,0
1.4575,1.3936,1.4111,0,0,0,0,0,0,0,0,0,0,0,0
1.4575,1.3936,1.4111,0,0,0,0,0,0,0,0,0,0,0,0
1.4575,1.3936,1.4111,0,0,0,0,0,0,0,0,0,0,0,0
1.4575,1.3936,1.4111,0,0,0,0,0,0,0,0,0,0,0,0
1.4575,1.3936,1.4111,0,0,0,0,0,0,0,0,0,0,0,0
1.4575,1.3936,1.4111,0,0,0,0,0,0,0,0,0,0,0,0
1.4575,1.3936,1.4111,0,0,0,0,0,0,0,0,0,0,0,0
1.4575,1.3936,1.4111,0,0,0,0,0,0,0,0,0,0,0,0
1.4575,1.3936,1.4111,0,0,0,0,0,0,0,0,0,0,0,0
1.4575,1.3936,1.4111,0,0,0,0,0,0,0,0,0,0,0,0
1.4575,1.3936,1.4111,0,0,0,0,0,0,0,0,0,0,0,0
1.4575,1.3936,1.4111,0,0,0,0,0,0,0,0,0,0,0,0
1.4575,1.3936,1.4111,0,0,0,0,0,0,0,0,0,0,0,0
1.4575,1.3936,1.4111,0,0,0,0,0,0,0,0,0,0,0,0
1.4575,1.3936,1.4111,0,0,0,0,0,0,0,0,0,0,0,0
1.4575,1.3936,1.4111,0,0,0,0,0,0,0,0,0,0,0,0
1.4575,1.3936,1.4111,0,0,0,0,0,0,0,0,0,0,0,0
1.4575,1.3936,1.4111,0,0,0,0,0,0,0,0,0,0,0,0
1.4575,1.3936,1.4111,0,0,0,0,0,0,0,0,0,0,0,0
1.4575,1.3936,1.4111,0,0,0,0,0,0,0,0,0,0,0,0
1.4575,1.3936,1.4111,0,0,0,0,0,0,0,0,0,0,0,0
1.4575,1.3936,1.4111,0,0,0,0,0,0,0,0,0,0,0,0
1.4575,1.3936,1.4111,0,0,0,0,0,0,0,0,0,0,0,0
1.4575,1.3936,1.4111,0,0,0,0,0,0,0,0,0,0,0,0
1.4575,1.3936,1.4111,0,0,0,0,0,0,0,0,0,0,0,0
1.4575,1.3936,1.4111,0,0,0,0,0,0,0,0,0,0,0,0
1.4575,1.3936,1.4111,0,0,0,0,0,0,0,0,0,0,0,0
1.4575,1.3936,1.4111,0,0,0,0,0,0,0,0,0,0,0,0
1.4575,1.3936,1.4111,0,0,0,0,0,0,0,0,0,0,0,0
1.4575,1.3936,1.4111,0,0,0,0,0,0,0,0,0,0,0,0
1.4575,1.3936,1.4111,0,0,0,0,0,0,0,0,0,0,0,0
1.4575,1.3936,1.4111,0,0,0,0,0,0,0,0,0,0,0,0
1.4575,1.3936,1.4111,0,0,0,0,0,0,0,0,0,0,0,0
1.4575,1.3936,1.4111,0,0,0,0,0,0,0,0,0,0,0,0
1.4575,1.3936,1.4111,0,0,0,0,0,0,0,0,0,0,0,0
1.4575,1.3936,1.4111,0,0,0,0,0,0,0,0,0,0,0,0
1.4575,1.3936,1.4111,0,0,0,0,0,0,0,0,0,0,0,0
1.4575,1.3936,1.4111,0,0,0,0,0,0,0,0,0,0,0,0
1.4575,1.3936,1.4111,0,0,0,0,0,0,0,0,0,0,0,0
1.4575,1.3936,1.4111,0,0,0,0,0,0,0,0,0,0,0,0
1.4575,1.3936,1.4111,0,0,0,0,0,0,0,0,0,0,0,0
1.4575,1.3936,1.4111,0,0,0,0,0,0,0,0,0,0,0,0
1.4575,1.3936,1.4111,0,0,0,0,0,0,0,0,0,0,0,0
1.4575,1.3936,1.4111,0,0,0,0,0,0,0,0,0,0,0,0
1.4575,1.3936,1.4111,0,0,0,0,0,0,0,0,0,0,0,0
1.4575,1.3936,1.4111,0,0,0,0,0,0,0,0,0,0,0,0
1.4575,1.3936,1.4111,0,0,0,0,0,0,0,0,0,0,0,0
1.4575,1.3936,1.4111,0,0,0,0,0,0,0,0,0,0,0,0
1.4575,1.3936,1.4111,0,0,0,0,0,0,0,0,0,0,0,0
1.4575,1.3936,1.4111,0,0,0,0,0,0,0,0,0,0,0,0
1.4575,1.3936,1.4111,0,0,0,0,0,0,0,0,0,0,0,0
1.4575,1.3936,1.4111,0,0,0,0,0,0,0,0,0,0,0,0
1.4575,1.3936,1.4111,0,0,0,0,0,0,0,0,0,0,0,0
1.4575,1.3936,1.4111,0,0,0,0,0,0,0,0,0,0,0,0
1.4575,1.3936,1.4111,0,0,0,0,0,0,0,0,0,0,0,0
1.4575,1.3936,1.4111,0,0,0,0,0,0,0,0,0,0,0,0
1.4575,1.3936,1.4111,0,0,0,0,0,0,0,0,0,0,0,0
1.4575,1.3936,1.4111,0,0,0,0,0,0,0,0,0,0,0,0
1.4575,1.3936,1.4111,0,0,0,0,0,0,0,0,0,0,0,0
1.4575,1.3936,1.4111,0,0,0,0,0,0,0,0,0,0,0,0
1.4575,1.3936,1.4111,0,0,0,0,0,0,0,0,0,0,0,0
1.4575,1.3936,1.4111,0,0,0,0,0,0,0,0,0,0,0,0
1.4575,1.3936,1.4111,0,0,0,0,0,0,0,0,0,0,0,0
1.4575,1.3936,1.4111,0,0,0,0,0,0,0,0,0,0,0,0
1.4575,1.3936,1.4111,0,0,0,0,0,0,0,0,0,0,0,0
1.4575,1.3936,1.4111,0,0,0,0,0,0,0,0,0,0,0,0
1.4575,1.3936,1.4111,0,0,0,0,0,0,0,0,0,0,0,0
1.4575,1.3936,1.4111,0,0,0,0,0,0,0,0,0,0,0,0
1.4575,1.3936,1.4111,0,0,0,0,0,0,0,0,0,0,0,0
1.4575,1.3936,1.4111,0,0,0,0,0,0,0,0,0,0,0,0
1.4575,1.3936,1.4111,0,0,0,0,0,0,0,0,0,0,0,0
1.4575,1.3936,1.4111,0,0,0,0,0,0,0,0,0,0,0,0
1.4575,1.3936,1.4111,0,0,0,0,0,0,0,0,0,0,0,0
1.4575,1.3936,1.4111,0,0,0,0,0,0,0,0,0,0,0,0
1.4575,1.3936,1.4111,0,0,0,0,0,0,0,0,0,0,0,0
1.4575,1.3936,1.4111,0,0,0,0,0,0,0,0,0,0,0,0
1.4575,1.3936,1.4111,0,0,0,0,0,0,0,0,0,0,0,0
1.4575,1.3936,1.4111,0,0,0,0,0,0,0,0,0,0,0,0
1.4575,1.3936,1.4111,0,0,0,0,0,0,0,0,0,0,0,0
1.4575,1.3936,1.4111,0,0,0,0,0,0,0,0,0,0,0,0
1.4575,1.3936,1.4111,0,0,0,0,0,0,0,0,0,0,0,0
1.4575,1.3936,1.4111,0,0,0,0,0,0,0,0,0,0,0,0
1.4575,1.3936,1.4111,0,0,0,0,0,0,0,0,0,0,0,0
1.4575,1.3936,1.4111,0,0,0,0,0,0,0,0,0,0,0,0
1.4575,1.3936,1.4111,0,0,0,0,0,0,0,0,0,0,0,0
1.4575,1.3936,1.4111,0,0,0,0,0,0,0,0,0,0,0,0
1.4575,1.3936,1.4111,0,0,0,0,0,0,0,0,0,0,0,0
1.4575,1.3936,1.4111,0,0,0,0,0,0,0,0,0,0,0,0
1.4575,1.3936,1.4111,0,0,0,0,0,0,0,0,0,0,0,0
1.4575,1.3936,1.4111,0,0,0,0,0,0,0,0,0,0,0,0
1.4575,1.3936,1.4111,0,0,0,0,0,0,0,0,0,0,0,0
1.4575,1.3936,1.4111,0,0,0,0,0,0,0,0,0,0,0,0
1.4575,1.3936,1.4111,0,0,0,0,0,0,0,0,0,0,0,0
1.4575,1.3936,1.4111,0,0,0,0,0,0,0,0,0,0,0,0
1.4575,1.3936,1.4111,0,0,0,0,0,0,0,0,0,0,0,0
1.4575,1.3936,1.4111,0,0,0,0,0,0,0,0,0,0,0,0
1.4575,1.3936,1.4111,0,0,0,0,0,0,0,0,0,0,0,0
1.4575,1.3936,1.4111,0,0,0,0,0,0,0,0,0,0,0,0
1.4575,1.3936,1.4111,0,0,0,0,0,0,0,0,0,0,0,0
1.4575,1.3936,1.4111,0,0,0,0,0,0,0,0,0,0,0,0
1.4575,1.3936,1.4111,0,0,0,0,0,0,0,0,0,0,0,0
1.4575,1.3936,1.4111,0,0,0,0,0,0,0,0,0,0,0,0
1.4575,1.3936,1.4111,0,0,0,0,0,0,0,0,0,0,0,0
1.4575,1.3936,1.4111,0,0,0,0,0,0,0,0,0,0,0,0
1.4575,1.3936,1.4111,0,0,0,0,0,0,0,0,0,0,0,0
1.4575,1.3936,1.4111,0,0,0,0,0,0,0,0,0,0,0,0
1.4575,1.3936,1.4111,0,0,0,0,0,0,0,0,0,0,0,0
1.4575,1.3936,1.4111,0,0,0,0,0,0,0,0,0,0,0,0
1.4575,1.3936,1.4111,0,0,0,0,0,0,0,0,0,0,0,0
1.4575,1.3936,1.4111,0,0,0,0,0,0,0,0,0,0,0,0
1.4575,1.3936,1.4111,0,0,0,0,0,0,0,0,0,0,0,0
1.4575,1.3936,1.4111,0,0,0,0,0,0,0,0,0,0,0,0
1.4575,1.3936,1.4111,0,0,0,0,0,0,0,0,0,0,0,0
1.4575,1.3936,1.4111,0,0,0,0,0,0,0,0,0,0,0,0
1.4575,1.3936,1.4111,0,0,0,0,0,0,0,0,0,0,0,0
1.4575,1.3936,1.4111,0,0,0,0,0,0,0,0,0,0,0,0
1.4575,1.3936,1.4111,0,0,0,0,0,0,0,0,0,0,0,0
1.4575,1.3936,1.4111,0,0,0,0,0,0,0,0,0,0,0,0
1.4575,1.3936,1.4111,0,0,0,0,0,0,0,0,0,0,0,0
1.4575,1.3936,1.4111,0,0,0,0,0,0,0,0,0,0,0,0
1.4575,1.3936,1.4111,0,0,0,0,0,0,0,0,0,0,0,0
1.4575,1.3936,1.4111,0,0,0,0,0,0,0,0,0,0,0,0
1.4575,1.3936,1.4111,0,0,0,0,0,0,0,0,0,0,0,0
1.4575,1.3936,1.4111,0,0,0,0,0,0,0,0,0,0,0,0
1.4575,1.3936,1.4111,0,0,0,0,0,0,0,0,0,0,0,0
1.4575,1.3936,1.4111,0,0,0,0,0,0,0,0,0,0,0,0
1.4575,1.3936,1.4111,0,0,0,0,0,0,0,0,0,0,0,0
1.4575,1.3936,1.4111,0,0,0,0,0,0,0,0,0,0,0,0
1.4575,1.3936,1.4111,0,0,0,0,0,0,0,0,0,0,0,0
1.4575,1.3936,1.4111,0,0,0,0,0,0,0,0,0,0,0,0
1.4575,1.3936,1.4111,0,0,0,0,0,0,0,0,0,0,0,0
1.4575,1.3936,1.4111,0,0,0,0,0,0,0,0,0,0,0,0
1.4575,1.3936,1.4111,0,0,0,0,0,0,0,0,0,0,0,0
1.4575,1.3936,1.4111,0,0,0,0,0,0,0,0,0,0,0,0
1.4575,1.3936,1.4111,0,0,0,0,0,0,0,0,0,0,0,0
1.4575,1.3936,1.4111,0,0,0,0,0,0,0,0,0,0,0,0
1.4575,1.3936,1.4111,0,0,0,0,0,0,0,0,0,0,0,0
1.4575,1.3936,1.4111,0,0,0,0,0,0,0,0,0,0,0,0
1.4575,1.3936,1.4111,0,0,0,0,0,0,0,0,0,0,0,0
1.4575,1.3936,1.4111,0,0,0,0,0,0,0,0,0,0,0,0
1.4575,1.3936,1.4111,0,0,0,0,0,0,0,0,0,0,0,0
1.4575,1.3936,1.4111,0,0,0,0,0,0,0,0,0,0,0,0
1.4575,1.3936,1.4111,0,0,0,0,0,0,0,0,0,0,0,0
1.4575,1.3936,1.4111,0,0,0,0,0,0,0,0,0,0,0,0
1.4575,1.3936,1.4111,0,0,0,0,0,0,0,0,0,0,0,0
1.4575,1.3936,1.4111,0,0,0,0,0,0,0,0,0,0,0,0
1.4575,1.3936,1.4111,0,0,0,0,0,0,0,0,0,0,0,0
1.4575,1.3936,1.4111,0,0,0,0,0,0,0,0,0,0,0,0
1.4575,1.3936,1.4111,0,0,0,0,0,0,0,0,0,0,0,0
1.4575,1.3936,1.4111,0,0,0,0,0,0,0,0,0,0,0,0
1.4575,1.3936,1.4111,0,0,0,0,0,0,0,0,0,0,0,0
1.4575,1.3936,1.4111,0,0,0,0,0,0,0,0,0,0,0,0
1.4575,1.3936,1.4111,0,0,0,0,0,0,0,0,0,0,0,0
1.4575,1.3936,1.4111,0,0,0,0,0,0,0,0,0,0,0,0
1.4575,1.3936,1.4111,0,0,0,0,0,0,0,0,0,0,0,0
1.4575,1.3936,1.4111,0,0,0,0,0,0,0,0,0,0,0,0
1.4575,1.3936,1.4111,0,0,0,0,0,0,0,0,0,0,0,0
1.4575,1.3936,1.4111,0,0,0,0,0,0,0,0,0,0,0,0
1.4575,1.3936,1.4111,0,0,0,0,0,0,0,0,0,0,0,0
1.4575,1.3936,1.4111,0,0,0,0,0,0,0,0,0,0,0,0
1.4575,1.3936,1.4111,0,0,0,0,0,0,0,0,0,0,0,0
1.4575,1.3936,1.4111,0,0,0,0,0,0,0,0,0,0,0,0
1.4575,1.3936,1.4111,0,0,0,0,0,0,0,0,0,0,0,0
1.4575,1.3936,1.4111,0,0,0,0,0,0,0,0,0,0,0,0
1.4575,1.3936,1.4111,0,0,0,0,0,0,0,0,0,0,0,0
1.4575,1.3936,1.4111,0,0,0,0,0,0,0,0,0,0,0,0
1.4575,1.3936,1.4111,0,0,0,0,0,0,0,0,0,0,0,0
1.4575,1.3936,1.4111,0,0,0,0,0,0,0,0,0,0,0,0
1.4575,1.3936,1.4111,0,0,0,0,0,0,0,0,0,0,0,0
1.4575,1.3936,1.4111,0,0,0,0,0,0,0,0,0,0,0,0
1.4575,1.3936,1.4111,0,0,0,0,0,0,0,0,0,0,0,0
1.4575,1.3936,1.4111,0,0,0,0,0,0,0,0,0,0,0,0
1.4575,1.3936,1.4111,0,0,0,0,0,0,0,0,0,0,0,0
1.4575,1.3936,1.4111,0,0,0,0,0,0,0,0,0,0,0,0
1.4575,1.3936,1.4111,0,0,0,0,0,0,0,0,0,0,0,0
1.4575,1.3936,1.4111,0,0,0,0,0,0,0,0,0,0,0,0
1.4575,1.3936,1.4111,0,0,0,0,0,0,0,0,0,0,0,0
1.4575,1.3936,1.4111,0,0,0,0,0,0,0,0,0,0,0,0
1.4575,1.3936,1.4111,0,0,0,0,0,0,0,0,0,0,0,0
1.4575,1.3936,1.4111,0,0,0,0,0,0,0,0,0,0,0,0
1.4575,1.3936,1.4111,0,0,0,0,0,0,0,0,0,0,0,0
1.4575,1.3936,1.4111,0,0,0,0,0,0,0,0,0,0,0,0
1.4575,1.3936,1.4111,0,0,0,0,0,0,0,0,0,0,0,0
1.4575,1.3936,1.4111,0,0,0,0,0,0,0,0,0,0,0,0
1.4575,1.3936,1.4111,0,0,0,0,0,0,0,0,0,0,0,0
1.4575,1.3936,1.4111,0,0,0,0,0,0,0,0,0,0,0,0
1.4575,1.3936,1.4111,0,0,0,0,0,0,0,0,0,0,0,0
1.4575,1.3936,1.4111,0,0,0,0,0,0,0,0,0,0,0,0
1.4575,1.3936,1.4111,0,0,0,0,0,0,0,0,0,0,0,0
1.4575,1.3936,1.4111,0,0,0,0,0,0,0,0,0,0,0,0
1.4575,1.3936,1.4111,0,0,0,0,0,0,0,0,0,0,0,0
1.4575,1.3936,1.4111,0,0,0,0,0,0,0,0,0,0,0,0
1.4575,1.3936,1.4111,0,0,0,0,0,0,0,0,0,0,0,0
1.4575,1.3936,1.4111,0,0,0,0,0,0,0,0,0,0,0,0
1.4575,1.3936,1.4111,0,0,0,0,0,0,0,0,0,0,0,0
1.4575,1.3936,1.4111,0,0,0,0,0,0,0,0,0,0,0,0
1.4575,1.3936,1.4111,0,0,0,0,0,0,0,0,0,0,0,0
1.4575,1.3936,1.4111,0,0,0,0,0,0,0,0,0,0,0,0
1.4575,1.3936,1.4111,0,0,0,0,0,0,0,0,0,0,0,0
1.4575,1.3936,1.4111,0,0,0,0,0,0,0,0,0,0,0,0
1.4575,1.3936,1.4111,0,0,0,0,0,0,0,0,0,0,0,0
1.4575,1.3936,1.4111,0,0,0,0,0,0,0,0,0,0,0,0
1.4575,1.3936,1.4111,0,0,0,0,0,0,0,0,0,0,0,0
1.4575,1.3936,1.4111,0,0,0,0,0,0,0,0,0,0,0,0
1.4575,1.3936,1.4111,0,0,0,0,0,0,0,0,0,0,0,0
1.4575,1.3936,1.4111,0,0,0,0,0,0,0,0,0,0,0,0
1.4575,1.3936,1.4111,0,0,0,0,0,0,0,0,0,0,0,0
1.4575,1.3936,1.4111,0,0,0,0,0,0,0,0,0,0,0,0
1.4575,1.3936,1.4111,0,0,0,0,0,0,0,0,0,0,0,0
1.4575,1.3936,1.4111,0,0,0,0,0,0,0,0,0,0,0,0
1.4575,1.3936,1.4111,0,0,0,0,0,0,0,0,0,0,0,0
1.4575,1.3936,1.4111,0,0,0,0,0,0,0,0,0,0,0,0
1.4575,1.3936,1.4111,0,0,0,0,0,0,0,0,0,0,0,0
1.4575,1.3936,1.4111,0,0,0,0,0,0,0,0,0,0,0,0
1.4575,1.3936,1.4111,0,0,0,0,0,0,0,0,0,0,0,0
1.4575,1.3936,1.4111,0,0,0,0,0,0,0,0,0,0,0,0
1.4575,1.3936,1.4111,0,0,0,0,0,0,0,0,0,0,0,0
1.4575,1.3936,1.4111,0,0,0,0,0,0,0,0,0,0,0,0
1.4575,1.3936,1.4111,0,0,0,0,0,0,0,0,0,0,0,0
1.4575,1.3936,1.4111,0,0,0,0,0,0,0,0,0,0,0,0
1.4575,1.3936,1.4111,0,0,0,0,0,0,0,0,0,0,0,0
1.4575,1.3936,1.4111,0,0,0,0,0,0,0,0,0,0,0,0
1.4575,1.3936,1.4111,0,0,0,0,0,0,0,0,0,0,0,0
1.4575,1.3936,1.4111,0,0,0,0,0,0,0,0,0,0,0,0
1.4575,1.3936,1.4111,0,0,0,0,0,0,0,0,0,0,0,0
1.4575,1.3936,1.4111,0,0,0,0,0,0,0,0,0,0,0,0
1.4575,1.3936,1.4111,0,0,0,0,0,0,0,0,0,0,0,0
1.4575,1.3936,1.4111,0,0,0,0,0,0,0,0,0,0,0,0
1.4575,1.3936,1.4111,0,0,0,0,0,0,0,0,0,0,0,0
1.4575,1.3936,1.4111,0,0,0,0,0,0,0,0,0,0,0,0
1.4575,1.3936,1.4111,0,0,0,0,0,0,0,0,0,0,0,0
1.4575,1.3936,1.4111,0,0,0,0,0,0,0,0,0,0,0,0
1.4575,1.3936,1.4111,0,0,0,0,0,0,0,0,0,0,0,0
1.4575,1.3936,1.4111,0,0,0,0,0,0,0,0,0,0,0,0
1.4575,1.3936,1.4111,0,0,0,0,0,0,0,0,0,0,0,0
1.4575,1.3936,1.4111,0,0,0,0,0,0,0,0,0,0,0,0
1.4575,1.3936,1.4111,0,0,0,0,0,0,0,0,0,0,0,0
1.4575,1.3936,1.4111,0,0,0,0,0,0,0,0,0,0,0,0
1.4575,1.3936,1.4111,0,0,0,0,0,0,0,0,0,0,0,0
1.4575,1.3936,1.4111,0,0,0,0,0,0,0,0,0,0,0,0
1.4575,1.3936,1.4111,0,0,0,0,0,0,0,0,0,0,0,0
1.4575,1.3936,1.4111,0,0,0,0,0,0,0,0,0,0,0,0
1.4575,1.3936,1.4111,0,0,0,0,0,0,0,0,0,0,0,0
1.4575,1.3936,1.4111,0,0,0,0,0,0,0,0,0,0,0,0
1.4575,1.3936,1.4111,0,0,0,0,0,0,0,0,0,0,0,0
1.4575,1.3936,1.4111,0,0,0,0,0,0,0,0,0,0,0,0
1.4575,1.3936,1.4111,0,0,0,0,0,0,0,0,0,0,0,0
1.4575,1.3936,1.4111,0,0,0,0,0,0,0,0,0,0,0,0
1.4575,1.3936,1.4111,0,0,0,0,0,0,0,0,0,0,0,0
1.4575,1.3936,1.4111,0,0,0,0,0,0,0,0,0,0,0,0
1.4575,1.3936,1.4111,0,0,0,0,0,0,0,0,0,0,0,0
1.4575,1.3936,1.4111,0,0,0,0,0,0,0,0,0,0,0,0
1.4575,1.3936,1.4111,0,0,0,0,0,0,0,0,0,0,0,0
1.4575,1.3936,1.4111,0,0,0,0,0,0,0,0,0,0,0,0
1.4575,1.3936,1.4111,0,0,0,0,0,0,0,0,0,0,0,0
1.4575,1.3936,1.4111,0,0,0,0,0,0,0,0,0,0,0,0
1.4575,1.3936,1.4111,0,0,0,0,0,0,0,0,0,0,0,0
1.4575,1.3936,1.4111,0,0,0,0,0,0,0,0,0,0,0,0
1.4575,1.3936,1.4111,0,0,0,0,0,0,0,0,0,0,0,0
1.4575,1.3936,1.4111,0,0,0,0,0,0,0,0,0,0,0,0
1.4575,1.3936,1.4111,0,0,0,0,0,0,0,0,0,0,0,0
1.4575,1.3936,1.4111,0,0,0,0,0,0,0,0,0,0,0,0
1.4575,1.3936,1.4111,0,0,0,0,0,0,0,0,0,0,0,0
1.4575,1.3936,1.4111,0,0,0,0,0,0,0,0,0,0,0,0
1.4575,1.3936,1.4111,0,0,0,0,0,0,0,0,0,0,0,0
1.4575,1.3936,1.4111,0,0,0,0,0,0,0,0,0,0,0,0
1.4575,1.3936,1.4111,0,0,0,0,0,0,0,0,0,0,0,0
1.4575,1.3936,1.4111,0,0,0,0,0,0,0,0,0,0,0,0
1.4575,1.3936,1.4111,0,0,0,0,0,0,0,0,0,0,0,0
1.4575,1.3936,1.4111,0,0,0,0,0,0,0,0,0,0,0,0
1.4575,1.3936,1.4111,0,0,0,0,0,0,0,0,0,0,0,0
1.4575,1.3936,1.4111,0,0,0,0,0,0,0,0,0,0,0,0
1.4575,1.3936,1.4111,0,0,0,0,0,0,0,0,0,0,0,0
1.4575,1.3936,1.4111,0,0,0,0,0,0,0,0,0,0,0,0
1.4575,1.3936,1.4111,0,0,0,0,0,0,0,0,0,0,0,0
1.4575,1.3936,1.4111,0,0,0,0,0,0,0,0,0,0,0,0
1.4575,1.3936,1.4111,0,0,0,0,0,0,0,0,0,0,0,0
1.4575,1.3936,1.4111,0,0,0,0,0,0,0,0,0,0,0,0
1.4575,1.3936,1.4111,0,0,0,0,0,0,0,0,0,0,0,0
1.4575,1.3936,1.4111,0,0,0,0,0,0,0,0,0,0,0,0
1.4575,1.3936,1.4111,0,0,0,0,0,0,0,0,0,0,0,0
1.4575,1.3936,1.4111,0,0,0,0,0,0,0,0,0,0,0,0
1.4575,1.3936,1.4111,0,0,0,0,0,0,0,0,0,0,0,0
1.4575,1.3936,1.4111,0,0,0,0,0,0,0,0,0,0,0,0
1.4575,1.3936,1.4111,0,0,0,0,0,0,0,0,0,0,0,0
1.4575,1.3936,1.4111,0,0,0,0,0,0,0,0,0,0,0,0
1.4575,1.3936,1.4111,0,0,0,0,0,0,0,0,0,0,0,0
1.4575,1.3936,1.4111,0,0,0,0,0,0,0,0,0,0,0,0
1.4575,1.3936,1.4111,0,0,0,0,0,0,0,0,0,0,0,0
1.4575,1.3936,1.4111,0,0,0,0,0,0,0,0,0,0,0,0
1.4575,1.3936,1.4111,0,0,0,0,0,0,0,0,0,0,0,0
1.4575,1.3936,1.4111,0,0,0,0,0,0,0,0,0,0,0,0
1.4575,1.3936,1.4111,0,0,0,0,0,0,0,0,0,0,0,0
1.4575,1.3936,1.4111,0,0,0,0,0,0,0,0,0,0,0,0
1.4575,1.3936,1.4111,0,0,0,0,0,0,0,0,0,0,0,0
1.4575,1.3936,1.4111,0,0,0,0,0,0,0,0,0,0,0,0
1.4575,1.3936,1.4111,0,0,0,0,0,0,0,0,0,0,0,0
1.4575,1.3936,1.4111,0,0,0,0,0,0,0,0,0,0,0,0
1.4575,1.3936,1.4111,0,0,0,0,0,0,0,0,0,0,0,0
1.4575,1.3936,1.4111,0,0,0,0,0,0,0,0,0,0,0,0
1.4575,1.3936,1.4111,0,0,0,0,0,0,0,0,0,0,0,0
1.4575,1.3936,1.4111,0,0,0,0,0,0,0,0,0,0,0,0
1.4575,1.3936,1.4111,0,0,0,0,0,0,0,0,0,0,0,0
1.4575,1.3936,1.4111,0,0,0,0,0,0,0,0,0,0,0,0
1.4575,1.3936,1.4111,0,0,0,0,0,0,0,0,0,0,0,0
1.4575,1.3936,1.4111,0,0,0,0,0,0,0,0,0,0,0,0
1.4575,1.3936,1.4111,0,0,0,0,0,0,0,0,0,0,0,0
1.4575,1.3936,1.4111,0,0,0,0,0,0,0,0,0,0,0,0
1.4575,1.3936,1.4111,0,0,0,0,0,0,0,0,0,0,0,0
1.4575,1.3936,1.4111,0,0,0,0,0,0,0,0,0,0,0,0
1.4575,1.3936,1.4111,0,0,0,0,0,0,0,0,0,0,0,0
1.4575,1.3936,1.4111,0,0,0,0,0,0,0,0,0,0,0,0
1.4575,1.3936,1.4111,0,0,0,0,0,0,0,0,0,0,0,0
1.4575,1.3936,1.4111,0,0,0,0,0,0,0,0,0,0,0,0
1.4575,1.3936,1.4111,0,0,0,0,0,0,0,0,0,0,0,0
1.4575,1.3936,1.4111,0,0,0,0,0,0,0,0,0,0,0,0
1.4575,1.3936,1.4111,0,0,0,0,0,0,0,0,0,0,0,0
1.4575,1.3936,1.4111,0,0,0,0,0,0,0,0,0,0,0,0
1.4575,1.3936,1.4111,0,0,0,0,0,0,0,0,0,0,0,0
1.4575,1.3936,1.4111,0,0,0,0,0,0,0,0,0,0,0,0
1.4575,1.3936,1.4111,0,0,0,0,0,0,0,0,0,0,0,0
1.4575,1.3936,1.4111,0,0,0,0,0,0,0,0,0,0,0,0
1.4575,1.3936,1.4111,0,0,0,0,0,0,0,0,0,0,0,0
1.4575,1.3936,1.4111,0,0,0,0,0,0,0,0,0,0,0,0
1.4575,1.3936,1.4111,0,0,0,0,0,0,0,0,0,0,0,0
1.4575,1.3936,1.4111,0,0,0,0,0,0,0,0,0,0,0,0
1.4575,1.3936,1.4111,0,0,0,0,0,0,0,0,0,0,0,0
1.4575,1.3936,1.4111,0,0,0,0,0,0,0,0,0,0,0,0
1.4575,1.3936,1.4111,0,0,0,0,0,0,0,0,0,0,0,0
1.4575,1.3936,1.4111,0,0,0,0,0,0,0,0,0,0,0,0
1.4575,1.3936,1.4111,0,0,0,0,0,0,0,0,0,0,0,0
1.4575,1.3936,1.4111,0,0,0,0,0,0,0,0,0,0,0,0
1.4575,1.3936,1.4111,0,0,0,0,0,0,0,0,0,0,0,0
1.4575,1.3936,1.4111,0,0,0,0,0,0,0,0,0,0,0,0
1.4575,1.3936,1.4111,0,0,0,0,0,0,0,0,0,0,0,0
1.4575,1.3936,1.4111,0,0,0,0,0,0,0,0,0,0,0,0
1.4575,1.3936,1.4111,0,0,0,0,0,0,0,0,0,0,0,0
1.4575,1.3936,1.4111,0,0,0,0,0,0,0,0,0,0,0,0
1.4575,1.3936,1.4111,0,0,0,0,0,0,0,0,0,0,0,0
1.4575,1.3936,1.4111,0,0,0,0,0,0,0,0,0,0,0,0
1.4575,1.3936,1.4111,0,0,0,0,0,0,0,0,0,0,0,0
1.4575,1.3936,1.4111,0,0,0,0,0,0,0,0,0,0,0,0
1.4575,1.3936,1.4111,0,0,0,0,0,0,0,0,0,0,0,0
1.4575,1.3936,1.4111,0,0,0,0,0,0,0,0,0,0,0,0
1.4575,1.3936,1.4111,0,0,0,0,0,0,0,0,0,0,0,0
1.4575,1.3936,1.4111,0,0,0,0,0,0,0,0,0,0,0,0
1.4575,1.3936,1.4111,0,0,0,0,0,0,0,0,0,0,0,0
1.4575,1.3936,1.4111,0,0,0,0,0,0,0,0,0,0,0,0
1.4575,1.3936,1.4111,0,0,0,0,0,0,0,0,0,0,0,0
1.4575,1.3936,1.4111,0,0,0,0,0,0,0,0,0,0,0,0
1.4575,1.3936,1.4111,0,0,0,0,0,0,0,0,0,0,0,0
1.4575,1.3936,1.4111,0,0,0,0,0,0,0,0,0,0,0,0
1.4575,1.3936,1.4111,0,0,0,0,0,0,0,0,0,0,0,0
1.4575,1.3936,1.4111,0,0,0,0,0,0,0,0,0,0,0,0
1.4575,1.3936,1.4111,0,0,0,0,0,0,0,0,0,0,0,0
1.4575,1.3936,1.4111,0,0,0,0,0,0,0,0,0,0,0,0
1.4575,1.3936,1.4111,0,0,0,0,0,0,0,0,0,0,0,0
1.4575,1.3936,1.4111,0,0,0,0,0,0,0,0,0,0,0,0
1.4575,1.3936,1.4111,0,0,0,0,0,0,0,0,0,0,0,0
1.4575,1.3936,1.4111,0,0,0,0,0,0,0,0,0,0,0,0
1.4575,1.3936,1.4111,0,0,0,0,0,0,0,0,0,0,0,0
1.4575,1.3936,1.4111,0,0,0,0,0,0,0,0,0,0,0,0
1.4575,1.3936,1.4111,0,0,0,0,0,0,0,0,0,0,0,0
1.4575,1.3936,1.4111,0,0,0,0,0,0,0,0,0,0,0,0
1.4575,1.3936,1.4111,0,0,0,0,0,0,0,0,0,0,0,0
1.4575,1.3936,1.4111,0,0,0,0,0,0,0,0,0,0,0,0
1.4575,1.3936,1.4111,0,0,0,0,0,0,0,0,0,0,0,0
1.4575,1.3936,1.4111,0,0,0,0,0,0,0,0,0,0,0,0
1.4575,1.3936,1.4111,0,0,0,0,0,0,0,0,0,0,0,0
1.4575,1.3936,1.4111,0,0,0,0,0,0,0,0,0,0,0,0
1.4575,1.3936,1.4111,0,0,0,0,0,0,0,0,0,0,0,0
1.4575,1.3936,1.4111,0,0,0,0,0,0,0,0,0,0,0,0
1.4575,1.3936,1.4111,0,0,0,0,0,0,0,0,0,0,0,0
1.4575,1.3936,1.4111,0,0,0,0,0,0,0,0,0,0,0,0
1.4575,1.3936,1.4111,0,0,0,0,0,0,0,0,0,0,0,0
1.4575,1.3936,1.4111,0,0,0,0,0,0,0,0,0,0,0,0
1.4575,1.3936,1.4111,0,0,0,0,0,0,0,0,0,0,0,0
1.4575,1.3936,1.4111,0,0,0,0,0,0,0,0,0,0,0,0
1.4575,1.3936,1.4111,0,0,0,0,0,0,0,0,0,0,0,0
1.4575,1.3936,1.4111,0,0,0,0,0,0,0,0,0,0,0,0
1.4575,1.3936,1.4111,0,0,0,0,0,0,0,0,0,0,0,0
1.4575,1.3936,1.4111,0,0,0,0,0,0,0,0,0,0,0,0
1.4575,1.3936,1.4111,0,0,0,0,0,0,0,0,0,0,0,0
1.4575,1.3936,1.4111,0,0,0,0,0,0,0,0,0,0,0,0
1.4575,1.3936,1.4111,0,0,0,0,0,0,0,0,0,0,0,0
1.4575,1.3936,1.4111,0,0,0,0,0,0,0,0,0,0,0,0
1.4575,1.3936,1.4111,0,0,0,0,0,0,0,0,0,0,0,0
1.4575,1.3936,1.4111,0,0,0,0,0,0,0,0,0,0,0,0
1.4575,1.3936,1.4111,0,0,0,0,0,0,0,0,0,0,0,0
1.4575,1.3936,1.4111,0,0,0,0,0,0,0,0,0,0,0,0
1.4575,1.3936,1.4111,0,0,0,0,0,0,0,0,0,0,0,0
1.4575,1.3936,1.4111,0,0,0,0,0,0,0,0,0,0,0,0
1.4575,1.3936,1.4111,0,0,0,0,0,0,0,0,0,0,0,0
1.4575,1.3936,1.4111,0,0,0,0,0,0,0,0,0,0,0,0
1.4575,1.3936,1.4111,0,0,0,0,0,0,0,0,0,0,0,0
1.4575,1.3936,1.4111,0,0,0,0,0,0,0,0,0,0,0,0
1.4575,1.3936,1.4111,0,0,0,0,0,0,0,0,0,0,0,0
1.4575,1.3936,1.4111,0,0,0,0,0,0,0,0,0,0,0,0
1.4575,1.3936,1.4111,0,0,0,0,0,0,0,0,0,0,0,0
1.4575,1.3936,1.4111,0,0,0,0,0,0,0,0,0,0,0,0
1.4575,1.3936,1.4111,0,0,0,0,0,0,0,0,0,0,0,0
1.4575,1.3936,1.4111,0,0,0,0,0,0,0,0,0,0,0,0
1.4575,1.3936,1.4111,0,0,0,0,0,0,0,0,0,0,0,0
1.4575,1.3936,1.4111,0,0,0,0,0,0,0,0,0,0,0,0
1.4575,1.3936,1.4111,0,0,0,0,0,0,0,0,0,0,0,0
1.4575,1.3936,1.4111,0,0,0,0,0,0,0,0,0,0,0,0
1.4575,1.3936,1.4111,0,0,0,0,0,0,0,0,0,0,0,0
1.4575,1.3936,1.4111,0,0,0,0,0,0,0,0,0,0,0,0
1.4575,1.3936,1.4111,0,0,0,0,0,0,0,0,0,0,0,0
1.4575,1.3936,1.4111,0,0,0,0,0,0,0,0,0,0,0,0
1.4575,1.3936,1.4111,0,0,0,0,0,0,0,0,0,0,0,0
1.4575,1.3936,1.4111,0,0,0,0,0,0,0,0,0,0,0,0
1.4575,1.3936,1.4111,0,0,0,0,0,0,0,0,0,0,0,0
1.4575,1.3936,1.4111,0,0,0,0,0,0,0,0,0,0,0,0
1.4575,1.3936,1.4111,0,0,0,0,0,0,0,0,0,0,0,0
1.4575,1.3936,1.4111,0,0,0,0,0,0,0,0,0,0,0,0
1.4575,1.3936,1.4111,0,0,0,0,0,0,0,0,0,0,0,0
1.4575,1.3936,1.4111,0,0,0,0,0,0,0,0,0,0,0,0
1.4575,1.3936,1.4111,0,0,0,0,0,0,0,0,0,0,0,0
1.4575,1.3936,1.4111,0,0,0,0,0,0,0,0,0,0,0,0
1.4575,1.3936,1.4111,0,0,0,0,0,0,0,0,0,0,0,0
1.4575,1.3936,1.4111,0,0,0,0,0,0,0,0,0,0,0,0
1.4575,1.3936,1.4111,0,0,0,0,0,0,0,0,0,0,0,0
1.4575,1.3936,1.4111,0,0,0,0,0,0,0,0,0,0,0,0
1.4575,1.3936,1.4111,0,0,0,0,0,0,0,0,0,0,0,0
1.4575,1.3936,1.4111,0,0,0,0,0,0,0,0,0,0,0,0
1.4575,1.3936,1.4111,0,0,0,0,0,0,0,0,0,0,0,0
1.4575,1.3936,1.4111,0,0,0,0,0,0,0,0,0,0,0,0
1.4575,1.3936,1.4111,0,0,0,0,0,0,0,0,0,0,0,0
1.4575,1.3936,1.4111,0,0,0,0,0,0,0,0,0,0,0,0
1.4575,1.3936,1.4111,0,0,0,0,0,0,0,0,0,0,0,0
1.4575,1.3936,1.4111,0,0,0,0,0,0,0,0,0,0,0,0
1.4575,1.3936,1.4111,0,0,0,0,0,0,0,0,0,0,0,0
1.4575,1.3936,1.4111,0,0,0,0,0,0,0,0,0,0,0,0
1.4575,1.3936,1.4111,0,0,0,0,0,0,0,0,0,0,0,0
1.4575,1.3936,1.4111,0,0,0,0,0,0,0,0,0,0,0,0
1.4575,1.3936,1.4111,0,0,0,0,0,0,0,0,0,0,0,0
1.4575,1.3936,1.4111,0,0,0,0,0,0,0,0,0,0,0,0
1.4575,1.3936,1.4111,0,0,0,0,0,0,0,0,0,0,0,0
1.4575,1.3936,1.4111,0,0,0,0,0,0,0,0,0,0,0,0
1.4575,1.3936,1.4111,0,0,0,0,0,0,0,0,0,0,0,0
1.4575,1.3936,1.4111,0,0,0,0,0,0,0,0,0,0,0,0
1.4575,1.3936,1.4111,0,0,0,0,0,0,0,0,0,0,0,0
1.4575,1.3936,1.4111,0,0,0,0,0,0,0,0,0,0,0,0
1.4575,1.3936,1.4111,0,0,0,0,0,0,0,0,0,0,0,0
1.4575,1.3936,1.4111,0,0,0,0,0,0,0,0,0,0,0,0
1.4575,1.3936,1.4111,0,0,0,0,0,0,0,0,0,0,0,0
1.4575,1.3936,1.4111,0,0,0,0,0,0,0,0,0,0,0,0
1.4575,1.3936,1.4111,0,0,0,0,0,0,0,0,0,0,0,0
1.4575,1.3936,1.4111,0,0,0,0,0,0,0,0,0,0,0,0
1.4575,1.3936,1.4111,0,0,0,0,0,0,0,0,0,0,0,0
