1
337.500000,119.000000,17.000000,24.000000
333.500000,119.000000,17.000000,24.000000
325.500000,119.000000,17.000000,24.000000
321.500000,119.000000,17.000000,24.000000
317.500000,119.000000,17.000000,24.000000
313.500000,119.000000,17.000000,24.000000
309.500000,119.000000,17.000000,24.000000
305.500000,115.000000,17.000000,24.000000
301.500000,115.000000,17.000000,24.000000
301.500000,115.000000,17.000000,24.000000
297.500000,115.000000,17.000000,24.000000
293.500000,115.000000,17.000000,24.000000
289.500000,115.000000,17.000000,24.000000
289.500000,115.000000,17.000000,24.000000
285.500000,115.000000,17.000000,24.000000
281.500000,115.000000,17.000000,24.000000
281.500000,115.000000,17.000000,24.000000
277.500000,115.000000,17.000000,24.000000
277.500000,115.000000,17.000000,24.000000
273.500000,115.000000,17.000000,24.000000
269.500000,115.000000,17.000000,24.000000
265.500000,115.000000,17.000000,24.000000
261.500000,115.000000,17.000000,24.000000
257.500000,115.000000,17.000000,24.000000
253.500000,115.000000,17.000000,24.000000
249.500000,115.000000,17.000000,24.000000
241.500000,115.000000,17.000000,24.000000
237.500000,115.000000,17.000000,24.000000
233.500000,115.000000,17.000000,24.000000
229.500000,115.000000,17.000000,24.000000
221.500000,115.000000,17.000000,24.000000
217.500000,115.000000,17.000000,24.000000
213.500000,115.000000,17.000000,24.000000
209.500000,115.000000,17.000000,24.000000
205.500000,115.000000,17.000000,24.000000
201.500000,115.000000,17.000000,24.000000
197.500000,115.000000,17.000000,24.000000
193.500000,115.000000,17.000000,24.000000
189.500000,119.000000,17.000000,24.000000
185.500000,119.000000,17.000000,24.000000
181.500000,119.000000,17.000000,24.000000
177.500000,119.000000,17.000000,24.000000
173.500000,119.000000,17.000000,24.000000
169.500000,119.000000,17.000000,24.000000
165.500000,119.000000,17.000000,24.000000
161.500000,119.000000,17.000000,24.000000
157.500000,123.000000,17.000000,24.000000
153.500000,123.000000,17.000000,24.000000
153.500000,123.000000,17.000000,24.000000
153.500000,123.000000,17.000000,24.000000
153.500000,127.000000,17.000000,24.000000
149.500000,127.000000,17.000000,24.000000
149.500000,127.000000,17.000000,24.000000
149.500000,127.000000,17.000000,24.000000
149.500000,131.000000,17.000000,24.000000
153.500000,127.000000,17.000000,24.000000
153.500000,127.000000,17.000000,24.000000
157.500000,127.000000,17.000000,24.000000
157.500000,127.000000,17.000000,24.000000
157.500000,127.000000,17.000000,24.000000
161.500000,127.000000,17.000000,24.000000
161.500000,127.000000,17.000000,24.000000
165.500000,131.000000,17.000000,24.000000
165.500000,131.000000,17.000000,24.000000
169.500000,135.000000,17.000000,24.000000
169.500000,135.000000,17.000000,24.000000
173.500000,135.000000,17.000000,24.000000
177.500000,135.000000,17.000000,24.000000
181.500000,135.000000,17.000000,24.000000
185.500000,135.000000,17.000000,24.000000
189.500000,139.000000,17.000000,24.000000
193.500000,139.000000,17.000000,24.000000
197.500000,139.000000,17.000000,24.000000
201.500000,139.000000,17.000000,24.000000
205.500000,139.000000,17.000000,24.000000
209.500000,139.000000,17.000000,24.000000
213.500000,143.000000,17.000000,24.000000
217.500000,143.000000,17.000000,24.000000
225.500000,143.000000,17.000000,24.000000
229.500000,143.000000,17.000000,24.000000
237.500000,143.000000,17.000000,24.000000
241.500000,143.000000,17.000000,24.000000
249.500000,143.000000,17.000000,24.000000
253.500000,143.000000,17.000000,24.000000
257.500000,143.000000,17.000000,24.000000
265.500000,143.000000,17.000000,24.000000
269.500000,143.000000,17.000000,24.000000
273.500000,143.000000,17.000000,24.000000
281.500000,147.000000,17.000000,24.000000
285.500000,147.000000,17.000000,24.000000
289.500000,147.000000,17.000000,24.000000
289.500000,147.000000,17.000000,24.000000
293.500000,147.000000,17.000000,24.000000
293.500000,143.000000,17.000000,24.000000
293.500000,143.000000,17.000000,24.000000
297.500000,143.000000,17.000000,24.000000
297.500000,143.000000,17.000000,24.000000
297.500000,143.000000,17.000000,24.000000
297.500000,143.000000,17.000000,24.000000
297.500000,143.000000,17.000000,24.000000
297.500000,143.000000,17.000000,24.000000
297.500000,143.000000,17.000000,24.000000
297.500000,143.000000,17.000000,24.000000
297.500000,139.000000,17.000000,24.000000
297.500000,139.000000,17.000000,24.000000
297.500000,139.000000,17.000000,24.000000
297.500000,139.000000,17.000000,24.000000
297.500000,139.000000,17.000000,24.000000
297.500000,139.000000,17.000000,24.000000
301.500000,139.000000,17.000000,24.000000
301.500000,139.000000,17.000000,24.000000
301.500000,139.000000,17.000000,24.000000
301.500000,139.000000,17.000000,24.000000
301.500000,139.000000,17.000000,24.000000
305.500000,139.000000,17.000000,24.000000
305.500000,139.000000,17.000000,24.000000
305.500000,139.000000,17.000000,24.000000
305.500000,139.000000,17.000000,24.000000
305.500000,139.000000,17.000000,24.000000
305.500000,139.000000,17.000000,24.000000
305.500000,139.000000,17.000000,24.000000
305.500000,139.000000,17.000000,24.000000
305.500000,139.000000,17.000000,24.000000
305.500000,135.000000,17.000000,24.000000
305.500000,135.000000,17.000000,24.000000
309.500000,135.000000,17.000000,24.000000
309.500000,135.000000,17.000000,24.000000
309.500000,135.000000,17.000000,24.000000
309.500000,135.000000,17.000000,24.000000
309.500000,135.000000,17.000000,24.000000
309.500000,135.000000,17.000000,24.000000
309.500000,135.000000,17.000000,24.000000
309.500000,135.000000,17.000000,24.000000
309.500000,135.000000,17.000000,24.000000
313.500000,135.000000,17.000000,24.000000
313.500000,135.000000,17.000000,24.000000
313.500000,135.000000,17.000000,24.000000
313.500000,135.000000,17.000000,24.000000
313.500000,135.000000,17.000000,24.000000
313.500000,135.000000,17.000000,24.000000
313.500000,135.000000,17.000000,24.000000
313.500000,135.000000,17.000000,24.000000
313.500000,135.000000,17.000000,24.000000
313.500000,135.000000,17.000000,24.000000
313.500000,131.000000,17.000000,24.000000
313.500000,131.000000,17.000000,24.000000
313.500000,131.000000,17.000000,24.000000
313.500000,131.000000,17.000000,24.000000
313.500000,131.000000,17.000000,24.000000
313.500000,131.000000,17.000000,24.000000
313.500000,131.000000,17.000000,24.000000
313.500000,131.000000,17.000000,24.000000
313.500000,131.000000,17.000000,24.000000
313.500000,131.000000,17.000000,24.000000
313.500000,131.000000,17.000000,24.000000
313.500000,131.000000,17.000000,24.000000
313.500000,131.000000,17.000000,24.000000
313.500000,131.000000,17.000000,24.000000
313.500000,131.000000,17.000000,24.000000
313.500000,131.000000,17.000000,24.000000
313.500000,127.000000,17.000000,24.000000
313.500000,127.000000,17.000000,24.000000
313.500000,127.000000,17.000000,24.000000
313.500000,127.000000,17.000000,24.000000
313.500000,127.000000,17.000000,24.000000
313.500000,127.000000,17.000000,24.000000
313.500000,127.000000,17.000000,24.000000
313.500000,127.000000,17.000000,24.000000
313.500000,127.000000,17.000000,24.000000
313.500000,127.000000,17.000000,24.000000
313.500000,127.000000,17.000000,24.000000
313.500000,127.000000,17.000000,24.000000
313.500000,127.000000,17.000000,24.000000
313.500000,127.000000,17.000000,24.000000
313.500000,127.000000,17.000000,24.000000
313.500000,127.000000,17.000000,24.000000
313.500000,127.000000,17.000000,24.000000
313.500000,127.000000,17.000000,24.000000
313.500000,127.000000,17.000000,24.000000
313.500000,127.000000,17.000000,24.000000
313.500000,127.000000,17.000000,24.000000
313.500000,127.000000,17.000000,24.000000
309.500000,123.000000,17.000000,24.000000
309.500000,123.000000,17.000000,24.000000
309.500000,123.000000,17.000000,24.000000
309.500000,123.000000,17.000000,24.000000
309.500000,123.000000,17.000000,24.000000
309.500000,123.000000,17.000000,24.000000
309.500000,123.000000,17.000000,24.000000
309.500000,123.000000,17.000000,24.000000
309.500000,123.000000,17.000000,24.000000
309.500000,123.000000,17.000000,24.000000
309.500000,123.000000,17.000000,24.000000
309.500000,123.000000,17.000000,24.000000
309.500000,123.000000,17.000000,24.000000
309.500000,123.000000,17.000000,24.000000
309.500000,123.000000,17.000000,24.000000
313.500000,123.000000,17.000000,24.000000
313.500000,123.000000,17.000000,24.000000
313.500000,123.000000,17.000000,24.000000
313.500000,123.000000,17.000000,24.000000
313.500000,123.000000,17.000000,24.000000
313.500000,123.000000,17.000000,24.000000
313.500000,123.000000,17.000000,24.000000
313.500000,123.000000,17.000000,24.000000
313.500000,123.000000,17.000000,24.000000
313.500000,123.000000,17.000000,24.000000
313.500000,123.000000,17.000000,24.000000
313.500000,123.000000,17.000000,24.000000
313.500000,123.000000,17.000000,24.000000
313.500000,123.000000,17.000000,24.000000
309.500000,119.000000,17.000000,24.000000
309.500000,119.000000,17.000000,24.000000
309.500000,119.000000,17.000000,24.000000
309.500000,119.000000,17.000000,24.000000
309.500000,115.000000,17.000000,24.000000
309.500000,115.000000,17.000000,24.000000
309.500000,115.000000,17.000000,24.000000
309.500000,115.000000,17.000000,24.000000
309.500000,115.000000,17.000000,24.000000
309.500000,115.000000,17.000000,24.000000
309.500000,115.000000,17.000000,24.000000
305.500000,115.000000,17.000000,24.000000
305.500000,115.000000,17.000000,24.000000
305.500000,115.000000,17.000000,24.000000
305.500000,115.000000,17.000000,24.000000
305.500000,115.000000,17.000000,24.000000
305.500000,115.000000,17.000000,24.000000
301.500000,115.000000,17.000000,24.000000
301.500000,115.000000,17.000000,24.000000
297.500000,115.000000,17.000000,24.000000
297.500000,115.000000,17.000000,24.000000
297.500000,115.000000,17.000000,24.000000
297.500000,115.000000,17.000000,24.000000
297.500000,115.000000,17.000000,24.000000
293.500000,115.000000,17.000000,24.000000
293.500000,115.000000,17.000000,24.000000
293.500000,115.000000,17.000000,24.000000
293.500000,115.000000,17.000000,24.000000
293.500000,115.000000,17.000000,24.000000
289.500000,115.000000,17.000000,24.000000
289.500000,115.000000,17.000000,24.000000
289.500000,115.000000,17.000000,24.000000
289.500000,115.000000,17.000000,24.000000
289.500000,115.000000,17.000000,24.000000
289.500000,115.000000,17.000000,24.000000
285.500000,115.000000,17.000000,24.000000
285.500000,115.000000,17.000000,24.000000
285.500000,115.000000,17.000000,24.000000
2
0
0
0
0
1
264.299988,109.229996,13.000000,25.799995
260.299988,109.229996,13.000000,25.799995
260.299988,109.229996,13.000000,25.799995
260.299988,109.229996,13.000000,25.799995
260.299988,109.229996,13.000000,25.799995
260.299988,109.229996,13.000000,25.799995
256.299988,109.229996,13.000000,25.799995
256.299988,109.229996,13.000000,25.799995
256.299988,109.229996,13.000000,25.799995
256.299988,109.229996,13.000000,25.799995
252.299988,109.229996,13.000000,25.799995
252.299988,109.229996,13.000000,25.799995
252.299988,109.229996,13.000000,25.799995
252.299988,109.229996,13.000000,25.799995
248.299988,109.229996,13.000000,25.799995
248.299988,109.229996,13.000000,25.799995
248.299988,109.229996,13.000000,25.799995
248.299988,109.229996,13.000000,25.799995
248.299988,109.229996,13.000000,25.799995
248.299988,109.229996,13.000000,25.799995
248.299988,109.229996,13.000000,25.799995
248.299988,109.229996,13.000000,25.799995
248.299988,109.229996,13.000000,25.799995
248.299988,109.229996,13.000000,25.799995
248.299988,109.229996,13.000000,25.799995
244.299988,109.229996,13.000000,25.799995
244.299988,109.229996,13.000000,25.799995
244.299988,109.229996,13.000000,25.799995
248.299988,109.229996,13.000000,25.799995
244.299988,109.229996,13.000000,25.799995
244.299988,109.229996,13.000000,25.799995
244.299988,109.229996,13.000000,25.799995
244.299988,109.229996,13.000000,25.799995
244.299988,109.229996,13.000000,25.799995
240.299988,109.229996,13.000000,25.799995
240.299988,109.229996,13.000000,25.799995
240.299988,109.229996,13.000000,25.799995
240.299988,109.229996,13.000000,25.799995
236.299988,109.229996,13.000000,25.799995
236.299988,109.229996,13.000000,25.799995
236.299988,109.229996,13.000000,25.799995
236.299988,109.229996,13.000000,25.799995
236.299988,109.229996,13.000000,25.799995
232.299988,109.229996,13.000000,25.799995
232.299988,109.229996,13.000000,25.799995
232.299988,109.229996,13.000000,25.799995
232.299988,109.229996,13.000000,25.799995
228.299988,109.229996,13.000000,25.799995
228.299988,109.229996,13.000000,25.799995
228.299988,109.229996,13.000000,25.799995
224.299988,109.229996,13.000000,25.799995
224.299988,109.229996,13.000000,25.799995
224.299988,109.229996,13.000000,25.799995
224.299988,109.229996,13.000000,25.799995
220.299988,109.229996,13.000000,25.799995
220.299988,109.229996,13.000000,25.799995
220.299988,109.229996,13.000000,25.799995
216.299988,109.229996,13.000000,25.799995
212.299988,109.229996,13.000000,25.799995
208.299988,109.229996,13.000000,25.799995
208.299988,109.229996,13.000000,25.799995
204.299988,109.229996,13.000000,25.799995
200.299988,109.229996,13.000000,25.799995
200.299988,109.229996,13.000000,25.799995
196.299988,109.229996,13.000000,25.799995
192.299988,109.229996,13.000000,25.799995
188.299988,109.229996,13.000000,25.799995
188.299988,109.229996,13.000000,25.799995
184.299988,109.229996,13.000000,25.799995
180.299988,109.229996,13.000000,25.799995
176.299988,109.229996,13.000000,25.799995
172.299988,109.229996,13.000000,25.799995
168.299988,109.229996,13.000000,25.799995
168.299988,109.229996,13.000000,25.799995
164.299988,109.229996,13.000000,25.799995
164.299988,109.229996,13.000000,25.799995
160.299988,109.229996,13.000000,25.799995
160.299988,109.229996,13.000000,25.799995
156.299988,109.229996,13.000000,25.799995
156.299988,109.229996,13.000000,25.799995
152.299988,109.229996,13.000000,25.799995
148.299988,109.229996,13.000000,25.799995
148.299988,109.229996,13.000000,25.799995
148.299988,109.229996,13.000000,25.799995
144.299988,109.229996,13.000000,25.799995
144.299988,109.229996,13.000000,25.799995
140.299988,109.229996,13.000000,25.799995
140.299988,109.229996,13.000000,25.799995
136.299988,109.229996,13.000000,25.799995
132.299988,109.229996,13.000000,25.799995
132.299988,109.229996,13.000000,25.799995
128.299988,109.229996,13.000000,25.799995
128.299988,109.229996,13.000000,25.799995
124.299988,109.229996,13.000000,25.799995
120.299988,109.229996,13.000000,25.799995
116.299988,109.229996,13.000000,25.799995
112.299988,109.229996,13.000000,25.799995
108.299988,109.229996,13.000000,25.799995
104.299988,109.229996,13.000000,25.799995
104.299988,109.229996,13.000000,25.799995
104.299988,109.229996,13.000000,25.799995
100.299988,109.229996,13.000000,25.799995
96.299988,109.229996,13.000000,25.799995
92.299988,109.229996,13.000000,25.799995
88.299988,109.229996,13.000000,25.799995
84.299988,109.229996,13.000000,25.799995
80.299988,109.229996,13.000000,25.799995
76.299988,109.229996,13.000000,25.799995
72.299988,109.229996,13.000000,25.799995
68.299988,109.229996,13.000000,25.799995
64.299988,109.229996,13.000000,25.799995
60.299988,109.229996,13.000000,25.799995
56.299988,109.229996,13.000000,25.799995
52.299988,109.229996,13.000000,25.799995
48.299988,109.229996,13.000000,25.799995
44.299988,109.229996,13.000000,25.799995
40.299988,109.229996,13.000000,25.799995
36.299988,109.229996,13.000000,25.799995
32.299988,109.229996,13.000000,25.799995
28.299988,109.229996,13.000000,25.799995
24.299988,109.229996,13.000000,25.799995
