1
172.619995,167.160004,114.000000,109.380005
172.619995,163.160004,114.000000,109.380005
172.619995,163.160004,114.000000,109.380005
172.619995,159.160004,114.000000,109.380005
172.619995,159.160004,114.000000,109.380005
172.619995,159.160004,114.000000,109.380005
172.619995,159.160004,114.000000,109.380005
172.619995,159.160004,114.000000,109.380005
172.619995,159.160004,114.000000,109.380005
172.619995,159.160004,114.000000,109.380005
172.619995,159.160004,114.000000,109.380005
172.619995,159.160004,114.000000,109.380005
172.619995,159.160004,114.000000,109.380005
172.619995,159.160004,114.000000,109.380005
172.619995,159.160004,114.000000,109.380005
172.619995,159.160004,114.000000,109.380005
176.619995,159.160004,114.000000,109.380005
176.619995,159.160004,114.000000,109.380005
180.619995,159.160004,114.000000,109.380005
180.619995,159.160004,114.000000,109.380005
184.619995,159.160004,114.000000,109.380005
188.619995,159.160004,114.000000,109.380005
196.619995,155.160004,114.000000,109.380005
208.619995,151.160004,114.000000,109.380005
212.619995,151.160004,114.000000,109.380005
224.619995,151.160004,114.000000,109.380005
236.619995,155.160004,114.000000,109.380005
244.619995,155.160004,114.000000,109.380005
252.619995,155.160004,114.000000,109.380005
264.619995,151.160004,114.000000,109.380005
268.619995,155.160004,114.000000,109.380005
276.619995,155.160004,114.000000,109.380005
280.619995,159.160004,114.000000,109.380005
284.619995,159.160004,114.000000,109.380005
288.619995,159.160004,114.000000,109.380005
288.619995,159.160004,114.000000,109.380005
288.619995,159.160004,114.000000,109.380005
288.619995,159.160004,114.000000,109.380005
288.619995,159.160004,114.000000,109.380005
284.619995,159.160004,114.000000,109.380005
280.619995,159.160004,114.000000,109.380005
276.619995,159.160004,114.000000,109.380005
272.619995,159.160004,114.000000,109.380005
268.619995,155.160004,114.000000,109.380005
264.619995,155.160004,114.000000,109.380005
260.619995,155.160004,114.000000,109.380005
252.619995,155.160004,114.000000,109.380005
244.619995,155.160004,114.000000,109.380005
236.619995,151.160004,114.000000,109.380005
228.619995,151.160004,114.000000,109.380005
216.619995,151.160004,114.000000,109.380005
208.619995,147.160004,114.000000,109.380005
200.619995,147.160004,114.000000,109.380005
188.619995,147.160004,114.000000,109.380005
180.619995,147.160004,114.000000,109.380005
168.619995,151.160004,114.000000,109.380005
160.619995,151.160004,114.000000,109.380005
156.619995,151.160004,114.000000,109.380005
144.619995,147.160004,114.000000,109.380005
128.619995,143.160004,114.000000,109.380005
120.619995,147.160004,114.000000,109.380005
108.619995,147.160004,114.000000,109.380005
96.619995,151.160004,114.000000,109.380005
84.619995,155.160004,114.000000,109.380005
76.619995,155.160004,114.000000,109.380005
68.619995,159.160004,114.000000,109.380005
60.619995,163.160004,114.000000,109.380005
52.619995,167.160004,114.000000,109.380005
48.619995,171.160004,114.000000,109.380005
48.619995,179.160004,114.000000,109.380005
44.619995,183.160004,114.000000,109.380005
44.619995,183.160004,114.000000,109.380005
48.619995,191.160004,114.000000,109.380005
52.619995,195.160004,114.000000,109.380005
56.619995,199.160004,114.000000,109.380005
64.619995,199.160004,114.000000,109.380005
72.619995,199.160004,114.000000,109.380005
80.619995,199.160004,114.000000,109.380005
92.619995,199.160004,114.000000,109.380005
104.619995,199.160004,114.000000,109.380005
116.619995,199.160004,114.000000,109.380005
132.619995,199.160004,114.000000,109.380005
144.619995,195.160004,114.000000,109.380005
160.619995,191.160004,114.000000,109.380005
168.619995,183.160004,114.000000,109.380005
172.619995,179.160004,114.000000,109.380005
176.619995,175.160004,114.000000,109.380005
176.619995,175.160004,114.000000,109.380005
176.619995,171.160004,114.000000,109.380005
176.619995,171.160004,114.000000,109.380005
176.619995,171.160004,114.000000,109.380005
176.619995,171.160004,114.000000,109.380005
176.619995,171.160004,114.000000,109.380005
176.619995,171.160004,114.000000,109.380005
176.619995,171.160004,114.000000,109.380005
2
0
0
0
0
1
280.500000,156.649994,102.699982,100.039993
276.500000,152.649994,102.699982,100.039993
272.500000,148.649994,102.699982,100.039993
268.500000,144.649994,102.699982,100.039993
260.500000,144.649994,102.699982,100.039993
252.500015,140.649994,102.699982,100.039993
244.500015,140.649994,102.699982,100.039993
236.500015,136.649994,102.699982,100.039993
228.500015,132.649994,102.699982,100.039993
216.500015,132.649994,102.699982,100.039993
208.500015,132.649994,102.699982,100.039993
196.500015,128.649994,102.699982,100.039993
188.500015,128.649994,102.699982,100.039993
180.500015,132.649994,102.699982,100.039993
168.500015,132.649994,102.699982,100.039993
156.500015,136.649994,102.699982,100.039993
148.500015,136.649994,102.699982,100.039993
140.500015,136.649994,102.699982,100.039993
132.500015,140.649994,102.699982,100.039993
120.500015,144.649994,102.699982,100.039993
116.500015,148.649994,102.699982,100.039993
108.500015,152.649994,102.699982,100.039993
104.500015,160.649994,102.699982,100.039993
96.500015,164.649994,102.699982,100.039993
88.500015,164.649994,102.699982,100.039993
84.500015,168.649994,102.699982,100.039993
84.500015,164.649994,102.699982,100.039993
84.500015,164.649994,102.699982,100.039993
88.500015,160.649994,102.699982,100.039993
88.500015,160.649994,102.699982,100.039993
88.500015,156.649994,102.699982,100.039993
88.500015,156.649994,102.699982,100.039993
88.500015,156.649994,102.699982,100.039993
88.500015,156.649994,102.699982,100.039993
88.500015,156.649994,102.699982,100.039993
88.500015,156.649994,102.699982,100.039993
88.500015,156.649994,102.699982,100.039993
88.500015,156.649994,102.699982,100.039993
88.500015,156.649994,102.699982,100.039993
2
0
0
0
0
1
262.074982,212.544998,112.750015,107.970001
270.074982,212.544998,112.750015,107.970001
278.074982,208.544998,112.750015,107.970001
286.074982,208.544998,112.750015,107.970001
290.074982,208.544998,112.750015,107.970001
290.074982,208.544998,112.750015,107.970001
294.074982,204.544998,112.750015,107.970001
294.074982,204.544998,112.750015,107.970001
294.074982,200.544998,112.750015,107.970001
294.074982,196.544998,112.750015,107.970001
294.074982,188.544998,112.750015,107.970001
290.074982,176.544998,112.750015,107.970001
286.074982,152.544998,112.750015,107.970001
282.074982,144.544998,112.750015,107.970001
278.074982,140.544998,112.750015,107.970001
274.074982,136.544998,112.750015,107.970001
266.074982,132.544998,112.750015,107.970001
254.074982,128.544998,112.750015,107.970001
250.074982,124.544998,112.750015,107.970001
242.074982,120.544998,112.750015,107.970001
238.074982,120.544998,112.750015,107.970001
226.074982,120.544998,112.750015,107.970001
218.074982,116.544998,112.750015,107.970001
210.074982,116.544998,112.750015,107.970001
202.074982,116.544998,112.750015,107.970001
190.074982,120.544998,112.750015,107.970001
182.074982,120.544998,112.750015,107.970001
174.074982,120.544998,112.750015,107.970001
162.074982,120.544998,112.750015,107.970001
154.074982,124.544998,112.750015,107.970001
146.074982,128.544998,112.750015,107.970001
142.074982,128.544998,112.750015,107.970001
138.074982,128.544998,112.750015,107.970001
138.074982,128.544998,112.750015,107.970001
134.074982,132.544998,112.750015,107.970001
134.074982,132.544998,112.750015,107.970001
138.074982,132.544998,112.750015,107.970001
142.074982,132.544998,112.750015,107.970001
146.074982,132.544998,112.750015,107.970001
150.074982,132.544998,112.750015,107.970001
150.074982,132.544998,112.750015,107.970001
150.074982,132.544998,112.750015,107.970001
150.074982,132.544998,112.750015,107.970001
154.074982,132.544998,112.750015,107.970001
158.074982,132.544998,112.750015,107.970001
162.074982,132.544998,112.750015,107.970001
162.074982,132.544998,112.750015,107.970001
162.074982,132.544998,112.750015,107.970001
162.074982,128.544998,112.750015,107.970001
162.074982,128.544998,112.750015,107.970001
166.074982,128.544998,112.750015,107.970001
166.074982,124.544998,112.750015,107.970001
166.074982,124.544998,112.750015,107.970001
166.074982,124.544998,112.750015,107.970001
