1.6571,1.6464,1.6344,0,0,0,0,0,0,0,0,0,0,0,0
1.6571,1.6464,1.6344,0,0,0,0,0,0,0,0,0,0,0,0
1.6571,1.6464,1.6344,0,0,0,0,0,0,0,0,0,0,0,0
1.6571,1.6464,1.6344,0,0,0,0,0,0,0,0,0,0,0,0
1.6571,1.6464,1.6344,0,0,0,0,0,0,0,0,0,0,0,0
1.6571,1.6464,1.6344,0,0,0,0,0,0,0,0,0,0,0,0
1.6571,1.6464,1.6344,0,0,0,0,0,0,0,0,0,0,0,0
1.6571,1.6464,1.6344,0,0,0,0,0,0,0,0,0,0,0,0
1.6571,1.6464,1.6344,0,0,0,0,0,0,0,0,0,0,0,0
1.6571,1.6464,1.6344,0,0,0,0,0,0,0,0,0,0,0,0
1.6571,1.6464,1.6344,0,0,0,0,0,0,0,0,0,0,0,0
1.6571,1.6464,1.6344,0,0,0,0,0,0,0,0,0,0,0,0
1.6571,1.6464,1.6344,0,0,0,0,0,0,0,0,0,0,0,0
1.6571,1.6464,1.6344,0,0,0,0,0,0,0,0,0,0,0,0
1.6571,1.6464,1.6344,0,0,0,0,0,0,0,0,0,0,0,0
1.6571,1.6464,1.6344,0,0,0,0,0,0,0,0,0,0,0,0
1.6571,1.6464,1.6344,0,0,0,0,0,0,0,0,0,0,0,0
1.6571,1.6464,1.6344,0,0,0,0,0,0,0,0,0,0,0,0
1.6571,1.6464,1.6344,0,0,0,0,0,0,0,0,0,0,0,0
1.6571,1.6464,1.6344,0,0,0,0,0,0,0,0,0,0,0,0
1.6571,1.6464,1.6344,0,0,0,0,0,0,0,0,0,0,0,0
1.6571,1.6464,1.6344,0,0,0,0,0,0,0,0,0,0,0,0
1.6571,1.6464,1.6344,0,0,0,0,0,0,0,0,0,0,0,0
1.6571,1.6464,1.6344,0,0,0,0,0,0,0,0,0,0,0,0
1.6571,1.6464,1.6344,0,0,0,0,0,0,0,0,0,0,0,0
1.6571,1.6464,1.6344,0,0,0,0,0,0,0,0,0,0,0,0
1.6571,1.6464,1.6344,0,0,0,0,0,0,0,0,0,0,0,0
1.6571,1.6464,1.6344,0,0,0,0,0,0,0,0,0,0,0,0
1.6571,1.6464,1.6344,0,0,0,0,0,0,0,0,0,0,0,0
1.6571,1.6464,1.6344,0,0,0,0,0,0,0,0,0,0,0,0
1.6571,1.6464,1.6344,0,0,0,0,0,0,0,0,0,0,0,0
1.6571,1.6464,1.6344,0,0,0,0,0,0,0,0,0,0,0,0
1.6571,1.6464,1.6344,0,0,0,0,0,0,0,0,0,0,0,0
1.6571,1.6464,1.6344,0,0,0,0,0,0,0,0,0,0,0,0
1.6571,1.6464,1.6344,0,0,0,0,0,0,0,0,0,0,0,0
1.6571,1.6464,1.6344,0,0,0,0,0,0,0,0,0,0,0,0
1.6571,1.6464,1.6344,0,0,0,0,0,0,0,0,0,0,0,0
1.6571,1.6464,1.6344,0,0,0,0,0,0,0,0,0,0,0,0
1.6571,1.6464,1.6344,0,0,0,0,0,0,0,0,0,0,0,0
1.6571,1.6464,1.6344,0,0,0,0,0,0,0,0,0,0,0,0
1.6571,1.6464,1.6344,0,0,0,0,0,0,0,0,0,0,0,0
1.6571,1.6464,1.6344,0,0,0,0,0,0,0,0,0,0,0,0
1.6571,1.6464,1.6344,0,0,0,0,0,0,0,0,0,0,0,0
1.6571,1.6464,1.6344,0,0,0,0,0,0,0,0,0,0,0,0
1.6571,1.6464,1.6344,0,0,0,0,0,0,0,0,0,0,0,0
1.6571,1.6464,1.6344,0,0,0,0,0,0,0,0,0,0,0,0
1.6571,1.6464,1.6344,0,0,0,0,0,0,0,0,0,0,0,0
1.6571,1.6464,1.6344,0,0,0,0,0,0,0,0,0,0,0,0
1.6571,1.6464,1.6344,0,0,0,0,0,0,0,0,0,0,0,0
1.6571,1.6464,1.6344,0,0,0,0,0,0,0,0,0,0,0,0
1.6571,1.6464,1.6344,0,0,0,0,0,0,0,0,0,0,0,0
1.6571,1.6464,1.6344,0,0,0,0,0,0,0,0,0,0,0,0
1.6571,1.6464,1.6344,0,0,0,0,0,0,0,0,0,0,0,0
1.6571,1.6464,1.6344,0,0,0,0,0,0,0,0,0,0,0,0
1.6571,1.6464,1.6344,0,0,0,0,0,0,0,0,0,0,0,0
1.6571,1.6464,1.6344,0,0,0,0,0,0,0,0,0,0,0,0
1.6571,1.6464,1.6344,0,0,0,0,0,0,0,0,0,0,0,0
1.6571,1.6464,1.6344,0,0,0,0,0,0,0,0,0,0,0,0
1.6571,1.6464,1.6344,0,0,0,0,0,0,0,0,0,0,0,0
1.6571,1.6464,1.6344,0,0,0,0,0,0,0,0,0,0,0,0
1.6571,1.6464,1.6344,0,0,0,0,0,0,0,0,0,0,0,0
1.6571,1.6464,1.6344,0,0,0,0,0,0,0,0,0,0,0,0
1.6571,1.6464,1.6344,0,0,0,0,0,0,0,0,0,0,0,0
1.6571,1.6464,1.6344,0,0,0,0,0,0,0,0,0,0,0,0
1.6571,1.6464,1.6344,0,0,0,0,0,0,0,0,0,0,0,0
1.6571,1.6464,1.6344,0,0,0,0,0,0,0,0,0,0,0,0
1.6571,1.6464,1.6344,0,0,0,0,0,0,0,0,0,0,0,0
1.6571,1.6464,1.6344,0,0,0,0,0,0,0,0,0,0,0,0
1.6571,1.6464,1.6344,0,0,0,0,0,0,0,0,0,0,0,0
1.6571,1.6464,1.6344,0,0,0,0,0,0,0,0,0,0,0,0
1.6571,1.6464,1.6344,0,0,0,0,0,0,0,0,0,0,0,0
1.6571,1.6464,1.6344,0,0,0,0,0,0,0,0,0,0,0,0
1.6571,1.6464,1.6344,0,0,0,0,0,0,0,0,0,0,0,0
1.6571,1.6464,1.6344,0,0,0,0,0,0,0,0,0,0,0,0
1.6571,1.6464,1.6344,0,0,0,0,0,0,0,0,0,0,0,0
1.6571,1.6464,1.6344,0,0,0,0,0,0,0,0,0,0,0,0
