1
788.500000,252.000000,85.000000,178.000000
792.500000,248.000000,85.000000,178.000000
796.500000,244.000000,85.000000,178.000000
796.500000,240.000000,85.000000,178.000000
800.500000,236.000000,85.000000,178.000000
804.500000,232.000000,85.000000,178.000000
812.500000,228.000000,85.000000,178.000000
816.500000,228.000000,85.000000,178.000000
820.500000,228.000000,85.000000,178.000000
832.500000,228.000000,85.000000,178.000000
840.500000,228.000000,85.000000,178.000000
848.500000,228.000000,85.000000,178.000000
852.500000,232.000000,85.000000,178.000000
856.500000,228.000000,85.000000,178.000000
868.500000,228.000000,85.000000,178.000000
876.500000,228.000000,85.000000,178.000000
880.500000,224.000000,85.000000,178.000000
884.500000,220.000000,85.000000,178.000000
888.500000,216.000000,85.000000,178.000000
888.500000,212.000000,85.000000,178.000000
888.500000,204.000000,85.000000,178.000000
888.500000,200.000000,85.000000,178.000000
892.500000,196.000000,85.000000,178.000000
892.500000,192.000000,85.000000,178.000000
892.500000,188.000000,85.000000,178.000000
896.500000,184.000000,85.000000,178.000000
900.500000,196.000000,85.000000,178.000000
904.500000,200.000000,85.000000,178.000000
904.500000,196.000000,85.000000,178.000000
904.500000,200.000000,85.000000,178.000000
904.500000,196.000000,85.000000,178.000000
904.500000,196.000000,85.000000,178.000000
904.500000,196.000000,85.000000,178.000000
900.500000,196.000000,85.000000,178.000000
896.500000,196.000000,85.000000,178.000000
884.500000,200.000000,85.000000,178.000000
872.500000,196.000000,85.000000,178.000000
872.500000,204.000000,85.000000,178.000000
856.500000,204.000000,85.000000,178.000000
840.500000,208.000000,85.000000,178.000000
824.500000,212.000000,85.000000,178.000000
812.500000,216.000000,85.000000,178.000000
804.500000,220.000000,85.000000,178.000000
792.500000,220.000000,85.000000,178.000000
784.500000,220.000000,85.000000,178.000000
768.500000,228.000000,85.000000,178.000000
752.500000,228.000000,85.000000,178.000000
740.500000,232.000000,85.000000,178.000000
728.500000,224.000000,85.000000,178.000000
716.500000,224.000000,85.000000,178.000000
704.500000,224.000000,85.000000,178.000000
700.500000,228.000000,85.000000,178.000000
696.500000,228.000000,85.000000,178.000000
688.500000,228.000000,85.000000,178.000000
676.500000,232.000000,85.000000,178.000000
660.500000,232.000000,85.000000,178.000000
652.500000,236.000000,85.000000,178.000000
640.500000,236.000000,85.000000,178.000000
640.500000,240.000000,85.000000,178.000000
624.500000,244.000000,85.000000,178.000000
620.500000,252.000000,85.000000,178.000000
616.500000,260.000000,85.000000,178.000000
616.500000,268.000000,85.000000,178.000000
612.500000,272.000000,85.000000,178.000000
608.500000,280.000000,85.000000,178.000000
604.500000,288.000000,85.000000,178.000000
600.500000,300.000000,85.000000,178.000000
600.500000,308.000000,85.000000,178.000000
600.500000,312.000000,85.000000,178.000000
596.500000,320.000000,85.000000,178.000000
588.500000,324.000000,85.000000,178.000000
580.500000,332.000000,85.000000,178.000000
576.500000,336.000000,85.000000,178.000000
576.500000,340.000000,85.000000,178.000000
568.500000,344.000000,85.000000,178.000000
