1
292.580017,132.880005,46.919983,173.119995
292.580017,132.880005,46.919983,173.119995
296.580017,132.880005,46.919983,173.119995
296.580017,132.880005,46.919983,173.119995
296.580017,132.880005,46.919983,173.119995
296.580017,132.880005,46.919983,173.119995
296.580017,132.880005,46.919983,173.119995
296.580017,132.880005,46.919983,173.119995
296.580017,132.880005,46.919983,173.119995
296.580017,132.880005,46.919983,173.119995
296.580017,132.880005,46.919983,173.119995
292.580017,132.880005,46.919983,173.119995
292.580017,132.880005,46.919983,173.119995
288.580017,132.880005,46.919983,173.119995
288.580017,132.880005,46.919983,173.119995
284.580017,132.880005,46.919983,173.119995
284.580017,132.880005,46.919983,173.119995
280.580017,132.880005,46.919983,173.119995
280.580017,132.880005,46.919983,173.119995
280.580017,132.880005,46.919983,173.119995
276.580017,132.880005,46.919983,173.119995
276.580017,136.880005,46.919983,173.119995
276.580017,136.880005,46.919983,173.119995
276.580017,136.880005,46.919983,173.119995
276.580017,136.880005,46.919983,173.119995
276.580017,136.880005,46.919983,173.119995
272.580017,136.880005,46.919983,173.119995
272.580017,136.880005,46.919983,173.119995
272.580017,140.880005,46.919983,173.119995
268.580017,140.880005,46.919983,173.119995
268.580017,140.880005,46.919983,173.119995
268.580017,144.880005,46.919983,173.119995
268.580017,144.880005,46.919983,173.119995
268.580017,144.880005,46.919983,173.119995
264.580017,144.880005,46.919983,173.119995
264.580017,144.880005,46.919983,173.119995
260.580017,144.880005,46.919983,173.119995
260.580017,144.880005,46.919983,173.119995
260.580017,144.880005,46.919983,173.119995
256.580017,144.880005,46.919983,173.119995
256.580017,148.880005,46.919983,173.119995
256.580017,148.880005,46.919983,173.119995
256.580017,148.880005,46.919983,173.119995
256.580017,148.880005,46.919983,173.119995
256.580017,148.880005,46.919983,173.119995
256.580017,148.880005,46.919983,173.119995
256.580017,148.880005,46.919983,173.119995
256.580017,148.880005,46.919983,173.119995
256.580017,148.880005,46.919983,173.119995
256.580017,148.880005,46.919983,173.119995
256.580017,144.880005,46.919983,173.119995
252.580017,144.880005,46.919983,173.119995
252.580017,144.880005,46.919983,173.119995
252.580017,140.880005,46.919983,173.119995
252.580017,140.880005,46.919983,173.119995
252.580017,140.880005,46.919983,173.119995
252.580017,140.880005,46.919983,173.119995
252.580017,140.880005,46.919983,173.119995
252.580017,140.880005,46.919983,173.119995
252.580017,140.880005,46.919983,173.119995
252.580017,140.880005,46.919983,173.119995
252.580017,136.880005,46.919983,173.119995
252.580017,136.880005,46.919983,173.119995
252.580017,132.880005,46.919983,173.119995
252.580017,132.880005,46.919983,173.119995
252.580017,132.880005,46.919983,173.119995
252.580017,128.880005,46.919983,173.119995
252.580017,128.880005,46.919983,173.119995
252.580017,128.880005,46.919983,173.119995
252.580017,128.880005,46.919983,173.119995
252.580017,128.880005,46.919983,173.119995
256.580017,128.880005,46.919983,173.119995
256.580017,128.880005,46.919983,173.119995
256.580017,128.880005,46.919983,173.119995
256.580017,128.880005,46.919983,173.119995
256.580017,128.880005,46.919983,173.119995
256.580017,128.880005,46.919983,173.119995
256.580017,128.880005,46.919983,173.119995
256.580017,128.880005,46.919983,173.119995
256.580017,128.880005,46.919983,173.119995
256.580017,128.880005,46.919983,173.119995
256.580017,128.880005,46.919983,173.119995
256.580017,128.880005,46.919983,173.119995
256.580017,128.880005,46.919983,173.119995
256.580017,128.880005,46.919983,173.119995
256.580017,128.880005,46.919983,173.119995
256.580017,128.880005,46.919983,173.119995
256.580017,128.880005,46.919983,173.119995
256.580017,128.880005,46.919983,173.119995
260.580017,128.880005,46.919983,173.119995
260.580017,124.880005,46.919983,173.119995
260.580017,124.880005,46.919983,173.119995
260.580017,124.880005,46.919983,173.119995
260.580017,124.880005,46.919983,173.119995
260.580017,124.880005,46.919983,173.119995
264.580017,124.880005,46.919983,173.119995
264.580017,124.880005,46.919983,173.119995
264.580017,124.880005,46.919983,173.119995
264.580017,124.880005,46.919983,173.119995
268.580017,124.880005,46.919983,173.119995
268.580017,124.880005,46.919983,173.119995
272.580017,128.880005,46.919983,173.119995
276.580017,128.880005,46.919983,173.119995
276.580017,128.880005,46.919983,173.119995
280.580017,128.880005,46.919983,173.119995
280.580017,128.880005,46.919983,173.119995
280.580017,128.880005,46.919983,173.119995
276.580017,128.880005,46.919983,173.119995
276.580017,128.880005,46.919983,173.119995
280.580017,128.880005,46.919983,173.119995
284.580017,128.880005,46.919983,173.119995
288.580017,128.880005,46.919983,173.119995
296.580017,128.880005,46.919983,173.119995
304.580017,132.880005,46.919983,173.119995
308.580017,132.880005,46.919983,173.119995
312.580017,132.880005,46.919983,173.119995
320.580017,132.880005,46.919983,173.119995
2
0
0
0
0
1
276.679993,139.770004,54.059998,164.459991
280.679993,139.770004,54.059998,164.459991
280.679993,139.770004,54.059998,164.459991
280.679993,139.770004,54.059998,164.459991
280.679993,139.770004,54.059998,164.459991
280.679993,139.770004,54.059998,164.459991
276.679993,139.770004,54.059998,164.459991
276.679993,139.770004,54.059998,164.459991
276.679993,139.770004,54.059998,164.459991
276.679993,139.770004,54.059998,164.459991
272.679993,143.770004,54.059998,164.459991
272.679993,143.770004,54.059998,164.459991
272.679993,143.770004,54.059998,164.459991
272.679993,143.770004,54.059998,164.459991
272.679993,143.770004,54.059998,164.459991
272.679993,143.770004,54.059998,164.459991
272.679993,143.770004,54.059998,164.459991
272.679993,143.770004,54.059998,164.459991
272.679993,143.770004,54.059998,164.459991
272.679993,143.770004,54.059998,164.459991
272.679993,143.770004,54.059998,164.459991
272.679993,139.770004,54.059998,164.459991
272.679993,139.770004,54.059998,164.459991
272.679993,139.770004,54.059998,164.459991
272.679993,139.770004,54.059998,164.459991
272.679993,139.770004,54.059998,164.459991
272.679993,139.770004,54.059998,164.459991
276.679993,139.770004,54.059998,164.459991
276.679993,139.770004,54.059998,164.459991
276.679993,139.770004,54.059998,164.459991
280.679993,139.770004,54.059998,164.459991
280.679993,139.770004,54.059998,164.459991
280.679993,139.770004,54.059998,164.459991
280.679993,139.770004,54.059998,164.459991
280.679993,143.770004,54.059998,164.459991
276.679993,143.770004,54.059998,164.459991
276.679993,143.770004,54.059998,164.459991
276.679993,143.770004,54.059998,164.459991
272.679993,143.770004,54.059998,164.459991
272.679993,143.770004,54.059998,164.459991
272.679993,143.770004,54.059998,164.459991
272.679993,143.770004,54.059998,164.459991
272.679993,147.770004,54.059998,164.459991
272.679993,147.770004,54.059998,164.459991
276.679993,147.770004,54.059998,164.459991
276.679993,147.770004,54.059998,164.459991
280.679993,147.770004,54.059998,164.459991
280.679993,147.770004,54.059998,164.459991
280.679993,147.770004,54.059998,164.459991
280.679993,147.770004,54.059998,164.459991
280.679993,147.770004,54.059998,164.459991
280.679993,147.770004,54.059998,164.459991
280.679993,147.770004,54.059998,164.459991
280.679993,147.770004,54.059998,164.459991
284.679993,147.770004,54.059998,164.459991
284.679993,147.770004,54.059998,164.459991
284.679993,147.770004,54.059998,164.459991
288.679993,147.770004,54.059998,164.459991
288.679993,147.770004,54.059998,164.459991
288.679993,147.770004,54.059998,164.459991
292.679993,147.770004,54.059998,164.459991
292.679993,147.770004,54.059998,164.459991
292.679993,147.770004,54.059998,164.459991
292.679993,147.770004,54.059998,164.459991
292.679993,147.770004,54.059998,164.459991
292.679993,151.770004,54.059998,164.459991
292.679993,151.770004,54.059998,164.459991
292.679993,151.770004,54.059998,164.459991
292.679993,151.770004,54.059998,164.459991
292.679993,151.770004,54.059998,164.459991
292.679993,155.770004,54.059998,164.459991
292.679993,155.770004,54.059998,164.459991
292.679993,155.770004,54.059998,164.459991
288.679993,155.770004,54.059998,164.459991
288.679993,155.770004,54.059998,164.459991
288.679993,155.770004,54.059998,164.459991
292.679993,151.770004,54.059998,164.459991
292.679993,151.770004,54.059998,164.459991
296.679993,151.770004,54.059998,164.459991
296.679993,151.770004,54.059998,164.459991
300.679993,151.770004,54.059998,164.459991
300.679993,151.770004,54.059998,164.459991
304.679993,151.770004,54.059998,164.459991
304.679993,151.770004,54.059998,164.459991
308.679993,151.770004,54.059998,164.459991
308.679993,151.770004,54.059998,164.459991
312.679993,147.770004,54.059998,164.459991
312.679993,147.770004,54.059998,164.459991
316.679993,147.770004,54.059998,164.459991
316.679993,147.770004,54.059998,164.459991
316.679993,147.770004,54.059998,164.459991
316.679993,147.770004,54.059998,164.459991
312.679993,147.770004,54.059998,164.459991
312.679993,151.770004,54.059998,164.459991
312.679993,151.770004,54.059998,164.459991
312.679993,151.770004,54.059998,164.459991
308.679993,151.770004,54.059998,164.459991
308.679993,151.770004,54.059998,164.459991
308.679993,151.770004,54.059998,164.459991
308.679993,151.770004,54.059998,164.459991
308.679993,151.770004,54.059998,164.459991
308.679993,151.770004,54.059998,164.459991
308.679993,151.770004,54.059998,164.459991
308.679993,151.770004,54.059998,164.459991
308.679993,151.770004,54.059998,164.459991
308.679993,151.770004,54.059998,164.459991
312.679993,151.770004,54.059998,164.459991
312.679993,151.770004,54.059998,164.459991
312.679993,151.770004,54.059998,164.459991
316.679993,151.770004,54.059998,164.459991
316.679993,151.770004,54.059998,164.459991
320.679993,151.770004,54.059998,164.459991
320.679993,151.770004,54.059998,164.459991
324.679993,155.770004,54.059998,164.459991
328.679993,155.770004,54.059998,164.459991
328.679993,155.770004,54.059998,164.459991
332.679993,155.770004,54.059998,164.459991
332.679993,155.770004,54.059998,164.459991
332.679993,155.770004,54.059998,164.459991
336.679993,155.770004,54.059998,164.459991
336.679993,155.770004,54.059998,164.459991
340.679993,159.770004,54.059998,164.459991
340.679993,159.770004,54.059998,164.459991
340.679993,159.770004,54.059998,164.459991
344.679993,159.770004,54.059998,164.459991
344.679993,159.770004,54.059998,164.459991
344.679993,159.770004,54.059998,164.459991
348.679993,159.770004,54.059998,164.459991
348.679993,159.770004,54.059998,164.459991
352.679993,159.770004,54.059998,164.459991
352.679993,159.770004,54.059998,164.459991
356.679993,159.770004,54.059998,164.459991
360.679993,159.770004,54.059998,164.459991
364.679993,159.770004,54.059998,164.459991
364.679993,159.770004,54.059998,164.459991
368.679993,159.770004,54.059998,164.459991
376.679993,159.770004,54.059998,164.459991
376.679993,159.770004,54.059998,164.459991
380.679993,159.770004,54.059998,164.459991
384.679993,159.770004,54.059998,164.459991
384.679993,159.770004,54.059998,164.459991
388.679993,159.770004,54.059998,164.459991
388.679993,159.770004,54.059998,164.459991
388.679993,159.770004,54.059998,164.459991
392.679993,159.770004,54.059998,164.459991
392.679993,159.770004,54.059998,164.459991
392.679993,159.770004,54.059998,164.459991
392.679993,159.770004,54.059998,164.459991
392.679993,163.770004,54.059998,164.459991
392.679993,163.770004,54.059998,164.459991
396.679993,163.770004,54.059998,164.459991
396.679993,167.770004,54.059998,164.459991
400.679993,167.770004,54.059998,164.459991
404.679993,167.770004,54.059998,164.459991
408.679993,167.770004,54.059998,164.459991
412.679993,167.770004,54.059998,164.459991
416.679993,167.770004,54.059998,164.459991
420.679993,163.770004,54.059998,164.459991
424.679993,163.770004,54.059998,164.459991
424.679993,163.770004,54.059998,164.459991
428.679993,159.770004,54.059998,164.459991
428.679993,159.770004,54.059998,164.459991
428.679993,159.770004,54.059998,164.459991
428.679993,159.770004,54.059998,164.459991
428.679993,159.770004,54.059998,164.459991
428.679993,159.770004,54.059998,164.459991
428.679993,159.770004,54.059998,164.459991
428.679993,159.770004,54.059998,164.459991
428.679993,159.770004,54.059998,164.459991
428.679993,159.770004,54.059998,164.459991
424.679993,159.770004,54.059998,164.459991
424.679993,159.770004,54.059998,164.459991
420.679993,159.770004,54.059998,164.459991
420.679993,159.770004,54.059998,164.459991
416.679993,159.770004,54.059998,164.459991
416.679993,159.770004,54.059998,164.459991
412.679993,159.770004,54.059998,164.459991
408.679993,159.770004,54.059998,164.459991
404.679993,159.770004,54.059998,164.459991
400.679993,159.770004,54.059998,164.459991
396.679993,159.770004,54.059998,164.459991
396.679993,159.770004,54.059998,164.459991
392.679993,159.770004,54.059998,164.459991
392.679993,159.770004,54.059998,164.459991
392.679993,159.770004,54.059998,164.459991
392.679993,159.770004,54.059998,164.459991
392.679993,159.770004,54.059998,164.459991
392.679993,159.770004,54.059998,164.459991
392.679993,159.770004,54.059998,164.459991
392.679993,155.770004,54.059998,164.459991
392.679993,155.770004,54.059998,164.459991
392.679993,155.770004,54.059998,164.459991
392.679993,155.770004,54.059998,164.459991
392.679993,155.770004,54.059998,164.459991
392.679993,155.770004,54.059998,164.459991
392.679993,155.770004,54.059998,164.459991
392.679993,155.770004,54.059998,164.459991
396.679993,155.770004,54.059998,164.459991
396.679993,155.770004,54.059998,164.459991
396.679993,155.770004,54.059998,164.459991
396.679993,155.770004,54.059998,164.459991
396.679993,155.770004,54.059998,164.459991
396.679993,151.770004,54.059998,164.459991
396.679993,151.770004,54.059998,164.459991
396.679993,151.770004,54.059998,164.459991
396.679993,151.770004,54.059998,164.459991
396.679993,151.770004,54.059998,164.459991
396.679993,151.770004,54.059998,164.459991
396.679993,151.770004,54.059998,164.459991
400.679993,151.770004,54.059998,164.459991
400.679993,147.770004,54.059998,164.459991
400.679993,147.770004,54.059998,164.459991
404.679993,147.770004,54.059998,164.459991
404.679993,147.770004,54.059998,164.459991
404.679993,147.770004,54.059998,164.459991
408.679993,147.770004,54.059998,164.459991
408.679993,147.770004,54.059998,164.459991
408.679993,147.770004,54.059998,164.459991
408.679993,147.770004,54.059998,164.459991
412.679993,147.770004,54.059998,164.459991
412.679993,143.770004,54.059998,164.459991
412.679993,143.770004,54.059998,164.459991
408.679993,143.770004,54.059998,164.459991
408.679993,143.770004,54.059998,164.459991
404.679993,143.770004,54.059998,164.459991
404.679993,143.770004,54.059998,164.459991
400.679993,139.770004,54.059998,164.459991
400.679993,139.770004,54.059998,164.459991
396.679993,139.770004,54.059998,164.459991
396.679993,139.770004,54.059998,164.459991
392.679993,139.770004,54.059998,164.459991
388.679993,139.770004,54.059998,164.459991
384.679993,139.770004,54.059998,164.459991
384.679993,135.770004,54.059998,164.459991
380.679993,135.770004,54.059998,164.459991
376.679993,135.770004,54.059998,164.459991
376.679993,135.770004,54.059998,164.459991
372.679993,135.770004,54.059998,164.459991
372.679993,131.770004,54.059998,164.459991
368.679993,131.770004,54.059998,164.459991
368.679993,131.770004,54.059998,164.459991
368.679993,131.770004,54.059998,164.459991
368.679993,131.770004,54.059998,164.459991
364.679993,127.770004,54.059998,164.459991
364.679993,127.770004,54.059998,164.459991
364.679993,123.770004,54.059998,164.459991
364.679993,123.770004,54.059998,164.459991
364.679993,123.770004,54.059998,164.459991
360.679993,123.770004,54.059998,164.459991
360.679993,123.770004,54.059998,164.459991
360.679993,123.770004,54.059998,164.459991
356.679993,123.770004,54.059998,164.459991
356.679993,123.770004,54.059998,164.459991
356.679993,119.770004,54.059998,164.459991
356.679993,119.770004,54.059998,164.459991
356.679993,119.770004,54.059998,164.459991
352.679993,119.770004,54.059998,164.459991
352.679993,119.770004,54.059998,164.459991
352.679993,119.770004,54.059998,164.459991
352.679993,119.770004,54.059998,164.459991
348.679993,119.770004,54.059998,164.459991
348.679993,119.770004,54.059998,164.459991
348.679993,119.770004,54.059998,164.459991
344.679993,123.770004,54.059998,164.459991
344.679993,123.770004,54.059998,164.459991
344.679993,123.770004,54.059998,164.459991
340.679993,123.770004,54.059998,164.459991
340.679993,123.770004,54.059998,164.459991
340.679993,127.770004,54.059998,164.459991
336.679993,127.770004,54.059998,164.459991
336.679993,127.770004,54.059998,164.459991
332.679993,127.770004,54.059998,164.459991
328.679993,127.770004,54.059998,164.459991
328.679993,127.770004,54.059998,164.459991
324.679993,127.770004,54.059998,164.459991
324.679993,127.770004,54.059998,164.459991
320.679993,127.770004,54.059998,164.459991
316.679993,127.770004,54.059998,164.459991
316.679993,127.770004,54.059998,164.459991
312.679993,127.770004,54.059998,164.459991
308.679993,131.770004,54.059998,164.459991
308.679993,131.770004,54.059998,164.459991
304.679993,131.770004,54.059998,164.459991
300.679993,131.770004,54.059998,164.459991
296.679993,131.770004,54.059998,164.459991
292.679993,131.770004,54.059998,164.459991
292.679993,131.770004,54.059998,164.459991
292.679993,131.770004,54.059998,164.459991
292.679993,131.770004,54.059998,164.459991
292.679993,131.770004,54.059998,164.459991
288.679993,131.770004,54.059998,164.459991
288.679993,131.770004,54.059998,164.459991
288.679993,131.770004,54.059998,164.459991
284.679993,131.770004,54.059998,164.459991
284.679993,131.770004,54.059998,164.459991
284.679993,131.770004,54.059998,164.459991
280.679993,131.770004,54.059998,164.459991
284.679993,131.770004,54.059998,164.459991
284.679993,131.770004,54.059998,164.459991
280.679993,131.770004,54.059998,164.459991
280.679993,131.770004,54.059998,164.459991
280.679993,135.770004,54.059998,164.459991
280.679993,135.770004,54.059998,164.459991
280.679993,135.770004,54.059998,164.459991
276.679993,135.770004,54.059998,164.459991
276.679993,139.770004,54.059998,164.459991
272.679993,139.770004,54.059998,164.459991
268.679993,139.770004,54.059998,164.459991
268.679993,139.770004,54.059998,164.459991
268.679993,139.770004,54.059998,164.459991
268.679993,139.770004,54.059998,164.459991
264.679993,139.770004,54.059998,164.459991
264.679993,139.770004,54.059998,164.459991
264.679993,139.770004,54.059998,164.459991
264.679993,139.770004,54.059998,164.459991
264.679993,139.770004,54.059998,164.459991
264.679993,139.770004,54.059998,164.459991
268.679993,143.770004,54.059998,164.459991
268.679993,143.770004,54.059998,164.459991
268.679993,143.770004,54.059998,164.459991
268.679993,147.770004,54.059998,164.459991
272.679993,147.770004,54.059998,164.459991
276.679993,147.770004,54.059998,164.459991
276.679993,147.770004,54.059998,164.459991
280.679993,147.770004,54.059998,164.459991
280.679993,143.770004,54.059998,164.459991
284.679993,143.770004,54.059998,164.459991
284.679993,143.770004,54.059998,164.459991
284.679993,143.770004,54.059998,164.459991
284.679993,139.770004,54.059998,164.459991
284.679993,139.770004,54.059998,164.459991
284.679993,139.770004,54.059998,164.459991
284.679993,139.770004,54.059998,164.459991
284.679993,139.770004,54.059998,164.459991
280.679993,139.770004,54.059998,164.459991
280.679993,139.770004,54.059998,164.459991
280.679993,143.770004,54.059998,164.459991
276.679993,143.770004,54.059998,164.459991
276.679993,143.770004,54.059998,164.459991
272.679993,143.770004,54.059998,164.459991
268.679993,139.770004,54.059998,164.459991
268.679993,139.770004,54.059998,164.459991
268.679993,139.770004,54.059998,164.459991
264.679993,135.770004,54.059998,164.459991
264.679993,135.770004,54.059998,164.459991
264.679993,135.770004,54.059998,164.459991
260.679993,135.770004,54.059998,164.459991
260.679993,135.770004,54.059998,164.459991
260.679993,135.770004,54.059998,164.459991
260.679993,139.770004,54.059998,164.459991
260.679993,139.770004,54.059998,164.459991
260.679993,139.770004,54.059998,164.459991
260.679993,143.770004,54.059998,164.459991
264.679993,147.770004,54.059998,164.459991
264.679993,147.770004,54.059998,164.459991
264.679993,147.770004,54.059998,164.459991
264.679993,147.770004,54.059998,164.459991
268.679993,147.770004,54.059998,164.459991
268.679993,147.770004,54.059998,164.459991
264.679993,147.770004,54.059998,164.459991
264.679993,147.770004,54.059998,164.459991
264.679993,147.770004,54.059998,164.459991
260.679993,147.770004,54.059998,164.459991
260.679993,143.770004,54.059998,164.459991
260.679993,143.770004,54.059998,164.459991
256.679993,139.770004,54.059998,164.459991
256.679993,139.770004,54.059998,164.459991
256.679993,135.770004,54.059998,164.459991
252.679993,135.770004,54.059998,164.459991
252.679993,131.770004,54.059998,164.459991
248.679993,131.770004,54.059998,164.459991
248.679993,131.770004,54.059998,164.459991
248.679993,131.770004,54.059998,164.459991
248.679993,127.770004,54.059998,164.459991
248.679993,127.770004,54.059998,164.459991
248.679993,127.770004,54.059998,164.459991
248.679993,127.770004,54.059998,164.459991
248.679993,127.770004,54.059998,164.459991
248.679993,127.770004,54.059998,164.459991
252.679993,127.770004,54.059998,164.459991
252.679993,127.770004,54.059998,164.459991
252.679993,123.770004,54.059998,164.459991
252.679993,123.770004,54.059998,164.459991
256.679993,123.770004,54.059998,164.459991
256.679993,119.770004,54.059998,164.459991
256.679993,119.770004,54.059998,164.459991
256.679993,115.770004,54.059998,164.459991
256.679993,111.770004,54.059998,164.459991
256.679993,111.770004,54.059998,164.459991
256.679993,111.770004,54.059998,164.459991
256.679993,107.770004,54.059998,164.459991
260.679993,107.770004,54.059998,164.459991
260.679993,103.770004,54.059998,164.459991
260.679993,103.770004,54.059998,164.459991
260.679993,103.770004,54.059998,164.459991
260.679993,103.770004,54.059998,164.459991
260.679993,103.770004,54.059998,164.459991
260.679993,103.770004,54.059998,164.459991
260.679993,99.770004,54.059998,164.459991
260.679993,99.770004,54.059998,164.459991
260.679993,99.770004,54.059998,164.459991
260.679993,99.770004,54.059998,164.459991
260.679993,99.770004,54.059998,164.459991
256.679993,99.770004,54.059998,164.459991
256.679993,99.770004,54.059998,164.459991
256.679993,99.770004,54.059998,164.459991
256.679993,99.770004,54.059998,164.459991
256.679993,95.770004,54.059998,164.459991
252.679993,95.770004,54.059998,164.459991
252.679993,91.770004,54.059998,164.459991
252.679993,87.770004,54.059998,164.459991
252.679993,87.770004,54.059998,164.459991
252.679993,87.770004,54.059998,164.459991
252.679993,83.770004,54.059998,164.459991
248.679993,83.770004,54.059998,164.459991
248.679993,79.770004,54.059998,164.459991
248.679993,79.770004,54.059998,164.459991
244.679993,75.770004,54.059998,164.459991
244.679993,75.770004,54.059998,164.459991
244.679993,75.770004,54.059998,164.459991
240.679993,75.770004,54.059998,164.459991
240.679993,71.770004,54.059998,164.459991
240.679993,71.770004,54.059998,164.459991
240.679993,71.770004,54.059998,164.459991
236.679993,71.770004,54.059998,164.459991
236.679993,71.770004,54.059998,164.459991
236.679993,71.770004,54.059998,164.459991
236.679993,71.770004,54.059998,164.459991
236.679993,67.770004,54.059998,164.459991
236.679993,63.770004,54.059998,164.459991
236.679993,59.770004,54.059998,164.459991
236.679993,59.770004,54.059998,164.459991
236.679993,55.770004,54.059998,164.459991
236.679993,51.770004,54.059998,164.459991
232.679993,51.770004,54.059998,164.459991
232.679993,47.770004,54.059998,164.459991
232.679993,47.770004,54.059998,164.459991
232.679993,47.770004,54.059998,164.459991
232.679993,47.770004,54.059998,164.459991
232.679993,43.770004,54.059998,164.459991
232.679993,43.770004,54.059998,164.459991
228.679993,43.770004,54.059998,164.459991
228.679993,43.770004,54.059998,164.459991
228.679993,43.770004,54.059998,164.459991
228.679993,43.770004,54.059998,164.459991
228.679993,43.770004,54.059998,164.459991
224.679993,43.770004,54.059998,164.459991
224.679993,39.770004,54.059998,164.459991
224.679993,39.770004,54.059998,164.459991
224.679993,35.770004,54.059998,164.459991
224.679993,35.770004,54.059998,164.459991
224.679993,31.770004,54.059998,164.459991
220.679993,31.770004,54.059998,164.459991
220.679993,27.770004,54.059998,164.459991
220.679993,27.770004,54.059998,164.459991
220.679993,27.770004,54.059998,164.459991
220.679993,23.770004,54.059998,164.459991
220.679993,23.770004,54.059998,164.459991
220.679993,19.770004,54.059998,164.459991
220.679993,19.770004,54.059998,164.459991
220.679993,19.770004,54.059998,164.459991
220.679993,19.770004,54.059998,164.459991
220.679993,19.770004,54.059998,164.459991
220.679993,19.770004,54.059998,164.459991
220.679993,19.770004,54.059998,164.459991
220.679993,19.770004,54.059998,164.459991
224.679993,19.770004,54.059998,164.459991
224.679993,19.770004,54.059998,164.459991
224.679993,19.770004,54.059998,164.459991
224.679993,23.770004,54.059998,164.459991
224.679993,23.770004,54.059998,164.459991
224.679993,23.770004,54.059998,164.459991
224.679993,23.770004,54.059998,164.459991
224.679993,23.770004,54.059998,164.459991
224.679993,19.770004,54.059998,164.459991
224.679993,19.770004,54.059998,164.459991
224.679993,19.770004,54.059998,164.459991
224.679993,19.770004,54.059998,164.459991
224.679993,19.770004,54.059998,164.459991
224.679993,19.770004,54.059998,164.459991
224.679993,19.770004,54.059998,164.459991
224.679993,19.770004,54.059998,164.459991
224.679993,19.770004,54.059998,164.459991
224.679993,19.770004,54.059998,164.459991
224.679993,23.770004,54.059998,164.459991
224.679993,23.770004,54.059998,164.459991
228.679993,27.770004,54.059998,164.459991
228.679993,31.770004,54.059998,164.459991
228.679993,35.770004,54.059998,164.459991
228.679993,39.770004,54.059998,164.459991
228.679993,39.770004,54.059998,164.459991
232.679993,43.770004,54.059998,164.459991
232.679993,43.770004,54.059998,164.459991
232.679993,47.770004,54.059998,164.459991
236.679993,47.770004,54.059998,164.459991
236.679993,47.770004,54.059998,164.459991
236.679993,47.770004,54.059998,164.459991
240.679993,47.770004,54.059998,164.459991
240.679993,47.770004,54.059998,164.459991
244.679993,43.770004,54.059998,164.459991
244.679993,43.770004,54.059998,164.459991
248.679993,43.770004,54.059998,164.459991
248.679993,43.770004,54.059998,164.459991
252.679993,43.770004,54.059998,164.459991
252.679993,43.770004,54.059998,164.459991
256.679993,43.770004,54.059998,164.459991
256.679993,43.770004,54.059998,164.459991
260.679993,47.770004,54.059998,164.459991
260.679993,47.770004,54.059998,164.459991
264.679993,47.770004,54.059998,164.459991
264.679993,47.770004,54.059998,164.459991
264.679993,47.770004,54.059998,164.459991
260.679993,47.770004,54.059998,164.459991
260.679993,47.770004,54.059998,164.459991
260.679993,43.770004,54.059998,164.459991
264.679993,43.770004,54.059998,164.459991
264.679993,39.770004,54.059998,164.459991
264.679993,39.770004,54.059998,164.459991
264.679993,39.770004,54.059998,164.459991
268.679993,35.770004,54.059998,164.459991
268.679993,31.770004,54.059998,164.459991
272.679993,31.770004,54.059998,164.459991
276.679993,27.770004,54.059998,164.459991
276.679993,27.770004,54.059998,164.459991
280.679993,27.770004,54.059998,164.459991
280.679993,27.770004,54.059998,164.459991
284.679993,27.770004,54.059998,164.459991
284.679993,23.770004,54.059998,164.459991
288.679993,23.770004,54.059998,164.459991
288.679993,27.770004,54.059998,164.459991
292.679993,27.770004,54.059998,164.459991
292.679993,27.770004,54.059998,164.459991
292.679993,27.770004,54.059998,164.459991
296.679993,27.770004,54.059998,164.459991
296.679993,27.770004,54.059998,164.459991
300.679993,27.770004,54.059998,164.459991
300.679993,27.770004,54.059998,164.459991
300.679993,27.770004,54.059998,164.459991
300.679993,27.770004,54.059998,164.459991
304.679993,27.770004,54.059998,164.459991
304.679993,27.770004,54.059998,164.459991
304.679993,27.770004,54.059998,164.459991
304.679993,27.770004,54.059998,164.459991
304.679993,27.770004,54.059998,164.459991
308.679993,31.770004,54.059998,164.459991
308.679993,31.770004,54.059998,164.459991
308.679993,31.770004,54.059998,164.459991
312.679993,31.770004,54.059998,164.459991
312.679993,31.770004,54.059998,164.459991
312.679993,31.770004,54.059998,164.459991
312.679993,31.770004,54.059998,164.459991
316.679993,31.770004,54.059998,164.459991
316.679993,31.770004,54.059998,164.459991
316.679993,27.770004,54.059998,164.459991
316.679993,27.770004,54.059998,164.459991
316.679993,27.770004,54.059998,164.459991
320.679993,27.770004,54.059998,164.459991
320.679993,27.770004,54.059998,164.459991
320.679993,27.770004,54.059998,164.459991
320.679993,27.770004,54.059998,164.459991
320.679993,27.770004,54.059998,164.459991
320.679993,27.770004,54.059998,164.459991
320.679993,27.770004,54.059998,164.459991
320.679993,27.770004,54.059998,164.459991
320.679993,31.770004,54.059998,164.459991
320.679993,31.770004,54.059998,164.459991
320.679993,35.770004,54.059998,164.459991
324.679993,39.770004,54.059998,164.459991
324.679993,39.770004,54.059998,164.459991
328.679993,39.770004,54.059998,164.459991
328.679993,39.770004,54.059998,164.459991
332.679993,39.770004,54.059998,164.459991
336.679993,39.770004,54.059998,164.459991
336.679993,35.770004,54.059998,164.459991
340.679993,35.770004,54.059998,164.459991
340.679993,35.770004,54.059998,164.459991
344.679993,31.770004,54.059998,164.459991
344.679993,31.770004,54.059998,164.459991
344.679993,31.770004,54.059998,164.459991
344.679993,31.770004,54.059998,164.459991
344.679993,31.770004,54.059998,164.459991
344.679993,31.770004,54.059998,164.459991
348.679993,31.770004,54.059998,164.459991
348.679993,31.770004,54.059998,164.459991
348.679993,31.770004,54.059998,164.459991
348.679993,35.770004,54.059998,164.459991
348.679993,35.770004,54.059998,164.459991
348.679993,35.770004,54.059998,164.459991
348.679993,35.770004,54.059998,164.459991
348.679993,35.770004,54.059998,164.459991
352.679993,31.770004,54.059998,164.459991
352.679993,31.770004,54.059998,164.459991
352.679993,27.770004,54.059998,164.459991
352.679993,23.770004,54.059998,164.459991
352.679993,23.770004,54.059998,164.459991
356.679993,23.770004,54.059998,164.459991
356.679993,19.770004,54.059998,164.459991
356.679993,19.770004,54.059998,164.459991
356.679993,15.770004,54.059998,164.459991
356.679993,15.770004,54.059998,164.459991
356.679993,11.770004,54.059998,164.459991
360.679993,11.770004,54.059998,164.459991
360.679993,11.770004,54.059998,164.459991
360.679993,11.770004,54.059998,164.459991
360.679993,11.770004,54.059998,164.459991
360.679993,11.770004,54.059998,164.459991
360.679993,11.770004,54.059998,164.459991
360.679993,11.770004,54.059998,164.459991
360.679993,11.770004,54.059998,164.459991
360.679993,11.770004,54.059998,164.459991
360.679993,11.770004,54.059998,164.459991
360.679993,11.770004,54.059998,164.459991
360.679993,11.770004,54.059998,164.459991
360.679993,11.770004,54.059998,164.459991
360.679993,11.770004,54.059998,164.459991
360.679993,15.770004,54.059998,164.459991
360.679993,15.770004,54.059998,164.459991
360.679993,15.770004,54.059998,164.459991
360.679993,15.770004,54.059998,164.459991
360.679993,15.770004,54.059998,164.459991
360.679993,19.770004,54.059998,164.459991
360.679993,19.770004,54.059998,164.459991
360.679993,19.770004,54.059998,164.459991
360.679993,19.770004,54.059998,164.459991
360.679993,19.770004,54.059998,164.459991
360.679993,19.770004,54.059998,164.459991
364.679993,19.770004,54.059998,164.459991
364.679993,19.770004,54.059998,164.459991
364.679993,19.770004,54.059998,164.459991
364.679993,19.770004,54.059998,164.459991
364.679993,19.770004,54.059998,164.459991
364.679993,19.770004,54.059998,164.459991
364.679993,19.770004,54.059998,164.459991
364.679993,19.770004,54.059998,164.459991
364.679993,19.770004,54.059998,164.459991
364.679993,19.770004,54.059998,164.459991
364.679993,19.770004,54.059998,164.459991
364.679993,19.770004,54.059998,164.459991
364.679993,23.770004,54.059998,164.459991
364.679993,23.770004,54.059998,164.459991
364.679993,23.770004,54.059998,164.459991
364.679993,23.770004,54.059998,164.459991
364.679993,23.770004,54.059998,164.459991
364.679993,23.770004,54.059998,164.459991
364.679993,23.770004,54.059998,164.459991
360.679993,23.770004,54.059998,164.459991
360.679993,23.770004,54.059998,164.459991
360.679993,23.770004,54.059998,164.459991
360.679993,23.770004,54.059998,164.459991
356.679993,23.770004,54.059998,164.459991
356.679993,23.770004,54.059998,164.459991
356.679993,23.770004,54.059998,164.459991
352.679993,23.770004,54.059998,164.459991
352.679993,23.770004,54.059998,164.459991
352.679993,23.770004,54.059998,164.459991
348.679993,23.770004,54.059998,164.459991
348.679993,23.770004,54.059998,164.459991
348.679993,23.770004,54.059998,164.459991
348.679993,23.770004,54.059998,164.459991
344.679993,19.770004,54.059998,164.459991
344.679993,19.770004,54.059998,164.459991
340.679993,19.770004,54.059998,164.459991
340.679993,19.770004,54.059998,164.459991
340.679993,15.770004,54.059998,164.459991
336.679993,15.770004,54.059998,164.459991
336.679993,15.770004,54.059998,164.459991
332.679993,15.770004,54.059998,164.459991
332.679993,15.770004,54.059998,164.459991
328.679993,15.770004,54.059998,164.459991
328.679993,11.770004,54.059998,164.459991
328.679993,11.770004,54.059998,164.459991
328.679993,11.770004,54.059998,164.459991
328.679993,11.770004,54.059998,164.459991
324.679993,11.770004,54.059998,164.459991
324.679993,11.770004,54.059998,164.459991
324.679993,11.770004,54.059998,164.459991
320.679993,15.770004,54.059998,164.459991
320.679993,15.770004,54.059998,164.459991
316.679993,15.770004,54.059998,164.459991
316.679993,15.770004,54.059998,164.459991
316.679993,15.770004,54.059998,164.459991
312.679993,15.770004,54.059998,164.459991
312.679993,15.770004,54.059998,164.459991
308.679993,15.770004,54.059998,164.459991
308.679993,15.770004,54.059998,164.459991
304.679993,15.770004,54.059998,164.459991
304.679993,15.770004,54.059998,164.459991
304.679993,15.770004,54.059998,164.459991
300.679993,15.770004,54.059998,164.459991
300.679993,15.770004,54.059998,164.459991
296.679993,15.770004,54.059998,164.459991
296.679993,15.770004,54.059998,164.459991
296.679993,19.770004,54.059998,164.459991
292.679993,19.770004,54.059998,164.459991
292.679993,19.770004,54.059998,164.459991
292.679993,19.770004,54.059998,164.459991
292.679993,19.770004,54.059998,164.459991
288.679993,23.770004,54.059998,164.459991
288.679993,23.770004,54.059998,164.459991
288.679993,23.770004,54.059998,164.459991
288.679993,23.770004,54.059998,164.459991
284.679993,27.770004,54.059998,164.459991
284.679993,27.770004,54.059998,164.459991
284.679993,27.770004,54.059998,164.459991
284.679993,27.770004,54.059998,164.459991
284.679993,27.770004,54.059998,164.459991
284.679993,27.770004,54.059998,164.459991
284.679993,31.770004,54.059998,164.459991
284.679993,31.770004,54.059998,164.459991
284.679993,31.770004,54.059998,164.459991
284.679993,31.770004,54.059998,164.459991
284.679993,35.770004,54.059998,164.459991
284.679993,35.770004,54.059998,164.459991
284.679993,35.770004,54.059998,164.459991
284.679993,35.770004,54.059998,164.459991
284.679993,35.770004,54.059998,164.459991
284.679993,35.770004,54.059998,164.459991
284.679993,35.770004,54.059998,164.459991
284.679993,31.770004,54.059998,164.459991
284.679993,31.770004,54.059998,164.459991
284.679993,31.770004,54.059998,164.459991
284.679993,31.770004,54.059998,164.459991
284.679993,31.770004,54.059998,164.459991
284.679993,31.770004,54.059998,164.459991
284.679993,31.770004,54.059998,164.459991
284.679993,31.770004,54.059998,164.459991
284.679993,31.770004,54.059998,164.459991
284.679993,31.770004,54.059998,164.459991
288.679993,31.770004,54.059998,164.459991
288.679993,31.770004,54.059998,164.459991
292.679993,31.770004,54.059998,164.459991
296.679993,31.770004,54.059998,164.459991
296.679993,31.770004,54.059998,164.459991
300.679993,31.770004,54.059998,164.459991
300.679993,31.770004,54.059998,164.459991
300.679993,31.770004,54.059998,164.459991
304.679993,31.770004,54.059998,164.459991
308.679993,31.770004,54.059998,164.459991
308.679993,31.770004,54.059998,164.459991
308.679993,31.770004,54.059998,164.459991
312.679993,31.770004,54.059998,164.459991
312.679993,31.770004,54.059998,164.459991
312.679993,31.770004,54.059998,164.459991
316.679993,31.770004,54.059998,164.459991
316.679993,31.770004,54.059998,164.459991
320.679993,31.770004,54.059998,164.459991
320.679993,31.770004,54.059998,164.459991
320.679993,31.770004,54.059998,164.459991
324.679993,31.770004,54.059998,164.459991
324.679993,31.770004,54.059998,164.459991
324.679993,31.770004,54.059998,164.459991
324.679993,31.770004,54.059998,164.459991
328.679993,31.770004,54.059998,164.459991
328.679993,31.770004,54.059998,164.459991
328.679993,31.770004,54.059998,164.459991
328.679993,31.770004,54.059998,164.459991
332.679993,31.770004,54.059998,164.459991
332.679993,31.770004,54.059998,164.459991
332.679993,31.770004,54.059998,164.459991
332.679993,31.770004,54.059998,164.459991
332.679993,31.770004,54.059998,164.459991
332.679993,31.770004,54.059998,164.459991
336.679993,31.770004,54.059998,164.459991
336.679993,31.770004,54.059998,164.459991
336.679993,31.770004,54.059998,164.459991
340.679993,31.770004,54.059998,164.459991
340.679993,31.770004,54.059998,164.459991
340.679993,31.770004,54.059998,164.459991
344.679993,31.770004,54.059998,164.459991
348.679993,31.770004,54.059998,164.459991
348.679993,31.770004,54.059998,164.459991
348.679993,31.770004,54.059998,164.459991
352.679993,31.770004,54.059998,164.459991
356.679993,31.770004,54.059998,164.459991
356.679993,31.770004,54.059998,164.459991
360.679993,31.770004,54.059998,164.459991
364.679993,31.770004,54.059998,164.459991
368.679993,31.770004,54.059998,164.459991
368.679993,31.770004,54.059998,164.459991
372.679993,31.770004,54.059998,164.459991
372.679993,31.770004,54.059998,164.459991
376.679993,31.770004,54.059998,164.459991
380.679993,31.770004,54.059998,164.459991
380.679993,31.770004,54.059998,164.459991
384.679993,31.770004,54.059998,164.459991
384.679993,31.770004,54.059998,164.459991
388.679993,31.770004,54.059998,164.459991
388.679993,31.770004,54.059998,164.459991
388.679993,31.770004,54.059998,164.459991
392.679993,31.770004,54.059998,164.459991
392.679993,31.770004,54.059998,164.459991
392.679993,31.770004,54.059998,164.459991
392.679993,31.770004,54.059998,164.459991
392.679993,31.770004,54.059998,164.459991
396.679993,31.770004,54.059998,164.459991
396.679993,35.770004,54.059998,164.459991
392.679993,35.770004,54.059998,164.459991
392.679993,35.770004,54.059998,164.459991
392.679993,35.770004,54.059998,164.459991
388.679993,35.770004,54.059998,164.459991
388.679993,35.770004,54.059998,164.459991
388.679993,35.770004,54.059998,164.459991
388.679993,35.770004,54.059998,164.459991
388.679993,35.770004,54.059998,164.459991
384.679993,39.770004,54.059998,164.459991
384.679993,39.770004,54.059998,164.459991
384.679993,39.770004,54.059998,164.459991
384.679993,43.770004,54.059998,164.459991
384.679993,43.770004,54.059998,164.459991
384.679993,47.770004,54.059998,164.459991
384.679993,51.770004,54.059998,164.459991
384.679993,51.770004,54.059998,164.459991
384.679993,51.770004,54.059998,164.459991
384.679993,55.770004,54.059998,164.459991
384.679993,55.770004,54.059998,164.459991
384.679993,55.770004,54.059998,164.459991
384.679993,59.770004,54.059998,164.459991
384.679993,59.770004,54.059998,164.459991
380.679993,59.770004,54.059998,164.459991
380.679993,63.770004,54.059998,164.459991
380.679993,63.770004,54.059998,164.459991
380.679993,63.770004,54.059998,164.459991
380.679993,63.770004,54.059998,164.459991
380.679993,67.770004,54.059998,164.459991
380.679993,67.770004,54.059998,164.459991
380.679993,67.770004,54.059998,164.459991
380.679993,67.770004,54.059998,164.459991
380.679993,71.770004,54.059998,164.459991
380.679993,71.770004,54.059998,164.459991
380.679993,71.770004,54.059998,164.459991
380.679993,71.770004,54.059998,164.459991
380.679993,71.770004,54.059998,164.459991
380.679993,71.770004,54.059998,164.459991
384.679993,71.770004,54.059998,164.459991
384.679993,75.770004,54.059998,164.459991
384.679993,75.770004,54.059998,164.459991
384.679993,75.770004,54.059998,164.459991
384.679993,75.770004,54.059998,164.459991
384.679993,75.770004,54.059998,164.459991
384.679993,75.770004,54.059998,164.459991
380.679993,79.770004,54.059998,164.459991
380.679993,79.770004,54.059998,164.459991
380.679993,83.770004,54.059998,164.459991
380.679993,83.770004,54.059998,164.459991
380.679993,87.770004,54.059998,164.459991
376.679993,87.770004,54.059998,164.459991
376.679993,91.770004,54.059998,164.459991
376.679993,95.770004,54.059998,164.459991
376.679993,99.770004,54.059998,164.459991
376.679993,99.770004,54.059998,164.459991
376.679993,99.770004,54.059998,164.459991
376.679993,103.770004,54.059998,164.459991
376.679993,103.770004,54.059998,164.459991
376.679993,103.770004,54.059998,164.459991
376.679993,103.770004,54.059998,164.459991
372.679993,103.770004,54.059998,164.459991
372.679993,107.770004,54.059998,164.459991
368.679993,107.770004,54.059998,164.459991
368.679993,107.770004,54.059998,164.459991
368.679993,107.770004,54.059998,164.459991
364.679993,107.770004,54.059998,164.459991
364.679993,107.770004,54.059998,164.459991
364.679993,107.770004,54.059998,164.459991
364.679993,107.770004,54.059998,164.459991
364.679993,107.770004,54.059998,164.459991
364.679993,107.770004,54.059998,164.459991
360.679993,107.770004,54.059998,164.459991
360.679993,107.770004,54.059998,164.459991
360.679993,107.770004,54.059998,164.459991
360.679993,103.770004,54.059998,164.459991
356.679993,103.770004,54.059998,164.459991
356.679993,99.770004,54.059998,164.459991
356.679993,99.770004,54.059998,164.459991
356.679993,99.770004,54.059998,164.459991
356.679993,99.770004,54.059998,164.459991
356.679993,99.770004,54.059998,164.459991
356.679993,99.770004,54.059998,164.459991
360.679993,99.770004,54.059998,164.459991
360.679993,99.770004,54.059998,164.459991
360.679993,99.770004,54.059998,164.459991
360.679993,99.770004,54.059998,164.459991
360.679993,103.770004,54.059998,164.459991
364.679993,103.770004,54.059998,164.459991
364.679993,103.770004,54.059998,164.459991
364.679993,107.770004,54.059998,164.459991
364.679993,107.770004,54.059998,164.459991
368.679993,107.770004,54.059998,164.459991
368.679993,107.770004,54.059998,164.459991
368.679993,111.770004,54.059998,164.459991
372.679993,111.770004,54.059998,164.459991
372.679993,111.770004,54.059998,164.459991
372.679993,111.770004,54.059998,164.459991
372.679993,111.770004,54.059998,164.459991
372.679993,111.770004,54.059998,164.459991
372.679993,111.770004,54.059998,164.459991
372.679993,111.770004,54.059998,164.459991
376.679993,111.770004,54.059998,164.459991
376.679993,111.770004,54.059998,164.459991
380.679993,111.770004,54.059998,164.459991
380.679993,111.770004,54.059998,164.459991
384.679993,111.770004,54.059998,164.459991
388.679993,111.770004,54.059998,164.459991
392.679993,111.770004,54.059998,164.459991
392.679993,111.770004,54.059998,164.459991
396.679993,111.770004,54.059998,164.459991
400.679993,111.770004,54.059998,164.459991
400.679993,111.770004,54.059998,164.459991
400.679993,111.770004,54.059998,164.459991
404.679993,107.770004,54.059998,164.459991
404.679993,107.770004,54.059998,164.459991
404.679993,107.770004,54.059998,164.459991
408.679993,111.770004,54.059998,164.459991
408.679993,111.770004,54.059998,164.459991
404.679993,111.770004,54.059998,164.459991
404.679993,111.770004,54.059998,164.459991
404.679993,111.770004,54.059998,164.459991
404.679993,111.770004,54.059998,164.459991
404.679993,111.770004,54.059998,164.459991
404.679993,111.770004,54.059998,164.459991
404.679993,111.770004,54.059998,164.459991
400.679993,111.770004,54.059998,164.459991
400.679993,111.770004,54.059998,164.459991
400.679993,107.770004,54.059998,164.459991
400.679993,107.770004,54.059998,164.459991
400.679993,107.770004,54.059998,164.459991
400.679993,107.770004,54.059998,164.459991
404.679993,103.770004,54.059998,164.459991
408.679993,103.770004,54.059998,164.459991
408.679993,103.770004,54.059998,164.459991
412.679993,107.770004,54.059998,164.459991
412.679993,107.770004,54.059998,164.459991
416.679993,107.770004,54.059998,164.459991
416.679993,107.770004,54.059998,164.459991
416.679993,107.770004,54.059998,164.459991
416.679993,107.770004,54.059998,164.459991
420.679993,107.770004,54.059998,164.459991
420.679993,103.770004,54.059998,164.459991
420.679993,103.770004,54.059998,164.459991
420.679993,107.770004,54.059998,164.459991
420.679993,107.770004,54.059998,164.459991
420.679993,107.770004,54.059998,164.459991
420.679993,111.770004,54.059998,164.459991
420.679993,111.770004,54.059998,164.459991
424.679993,115.770004,54.059998,164.459991
428.679993,115.770004,54.059998,164.459991
428.679993,115.770004,54.059998,164.459991
432.679993,115.770004,54.059998,164.459991
432.679993,115.770004,54.059998,164.459991
436.679993,115.770004,54.059998,164.459991
436.679993,115.770004,54.059998,164.459991
440.679993,115.770004,54.059998,164.459991
440.679993,115.770004,54.059998,164.459991
440.679993,115.770004,54.059998,164.459991
440.679993,111.770004,54.059998,164.459991
440.679993,107.770004,54.059998,164.459991
440.679993,107.770004,54.059998,164.459991
440.679993,103.770004,54.059998,164.459991
440.679993,103.770004,54.059998,164.459991
436.679993,103.770004,54.059998,164.459991
436.679993,107.770004,54.059998,164.459991
440.679993,107.770004,54.059998,164.459991
440.679993,107.770004,54.059998,164.459991
440.679993,111.770004,54.059998,164.459991
440.679993,111.770004,54.059998,164.459991
440.679993,115.770004,54.059998,164.459991
440.679993,119.770004,54.059998,164.459991
440.679993,119.770004,54.059998,164.459991
440.679993,119.770004,54.059998,164.459991
440.679993,119.770004,54.059998,164.459991
440.679993,123.770004,54.059998,164.459991
440.679993,123.770004,54.059998,164.459991
440.679993,127.770004,54.059998,164.459991
440.679993,127.770004,54.059998,164.459991
440.679993,127.770004,54.059998,164.459991
444.679993,127.770004,54.059998,164.459991
444.679993,127.770004,54.059998,164.459991
444.679993,127.770004,54.059998,164.459991
448.679993,127.770004,54.059998,164.459991
448.679993,127.770004,54.059998,164.459991
448.679993,127.770004,54.059998,164.459991
452.679993,127.770004,54.059998,164.459991
452.679993,127.770004,54.059998,164.459991
452.679993,127.770004,54.059998,164.459991
452.679993,127.770004,54.059998,164.459991
452.679993,127.770004,54.059998,164.459991
452.679993,127.770004,54.059998,164.459991
452.679993,127.770004,54.059998,164.459991
452.679993,127.770004,54.059998,164.459991
452.679993,127.770004,54.059998,164.459991
452.679993,127.770004,54.059998,164.459991
452.679993,127.770004,54.059998,164.459991
452.679993,127.770004,54.059998,164.459991
452.679993,127.770004,54.059998,164.459991
452.679993,127.770004,54.059998,164.459991
448.679993,131.770004,54.059998,164.459991
448.679993,131.770004,54.059998,164.459991
444.679993,131.770004,54.059998,164.459991
444.679993,131.770004,54.059998,164.459991
440.679993,131.770004,54.059998,164.459991
440.679993,131.770004,54.059998,164.459991
436.679993,131.770004,54.059998,164.459991
436.679993,131.770004,54.059998,164.459991
436.679993,127.770004,54.059998,164.459991
432.679993,127.770004,54.059998,164.459991
432.679993,127.770004,54.059998,164.459991
428.679993,127.770004,54.059998,164.459991
428.679993,123.770004,54.059998,164.459991
424.679993,123.770004,54.059998,164.459991
424.679993,119.770004,54.059998,164.459991
420.679993,115.770004,54.059998,164.459991
420.679993,115.770004,54.059998,164.459991
420.679993,111.770004,54.059998,164.459991
416.679993,107.770004,54.059998,164.459991
416.679993,107.770004,54.059998,164.459991
420.679993,103.770004,54.059998,164.459991
420.679993,99.770004,54.059998,164.459991
420.679993,99.770004,54.059998,164.459991
424.679993,95.770004,54.059998,164.459991
424.679993,95.770004,54.059998,164.459991
424.679993,91.770004,54.059998,164.459991
428.679993,91.770004,54.059998,164.459991
428.679993,91.770004,54.059998,164.459991
428.679993,91.770004,54.059998,164.459991
428.679993,87.770004,54.059998,164.459991
428.679993,87.770004,54.059998,164.459991
428.679993,87.770004,54.059998,164.459991
428.679993,87.770004,54.059998,164.459991
428.679993,87.770004,54.059998,164.459991
428.679993,87.770004,54.059998,164.459991
428.679993,83.770004,54.059998,164.459991
428.679993,83.770004,54.059998,164.459991
428.679993,83.770004,54.059998,164.459991
428.679993,83.770004,54.059998,164.459991
428.679993,83.770004,54.059998,164.459991
428.679993,79.770004,54.059998,164.459991
428.679993,79.770004,54.059998,164.459991
428.679993,79.770004,54.059998,164.459991
432.679993,79.770004,54.059998,164.459991
432.679993,79.770004,54.059998,164.459991
432.679993,79.770004,54.059998,164.459991
432.679993,79.770004,54.059998,164.459991
436.679993,79.770004,54.059998,164.459991
436.679993,79.770004,54.059998,164.459991
436.679993,79.770004,54.059998,164.459991
436.679993,79.770004,54.059998,164.459991
436.679993,79.770004,54.059998,164.459991
436.679993,83.770004,54.059998,164.459991
436.679993,83.770004,54.059998,164.459991
436.679993,83.770004,54.059998,164.459991
436.679993,87.770004,54.059998,164.459991
436.679993,87.770004,54.059998,164.459991
436.679993,87.770004,54.059998,164.459991
436.679993,87.770004,54.059998,164.459991
436.679993,91.770004,54.059998,164.459991
436.679993,91.770004,54.059998,164.459991
436.679993,95.770004,54.059998,164.459991
440.679993,95.770004,54.059998,164.459991
440.679993,99.770004,54.059998,164.459991
440.679993,103.770004,54.059998,164.459991
440.679993,103.770004,54.059998,164.459991
440.679993,107.770004,54.059998,164.459991
440.679993,107.770004,54.059998,164.459991
436.679993,111.770004,54.059998,164.459991
436.679993,115.770004,54.059998,164.459991
436.679993,115.770004,54.059998,164.459991
432.679993,119.770004,54.059998,164.459991
432.679993,119.770004,54.059998,164.459991
432.679993,123.770004,54.059998,164.459991
432.679993,127.770004,54.059998,164.459991
432.679993,127.770004,54.059998,164.459991
432.679993,131.770004,54.059998,164.459991
432.679993,131.770004,54.059998,164.459991
432.679993,131.770004,54.059998,164.459991
432.679993,131.770004,54.059998,164.459991
432.679993,131.770004,54.059998,164.459991
432.679993,131.770004,54.059998,164.459991
432.679993,131.770004,54.059998,164.459991
432.679993,131.770004,54.059998,164.459991
432.679993,131.770004,54.059998,164.459991
432.679993,131.770004,54.059998,164.459991
432.679993,131.770004,54.059998,164.459991
432.679993,131.770004,54.059998,164.459991
432.679993,131.770004,54.059998,164.459991
432.679993,131.770004,54.059998,164.459991
432.679993,131.770004,54.059998,164.459991
432.679993,131.770004,54.059998,164.459991
432.679993,131.770004,54.059998,164.459991
432.679993,131.770004,54.059998,164.459991
432.679993,131.770004,54.059998,164.459991
436.679993,131.770004,54.059998,164.459991
436.679993,131.770004,54.059998,164.459991
436.679993,131.770004,54.059998,164.459991
436.679993,131.770004,54.059998,164.459991
436.679993,131.770004,54.059998,164.459991
436.679993,131.770004,54.059998,164.459991
436.679993,131.770004,54.059998,164.459991
436.679993,131.770004,54.059998,164.459991
436.679993,131.770004,54.059998,164.459991
436.679993,131.770004,54.059998,164.459991
436.679993,131.770004,54.059998,164.459991
436.679993,131.770004,54.059998,164.459991
436.679993,131.770004,54.059998,164.459991
436.679993,131.770004,54.059998,164.459991
436.679993,131.770004,54.059998,164.459991
432.679993,131.770004,54.059998,164.459991
432.679993,131.770004,54.059998,164.459991
432.679993,131.770004,54.059998,164.459991
432.679993,131.770004,54.059998,164.459991
432.679993,131.770004,54.059998,164.459991
428.679993,131.770004,54.059998,164.459991
428.679993,131.770004,54.059998,164.459991
428.679993,131.770004,54.059998,164.459991
428.679993,131.770004,54.059998,164.459991
428.679993,131.770004,54.059998,164.459991
428.679993,131.770004,54.059998,164.459991
428.679993,131.770004,54.059998,164.459991
428.679993,131.770004,54.059998,164.459991
428.679993,131.770004,54.059998,164.459991
428.679993,131.770004,54.059998,164.459991
428.679993,131.770004,54.059998,164.459991
428.679993,131.770004,54.059998,164.459991
428.679993,131.770004,54.059998,164.459991
428.679993,131.770004,54.059998,164.459991
428.679993,131.770004,54.059998,164.459991
428.679993,131.770004,54.059998,164.459991
428.679993,131.770004,54.059998,164.459991
428.679993,131.770004,54.059998,164.459991
428.679993,131.770004,54.059998,164.459991
428.679993,131.770004,54.059998,164.459991
428.679993,131.770004,54.059998,164.459991
428.679993,131.770004,54.059998,164.459991
428.679993,131.770004,54.059998,164.459991
428.679993,131.770004,54.059998,164.459991
428.679993,131.770004,54.059998,164.459991
428.679993,131.770004,54.059998,164.459991
428.679993,131.770004,54.059998,164.459991
428.679993,131.770004,54.059998,164.459991
428.679993,131.770004,54.059998,164.459991
428.679993,131.770004,54.059998,164.459991
428.679993,135.770004,54.059998,164.459991
428.679993,135.770004,54.059998,164.459991
424.679993,135.770004,54.059998,164.459991
424.679993,135.770004,54.059998,164.459991
424.679993,135.770004,54.059998,164.459991
424.679993,135.770004,54.059998,164.459991
424.679993,135.770004,54.059998,164.459991
420.679993,135.770004,54.059998,164.459991
420.679993,135.770004,54.059998,164.459991
420.679993,135.770004,54.059998,164.459991
416.679993,135.770004,54.059998,164.459991
416.679993,135.770004,54.059998,164.459991
416.679993,135.770004,54.059998,164.459991
416.679993,135.770004,54.059998,164.459991
416.679993,135.770004,54.059998,164.459991
416.679993,135.770004,54.059998,164.459991
416.679993,131.770004,54.059998,164.459991
416.679993,131.770004,54.059998,164.459991
416.679993,131.770004,54.059998,164.459991
412.679993,131.770004,54.059998,164.459991
412.679993,131.770004,54.059998,164.459991
412.679993,131.770004,54.059998,164.459991
412.679993,127.770004,54.059998,164.459991
412.679993,127.770004,54.059998,164.459991
412.679993,127.770004,54.059998,164.459991
412.679993,123.770004,54.059998,164.459991
412.679993,123.770004,54.059998,164.459991
412.679993,123.770004,54.059998,164.459991
412.679993,119.770004,54.059998,164.459991
412.679993,119.770004,54.059998,164.459991
412.679993,119.770004,54.059998,164.459991
412.679993,119.770004,54.059998,164.459991
408.679993,119.770004,54.059998,164.459991
408.679993,119.770004,54.059998,164.459991
408.679993,115.770004,54.059998,164.459991
408.679993,115.770004,54.059998,164.459991
408.679993,115.770004,54.059998,164.459991
404.679993,115.770004,54.059998,164.459991
400.679993,115.770004,54.059998,164.459991
396.679993,115.770004,54.059998,164.459991
396.679993,115.770004,54.059998,164.459991
392.679993,115.770004,54.059998,164.459991
392.679993,115.770004,54.059998,164.459991
388.679993,115.770004,54.059998,164.459991
384.679993,115.770004,54.059998,164.459991
384.679993,115.770004,54.059998,164.459991
380.679993,115.770004,54.059998,164.459991
376.679993,115.770004,54.059998,164.459991
376.679993,115.770004,54.059998,164.459991
376.679993,115.770004,54.059998,164.459991
372.679993,115.770004,54.059998,164.459991
372.679993,115.770004,54.059998,164.459991
372.679993,115.770004,54.059998,164.459991
372.679993,115.770004,54.059998,164.459991
372.679993,119.770004,54.059998,164.459991
376.679993,119.770004,54.059998,164.459991
380.679993,119.770004,54.059998,164.459991
380.679993,123.770004,54.059998,164.459991
384.679993,123.770004,54.059998,164.459991
388.679993,123.770004,54.059998,164.459991
388.679993,127.770004,54.059998,164.459991
388.679993,127.770004,54.059998,164.459991
392.679993,127.770004,54.059998,164.459991
392.679993,131.770004,54.059998,164.459991
392.679993,135.770004,54.059998,164.459991
392.679993,135.770004,54.059998,164.459991
392.679993,139.770004,54.059998,164.459991
392.679993,139.770004,54.059998,164.459991
392.679993,139.770004,54.059998,164.459991
392.679993,143.770004,54.059998,164.459991
392.679993,143.770004,54.059998,164.459991
392.679993,143.770004,54.059998,164.459991
392.679993,147.770004,54.059998,164.459991
396.679993,147.770004,54.059998,164.459991
396.679993,147.770004,54.059998,164.459991
400.679993,151.770004,54.059998,164.459991
404.679993,151.770004,54.059998,164.459991
404.679993,155.770004,54.059998,164.459991
404.679993,155.770004,54.059998,164.459991
408.679993,159.770004,54.059998,164.459991
408.679993,163.770004,54.059998,164.459991
408.679993,167.770004,54.059998,164.459991
408.679993,171.770004,54.059998,164.459991
412.679993,171.770004,54.059998,164.459991
412.679993,175.770004,54.059998,164.459991
412.679993,175.770004,54.059998,164.459991
408.679993,175.770004,54.059998,164.459991
408.679993,175.770004,54.059998,164.459991
408.679993,171.770004,54.059998,164.459991
408.679993,171.770004,54.059998,164.459991
408.679993,171.770004,54.059998,164.459991
408.679993,171.770004,54.059998,164.459991
408.679993,171.770004,54.059998,164.459991
408.679993,171.770004,54.059998,164.459991
408.679993,171.770004,54.059998,164.459991
408.679993,171.770004,54.059998,164.459991
408.679993,171.770004,54.059998,164.459991
404.679993,171.770004,54.059998,164.459991
404.679993,171.770004,54.059998,164.459991
400.679993,171.770004,54.059998,164.459991
400.679993,171.770004,54.059998,164.459991
400.679993,167.770004,54.059998,164.459991
396.679993,167.770004,54.059998,164.459991
396.679993,167.770004,54.059998,164.459991
396.679993,163.770004,54.059998,164.459991
392.679993,159.770004,54.059998,164.459991
392.679993,159.770004,54.059998,164.459991
392.679993,155.770004,54.059998,164.459991
392.679993,151.770004,54.059998,164.459991
388.679993,147.770004,54.059998,164.459991
388.679993,147.770004,54.059998,164.459991
388.679993,147.770004,54.059998,164.459991
388.679993,143.770004,54.059998,164.459991
388.679993,139.770004,54.059998,164.459991
384.679993,135.770004,54.059998,164.459991
384.679993,135.770004,54.059998,164.459991
384.679993,131.770004,54.059998,164.459991
384.679993,127.770004,54.059998,164.459991
384.679993,127.770004,54.059998,164.459991
384.679993,127.770004,54.059998,164.459991
384.679993,123.770004,54.059998,164.459991
388.679993,123.770004,54.059998,164.459991
388.679993,123.770004,54.059998,164.459991
388.679993,123.770004,54.059998,164.459991
388.679993,123.770004,54.059998,164.459991
388.679993,119.770004,54.059998,164.459991
388.679993,119.770004,54.059998,164.459991
388.679993,115.770004,54.059998,164.459991
392.679993,115.770004,54.059998,164.459991
396.679993,115.770004,54.059998,164.459991
400.679993,111.770004,54.059998,164.459991
404.679993,111.770004,54.059998,164.459991
396.679993,111.770004,54.059998,164.459991
392.679993,111.770004,54.059998,164.459991
388.679993,107.770004,54.059998,164.459991
388.679993,107.770004,54.059998,164.459991
388.679993,107.770004,54.059998,164.459991
388.679993,107.770004,54.059998,164.459991
388.679993,111.770004,54.059998,164.459991
384.679993,111.770004,54.059998,164.459991
384.679993,111.770004,54.059998,164.459991
380.679993,111.770004,54.059998,164.459991
380.679993,111.770004,54.059998,164.459991
380.679993,111.770004,54.059998,164.459991
376.679993,111.770004,54.059998,164.459991
376.679993,111.770004,54.059998,164.459991
376.679993,111.770004,54.059998,164.459991
376.679993,111.770004,54.059998,164.459991
372.679993,115.770004,54.059998,164.459991
372.679993,115.770004,54.059998,164.459991
372.679993,115.770004,54.059998,164.459991
372.679993,115.770004,54.059998,164.459991
372.679993,115.770004,54.059998,164.459991
372.679993,119.770004,54.059998,164.459991
372.679993,119.770004,54.059998,164.459991
368.679993,123.770004,54.059998,164.459991
368.679993,123.770004,54.059998,164.459991
368.679993,127.770004,54.059998,164.459991
368.679993,127.770004,54.059998,164.459991
368.679993,127.770004,54.059998,164.459991
368.679993,131.770004,54.059998,164.459991
368.679993,131.770004,54.059998,164.459991
368.679993,131.770004,54.059998,164.459991
368.679993,135.770004,54.059998,164.459991
368.679993,139.770004,54.059998,164.459991
364.679993,139.770004,54.059998,164.459991
364.679993,143.770004,54.059998,164.459991
364.679993,143.770004,54.059998,164.459991
364.679993,143.770004,54.059998,164.459991
364.679993,147.770004,54.059998,164.459991
364.679993,147.770004,54.059998,164.459991
364.679993,147.770004,54.059998,164.459991
364.679993,147.770004,54.059998,164.459991
364.679993,147.770004,54.059998,164.459991
364.679993,147.770004,54.059998,164.459991
360.679993,151.770004,54.059998,164.459991
360.679993,151.770004,54.059998,164.459991
360.679993,151.770004,54.059998,164.459991
360.679993,151.770004,54.059998,164.459991
360.679993,151.770004,54.059998,164.459991
356.679993,151.770004,54.059998,164.459991
356.679993,151.770004,54.059998,164.459991
356.679993,151.770004,54.059998,164.459991
352.679993,151.770004,54.059998,164.459991
352.679993,155.770004,54.059998,164.459991
352.679993,155.770004,54.059998,164.459991
348.679993,155.770004,54.059998,164.459991
348.679993,159.770004,54.059998,164.459991
348.679993,159.770004,54.059998,164.459991
344.679993,159.770004,54.059998,164.459991
344.679993,159.770004,54.059998,164.459991
340.679993,159.770004,54.059998,164.459991
340.679993,159.770004,54.059998,164.459991
340.679993,159.770004,54.059998,164.459991
336.679993,163.770004,54.059998,164.459991
336.679993,163.770004,54.059998,164.459991
336.679993,167.770004,54.059998,164.459991
332.679993,167.770004,54.059998,164.459991
332.679993,167.770004,54.059998,164.459991
328.679993,167.770004,54.059998,164.459991
328.679993,167.770004,54.059998,164.459991
324.679993,167.770004,54.059998,164.459991
324.679993,167.770004,54.059998,164.459991
320.679993,171.770004,54.059998,164.459991
316.679993,171.770004,54.059998,164.459991
316.679993,171.770004,54.059998,164.459991
312.679993,171.770004,54.059998,164.459991
308.679993,171.770004,54.059998,164.459991
308.679993,171.770004,54.059998,164.459991
304.679993,171.770004,54.059998,164.459991
304.679993,171.770004,54.059998,164.459991
300.679993,171.770004,54.059998,164.459991
296.679993,171.770004,54.059998,164.459991
292.679993,171.770004,54.059998,164.459991
292.679993,175.770004,54.059998,164.459991
288.679993,175.770004,54.059998,164.459991
288.679993,175.770004,54.059998,164.459991
284.679993,175.770004,54.059998,164.459991
284.679993,175.770004,54.059998,164.459991
280.679993,175.770004,54.059998,164.459991
276.679993,175.770004,54.059998,164.459991
276.679993,175.770004,54.059998,164.459991
272.679993,175.770004,54.059998,164.459991
268.679993,175.770004,54.059998,164.459991
268.679993,175.770004,54.059998,164.459991
264.679993,175.770004,54.059998,164.459991
260.679993,179.770004,54.059998,164.459991
260.679993,179.770004,54.059998,164.459991
256.679993,179.770004,54.059998,164.459991
256.679993,179.770004,54.059998,164.459991
252.679993,179.770004,54.059998,164.459991
252.679993,179.770004,54.059998,164.459991
248.679993,179.770004,54.059998,164.459991
248.679993,179.770004,54.059998,164.459991
244.679993,179.770004,54.059998,164.459991
244.679993,183.770004,54.059998,164.459991
240.679993,183.770004,54.059998,164.459991
