1
187.339996,208.705002,48.160004,110.790009
183.339996,208.705002,48.160004,110.790009
183.339996,212.705002,48.160004,110.790009
179.339996,212.705002,48.160004,110.790009
179.339996,212.705002,48.160004,110.790009
179.339996,212.705002,48.160004,110.790009
179.339996,212.705002,48.160004,110.790009
179.339996,212.705002,48.160004,110.790009
175.339996,216.705002,48.160004,110.790009
175.339996,220.705002,48.160004,110.790009
179.339996,220.705002,48.160004,110.790009
183.339996,220.705002,48.160004,110.790009
183.339996,220.705002,48.160004,110.790009
187.339996,220.705002,48.160004,110.790009
187.339996,220.705002,48.160004,110.790009
187.339996,216.705002,48.160004,110.790009
191.339996,208.705002,48.160004,110.790009
195.339996,204.705002,48.160004,110.790009
195.339996,204.705002,48.160004,110.790009
195.339996,208.705002,48.160004,110.790009
199.339996,212.705002,48.160004,110.790009
203.339996,216.705002,48.160004,110.790009
207.339996,216.705002,48.160004,110.790009
211.339996,220.705002,48.160004,110.790009
215.339996,220.705002,48.160004,110.790009
219.339996,224.705002,48.160004,110.790009
223.339996,224.705002,48.160004,110.790009
227.339996,224.705002,48.160004,110.790009
231.339996,224.705002,48.160004,110.790009
235.339996,224.705002,48.160004,110.790009
243.339996,224.705002,48.160004,110.790009
247.339996,224.705002,48.160004,110.790009
251.339996,220.705002,48.160004,110.790009
255.339996,220.705002,48.160004,110.790009
255.339996,220.705002,48.160004,110.790009
259.339996,216.705002,48.160004,110.790009
263.339996,216.705002,48.160004,110.790009
267.339996,220.705002,48.160004,110.790009
271.339996,224.705002,48.160004,110.790009
275.339996,224.705002,48.160004,110.790009
279.339996,228.705002,48.160004,110.790009
283.339996,228.705002,48.160004,110.790009
283.339996,224.705002,48.160004,110.790009
283.339996,224.705002,48.160004,110.790009
283.339996,224.705002,48.160004,110.790009
283.339996,224.705002,48.160004,110.790009
283.339996,224.705002,48.160004,110.790009
279.339996,224.705002,48.160004,110.790009
279.339996,220.705002,48.160004,110.790009
279.339996,220.705002,48.160004,110.790009
279.339996,220.705002,48.160004,110.790009
275.339996,220.705002,48.160004,110.790009
275.339996,220.705002,48.160004,110.790009
275.339996,220.705002,48.160004,110.790009
275.339996,220.705002,48.160004,110.790009
271.339996,220.705002,48.160004,110.790009
271.339996,220.705002,48.160004,110.790009
267.339996,224.705002,48.160004,110.790009
267.339996,224.705002,48.160004,110.790009
263.339996,228.705002,48.160004,110.790009
259.339996,228.705002,48.160004,110.790009
255.339996,228.705002,48.160004,110.790009
251.339996,232.705002,48.160004,110.790009
247.339996,232.705002,48.160004,110.790009
243.339996,232.705002,48.160004,110.790009
239.339996,232.705002,48.160004,110.790009
235.339996,232.705002,48.160004,110.790009
231.339996,236.705002,48.160004,110.790009
227.339996,236.705002,48.160004,110.790009
223.339996,236.705002,48.160004,110.790009
219.339996,232.705002,48.160004,110.790009
211.339996,232.705002,48.160004,110.790009
203.339996,228.705002,48.160004,110.790009
195.339996,224.705002,48.160004,110.790009
187.339996,224.705002,48.160004,110.790009
179.339996,224.705002,48.160004,110.790009
175.339996,228.705002,48.160004,110.790009
167.339996,228.705002,48.160004,110.790009
163.339996,232.705002,48.160004,110.790009
159.339996,232.705002,48.160004,110.790009
155.339996,228.705002,48.160004,110.790009
151.339996,228.705002,48.160004,110.790009
143.339996,224.705002,48.160004,110.790009
139.339996,220.705002,48.160004,110.790009
131.339996,220.705002,48.160004,110.790009
127.339996,216.705002,48.160004,110.790009
127.339996,220.705002,48.160004,110.790009
123.339996,220.705002,48.160004,110.790009
119.339996,224.705002,48.160004,110.790009
115.339996,224.705002,48.160004,110.790009
115.339996,224.705002,48.160004,110.790009
111.339996,220.705002,48.160004,110.790009
107.339996,216.705002,48.160004,110.790009
107.339996,212.705002,48.160004,110.790009
107.339996,212.705002,48.160004,110.790009
107.339996,212.705002,48.160004,110.790009
107.339996,212.705002,48.160004,110.790009
107.339996,212.705002,48.160004,110.790009
107.339996,212.705002,48.160004,110.790009
107.339996,212.705002,48.160004,110.790009
111.339996,208.705002,48.160004,110.790009
111.339996,204.705002,48.160004,110.790009
111.339996,200.705002,48.160004,110.790009
115.339996,200.705002,48.160004,110.790009
115.339996,196.705002,48.160004,110.790009
119.339996,196.705002,48.160004,110.790009
123.339996,196.705002,48.160004,110.790009
127.339996,196.705002,48.160004,110.790009
127.339996,196.705002,48.160004,110.790009
131.339996,196.705002,48.160004,110.790009
135.339996,196.705002,48.160004,110.790009
139.339996,196.705002,48.160004,110.790009
143.339996,192.705002,48.160004,110.790009
143.339996,188.705002,48.160004,110.790009
147.339996,184.705002,48.160004,110.790009
151.339996,184.705002,48.160004,110.790009
155.339996,184.705002,48.160004,110.790009
159.339996,184.705002,48.160004,110.790009
163.339996,184.705002,48.160004,110.790009
167.339996,184.705002,48.160004,110.790009
171.339996,184.705002,48.160004,110.790009
175.339996,184.705002,48.160004,110.790009
175.339996,180.705002,48.160004,110.790009
179.339996,180.705002,48.160004,110.790009
183.339996,176.705002,48.160004,110.790009
183.339996,172.705002,48.160004,110.790009
187.339996,172.705002,48.160004,110.790009
191.339996,172.705002,48.160004,110.790009
195.339996,172.705002,48.160004,110.790009
195.339996,176.705002,48.160004,110.790009
199.339996,176.705002,48.160004,110.790009
199.339996,172.705002,48.160004,110.790009
203.339996,172.705002,48.160004,110.790009
203.339996,168.705002,48.160004,110.790009
203.339996,164.705002,48.160004,110.790009
207.339996,164.705002,48.160004,110.790009
207.339996,164.705002,48.160004,110.790009
207.339996,160.705002,48.160004,110.790009
207.339996,160.705002,48.160004,110.790009
211.339996,160.705002,48.160004,110.790009
211.339996,164.705002,48.160004,110.790009
211.339996,164.705002,48.160004,110.790009
215.339996,164.705002,48.160004,110.790009
215.339996,160.705002,48.160004,110.790009
219.339996,160.705002,48.160004,110.790009
219.339996,156.705002,48.160004,110.790009
219.339996,156.705002,48.160004,110.790009
223.339996,152.705002,48.160004,110.790009
223.339996,156.705002,48.160004,110.790009
227.339996,156.705002,48.160004,110.790009
227.339996,160.705002,48.160004,110.790009
231.339996,160.705002,48.160004,110.790009
231.339996,160.705002,48.160004,110.790009
235.339996,160.705002,48.160004,110.790009
235.339996,156.705002,48.160004,110.790009
239.339996,156.705002,48.160004,110.790009
239.339996,152.705002,48.160004,110.790009
239.339996,152.705002,48.160004,110.790009
243.339996,152.705002,48.160004,110.790009
243.339996,152.705002,48.160004,110.790009
243.339996,152.705002,48.160004,110.790009
247.339996,152.705002,48.160004,110.790009
247.339996,152.705002,48.160004,110.790009
251.339996,148.705002,48.160004,110.790009
255.339996,148.705002,48.160004,110.790009
259.339996,148.705002,48.160004,110.790009
259.339996,148.705002,48.160004,110.790009
263.339996,148.705002,48.160004,110.790009
263.339996,148.705002,48.160004,110.790009
263.339996,148.705002,48.160004,110.790009
267.339996,148.705002,48.160004,110.790009
267.339996,152.705002,48.160004,110.790009
267.339996,152.705002,48.160004,110.790009
271.339996,148.705002,48.160004,110.790009
271.339996,148.705002,48.160004,110.790009
275.339996,148.705002,48.160004,110.790009
275.339996,148.705002,48.160004,110.790009
275.339996,148.705002,48.160004,110.790009
275.339996,148.705002,48.160004,110.790009
275.339996,148.705002,48.160004,110.790009
275.339996,148.705002,48.160004,110.790009
271.339996,144.705002,48.160004,110.790009
271.339996,144.705002,48.160004,110.790009
271.339996,144.705002,48.160004,110.790009
271.339996,144.705002,48.160004,110.790009
271.339996,144.705002,48.160004,110.790009
271.339996,144.705002,48.160004,110.790009
271.339996,144.705002,48.160004,110.790009
271.339996,144.705002,48.160004,110.790009
271.339996,148.705002,48.160004,110.790009
275.339996,148.705002,48.160004,110.790009
275.339996,152.705002,48.160004,110.790009
275.339996,152.705002,48.160004,110.790009
275.339996,152.705002,48.160004,110.790009
275.339996,152.705002,48.160004,110.790009
271.339996,152.705002,48.160004,110.790009
271.339996,152.705002,48.160004,110.790009
271.339996,152.705002,48.160004,110.790009
271.339996,152.705002,48.160004,110.790009
271.339996,152.705002,48.160004,110.790009
271.339996,152.705002,48.160004,110.790009
271.339996,152.705002,48.160004,110.790009
275.339996,152.705002,48.160004,110.790009
275.339996,152.705002,48.160004,110.790009
275.339996,152.705002,48.160004,110.790009
275.339996,152.705002,48.160004,110.790009
275.339996,156.705002,48.160004,110.790009
275.339996,156.705002,48.160004,110.790009
275.339996,156.705002,48.160004,110.790009
275.339996,156.705002,48.160004,110.790009
275.339996,160.705002,48.160004,110.790009
275.339996,160.705002,48.160004,110.790009
275.339996,160.705002,48.160004,110.790009
271.339996,160.705002,48.160004,110.790009
271.339996,160.705002,48.160004,110.790009
271.339996,160.705002,48.160004,110.790009
271.339996,160.705002,48.160004,110.790009
271.339996,160.705002,48.160004,110.790009
271.339996,160.705002,48.160004,110.790009
271.339996,164.705002,48.160004,110.790009
271.339996,164.705002,48.160004,110.790009
267.339996,168.705002,48.160004,110.790009
267.339996,172.705002,48.160004,110.790009
267.339996,172.705002,48.160004,110.790009
267.339996,172.705002,48.160004,110.790009
263.339996,172.705002,48.160004,110.790009
263.339996,176.705002,48.160004,110.790009
263.339996,176.705002,48.160004,110.790009
259.339996,176.705002,48.160004,110.790009
259.339996,176.705002,48.160004,110.790009
255.339996,172.705002,48.160004,110.790009
255.339996,172.705002,48.160004,110.790009
251.339996,172.705002,48.160004,110.790009
247.339996,172.705002,48.160004,110.790009
247.339996,172.705002,48.160004,110.790009
243.339996,176.705002,48.160004,110.790009
243.339996,176.705002,48.160004,110.790009
239.339996,180.705002,48.160004,110.790009
239.339996,184.705002,48.160004,110.790009
235.339996,184.705002,48.160004,110.790009
235.339996,184.705002,48.160004,110.790009
231.339996,184.705002,48.160004,110.790009
227.339996,184.705002,48.160004,110.790009
227.339996,184.705002,48.160004,110.790009
223.339996,184.705002,48.160004,110.790009
223.339996,188.705002,48.160004,110.790009
219.339996,188.705002,48.160004,110.790009
219.339996,188.705002,48.160004,110.790009
215.339996,184.705002,48.160004,110.790009
211.339996,184.705002,48.160004,110.790009
211.339996,184.705002,48.160004,110.790009
207.339996,184.705002,48.160004,110.790009
207.339996,184.705002,48.160004,110.790009
207.339996,184.705002,48.160004,110.790009
207.339996,184.705002,48.160004,110.790009
203.339996,188.705002,48.160004,110.790009
203.339996,188.705002,48.160004,110.790009
203.339996,188.705002,48.160004,110.790009
199.339996,188.705002,48.160004,110.790009
195.339996,192.705002,48.160004,110.790009
195.339996,192.705002,48.160004,110.790009
191.339996,192.705002,48.160004,110.790009
191.339996,192.705002,48.160004,110.790009
187.339996,192.705002,48.160004,110.790009
187.339996,192.705002,48.160004,110.790009
187.339996,192.705002,48.160004,110.790009
187.339996,192.705002,48.160004,110.790009
187.339996,188.705002,48.160004,110.790009
187.339996,188.705002,48.160004,110.790009
187.339996,188.705002,48.160004,110.790009
187.339996,188.705002,48.160004,110.790009
187.339996,188.705002,48.160004,110.790009
187.339996,188.705002,48.160004,110.790009
183.339996,192.705002,48.160004,110.790009
183.339996,192.705002,48.160004,110.790009
183.339996,192.705002,48.160004,110.790009
183.339996,192.705002,48.160004,110.790009
183.339996,192.705002,48.160004,110.790009
183.339996,188.705002,48.160004,110.790009
183.339996,188.705002,48.160004,110.790009
183.339996,184.705002,48.160004,110.790009
183.339996,184.705002,48.160004,110.790009
183.339996,184.705002,48.160004,110.790009
179.339996,188.705002,48.160004,110.790009
179.339996,188.705002,48.160004,110.790009
179.339996,188.705002,48.160004,110.790009
179.339996,188.705002,48.160004,110.790009
179.339996,188.705002,48.160004,110.790009
183.339996,188.705002,48.160004,110.790009
183.339996,188.705002,48.160004,110.790009
183.339996,188.705002,48.160004,110.790009
183.339996,188.705002,48.160004,110.790009
183.339996,188.705002,48.160004,110.790009
183.339996,188.705002,48.160004,110.790009
183.339996,188.705002,48.160004,110.790009
179.339996,192.705002,48.160004,110.790009
179.339996,192.705002,48.160004,110.790009
179.339996,192.705002,48.160004,110.790009
175.339996,196.705002,48.160004,110.790009
175.339996,196.705002,48.160004,110.790009
171.339996,200.705002,48.160004,110.790009
167.339996,200.705002,48.160004,110.790009
167.339996,204.705002,48.160004,110.790009
163.339996,204.705002,48.160004,110.790009
159.339996,204.705002,48.160004,110.790009
155.339996,208.705002,48.160004,110.790009
155.339996,208.705002,48.160004,110.790009
151.339996,208.705002,48.160004,110.790009
151.339996,208.705002,48.160004,110.790009
147.339996,208.705002,48.160004,110.790009
143.339996,212.705002,48.160004,110.790009
143.339996,212.705002,48.160004,110.790009
139.339996,212.705002,48.160004,110.790009
139.339996,212.705002,48.160004,110.790009
135.339996,212.705002,48.160004,110.790009
135.339996,212.705002,48.160004,110.790009
135.339996,212.705002,48.160004,110.790009
131.339996,212.705002,48.160004,110.790009
131.339996,212.705002,48.160004,110.790009
127.339996,212.705002,48.160004,110.790009
127.339996,212.705002,48.160004,110.790009
123.339996,212.705002,48.160004,110.790009
123.339996,212.705002,48.160004,110.790009
123.339996,212.705002,48.160004,110.790009
123.339996,212.705002,48.160004,110.790009
119.339996,212.705002,48.160004,110.790009
119.339996,212.705002,48.160004,110.790009
119.339996,212.705002,48.160004,110.790009
123.339996,212.705002,48.160004,110.790009
123.339996,212.705002,48.160004,110.790009
123.339996,212.705002,48.160004,110.790009
123.339996,212.705002,48.160004,110.790009
123.339996,212.705002,48.160004,110.790009
127.339996,216.705002,48.160004,110.790009
127.339996,216.705002,48.160004,110.790009
127.339996,216.705002,48.160004,110.790009
127.339996,216.705002,48.160004,110.790009
131.339996,216.705002,48.160004,110.790009
131.339996,216.705002,48.160004,110.790009
131.339996,216.705002,48.160004,110.790009
135.339996,216.705002,48.160004,110.790009
135.339996,216.705002,48.160004,110.790009
135.339996,216.705002,48.160004,110.790009
135.339996,216.705002,48.160004,110.790009
135.339996,216.705002,48.160004,110.790009
135.339996,216.705002,48.160004,110.790009
135.339996,216.705002,48.160004,110.790009
135.339996,216.705002,48.160004,110.790009
135.339996,220.705002,48.160004,110.790009
135.339996,220.705002,48.160004,110.790009
135.339996,220.705002,48.160004,110.790009
135.339996,220.705002,48.160004,110.790009
135.339996,220.705002,48.160004,110.790009
135.339996,220.705002,48.160004,110.790009
135.339996,220.705002,48.160004,110.790009
131.339996,220.705002,48.160004,110.790009
131.339996,220.705002,48.160004,110.790009
131.339996,220.705002,48.160004,110.790009
131.339996,220.705002,48.160004,110.790009
131.339996,220.705002,48.160004,110.790009
131.339996,220.705002,48.160004,110.790009
131.339996,220.705002,48.160004,110.790009
131.339996,220.705002,48.160004,110.790009
131.339996,220.705002,48.160004,110.790009
131.339996,220.705002,48.160004,110.790009
131.339996,220.705002,48.160004,110.790009
131.339996,220.705002,48.160004,110.790009
131.339996,220.705002,48.160004,110.790009
131.339996,220.705002,48.160004,110.790009
135.339996,220.705002,48.160004,110.790009
135.339996,220.705002,48.160004,110.790009
135.339996,224.705002,48.160004,110.790009
135.339996,224.705002,48.160004,110.790009
139.339996,224.705002,48.160004,110.790009
139.339996,224.705002,48.160004,110.790009
139.339996,224.705002,48.160004,110.790009
139.339996,224.705002,48.160004,110.790009
139.339996,224.705002,48.160004,110.790009
139.339996,224.705002,48.160004,110.790009
139.339996,224.705002,48.160004,110.790009
143.339996,224.705002,48.160004,110.790009
143.339996,224.705002,48.160004,110.790009
143.339996,228.705002,48.160004,110.790009
143.339996,228.705002,48.160004,110.790009
143.339996,228.705002,48.160004,110.790009
143.339996,228.705002,48.160004,110.790009
143.339996,228.705002,48.160004,110.790009
143.339996,228.705002,48.160004,110.790009
143.339996,228.705002,48.160004,110.790009
143.339996,228.705002,48.160004,110.790009
143.339996,228.705002,48.160004,110.790009
143.339996,228.705002,48.160004,110.790009
143.339996,228.705002,48.160004,110.790009
143.339996,228.705002,48.160004,110.790009
143.339996,228.705002,48.160004,110.790009
143.339996,228.705002,48.160004,110.790009
143.339996,228.705002,48.160004,110.790009
147.339996,232.705002,48.160004,110.790009
147.339996,232.705002,48.160004,110.790009
147.339996,232.705002,48.160004,110.790009
147.339996,232.705002,48.160004,110.790009
147.339996,228.705002,48.160004,110.790009
147.339996,228.705002,48.160004,110.790009
147.339996,228.705002,48.160004,110.790009
147.339996,228.705002,48.160004,110.790009
147.339996,228.705002,48.160004,110.790009
147.339996,228.705002,48.160004,110.790009
147.339996,228.705002,48.160004,110.790009
151.339996,228.705002,48.160004,110.790009
151.339996,228.705002,48.160004,110.790009
151.339996,228.705002,48.160004,110.790009
151.339996,228.705002,48.160004,110.790009
151.339996,228.705002,48.160004,110.790009
155.339996,228.705002,48.160004,110.790009
155.339996,228.705002,48.160004,110.790009
155.339996,228.705002,48.160004,110.790009
155.339996,228.705002,48.160004,110.790009
155.339996,228.705002,48.160004,110.790009
155.339996,228.705002,48.160004,110.790009
155.339996,228.705002,48.160004,110.790009
159.339996,228.705002,48.160004,110.790009
159.339996,228.705002,48.160004,110.790009
159.339996,228.705002,48.160004,110.790009
159.339996,228.705002,48.160004,110.790009
159.339996,228.705002,48.160004,110.790009
159.339996,228.705002,48.160004,110.790009
159.339996,228.705002,48.160004,110.790009
163.339996,228.705002,48.160004,110.790009
163.339996,228.705002,48.160004,110.790009
163.339996,228.705002,48.160004,110.790009
167.339996,228.705002,48.160004,110.790009
167.339996,228.705002,48.160004,110.790009
167.339996,228.705002,48.160004,110.790009
171.339996,228.705002,48.160004,110.790009
171.339996,228.705002,48.160004,110.790009
175.339996,228.705002,48.160004,110.790009
175.339996,228.705002,48.160004,110.790009
179.339996,228.705002,48.160004,110.790009
179.339996,228.705002,48.160004,110.790009
183.339996,228.705002,48.160004,110.790009
183.339996,228.705002,48.160004,110.790009
187.339996,228.705002,48.160004,110.790009
187.339996,228.705002,48.160004,110.790009
187.339996,228.705002,48.160004,110.790009
191.339996,228.705002,48.160004,110.790009
191.339996,228.705002,48.160004,110.790009
195.339996,228.705002,48.160004,110.790009
195.339996,228.705002,48.160004,110.790009
199.339996,228.705002,48.160004,110.790009
199.339996,228.705002,48.160004,110.790009
203.339996,228.705002,48.160004,110.790009
207.339996,228.705002,48.160004,110.790009
207.339996,228.705002,48.160004,110.790009
211.339996,228.705002,48.160004,110.790009
211.339996,228.705002,48.160004,110.790009
215.339996,228.705002,48.160004,110.790009
219.339996,232.705002,48.160004,110.790009
223.339996,232.705002,48.160004,110.790009
227.339996,232.705002,48.160004,110.790009
231.339996,232.705002,48.160004,110.790009
235.339996,232.705002,48.160004,110.790009
239.339996,232.705002,48.160004,110.790009
247.339996,232.705002,48.160004,110.790009
251.339996,232.705002,48.160004,110.790009
259.339996,232.705002,48.160004,110.790009
263.339996,232.705002,48.160004,110.790009
271.339996,228.705002,48.160004,110.790009
275.339996,228.705002,48.160004,110.790009
283.339996,228.705002,48.160004,110.790009
291.339996,228.705002,48.160004,110.790009
295.339996,228.705002,48.160004,110.790009
303.339996,228.705002,48.160004,110.790009
311.339996,228.705002,48.160004,110.790009
315.339996,228.705002,48.160004,110.790009
319.339996,228.705002,48.160004,110.790009
327.339996,228.705002,48.160004,110.790009
331.339996,228.705002,48.160004,110.790009
339.339996,228.705002,48.160004,110.790009
347.339996,228.705002,48.160004,110.790009
355.339996,228.705002,48.160004,110.790009
363.339996,224.705002,48.160004,110.790009
371.339996,224.705002,48.160004,110.790009
379.339996,228.705002,48.160004,110.790009
387.339996,228.705002,48.160004,110.790009
395.339996,228.705002,48.160004,110.790009
403.339996,228.705002,48.160004,110.790009
407.339996,228.705002,48.160004,110.790009
411.339996,228.705002,48.160004,110.790009
411.339996,228.705002,48.160004,110.790009
411.339996,228.705002,48.160004,110.790009
411.339996,224.705002,48.160004,110.790009
411.339996,220.705002,48.160004,110.790009
411.339996,220.705002,48.160004,110.790009
407.339996,216.705002,48.160004,110.790009
407.339996,212.705002,48.160004,110.790009
403.339996,208.705002,48.160004,110.790009
399.339996,208.705002,48.160004,110.790009
395.339996,208.705002,48.160004,110.790009
395.339996,204.705002,48.160004,110.790009
391.339996,204.705002,48.160004,110.790009
387.339996,200.705002,48.160004,110.790009
383.339996,196.705002,48.160004,110.790009
379.339996,196.705002,48.160004,110.790009
375.339996,192.705002,48.160004,110.790009
371.339996,188.705002,48.160004,110.790009
371.339996,188.705002,48.160004,110.790009
367.339996,188.705002,48.160004,110.790009
363.339996,188.705002,48.160004,110.790009
359.339996,188.705002,48.160004,110.790009
359.339996,188.705002,48.160004,110.790009
355.339996,188.705002,48.160004,110.790009
355.339996,188.705002,48.160004,110.790009
355.339996,188.705002,48.160004,110.790009
351.339996,188.705002,48.160004,110.790009
351.339996,188.705002,48.160004,110.790009
351.339996,188.705002,48.160004,110.790009
351.339996,184.705002,48.160004,110.790009
347.339996,184.705002,48.160004,110.790009
347.339996,180.705002,48.160004,110.790009
347.339996,180.705002,48.160004,110.790009
343.339996,176.705002,48.160004,110.790009
343.339996,176.705002,48.160004,110.790009
343.339996,176.705002,48.160004,110.790009
339.339996,176.705002,48.160004,110.790009
339.339996,176.705002,48.160004,110.790009
339.339996,176.705002,48.160004,110.790009
339.339996,176.705002,48.160004,110.790009
339.339996,180.705002,48.160004,110.790009
339.339996,180.705002,48.160004,110.790009
339.339996,180.705002,48.160004,110.790009
335.339996,176.705002,48.160004,110.790009
335.339996,176.705002,48.160004,110.790009
335.339996,176.705002,48.160004,110.790009
335.339996,176.705002,48.160004,110.790009
331.339996,176.705002,48.160004,110.790009
331.339996,176.705002,48.160004,110.790009
331.339996,176.705002,48.160004,110.790009
331.339996,176.705002,48.160004,110.790009
331.339996,176.705002,48.160004,110.790009
327.339996,176.705002,48.160004,110.790009
327.339996,176.705002,48.160004,110.790009
327.339996,176.705002,48.160004,110.790009
327.339996,176.705002,48.160004,110.790009
327.339996,176.705002,48.160004,110.790009
327.339996,176.705002,48.160004,110.790009
323.339996,180.705002,48.160004,110.790009
323.339996,180.705002,48.160004,110.790009
323.339996,180.705002,48.160004,110.790009
323.339996,180.705002,48.160004,110.790009
319.339996,176.705002,48.160004,110.790009
319.339996,180.705002,48.160004,110.790009
315.339996,180.705002,48.160004,110.790009
315.339996,180.705002,48.160004,110.790009
315.339996,176.705002,48.160004,110.790009
315.339996,176.705002,48.160004,110.790009
311.339996,176.705002,48.160004,110.790009
311.339996,172.705002,48.160004,110.790009
311.339996,172.705002,48.160004,110.790009
307.339996,172.705002,48.160004,110.790009
307.339996,172.705002,48.160004,110.790009
307.339996,176.705002,48.160004,110.790009
307.339996,176.705002,48.160004,110.790009
307.339996,176.705002,48.160004,110.790009
303.339996,176.705002,48.160004,110.790009
303.339996,176.705002,48.160004,110.790009
299.339996,176.705002,48.160004,110.790009
299.339996,176.705002,48.160004,110.790009
295.339996,180.705002,48.160004,110.790009
295.339996,176.705002,48.160004,110.790009
291.339996,176.705002,48.160004,110.790009
291.339996,176.705002,48.160004,110.790009
287.339996,176.705002,48.160004,110.790009
287.339996,176.705002,48.160004,110.790009
287.339996,172.705002,48.160004,110.790009
287.339996,172.705002,48.160004,110.790009
287.339996,172.705002,48.160004,110.790009
287.339996,172.705002,48.160004,110.790009
287.339996,172.705002,48.160004,110.790009
287.339996,172.705002,48.160004,110.790009
287.339996,172.705002,48.160004,110.790009
287.339996,176.705002,48.160004,110.790009
287.339996,176.705002,48.160004,110.790009
287.339996,176.705002,48.160004,110.790009
287.339996,176.705002,48.160004,110.790009
287.339996,176.705002,48.160004,110.790009
287.339996,176.705002,48.160004,110.790009
287.339996,172.705002,48.160004,110.790009
287.339996,172.705002,48.160004,110.790009
283.339996,172.705002,48.160004,110.790009
283.339996,168.705002,48.160004,110.790009
283.339996,168.705002,48.160004,110.790009
283.339996,164.705002,48.160004,110.790009
283.339996,164.705002,48.160004,110.790009
283.339996,164.705002,48.160004,110.790009
283.339996,164.705002,48.160004,110.790009
287.339996,164.705002,48.160004,110.790009
287.339996,164.705002,48.160004,110.790009
287.339996,168.705002,48.160004,110.790009
291.339996,168.705002,48.160004,110.790009
291.339996,168.705002,48.160004,110.790009
295.339996,168.705002,48.160004,110.790009
295.339996,164.705002,48.160004,110.790009
299.339996,164.705002,48.160004,110.790009
299.339996,160.705002,48.160004,110.790009
303.339996,160.705002,48.160004,110.790009
307.339996,160.705002,48.160004,110.790009
307.339996,160.705002,48.160004,110.790009
311.339996,160.705002,48.160004,110.790009
311.339996,160.705002,48.160004,110.790009
315.339996,160.705002,48.160004,110.790009
315.339996,160.705002,48.160004,110.790009
319.339996,160.705002,48.160004,110.790009
319.339996,160.705002,48.160004,110.790009
323.339996,160.705002,48.160004,110.790009
323.339996,160.705002,48.160004,110.790009
323.339996,156.705002,48.160004,110.790009
327.339996,156.705002,48.160004,110.790009
327.339996,156.705002,48.160004,110.790009
327.339996,156.705002,48.160004,110.790009
327.339996,156.705002,48.160004,110.790009
327.339996,152.705002,48.160004,110.790009
323.339996,148.705002,48.160004,110.790009
323.339996,144.705002,48.160004,110.790009
323.339996,144.705002,48.160004,110.790009
323.339996,140.705002,48.160004,110.790009
323.339996,140.705002,48.160004,110.790009
323.339996,136.705002,48.160004,110.790009
323.339996,140.705002,48.160004,110.790009
323.339996,140.705002,48.160004,110.790009
319.339996,140.705002,48.160004,110.790009
319.339996,144.705002,48.160004,110.790009
319.339996,148.705002,48.160004,110.790009
323.339996,152.705002,48.160004,110.790009
323.339996,156.705002,48.160004,110.790009
323.339996,156.705002,48.160004,110.790009
323.339996,160.705002,48.160004,110.790009
323.339996,160.705002,48.160004,110.790009
323.339996,160.705002,48.160004,110.790009
323.339996,160.705002,48.160004,110.790009
323.339996,160.705002,48.160004,110.790009
323.339996,160.705002,48.160004,110.790009
323.339996,160.705002,48.160004,110.790009
327.339996,160.705002,48.160004,110.790009
327.339996,160.705002,48.160004,110.790009
327.339996,160.705002,48.160004,110.790009
327.339996,164.705002,48.160004,110.790009
327.339996,164.705002,48.160004,110.790009
327.339996,168.705002,48.160004,110.790009
323.339996,168.705002,48.160004,110.790009
323.339996,172.705002,48.160004,110.790009
327.339996,176.705002,48.160004,110.790009
327.339996,176.705002,48.160004,110.790009
327.339996,180.705002,48.160004,110.790009
331.339996,180.705002,48.160004,110.790009
331.339996,184.705002,48.160004,110.790009
331.339996,184.705002,48.160004,110.790009
331.339996,188.705002,48.160004,110.790009
331.339996,192.705002,48.160004,110.790009
331.339996,196.705002,48.160004,110.790009
331.339996,200.705002,48.160004,110.790009
331.339996,204.705002,48.160004,110.790009
335.339996,208.705002,48.160004,110.790009
335.339996,212.705002,48.160004,110.790009
335.339996,212.705002,48.160004,110.790009
335.339996,212.705002,48.160004,110.790009
335.339996,212.705002,48.160004,110.790009
335.339996,212.705002,48.160004,110.790009
335.339996,216.705002,48.160004,110.790009
335.339996,216.705002,48.160004,110.790009
335.339996,216.705002,48.160004,110.790009
335.339996,216.705002,48.160004,110.790009
335.339996,220.705002,48.160004,110.790009
335.339996,220.705002,48.160004,110.790009
335.339996,216.705002,48.160004,110.790009
339.339996,216.705002,48.160004,110.790009
339.339996,216.705002,48.160004,110.790009
339.339996,216.705002,48.160004,110.790009
339.339996,216.705002,48.160004,110.790009
339.339996,212.705002,48.160004,110.790009
339.339996,212.705002,48.160004,110.790009
339.339996,212.705002,48.160004,110.790009
339.339996,212.705002,48.160004,110.790009
339.339996,212.705002,48.160004,110.790009
343.339996,212.705002,48.160004,110.790009
343.339996,212.705002,48.160004,110.790009
343.339996,212.705002,48.160004,110.790009
339.339996,212.705002,48.160004,110.790009
339.339996,212.705002,48.160004,110.790009
339.339996,212.705002,48.160004,110.790009
339.339996,208.705002,48.160004,110.790009
339.339996,208.705002,48.160004,110.790009
339.339996,208.705002,48.160004,110.790009
339.339996,208.705002,48.160004,110.790009
339.339996,204.705002,48.160004,110.790009
339.339996,204.705002,48.160004,110.790009
339.339996,204.705002,48.160004,110.790009
339.339996,204.705002,48.160004,110.790009
339.339996,204.705002,48.160004,110.790009
339.339996,204.705002,48.160004,110.790009
339.339996,204.705002,48.160004,110.790009
339.339996,204.705002,48.160004,110.790009
335.339996,204.705002,48.160004,110.790009
335.339996,204.705002,48.160004,110.790009
335.339996,204.705002,48.160004,110.790009
335.339996,204.705002,48.160004,110.790009
335.339996,204.705002,48.160004,110.790009
335.339996,200.705002,48.160004,110.790009
335.339996,200.705002,48.160004,110.790009
335.339996,200.705002,48.160004,110.790009
335.339996,204.705002,48.160004,110.790009
335.339996,204.705002,48.160004,110.790009
335.339996,208.705002,48.160004,110.790009
335.339996,208.705002,48.160004,110.790009
335.339996,208.705002,48.160004,110.790009
331.339996,208.705002,48.160004,110.790009
331.339996,204.705002,48.160004,110.790009
327.339996,204.705002,48.160004,110.790009
327.339996,200.705002,48.160004,110.790009
323.339996,200.705002,48.160004,110.790009
323.339996,200.705002,48.160004,110.790009
319.339996,196.705002,48.160004,110.790009
319.339996,196.705002,48.160004,110.790009
315.339996,192.705002,48.160004,110.790009
311.339996,188.705002,48.160004,110.790009
