1
74.759995,141.880005,39.740005,36.119995
74.759995,141.880005,39.740005,36.119995
74.759995,137.880005,39.740005,36.119995
74.759995,137.880005,39.740005,36.119995
74.759995,137.880005,39.740005,36.119995
74.759995,133.880005,39.740005,36.119995
74.759995,133.880005,39.740005,36.119995
78.759995,129.880005,39.740005,36.119995
78.759995,129.880005,39.740005,36.119995
78.759995,129.880005,39.740005,36.119995
78.759995,125.880005,39.740005,36.119995
78.759995,125.880005,39.740005,36.119995
86.759995,125.880005,39.740005,36.119995
90.759995,125.880005,39.740005,36.119995
94.759995,125.880005,39.740005,36.119995
94.759995,121.880005,39.740005,36.119995
98.759995,117.880005,39.740005,36.119995
98.759995,113.880005,39.740005,36.119995
98.759995,109.880005,39.740005,36.119995
86.759995,101.880005,39.740005,36.119995
78.759995,101.880005,39.740005,36.119995
74.759995,97.880005,39.740005,36.119995
74.759995,93.880005,39.740005,36.119995
74.759995,93.880005,39.740005,36.119995
74.759995,89.880005,39.740005,36.119995
78.759995,85.880005,39.740005,36.119995
78.759995,85.880005,39.740005,36.119995
78.759995,85.880005,39.740005,36.119995
82.759995,81.880005,39.740005,36.119995
82.759995,81.880005,39.740005,36.119995
82.759995,77.880005,39.740005,36.119995
82.759995,73.880005,39.740005,36.119995
82.759995,73.880005,39.740005,36.119995
82.759995,69.880005,39.740005,36.119995
82.759995,65.880005,39.740005,36.119995
82.759995,65.880005,39.740005,36.119995
82.759995,61.880005,39.740005,36.119995
78.759995,57.880005,39.740005,36.119995
78.759995,57.880005,39.740005,36.119995
78.759995,53.880005,39.740005,36.119995
78.759995,53.880005,39.740005,36.119995
78.759995,53.880005,39.740005,36.119995
78.759995,49.880005,39.740005,36.119995
78.759995,49.880005,39.740005,36.119995
78.759995,49.880005,39.740005,36.119995
78.759995,49.880005,39.740005,36.119995
78.759995,49.880005,39.740005,36.119995
78.759995,53.880005,39.740005,36.119995
78.759995,53.880005,39.740005,36.119995
78.759995,53.880005,39.740005,36.119995
78.759995,53.880005,39.740005,36.119995
78.759995,53.880005,39.740005,36.119995
78.759995,57.880005,39.740005,36.119995
78.759995,57.880005,39.740005,36.119995
82.759995,61.880005,39.740005,36.119995
82.759995,61.880005,39.740005,36.119995
82.759995,65.880005,39.740005,36.119995
82.759995,69.880005,39.740005,36.119995
86.759995,69.880005,39.740005,36.119995
86.759995,73.880005,39.740005,36.119995
86.759995,73.880005,39.740005,36.119995
90.759995,73.880005,39.740005,36.119995
90.759995,73.880005,39.740005,36.119995
94.759995,73.880005,39.740005,36.119995
94.759995,73.880005,39.740005,36.119995
94.759995,73.880005,39.740005,36.119995
94.759995,73.880005,39.740005,36.119995
98.759995,73.880005,39.740005,36.119995
98.759995,73.880005,39.740005,36.119995
98.759995,73.880005,39.740005,36.119995
98.759995,73.880005,39.740005,36.119995
98.759995,73.880005,39.740005,36.119995
98.759995,73.880005,39.740005,36.119995
98.759995,73.880005,39.740005,36.119995
98.759995,73.880005,39.740005,36.119995
98.759995,73.880005,39.740005,36.119995
98.759995,73.880005,39.740005,36.119995
98.759995,73.880005,39.740005,36.119995
98.759995,73.880005,39.740005,36.119995
98.759995,73.880005,39.740005,36.119995
98.759995,73.880005,39.740005,36.119995
98.759995,73.880005,39.740005,36.119995
98.759995,73.880005,39.740005,36.119995
98.759995,73.880005,39.740005,36.119995
98.759995,73.880005,39.740005,36.119995
98.759995,69.880005,39.740005,36.119995
98.759995,69.880005,39.740005,36.119995
98.759995,69.880005,39.740005,36.119995
98.759995,69.880005,39.740005,36.119995
98.759995,69.880005,39.740005,36.119995
98.759995,69.880005,39.740005,36.119995
98.759995,69.880005,39.740005,36.119995
98.759995,69.880005,39.740005,36.119995
98.759995,69.880005,39.740005,36.119995
98.759995,69.880005,39.740005,36.119995
98.759995,69.880005,39.740005,36.119995
98.759995,69.880005,39.740005,36.119995
98.759995,69.880005,39.740005,36.119995
98.759995,69.880005,39.740005,36.119995
98.759995,69.880005,39.740005,36.119995
102.759995,69.880005,39.740005,36.119995
102.759995,65.880005,39.740005,36.119995
106.759995,65.880005,39.740005,36.119995
106.759995,65.880005,39.740005,36.119995
106.759995,65.880005,39.740005,36.119995
106.759995,65.880005,39.740005,36.119995
106.759995,65.880005,39.740005,36.119995
106.759995,65.880005,39.740005,36.119995
106.759995,65.880005,39.740005,36.119995
106.759995,65.880005,39.740005,36.119995
106.759995,65.880005,39.740005,36.119995
106.759995,65.880005,39.740005,36.119995
106.759995,65.880005,39.740005,36.119995
106.759995,65.880005,39.740005,36.119995
106.759995,65.880005,39.740005,36.119995
106.759995,65.880005,39.740005,36.119995
106.759995,65.880005,39.740005,36.119995
106.759995,65.880005,39.740005,36.119995
106.759995,65.880005,39.740005,36.119995
106.759995,65.880005,39.740005,36.119995
106.759995,65.880005,39.740005,36.119995
106.759995,69.880005,39.740005,36.119995
106.759995,69.880005,39.740005,36.119995
106.759995,69.880005,39.740005,36.119995
106.759995,69.880005,39.740005,36.119995
106.759995,69.880005,39.740005,36.119995
106.759995,69.880005,39.740005,36.119995
106.759995,73.880005,39.740005,36.119995
106.759995,73.880005,39.740005,36.119995
106.759995,73.880005,39.740005,36.119995
106.759995,73.880005,39.740005,36.119995
106.759995,77.880005,39.740005,36.119995
106.759995,77.880005,39.740005,36.119995
102.759995,81.880005,39.740005,36.119995
102.759995,81.880005,39.740005,36.119995
102.759995,81.880005,39.740005,36.119995
102.759995,81.880005,39.740005,36.119995
106.759995,81.880005,39.740005,36.119995
106.759995,81.880005,39.740005,36.119995
106.759995,81.880005,39.740005,36.119995
106.759995,81.880005,39.740005,36.119995
106.759995,81.880005,39.740005,36.119995
110.759995,81.880005,39.740005,36.119995
110.759995,81.880005,39.740005,36.119995
114.759995,77.880005,39.740005,36.119995
114.759995,77.880005,39.740005,36.119995
114.759995,77.880005,39.740005,36.119995
114.759995,77.880005,39.740005,36.119995
118.759995,73.880005,39.740005,36.119995
118.759995,73.880005,39.740005,36.119995
118.759995,73.880005,39.740005,36.119995
118.759995,73.880005,39.740005,36.119995
118.759995,73.880005,39.740005,36.119995
118.759995,73.880005,39.740005,36.119995
118.759995,73.880005,39.740005,36.119995
118.759995,73.880005,39.740005,36.119995
118.759995,73.880005,39.740005,36.119995
118.759995,73.880005,39.740005,36.119995
118.759995,73.880005,39.740005,36.119995
118.759995,73.880005,39.740005,36.119995
118.759995,69.880005,39.740005,36.119995
118.759995,69.880005,39.740005,36.119995
118.759995,69.880005,39.740005,36.119995
118.759995,69.880005,39.740005,36.119995
118.759995,69.880005,39.740005,36.119995
118.759995,69.880005,39.740005,36.119995
118.759995,69.880005,39.740005,36.119995
118.759995,69.880005,39.740005,36.119995
122.759995,69.880005,39.740005,36.119995
122.759995,69.880005,39.740005,36.119995
126.759995,65.880005,39.740005,36.119995
126.759995,65.880005,39.740005,36.119995
126.759995,65.880005,39.740005,36.119995
130.759995,65.880005,39.740005,36.119995
130.759995,65.880005,39.740005,36.119995
130.759995,65.880005,39.740005,36.119995
130.759995,65.880005,39.740005,36.119995
130.759995,65.880005,39.740005,36.119995
130.759995,65.880005,39.740005,36.119995
130.759995,65.880005,39.740005,36.119995
130.759995,65.880005,39.740005,36.119995
130.759995,65.880005,39.740005,36.119995
130.759995,65.880005,39.740005,36.119995
134.759995,65.880005,39.740005,36.119995
134.759995,65.880005,39.740005,36.119995
138.759995,65.880005,39.740005,36.119995
138.759995,69.880005,39.740005,36.119995
138.759995,69.880005,39.740005,36.119995
138.759995,69.880005,39.740005,36.119995
138.759995,73.880005,39.740005,36.119995
138.759995,73.880005,39.740005,36.119995
138.759995,73.880005,39.740005,36.119995
138.759995,73.880005,39.740005,36.119995
138.759995,77.880005,39.740005,36.119995
138.759995,77.880005,39.740005,36.119995
138.759995,77.880005,39.740005,36.119995
138.759995,77.880005,39.740005,36.119995
138.759995,77.880005,39.740005,36.119995
138.759995,77.880005,39.740005,36.119995
138.759995,77.880005,39.740005,36.119995
138.759995,77.880005,39.740005,36.119995
138.759995,77.880005,39.740005,36.119995
138.759995,77.880005,39.740005,36.119995
138.759995,77.880005,39.740005,36.119995
138.759995,77.880005,39.740005,36.119995
138.759995,77.880005,39.740005,36.119995
138.759995,77.880005,39.740005,36.119995
138.759995,77.880005,39.740005,36.119995
138.759995,77.880005,39.740005,36.119995
130.759995,81.880005,39.740005,36.119995
130.759995,81.880005,39.740005,36.119995
126.759995,81.880005,39.740005,36.119995
126.759995,81.880005,39.740005,36.119995
122.759995,81.880005,39.740005,36.119995
122.759995,81.880005,39.740005,36.119995
118.759995,81.880005,39.740005,36.119995
118.759995,81.880005,39.740005,36.119995
114.759995,81.880005,39.740005,36.119995
114.759995,81.880005,39.740005,36.119995
114.759995,81.880005,39.740005,36.119995
114.759995,81.880005,39.740005,36.119995
114.759995,81.880005,39.740005,36.119995
114.759995,81.880005,39.740005,36.119995
114.759995,81.880005,39.740005,36.119995
114.759995,81.880005,39.740005,36.119995
114.759995,81.880005,39.740005,36.119995
114.759995,81.880005,39.740005,36.119995
114.759995,81.880005,39.740005,36.119995
118.759995,81.880005,39.740005,36.119995
118.759995,81.880005,39.740005,36.119995
118.759995,81.880005,39.740005,36.119995
122.759995,81.880005,39.740005,36.119995
122.759995,81.880005,39.740005,36.119995
126.759995,77.880005,39.740005,36.119995
126.759995,77.880005,39.740005,36.119995
126.759995,77.880005,39.740005,36.119995
130.759995,77.880005,39.740005,36.119995
130.759995,77.880005,39.740005,36.119995
130.759995,77.880005,39.740005,36.119995
130.759995,77.880005,39.740005,36.119995
138.759995,73.880005,39.740005,36.119995
138.759995,73.880005,39.740005,36.119995
138.759995,73.880005,39.740005,36.119995
142.759995,73.880005,39.740005,36.119995
142.759995,73.880005,39.740005,36.119995
150.759995,69.880005,39.740005,36.119995
150.759995,69.880005,39.740005,36.119995
150.759995,69.880005,39.740005,36.119995
158.759995,65.880005,39.740005,36.119995
158.759995,65.880005,39.740005,36.119995
158.759995,65.880005,39.740005,36.119995
158.759995,61.880005,39.740005,36.119995
158.759995,61.880005,39.740005,36.119995
158.759995,61.880005,39.740005,36.119995
154.759995,61.880005,39.740005,36.119995
154.759995,61.880005,39.740005,36.119995
154.759995,57.880005,39.740005,36.119995
154.759995,57.880005,39.740005,36.119995
154.759995,57.880005,39.740005,36.119995
154.759995,57.880005,39.740005,36.119995
154.759995,53.880005,39.740005,36.119995
154.759995,53.880005,39.740005,36.119995
158.759995,49.880005,39.740005,36.119995
158.759995,49.880005,39.740005,36.119995
158.759995,49.880005,39.740005,36.119995
166.759995,45.880005,39.740005,36.119995
166.759995,45.880005,39.740005,36.119995
166.759995,41.880005,39.740005,36.119995
166.759995,41.880005,39.740005,36.119995
166.759995,41.880005,39.740005,36.119995
170.759995,37.880005,39.740005,36.119995
170.759995,37.880005,39.740005,36.119995
170.759995,37.880005,39.740005,36.119995
170.759995,37.880005,39.740005,36.119995
174.759995,37.880005,39.740005,36.119995
174.759995,37.880005,39.740005,36.119995
174.759995,37.880005,39.740005,36.119995
174.759995,37.880005,39.740005,36.119995
174.759995,37.880005,39.740005,36.119995
174.759995,37.880005,39.740005,36.119995
174.759995,37.880005,39.740005,36.119995
174.759995,37.880005,39.740005,36.119995
174.759995,41.880005,39.740005,36.119995
174.759995,41.880005,39.740005,36.119995
174.759995,41.880005,39.740005,36.119995
174.759995,41.880005,39.740005,36.119995
174.759995,41.880005,39.740005,36.119995
174.759995,41.880005,39.740005,36.119995
174.759995,41.880005,39.740005,36.119995
174.759995,41.880005,39.740005,36.119995
174.759995,41.880005,39.740005,36.119995
174.759995,41.880005,39.740005,36.119995
174.759995,41.880005,39.740005,36.119995
174.759995,41.880005,39.740005,36.119995
174.759995,41.880005,39.740005,36.119995
174.759995,41.880005,39.740005,36.119995
174.759995,41.880005,39.740005,36.119995
174.759995,41.880005,39.740005,36.119995
170.759995,41.880005,39.740005,36.119995
170.759995,41.880005,39.740005,36.119995
170.759995,41.880005,39.740005,36.119995
170.759995,41.880005,39.740005,36.119995
170.759995,41.880005,39.740005,36.119995
170.759995,41.880005,39.740005,36.119995
170.759995,41.880005,39.740005,36.119995
170.759995,41.880005,39.740005,36.119995
170.759995,41.880005,39.740005,36.119995
170.759995,41.880005,39.740005,36.119995
170.759995,41.880005,39.740005,36.119995
170.759995,41.880005,39.740005,36.119995
170.759995,41.880005,39.740005,36.119995
170.759995,41.880005,39.740005,36.119995
170.759995,41.880005,39.740005,36.119995
170.759995,41.880005,39.740005,36.119995
170.759995,41.880005,39.740005,36.119995
166.759995,41.880005,39.740005,36.119995
166.759995,41.880005,39.740005,36.119995
166.759995,41.880005,39.740005,36.119995
166.759995,41.880005,39.740005,36.119995
166.759995,41.880005,39.740005,36.119995
166.759995,41.880005,39.740005,36.119995
166.759995,41.880005,39.740005,36.119995
166.759995,41.880005,39.740005,36.119995
162.759995,41.880005,39.740005,36.119995
162.759995,41.880005,39.740005,36.119995
162.759995,45.880005,39.740005,36.119995
162.759995,45.880005,39.740005,36.119995
162.759995,45.880005,39.740005,36.119995
158.759995,45.880005,39.740005,36.119995
158.759995,45.880005,39.740005,36.119995
158.759995,45.880005,39.740005,36.119995
158.759995,45.880005,39.740005,36.119995
158.759995,45.880005,39.740005,36.119995
154.759995,49.880005,39.740005,36.119995
154.759995,49.880005,39.740005,36.119995
154.759995,49.880005,39.740005,36.119995
154.759995,49.880005,39.740005,36.119995
154.759995,53.880005,39.740005,36.119995
154.759995,53.880005,39.740005,36.119995
154.759995,53.880005,39.740005,36.119995
154.759995,53.880005,39.740005,36.119995
154.759995,53.880005,39.740005,36.119995
154.759995,53.880005,39.740005,36.119995
154.759995,53.880005,39.740005,36.119995
154.759995,53.880005,39.740005,36.119995
154.759995,53.880005,39.740005,36.119995
150.759995,53.880005,39.740005,36.119995
150.759995,53.880005,39.740005,36.119995
150.759995,53.880005,39.740005,36.119995
150.759995,53.880005,39.740005,36.119995
150.759995,53.880005,39.740005,36.119995
150.759995,53.880005,39.740005,36.119995
150.759995,53.880005,39.740005,36.119995
150.759995,53.880005,39.740005,36.119995
150.759995,53.880005,39.740005,36.119995
150.759995,53.880005,39.740005,36.119995
150.759995,53.880005,39.740005,36.119995
150.759995,53.880005,39.740005,36.119995
150.759995,57.880005,39.740005,36.119995
150.759995,57.880005,39.740005,36.119995
150.759995,57.880005,39.740005,36.119995
150.759995,61.880005,39.740005,36.119995
150.759995,61.880005,39.740005,36.119995
150.759995,65.880005,39.740005,36.119995
150.759995,65.880005,39.740005,36.119995
