1.1761,1.1808,1.1708,0,0,0,0,0,0,0,0,0,0,0,0
1.1761,1.1808,1.1708,0,0,0,0,0,0,0,0,0,0,0,0
1.1761,1.1808,1.1708,0,0,0,0,0,0,0,0,0,0,0,0
1.1761,1.1808,1.1708,0,0,0,0,0,0,0,0,0,0,0,0
1.1761,1.1808,1.1708,0,0,0,0,0,0,0,0,0,0,0,0
1.1761,1.1808,1.1708,0,0,0,0,0,0,0,0,0,0,0,0
1.1761,1.1808,1.1708,0,0,0,0,0,0,0,0,0,0,0,0
1.1761,1.1808,1.1708,0,0,0,0,0,0,0,0,0,0,0,0
1.1761,1.1808,1.1708,0,0,0,0,0,0,0,0,0,0,0,0
1.1761,1.1808,1.1708,0,0,0,0,0,0,0,0,0,0,0,0
1.1761,1.1808,1.1708,0,0,0,0,0,0,0,0,0,0,0,0
1.1761,1.1808,1.1708,0,0,0,0,0,0,0,0,0,0,0,0
1.1761,1.1808,1.1708,0,0,0,0,0,0,0,0,0,0,0,0
1.1761,1.1808,1.1708,0,0,0,0,0,0,0,0,0,0,0,0
1.1761,1.1808,1.1708,0,0,0,0,0,0,0,0,0,0,0,0
1.1761,1.1808,1.1708,0,0,0,0,0,0,0,0,0,0,0,0
1.1761,1.1808,1.1708,0,0,0,0,0,0,0,0,0,0,0,0
1.1761,1.1808,1.1708,0,0,0,0,0,0,0,0,0,0,0,0
1.1761,1.1808,1.1708,0,0,0,0,0,0,0,0,0,0,0,0
1.1761,1.1808,1.1708,0,0,0,0,0,0,0,0,0,0,0,0
1.1761,1.1808,1.1708,0,0,0,0,0,0,0,0,0,0,0,0
1.1761,1.1808,1.1708,0,0,0,0,0,0,0,0,0,0,0,0
1.1761,1.1808,1.1708,0,0,0,0,0,0,0,0,0,0,0,0
1.1761,1.1808,1.1708,0,0,0,0,0,0,0,0,0,0,0,0
1.1761,1.1808,1.1708,0,0,0,0,0,0,0,0,0,0,0,0
1.1761,1.1808,1.1708,0,0,0,0,0,0,0,0,0,0,0,0
1.1761,1.1808,1.1708,0,0,0,0,0,0,0,0,0,0,0,0
1.1761,1.1808,1.1708,0,0,0,0,0,0,0,0,0,0,0,0
1.1761,1.1808,1.1708,0,0,0,0,0,0,0,0,0,0,0,0
1.1761,1.1808,1.1708,0,0,0,0,0,0,0,0,0,0,0,0
1.1761,1.1808,1.1708,0,0,0,0,0,0,0,0,0,0,0,0
1.1761,1.1808,1.1708,0,0,0,0,0,0,0,0,0,0,0,0
1.1761,1.1808,1.1708,0,0,0,0,0,0,0,0,0,0,0,0
1.1761,1.1808,1.1708,0,0,0,0,0,0,0,0,0,0,0,0
1.1761,1.1808,1.1708,0,0,0,0,0,0,0,0,0,0,0,0
1.1761,1.1808,1.1708,0,0,0,0,0,0,0,0,0,0,0,0
1.1761,1.1808,1.1708,0,0,0,0,0,0,0,0,0,0,0,0
1.1761,1.1808,1.1708,0,0,0,0,0,0,0,0,0,0,0,0
1.1761,1.1808,1.1708,0,0,0,0,0,0,0,0,0,0,0,0
1.1761,1.1808,1.1708,0,0,0,0,0,0,0,0,0,0,0,0
1.1761,1.1808,1.1708,0,0,0,0,0,0,0,0,0,0,0,0
1.1761,1.1808,1.1708,0,0,0,0,0,0,0,0,0,0,0,0
1.1761,1.1808,1.1708,0,0,0,0,0,0,0,0,0,0,0,0
1.1761,1.1808,1.1708,0,0,0,0,0,0,0,0,0,0,0,0
1.1761,1.1808,1.1708,0,0,0,0,0,0,0,0,0,0,0,0
1.1761,1.1808,1.1708,0,0,0,0,0,0,0,0,0,0,0,0
1.1761,1.1808,1.1708,0,0,0,0,0,0,0,0,0,0,0,0
1.1761,1.1808,1.1708,0,0,0,0,0,0,0,0,0,0,0,0
1.1761,1.1808,1.1708,0,0,0,0,0,0,0,0,0,0,0,0
1.1761,1.1808,1.1708,0,0,0,0,0,0,0,0,0,0,0,0
1.1761,1.1808,1.1708,0,0,0,0,0,0,0,0,0,0,0,0
1.1761,1.1808,1.1708,0,0,0,0,0,0,0,0,0,0,0,0
1.1761,1.1808,1.1708,0,0,0,0,0,0,0,0,0,0,0,0
1.1761,1.1808,1.1708,0,0,0,0,0,0,0,0,0,0,0,0
1.1761,1.1808,1.1708,0,0,0,0,0,0,0,0,0,0,0,0
1.1761,1.1808,1.1708,0,0,0,0,0,0,0,0,0,0,0,0
1.1761,1.1808,1.1708,0,0,0,0,0,0,0,0,0,0,0,0
1.1761,1.1808,1.1708,0,0,0,0,0,0,0,0,0,0,0,0
1.1761,1.1808,1.1708,0,0,0,0,0,0,0,0,0,0,0,0
1.1761,1.1808,1.1708,0,0,0,0,0,0,0,0,0,0,0,0
1.1761,1.1808,1.1708,0,0,0,0,0,0,0,0,0,0,0,0
1.1761,1.1808,1.1708,0,0,0,0,0,0,0,0,0,0,0,0
1.1761,1.1808,1.1708,0,0,0,0,0,0,0,0,0,0,0,0
1.1761,1.1808,1.1708,0,0,0,0,0,0,0,0,0,0,0,0
1.1761,1.1808,1.1708,0,0,0,0,0,0,0,0,0,0,0,0
1.1761,1.1808,1.1708,0,0,0,0,0,0,0,0,0,0,0,0
1.1761,1.1808,1.1708,0,0,0,0,0,0,0,0,0,0,0,0
1.1761,1.1808,1.1708,0,0,0,0,0,0,0,0,0,0,0,0
1.1761,1.1808,1.1708,0,0,0,0,0,0,0,0,0,0,0,0
1.1761,1.1808,1.1708,0,0,0,0,0,0,0,0,0,0,0,0
1.1761,1.1808,1.1708,0,0,0,0,0,0,0,0,0,0,0,0
1.1761,1.1808,1.1708,0,0,0,0,0,0,0,0,0,0,0,0
1.1761,1.1808,1.1708,0,0,0,0,0,0,0,0,0,0,0,0
1.1761,1.1808,1.1708,0,0,0,0,0,0,0,0,0,0,0,0
1.1761,1.1808,1.1708,0,0,0,0,0,0,0,0,0,0,0,0
1.1761,1.1808,1.1708,0,0,0,0,0,0,0,0,0,0,0,0
1.1761,1.1808,1.1708,0,0,0,0,0,0,0,0,0,0,0,0
1.1761,1.1808,1.1708,0,0,0,0,0,0,0,0,0,0,0,0
1.1761,1.1808,1.1708,0,0,0,0,0,0,0,0,0,0,0,0
1.1761,1.1808,1.1708,0,0,0,0,0,0,0,0,0,0,0,0
1.1761,1.1808,1.1708,0,0,0,0,0,0,0,0,0,0,0,0
1.1761,1.1808,1.1708,0,0,0,0,0,0,0,0,0,0,0,0
1.1761,1.1808,1.1708,0,0,0,0,0,0,0,0,0,0,0,0
1.1761,1.1808,1.1708,0,0,0,0,0,0,0,0,0,0,0,0
1.1761,1.1808,1.1708,0,0,0,0,0,0,0,0,0,0,0,0
1.1761,1.1808,1.1708,0,0,0,0,0,0,0,0,0,0,0,0
1.1761,1.1808,1.1708,0,0,0,0,0,0,0,0,0,0,0,0
1.1761,1.1808,1.1708,0,0,0,0,0,0,0,0,0,0,0,0
1.1761,1.1808,1.1708,0,0,0,0,0,0,0,0,0,0,0,0
1.1761,1.1808,1.1708,0,0,0,0,0,0,0,0,0,0,0,0
1.1761,1.1808,1.1708,0,0,0,0,0,0,0,0,0,0,0,0
1.1761,1.1808,1.1708,0,0,0,0,0,0,0,0,0,0,0,0
1.1761,1.1808,1.1708,0,0,0,0,0,0,0,0,0,0,0,0
1.1761,1.1808,1.1708,0,0,0,0,0,0,0,0,0,0,0,0
1.1761,1.1808,1.1708,0,0,0,0,0,0,0,0,0,0,0,0
1.1761,1.1808,1.1708,0,0,0,0,0,0,0,0,0,0,0,0
1.1761,1.1808,1.1708,0,0,0,0,0,0,0,0,0,0,0,0
1.1761,1.1808,1.1708,0,0,0,0,0,0,0,0,0,0,0,0
1.1761,1.1808,1.1708,0,0,0,0,0,0,0,0,0,0,0,0
1.1761,1.1808,1.1708,0,0,0,0,0,0,0,0,0,0,0,0
1.1761,1.1808,1.1708,0,0,0,0,0,0,0,0,0,0,0,0
1.1761,1.1808,1.1708,0,0,0,0,0,0,0,0,0,0,0,0
1.1761,1.1808,1.1708,0,0,0,0,0,0,0,0,0,0,0,0
1.1761,1.1808,1.1708,0,0,0,0,0,0,0,0,0,0,0,0
1.1761,1.1808,1.1708,0,0,0,0,0,0,0,0,0,0,0,0
1.1761,1.1808,1.1708,0,0,0,0,0,0,0,0,0,0,0,0
1.1761,1.1808,1.1708,0,0,0,0,0,0,0,0,0,0,0,0
1.1761,1.1808,1.1708,0,0,0,0,0,0,0,0,0,0,0,0
1.1761,1.1808,1.1708,0,0,0,0,0,0,0,0,0,0,0,0
1.1761,1.1808,1.1708,0,0,0,0,0,0,0,0,0,0,0,0
1.1761,1.1808,1.1708,0,0,0,0,0,0,0,0,0,0,0,0
1.1761,1.1808,1.1708,0,0,0,0,0,0,0,0,0,0,0,0
1.1761,1.1808,1.1708,0,0,0,0,0,0,0,0,0,0,0,0
1.1761,1.1808,1.1708,0,0,0,0,0,0,0,0,0,0,0,0
1.1761,1.1808,1.1708,0,0,0,0,0,0,0,0,0,0,0,0
1.1761,1.1808,1.1708,0,0,0,0,0,0,0,0,0,0,0,0
1.1761,1.1808,1.1708,0,0,0,0,0,0,0,0,0,0,0,0
1.1761,1.1808,1.1708,0,0,0,0,0,0,0,0,0,0,0,0
1.1761,1.1808,1.1708,0,0,0,0,0,0,0,0,0,0,0,0
1.1761,1.1808,1.1708,0,0,0,0,0,0,0,0,0,0,0,0
1.1761,1.1808,1.1708,0,0,0,0,0,0,0,0,0,0,0,0
1.1761,1.1808,1.1708,0,0,0,0,0,0,0,0,0,0,0,0
1.1761,1.1808,1.1708,0,0,0,0,0,0,0,0,0,0,0,0
1.1761,1.1808,1.1708,0,0,0,0,0,0,0,0,0,0,0,0
1.1761,1.1808,1.1708,0,0,0,0,0,0,0,0,0,0,0,0
1.1761,1.1808,1.1708,0,0,0,0,0,0,0,0,0,0,0,0
1.1761,1.1808,1.1708,0,0,0,0,0,0,0,0,0,0,0,0
1.1761,1.1808,1.1708,0,0,0,0,0,0,0,0,0,0,0,0
1.1761,1.1808,1.1708,0,0,0,0,0,0,0,0,0,0,0,0
1.1761,1.1808,1.1708,0,0,0,0,0,0,0,0,0,0,0,0
1.1761,1.1808,1.1708,0,0,0,0,0,0,0,0,0,0,0,0
1.1761,1.1808,1.1708,0,0,0,0,0,0,0,0,0,0,0,0
1.1761,1.1808,1.1708,0,0,0,0,0,0,0,0,0,0,0,0
1.1761,1.1808,1.1708,0,0,0,0,0,0,0,0,0,0,0,0
1.1761,1.1808,1.1708,0,0,0,0,0,0,0,0,0,0,0,0
1.1761,1.1808,1.1708,0,0,0,0,0,0,0,0,0,0,0,0
1.1761,1.1808,1.1708,0,0,0,0,0,0,0,0,0,0,0,0
1.1761,1.1808,1.1708,0,0,0,0,0,0,0,0,0,0,0,0
