1
648.500000,265.000000,33.000000,148.000000
648.500000,269.000000,33.000000,148.000000
652.500000,273.000000,33.000000,148.000000
652.500000,273.000000,33.000000,148.000000
648.500000,277.000000,33.000000,148.000000
644.500000,281.000000,33.000000,148.000000
640.500000,281.000000,33.000000,148.000000
644.500000,281.000000,33.000000,148.000000
644.500000,281.000000,33.000000,148.000000
640.500000,285.000000,33.000000,148.000000
632.500000,289.000000,33.000000,148.000000
632.500000,297.000000,33.000000,148.000000
628.500000,305.000000,33.000000,148.000000
624.500000,309.000000,33.000000,148.000000
620.500000,309.000000,33.000000,148.000000
624.500000,309.000000,33.000000,148.000000
628.500000,305.000000,33.000000,148.000000
636.500000,301.000000,33.000000,148.000000
636.500000,297.000000,33.000000,148.000000
632.500000,297.000000,33.000000,148.000000
628.500000,297.000000,33.000000,148.000000
628.500000,297.000000,33.000000,148.000000
640.500000,297.000000,33.000000,148.000000
644.500000,297.000000,33.000000,148.000000
644.500000,297.000000,33.000000,148.000000
644.500000,297.000000,33.000000,148.000000
648.500000,293.000000,33.000000,148.000000
648.500000,289.000000,33.000000,148.000000
652.500000,285.000000,33.000000,148.000000
656.500000,281.000000,33.000000,148.000000
656.500000,277.000000,33.000000,148.000000
660.500000,273.000000,33.000000,148.000000
664.500000,265.000000,33.000000,148.000000
664.500000,261.000000,33.000000,148.000000
656.500000,257.000000,33.000000,148.000000
648.500000,257.000000,33.000000,148.000000
648.500000,253.000000,33.000000,148.000000
648.500000,249.000000,33.000000,148.000000
644.500000,249.000000,33.000000,148.000000
640.500000,245.000000,33.000000,148.000000
636.500000,245.000000,33.000000,148.000000
628.500000,245.000000,33.000000,148.000000
624.500000,245.000000,33.000000,148.000000
628.500000,241.000000,33.000000,148.000000
632.500000,233.000000,33.000000,148.000000
636.500000,233.000000,33.000000,148.000000
632.500000,229.000000,33.000000,148.000000
628.500000,229.000000,33.000000,148.000000
632.500000,229.000000,33.000000,148.000000
636.500000,229.000000,33.000000,148.000000
640.500000,229.000000,33.000000,148.000000
640.500000,229.000000,33.000000,148.000000
636.500000,229.000000,33.000000,148.000000
636.500000,229.000000,33.000000,148.000000
636.500000,229.000000,33.000000,148.000000
640.500000,229.000000,33.000000,148.000000
644.500000,229.000000,33.000000,148.000000
648.500000,229.000000,33.000000,148.000000
652.500000,229.000000,33.000000,148.000000
652.500000,229.000000,33.000000,148.000000
656.500000,229.000000,33.000000,148.000000
664.500000,229.000000,33.000000,148.000000
668.500000,225.000000,33.000000,148.000000
672.500000,225.000000,33.000000,148.000000
676.500000,225.000000,33.000000,148.000000
684.500000,221.000000,33.000000,148.000000
688.500000,221.000000,33.000000,148.000000
696.500000,217.000000,33.000000,148.000000
700.500000,217.000000,33.000000,148.000000
700.500000,217.000000,33.000000,148.000000
700.500000,213.000000,33.000000,148.000000
700.500000,209.000000,33.000000,148.000000
700.500000,205.000000,33.000000,148.000000
700.500000,201.000000,33.000000,148.000000
704.500000,201.000000,33.000000,148.000000
704.500000,197.000000,33.000000,148.000000
704.500000,193.000000,33.000000,148.000000
704.500000,189.000000,33.000000,148.000000
704.500000,189.000000,33.000000,148.000000
712.500000,189.000000,33.000000,148.000000
724.500000,185.000000,33.000000,148.000000
736.500000,177.000000,33.000000,148.000000
748.500000,177.000000,33.000000,148.000000
744.500000,177.000000,33.000000,148.000000
740.500000,189.000000,33.000000,148.000000
744.500000,193.000000,33.000000,148.000000
752.500000,201.000000,33.000000,148.000000
748.500000,205.000000,33.000000,148.000000
748.500000,209.000000,33.000000,148.000000
748.500000,209.000000,33.000000,148.000000
744.500000,209.000000,33.000000,148.000000
740.500000,213.000000,33.000000,148.000000
740.500000,217.000000,33.000000,148.000000
736.500000,217.000000,33.000000,148.000000
740.500000,213.000000,33.000000,148.000000
740.500000,209.000000,33.000000,148.000000
732.500000,205.000000,33.000000,148.000000
728.500000,205.000000,33.000000,148.000000
732.500000,201.000000,33.000000,148.000000
736.500000,197.000000,33.000000,148.000000
736.500000,193.000000,33.000000,148.000000
736.500000,189.000000,33.000000,148.000000
736.500000,185.000000,33.000000,148.000000
736.500000,181.000000,33.000000,148.000000
744.500000,181.000000,33.000000,148.000000
748.500000,181.000000,33.000000,148.000000
748.500000,181.000000,33.000000,148.000000
748.500000,181.000000,33.000000,148.000000
752.500000,181.000000,33.000000,148.000000
756.500000,181.000000,33.000000,148.000000
760.500000,181.000000,33.000000,148.000000
760.500000,181.000000,33.000000,148.000000
760.500000,185.000000,33.000000,148.000000
764.500000,185.000000,33.000000,148.000000
764.500000,181.000000,33.000000,148.000000
760.500000,181.000000,33.000000,148.000000
760.500000,181.000000,33.000000,148.000000
760.500000,185.000000,33.000000,148.000000
760.500000,185.000000,33.000000,148.000000
756.500000,185.000000,33.000000,148.000000
756.500000,185.000000,33.000000,148.000000
764.500000,181.000000,33.000000,148.000000
768.500000,181.000000,33.000000,148.000000
772.500000,189.000000,33.000000,148.000000
768.500000,189.000000,33.000000,148.000000
768.500000,193.000000,33.000000,148.000000
772.500000,193.000000,33.000000,148.000000
772.500000,197.000000,33.000000,148.000000
768.500000,201.000000,33.000000,148.000000
772.500000,205.000000,33.000000,148.000000
772.500000,205.000000,33.000000,148.000000
776.500000,205.000000,33.000000,148.000000
780.500000,205.000000,33.000000,148.000000
784.500000,205.000000,33.000000,148.000000
788.500000,205.000000,33.000000,148.000000
800.500000,201.000000,33.000000,148.000000
808.500000,201.000000,33.000000,148.000000
816.500000,201.000000,33.000000,148.000000
824.500000,201.000000,33.000000,148.000000
836.500000,201.000000,33.000000,148.000000
852.500000,201.000000,33.000000,148.000000
864.500000,193.000000,33.000000,148.000000
876.500000,193.000000,33.000000,148.000000
888.500000,193.000000,33.000000,148.000000
888.500000,193.000000,33.000000,148.000000
884.500000,193.000000,33.000000,148.000000
880.500000,193.000000,33.000000,148.000000
876.500000,197.000000,33.000000,148.000000
876.500000,197.000000,33.000000,148.000000
880.500000,197.000000,33.000000,148.000000
880.500000,193.000000,33.000000,148.000000
876.500000,193.000000,33.000000,148.000000
872.500000,193.000000,33.000000,148.000000
872.500000,193.000000,33.000000,148.000000
876.500000,193.000000,33.000000,148.000000
876.500000,193.000000,33.000000,148.000000
872.500000,205.000000,33.000000,148.000000
872.500000,217.000000,33.000000,148.000000
868.500000,221.000000,33.000000,148.000000
860.500000,221.000000,33.000000,148.000000
856.500000,221.000000,33.000000,148.000000
864.500000,221.000000,33.000000,148.000000
876.500000,221.000000,33.000000,148.000000
888.500000,213.000000,33.000000,148.000000
892.500000,201.000000,33.000000,148.000000
888.500000,201.000000,33.000000,148.000000
884.500000,201.000000,33.000000,148.000000
880.500000,201.000000,33.000000,148.000000
884.500000,205.000000,33.000000,148.000000
876.500000,205.000000,33.000000,148.000000
864.500000,209.000000,33.000000,148.000000
852.500000,213.000000,33.000000,148.000000
848.500000,217.000000,33.000000,148.000000
852.500000,221.000000,33.000000,148.000000
856.500000,225.000000,33.000000,148.000000
864.500000,225.000000,33.000000,148.000000
864.500000,209.000000,33.000000,148.000000
864.500000,209.000000,33.000000,148.000000
848.500000,197.000000,33.000000,148.000000
848.500000,229.000000,33.000000,148.000000
860.500000,233.000000,33.000000,148.000000
868.500000,209.000000,33.000000,148.000000
872.500000,197.000000,33.000000,148.000000
872.500000,185.000000,33.000000,148.000000
876.500000,185.000000,33.000000,148.000000
876.500000,201.000000,33.000000,148.000000
876.500000,213.000000,33.000000,148.000000
872.500000,237.000000,33.000000,148.000000
872.500000,261.000000,33.000000,148.000000
872.500000,273.000000,33.000000,148.000000
872.500000,277.000000,33.000000,148.000000
872.500000,285.000000,33.000000,148.000000
876.500000,289.000000,33.000000,148.000000
868.500000,305.000000,33.000000,148.000000
860.500000,361.000000,33.000000,148.000000
2
0
0
0
0
1
569.260010,191.739990,266.739990,178.760010
561.260010,211.739990,266.739990,178.760010
561.260010,223.739990,266.739990,178.760010
561.260010,227.739990,266.739990,178.760010
557.260010,223.739990,266.739990,178.760010
553.260010,235.739990,266.739990,178.760010
573.260010,247.739990,266.739990,178.760010
593.260010,287.739990,266.739990,178.760010
601.260010,283.739990,266.739990,178.760010
601.260010,283.739990,266.739990,178.760010
581.260010,291.739990,266.739990,178.760010
573.260010,303.739990,266.739990,178.760010
577.260010,307.739990,266.739990,178.760010
585.260010,307.739990,266.739990,178.760010
585.260010,307.739990,266.739990,178.760010
585.260010,295.739990,266.739990,178.760010
593.260010,291.739990,266.739990,178.760010
597.260010,287.739990,266.739990,178.760010
601.260010,283.739990,266.739990,178.760010
605.260010,271.739990,266.739990,178.760010
609.260010,263.739990,266.739990,178.760010
613.260010,243.739990,266.739990,178.760010
609.260010,223.739990,266.739990,178.760010
605.260010,211.739990,266.739990,178.760010
593.260010,207.739990,266.739990,178.760010
585.260010,207.739990,266.739990,178.760010
577.260010,211.739990,266.739990,178.760010
565.260010,219.739990,266.739990,178.760010
557.260010,227.739990,266.739990,178.760010
549.260010,235.739990,266.739990,178.760010
537.260010,255.739990,266.739990,178.760010
529.260010,271.739990,266.739990,178.760010
521.260010,283.739990,266.739990,178.760010
521.260010,287.739990,266.739990,178.760010
521.260010,283.739990,266.739990,178.760010
517.260010,279.739990,266.739990,178.760010
525.260010,283.739990,266.739990,178.760010
529.260010,279.739990,266.739990,178.760010
