1
290.500000,149.500000,85.000000,195.000000
290.500000,149.500000,85.000000,195.000000
290.500000,149.500000,85.000000,195.000000
290.500000,149.500000,85.000000,195.000000
286.500000,149.500000,85.000000,195.000000
286.500000,149.500000,85.000000,195.000000
286.500000,149.500000,85.000000,195.000000
286.500000,149.500000,85.000000,195.000000
286.500000,149.500000,85.000000,195.000000
286.500000,149.500000,85.000000,195.000000
290.500000,145.500000,85.000000,195.000000
286.500000,145.500000,85.000000,195.000000
286.500000,141.500000,85.000000,195.000000
286.500000,141.500000,85.000000,195.000000
286.500000,141.500000,85.000000,195.000000
290.500000,137.500000,85.000000,195.000000
290.500000,137.500000,85.000000,195.000000
294.500000,133.500000,85.000000,195.000000
294.500000,133.500000,85.000000,195.000000
298.500000,129.500000,85.000000,195.000000
298.500000,129.500000,85.000000,195.000000
302.500000,129.500000,85.000000,195.000000
302.500000,133.500000,85.000000,195.000000
298.500000,133.500000,85.000000,195.000000
294.500000,129.500000,85.000000,195.000000
298.500000,125.500000,85.000000,195.000000
298.500000,125.500000,85.000000,195.000000
298.500000,125.500000,85.000000,195.000000
298.500000,125.500000,85.000000,195.000000
298.500000,125.500000,85.000000,195.000000
294.500000,121.500000,85.000000,195.000000
298.500000,117.500000,85.000000,195.000000
298.500000,117.500000,85.000000,195.000000
298.500000,117.500000,85.000000,195.000000
298.500000,109.500000,85.000000,195.000000
298.500000,113.500000,85.000000,195.000000
298.500000,117.500000,85.000000,195.000000
298.500000,117.500000,85.000000,195.000000
298.500000,117.500000,85.000000,195.000000
302.500000,113.500000,85.000000,195.000000
306.500000,113.500000,85.000000,195.000000
306.500000,113.500000,85.000000,195.000000
306.500000,113.500000,85.000000,195.000000
306.500000,113.500000,85.000000,195.000000
306.500000,113.500000,85.000000,195.000000
310.500000,113.500000,85.000000,195.000000
310.500000,109.500000,85.000000,195.000000
310.500000,109.500000,85.000000,195.000000
310.500000,109.500000,85.000000,195.000000
310.500000,109.500000,85.000000,195.000000
314.500000,109.500000,85.000000,195.000000
314.500000,109.500000,85.000000,195.000000
314.500000,109.500000,85.000000,195.000000
314.500000,109.500000,85.000000,195.000000
314.500000,109.500000,85.000000,195.000000
314.500000,109.500000,85.000000,195.000000
318.500000,109.500000,85.000000,195.000000
318.500000,109.500000,85.000000,195.000000
322.500000,109.500000,85.000000,195.000000
322.500000,109.500000,85.000000,195.000000
322.500000,109.500000,85.000000,195.000000
326.500000,109.500000,85.000000,195.000000
326.500000,109.500000,85.000000,195.000000
330.500000,109.500000,85.000000,195.000000
330.500000,109.500000,85.000000,195.000000
334.500000,109.500000,85.000000,195.000000
334.500000,109.500000,85.000000,195.000000
334.500000,109.500000,85.000000,195.000000
338.500000,109.500000,85.000000,195.000000
338.500000,109.500000,85.000000,195.000000
342.500000,109.500000,85.000000,195.000000
342.500000,109.500000,85.000000,195.000000
342.500000,109.500000,85.000000,195.000000
346.500000,109.500000,85.000000,195.000000
346.500000,109.500000,85.000000,195.000000
346.500000,109.500000,85.000000,195.000000
346.500000,109.500000,85.000000,195.000000
350.500000,109.500000,85.000000,195.000000
350.500000,109.500000,85.000000,195.000000
354.500000,105.500000,85.000000,195.000000
354.500000,105.500000,85.000000,195.000000
354.500000,105.500000,85.000000,195.000000
358.500000,105.500000,85.000000,195.000000
358.500000,105.500000,85.000000,195.000000
358.500000,105.500000,85.000000,195.000000
362.500000,105.500000,85.000000,195.000000
362.500000,105.500000,85.000000,195.000000
366.500000,105.500000,85.000000,195.000000
366.500000,105.500000,85.000000,195.000000
370.500000,105.500000,85.000000,195.000000
370.500000,105.500000,85.000000,195.000000
370.500000,105.500000,85.000000,195.000000
374.500000,105.500000,85.000000,195.000000
374.500000,105.500000,85.000000,195.000000
374.500000,105.500000,85.000000,195.000000
378.500000,105.500000,85.000000,195.000000
378.500000,105.500000,85.000000,195.000000
382.500000,105.500000,85.000000,195.000000
382.500000,105.500000,85.000000,195.000000
382.500000,101.500000,85.000000,195.000000
382.500000,101.500000,85.000000,195.000000
382.500000,101.500000,85.000000,195.000000
382.500000,101.500000,85.000000,195.000000
382.500000,101.500000,85.000000,195.000000
382.500000,101.500000,85.000000,195.000000
382.500000,101.500000,85.000000,195.000000
382.500000,101.500000,85.000000,195.000000
382.500000,101.500000,85.000000,195.000000
382.500000,101.500000,85.000000,195.000000
378.500000,101.500000,85.000000,195.000000
378.500000,101.500000,85.000000,195.000000
378.500000,101.500000,85.000000,195.000000
378.500000,101.500000,85.000000,195.000000
374.500000,101.500000,85.000000,195.000000
374.500000,101.500000,85.000000,195.000000
374.500000,101.500000,85.000000,195.000000
374.500000,101.500000,85.000000,195.000000
374.500000,101.500000,85.000000,195.000000
370.500000,101.500000,85.000000,195.000000
370.500000,101.500000,85.000000,195.000000
370.500000,101.500000,85.000000,195.000000
370.500000,101.500000,85.000000,195.000000
370.500000,101.500000,85.000000,195.000000
370.500000,101.500000,85.000000,195.000000
366.500000,101.500000,85.000000,195.000000
366.500000,101.500000,85.000000,195.000000
366.500000,97.500000,85.000000,195.000000
366.500000,97.500000,85.000000,195.000000
366.500000,97.500000,85.000000,195.000000
366.500000,97.500000,85.000000,195.000000
366.500000,97.500000,85.000000,195.000000
362.500000,97.500000,85.000000,195.000000
362.500000,97.500000,85.000000,195.000000
362.500000,97.500000,85.000000,195.000000
362.500000,97.500000,85.000000,195.000000
362.500000,97.500000,85.000000,195.000000
362.500000,97.500000,85.000000,195.000000
362.500000,97.500000,85.000000,195.000000
362.500000,97.500000,85.000000,195.000000
362.500000,97.500000,85.000000,195.000000
362.500000,97.500000,85.000000,195.000000
362.500000,97.500000,85.000000,195.000000
362.500000,101.500000,85.000000,195.000000
362.500000,101.500000,85.000000,195.000000
362.500000,101.500000,85.000000,195.000000
362.500000,101.500000,85.000000,195.000000
366.500000,101.500000,85.000000,195.000000
366.500000,101.500000,85.000000,195.000000
366.500000,101.500000,85.000000,195.000000
366.500000,101.500000,85.000000,195.000000
366.500000,105.500000,85.000000,195.000000
370.500000,105.500000,85.000000,195.000000
370.500000,109.500000,85.000000,195.000000
370.500000,109.500000,85.000000,195.000000
366.500000,109.500000,85.000000,195.000000
366.500000,109.500000,85.000000,195.000000
362.500000,113.500000,85.000000,195.000000
362.500000,113.500000,85.000000,195.000000
358.500000,113.500000,85.000000,195.000000
354.500000,113.500000,85.000000,195.000000
354.500000,113.500000,85.000000,195.000000
354.500000,113.500000,85.000000,195.000000
350.500000,113.500000,85.000000,195.000000
350.500000,117.500000,85.000000,195.000000
350.500000,117.500000,85.000000,195.000000
346.500000,117.500000,85.000000,195.000000
346.500000,117.500000,85.000000,195.000000
346.500000,117.500000,85.000000,195.000000
346.500000,117.500000,85.000000,195.000000
346.500000,117.500000,85.000000,195.000000
346.500000,117.500000,85.000000,195.000000
346.500000,117.500000,85.000000,195.000000
342.500000,117.500000,85.000000,195.000000
342.500000,117.500000,85.000000,195.000000
346.500000,117.500000,85.000000,195.000000
346.500000,117.500000,85.000000,195.000000
346.500000,117.500000,85.000000,195.000000
342.500000,117.500000,85.000000,195.000000
338.500000,117.500000,85.000000,195.000000
338.500000,117.500000,85.000000,195.000000
338.500000,117.500000,85.000000,195.000000
338.500000,117.500000,85.000000,195.000000
334.500000,117.500000,85.000000,195.000000
334.500000,117.500000,85.000000,195.000000
330.500000,117.500000,85.000000,195.000000
326.500000,113.500000,85.000000,195.000000
326.500000,113.500000,85.000000,195.000000
322.500000,113.500000,85.000000,195.000000
318.500000,113.500000,85.000000,195.000000
318.500000,113.500000,85.000000,195.000000
314.500000,113.500000,85.000000,195.000000
314.500000,113.500000,85.000000,195.000000
314.500000,113.500000,85.000000,195.000000
314.500000,113.500000,85.000000,195.000000
310.500000,113.500000,85.000000,195.000000
310.500000,113.500000,85.000000,195.000000
310.500000,113.500000,85.000000,195.000000
310.500000,113.500000,85.000000,195.000000
310.500000,113.500000,85.000000,195.000000
310.500000,113.500000,85.000000,195.000000
310.500000,113.500000,85.000000,195.000000
310.500000,113.500000,85.000000,195.000000
310.500000,109.500000,85.000000,195.000000
310.500000,113.500000,85.000000,195.000000
310.500000,113.500000,85.000000,195.000000
310.500000,113.500000,85.000000,195.000000
314.500000,113.500000,85.000000,195.000000
314.500000,113.500000,85.000000,195.000000
314.500000,113.500000,85.000000,195.000000
318.500000,113.500000,85.000000,195.000000
318.500000,113.500000,85.000000,195.000000
318.500000,113.500000,85.000000,195.000000
322.500000,113.500000,85.000000,195.000000
322.500000,113.500000,85.000000,195.000000
326.500000,113.500000,85.000000,195.000000
326.500000,113.500000,85.000000,195.000000
330.500000,109.500000,85.000000,195.000000
330.500000,109.500000,85.000000,195.000000
334.500000,109.500000,85.000000,195.000000
338.500000,109.500000,85.000000,195.000000
338.500000,105.500000,85.000000,195.000000
342.500000,105.500000,85.000000,195.000000
342.500000,105.500000,85.000000,195.000000
346.500000,105.500000,85.000000,195.000000
346.500000,105.500000,85.000000,195.000000
346.500000,105.500000,85.000000,195.000000
346.500000,105.500000,85.000000,195.000000
350.500000,109.500000,85.000000,195.000000
350.500000,105.500000,85.000000,195.000000
354.500000,105.500000,85.000000,195.000000
354.500000,105.500000,85.000000,195.000000
354.500000,101.500000,85.000000,195.000000
354.500000,101.500000,85.000000,195.000000
358.500000,101.500000,85.000000,195.000000
358.500000,101.500000,85.000000,195.000000
358.500000,101.500000,85.000000,195.000000
358.500000,101.500000,85.000000,195.000000
358.500000,101.500000,85.000000,195.000000
358.500000,101.500000,85.000000,195.000000
358.500000,101.500000,85.000000,195.000000
358.500000,101.500000,85.000000,195.000000
358.500000,101.500000,85.000000,195.000000
362.500000,101.500000,85.000000,195.000000
362.500000,101.500000,85.000000,195.000000
362.500000,105.500000,85.000000,195.000000
362.500000,105.500000,85.000000,195.000000
358.500000,105.500000,85.000000,195.000000
358.500000,105.500000,85.000000,195.000000
358.500000,105.500000,85.000000,195.000000
358.500000,105.500000,85.000000,195.000000
358.500000,105.500000,85.000000,195.000000
358.500000,109.500000,85.000000,195.000000
358.500000,105.500000,85.000000,195.000000
358.500000,105.500000,85.000000,195.000000
358.500000,101.500000,85.000000,195.000000
358.500000,101.500000,85.000000,195.000000
358.500000,101.500000,85.000000,195.000000
358.500000,101.500000,85.000000,195.000000
358.500000,97.500000,85.000000,195.000000
358.500000,97.500000,85.000000,195.000000
358.500000,97.500000,85.000000,195.000000
362.500000,97.500000,85.000000,195.000000
362.500000,97.500000,85.000000,195.000000
366.500000,97.500000,85.000000,195.000000
366.500000,97.500000,85.000000,195.000000
366.500000,97.500000,85.000000,195.000000
370.500000,101.500000,85.000000,195.000000
370.500000,101.500000,85.000000,195.000000
378.500000,101.500000,85.000000,195.000000
382.500000,105.500000,85.000000,195.000000
382.500000,109.500000,85.000000,195.000000
386.500000,109.500000,85.000000,195.000000
386.500000,109.500000,85.000000,195.000000
390.500000,109.500000,85.000000,195.000000
394.500000,105.500000,85.000000,195.000000
394.500000,105.500000,85.000000,195.000000
394.500000,105.500000,85.000000,195.000000
394.500000,105.500000,85.000000,195.000000
390.500000,105.500000,85.000000,195.000000
390.500000,101.500000,85.000000,195.000000
386.500000,101.500000,85.000000,195.000000
386.500000,105.500000,85.000000,195.000000
382.500000,101.500000,85.000000,195.000000
378.500000,101.500000,85.000000,195.000000
370.500000,101.500000,85.000000,195.000000
366.500000,101.500000,85.000000,195.000000
362.500000,101.500000,85.000000,195.000000
358.500000,105.500000,85.000000,195.000000
350.500000,105.500000,85.000000,195.000000
346.500000,109.500000,85.000000,195.000000
342.500000,109.500000,85.000000,195.000000
338.500000,109.500000,85.000000,195.000000
330.500000,109.500000,85.000000,195.000000
326.500000,109.500000,85.000000,195.000000
322.500000,105.500000,85.000000,195.000000
318.500000,105.500000,85.000000,195.000000
314.500000,101.500000,85.000000,195.000000
314.500000,101.500000,85.000000,195.000000
314.500000,97.500000,85.000000,195.000000
310.500000,97.500000,85.000000,195.000000
310.500000,97.500000,85.000000,195.000000
306.500000,97.500000,85.000000,195.000000
306.500000,97.500000,85.000000,195.000000
306.500000,97.500000,85.000000,195.000000
306.500000,97.500000,85.000000,195.000000
302.500000,101.500000,85.000000,195.000000
302.500000,101.500000,85.000000,195.000000
302.500000,101.500000,85.000000,195.000000
302.500000,101.500000,85.000000,195.000000
302.500000,101.500000,85.000000,195.000000
302.500000,101.500000,85.000000,195.000000
302.500000,101.500000,85.000000,195.000000
302.500000,97.500000,85.000000,195.000000
302.500000,97.500000,85.000000,195.000000
306.500000,93.500000,85.000000,195.000000
306.500000,93.500000,85.000000,195.000000
310.500000,89.500000,85.000000,195.000000
310.500000,85.500000,85.000000,195.000000
310.500000,81.500000,85.000000,195.000000
310.500000,77.500000,85.000000,195.000000
310.500000,73.500000,85.000000,195.000000
310.500000,73.500000,85.000000,195.000000
310.500000,73.500000,85.000000,195.000000
310.500000,69.500000,85.000000,195.000000
306.500000,69.500000,85.000000,195.000000
306.500000,69.500000,85.000000,195.000000
306.500000,73.500000,85.000000,195.000000
306.500000,73.500000,85.000000,195.000000
302.500000,77.500000,85.000000,195.000000
298.500000,81.500000,85.000000,195.000000
298.500000,81.500000,85.000000,195.000000
294.500000,81.500000,85.000000,195.000000
290.500000,81.500000,85.000000,195.000000
286.500000,81.500000,85.000000,195.000000
282.500000,77.500000,85.000000,195.000000
278.500000,73.500000,85.000000,195.000000
278.500000,69.500000,85.000000,195.000000
278.500000,69.500000,85.000000,195.000000
278.500000,69.500000,85.000000,195.000000
278.500000,69.500000,85.000000,195.000000
282.500000,65.500000,85.000000,195.000000
282.500000,65.500000,85.000000,195.000000
282.500000,65.500000,85.000000,195.000000
286.500000,65.500000,85.000000,195.000000
290.500000,65.500000,85.000000,195.000000
290.500000,65.500000,85.000000,195.000000
294.500000,65.500000,85.000000,195.000000
294.500000,65.500000,85.000000,195.000000
298.500000,69.500000,85.000000,195.000000
298.500000,73.500000,85.000000,195.000000
298.500000,73.500000,85.000000,195.000000
298.500000,73.500000,85.000000,195.000000
298.500000,73.500000,85.000000,195.000000
298.500000,73.500000,85.000000,195.000000
298.500000,65.500000,85.000000,195.000000
298.500000,61.500000,85.000000,195.000000
298.500000,61.500000,85.000000,195.000000
298.500000,57.500000,85.000000,195.000000
294.500000,57.500000,85.000000,195.000000
294.500000,53.500000,85.000000,195.000000
294.500000,53.500000,85.000000,195.000000
290.500000,53.500000,85.000000,195.000000
290.500000,53.500000,85.000000,195.000000
290.500000,53.500000,85.000000,195.000000
290.500000,53.500000,85.000000,195.000000
