1
149.000000,64.500000,50.000000,59.000000
149.000000,64.500000,50.000000,59.000000
149.000000,64.500000,50.000000,59.000000
149.000000,64.500000,50.000000,59.000000
149.000000,64.500000,50.000000,59.000000
149.000000,64.500000,50.000000,59.000000
149.000000,64.500000,50.000000,59.000000
149.000000,64.500000,50.000000,59.000000
149.000000,64.500000,50.000000,59.000000
149.000000,60.500000,50.000000,59.000000
149.000000,60.500000,50.000000,59.000000
153.000000,56.500000,50.000000,59.000000
157.000000,52.500000,50.000000,59.000000
157.000000,52.500000,50.000000,59.000000
161.000000,48.500000,50.000000,59.000000
165.000000,48.500000,50.000000,59.000000
169.000000,48.500000,50.000000,59.000000
169.000000,48.500000,50.000000,59.000000
173.000000,48.500000,50.000000,59.000000
177.000000,52.500000,50.000000,59.000000
181.000000,52.500000,50.000000,59.000000
181.000000,52.500000,50.000000,59.000000
181.000000,52.500000,50.000000,59.000000
185.000000,52.500000,50.000000,59.000000
185.000000,52.500000,50.000000,59.000000
189.000000,52.500000,50.000000,59.000000
189.000000,52.500000,50.000000,59.000000
189.000000,52.500000,50.000000,59.000000
189.000000,52.500000,50.000000,59.000000
189.000000,52.500000,50.000000,59.000000
189.000000,52.500000,50.000000,59.000000
189.000000,52.500000,50.000000,59.000000
2
0
0
0
0
1
196.625000,94.875000,45.250000,35.250000
196.625000,94.875000,45.250000,35.250000
196.625000,94.875000,45.250000,35.250000
196.625000,94.875000,45.250000,35.250000
196.625000,94.875000,45.250000,35.250000
2
0
0
0
0
1
100.834999,42.330002,44.330002,42.000000
92.834999,42.330002,44.330002,42.000000
88.834999,42.330002,44.330002,42.000000
80.834999,42.330002,44.330002,42.000000
76.834999,42.330002,44.330002,42.000000
72.834999,42.330002,44.330002,42.000000
68.834999,42.330002,44.330002,42.000000
68.834999,46.330002,44.330002,42.000000
64.834999,50.330002,44.330002,42.000000
60.834999,58.330002,44.330002,42.000000
60.834999,62.330002,44.330002,42.000000
64.834999,66.330002,44.330002,42.000000
64.834999,74.330002,44.330002,42.000000
72.834999,74.330002,44.330002,42.000000
80.834999,66.330002,44.330002,42.000000
92.834999,42.330002,44.330002,42.000000
92.834999,38.330002,44.330002,42.000000
100.834999,38.330002,44.330002,42.000000
2
0
0
0
0
1
199.139984,77.620003,44.460007,62.080002
199.139984,77.620003,44.460007,62.080002
203.139984,77.620003,44.460007,62.080002
203.139984,77.620003,44.460007,62.080002
203.139984,77.620003,44.460007,62.080002
203.139984,77.620003,44.460007,62.080002
203.139984,77.620003,44.460007,62.080002
199.139984,77.620003,44.460007,62.080002
199.139984,77.620003,44.460007,62.080002
195.139984,77.620003,44.460007,62.080002
191.139984,77.620003,44.460007,62.080002
191.139984,77.620003,44.460007,62.080002
191.139984,77.620003,44.460007,62.080002
2
0
0
0
0
1
101.000000,30.000000,56.000000,66.000000
101.000000,30.000000,56.000000,66.000000
109.000000,34.000000,56.000000,66.000000
117.000000,34.000000,56.000000,66.000000
125.000000,42.000000,56.000000,66.000000
129.000000,46.000000,56.000000,66.000000
153.000000,46.000000,56.000000,66.000000
169.000000,54.000000,56.000000,66.000000
185.000000,54.000000,56.000000,66.000000
189.000000,54.000000,56.000000,66.000000
193.000000,58.000000,56.000000,66.000000
197.000000,58.000000,56.000000,66.000000
205.000000,58.000000,56.000000,66.000000
209.000000,58.000000,56.000000,66.000000
209.000000,58.000000,56.000000,66.000000
209.000000,58.000000,56.000000,66.000000
209.000000,58.000000,56.000000,66.000000
209.000000,58.000000,56.000000,66.000000
209.000000,58.000000,56.000000,66.000000
209.000000,58.000000,56.000000,66.000000
209.000000,58.000000,56.000000,66.000000
209.000000,58.000000,56.000000,66.000000
2
0
0
0
0
1
199.500000,112.000000,69.000000,40.000000
199.500000,112.000000,69.000000,40.000000
199.500000,112.000000,69.000000,40.000000
199.500000,112.000000,69.000000,40.000000
199.500000,112.000000,69.000000,40.000000
199.500000,112.000000,69.000000,40.000000
199.500000,112.000000,69.000000,40.000000
2
0
0
0
0
1
107.199997,48.900002,50.799995,59.799999
107.199997,48.900002,50.799995,59.799999
107.199997,48.900002,50.799995,59.799999
107.199997,48.900002,50.799995,59.799999
107.199997,48.900002,50.799995,59.799999
107.199997,48.900002,50.799995,59.799999
111.199997,48.900002,50.799995,59.799999
107.199997,48.900002,50.799995,59.799999
107.199997,48.900002,50.799995,59.799999
2
0
0
0
0
1
219.500000,115.500000,51.000000,45.000000
219.500000,115.500000,51.000000,45.000000
219.500000,115.500000,51.000000,45.000000
219.500000,115.500000,51.000000,45.000000
219.500000,115.500000,51.000000,45.000000
219.500000,115.500000,51.000000,45.000000
219.500000,115.500000,51.000000,45.000000
219.500000,119.500000,51.000000,45.000000
219.500000,119.500000,51.000000,45.000000
219.500000,119.500000,51.000000,45.000000
219.500000,119.500000,51.000000,45.000000
219.500000,115.500000,51.000000,45.000000
219.500000,115.500000,51.000000,45.000000
215.500000,115.500000,51.000000,45.000000
215.500000,115.500000,51.000000,45.000000
2
0
0
0
0
1
172.160004,43.160004,46.339996,40.339996
180.160004,43.160004,46.339996,40.339996
188.160004,43.160004,46.339996,40.339996
200.160004,43.160004,46.339996,40.339996
208.160004,47.160004,46.339996,40.339996
216.160004,55.160004,46.339996,40.339996
228.160004,59.160004,46.339996,40.339996
232.160004,63.160004,46.339996,40.339996
244.160004,67.160004,46.339996,40.339996
244.160004,71.160004,46.339996,40.339996
244.160004,71.160004,46.339996,40.339996
244.160004,71.160004,46.339996,40.339996
236.160004,67.160004,46.339996,40.339996
232.160004,63.160004,46.339996,40.339996
232.160004,59.160004,46.339996,40.339996
224.160004,59.160004,46.339996,40.339996
220.160004,55.160004,46.339996,40.339996
212.160004,55.160004,46.339996,40.339996
204.160004,51.160004,46.339996,40.339996
196.160004,47.160004,46.339996,40.339996
184.160004,47.160004,46.339996,40.339996
176.160004,43.160004,46.339996,40.339996
168.160004,43.160004,46.339996,40.339996
160.160004,43.160004,46.339996,40.339996
140.160004,43.160004,46.339996,40.339996
128.160004,47.160004,46.339996,40.339996
120.160004,47.160004,46.339996,40.339996
112.160004,47.160004,46.339996,40.339996
100.160004,47.160004,46.339996,40.339996
92.160004,47.160004,46.339996,40.339996
84.160004,47.160004,46.339996,40.339996
76.160004,47.160004,46.339996,40.339996
68.160004,47.160004,46.339996,40.339996
64.160004,47.160004,46.339996,40.339996
60.160004,51.160004,46.339996,40.339996
56.160004,59.160004,46.339996,40.339996
56.160004,67.160004,46.339996,40.339996
56.160004,75.160004,46.339996,40.339996
64.160004,83.160004,46.339996,40.339996
68.160004,91.160004,46.339996,40.339996
76.160004,99.160004,46.339996,40.339996
84.160004,107.160004,46.339996,40.339996
92.160004,111.160004,46.339996,40.339996
96.160004,119.160004,46.339996,40.339996
96.160004,127.160004,46.339996,40.339996
96.160004,135.160004,46.339996,40.339996
96.160004,135.160004,46.339996,40.339996
96.160004,131.160004,46.339996,40.339996
96.160004,127.160004,46.339996,40.339996
96.160004,127.160004,46.339996,40.339996
96.160004,123.160004,46.339996,40.339996
96.160004,123.160004,46.339996,40.339996
104.160004,127.160004,46.339996,40.339996
104.160004,127.160004,46.339996,40.339996
108.160004,127.160004,46.339996,40.339996
108.160004,127.160004,46.339996,40.339996
112.160004,127.160004,46.339996,40.339996
112.160004,127.160004,46.339996,40.339996
112.160004,127.160004,46.339996,40.339996
112.160004,127.160004,46.339996,40.339996
112.160004,127.160004,46.339996,40.339996
112.160004,127.160004,46.339996,40.339996
116.160004,123.160004,46.339996,40.339996
120.160004,123.160004,46.339996,40.339996
120.160004,119.160004,46.339996,40.339996
128.160004,119.160004,46.339996,40.339996
128.160004,119.160004,46.339996,40.339996
128.160004,115.160004,46.339996,40.339996
132.160004,115.160004,46.339996,40.339996
136.160004,111.160004,46.339996,40.339996
140.160004,111.160004,46.339996,40.339996
148.160004,107.160004,46.339996,40.339996
148.160004,107.160004,46.339996,40.339996
156.160004,103.160004,46.339996,40.339996
156.160004,103.160004,46.339996,40.339996
156.160004,103.160004,46.339996,40.339996
156.160004,103.160004,46.339996,40.339996
156.160004,103.160004,46.339996,40.339996
156.160004,99.160004,46.339996,40.339996
148.160004,99.160004,46.339996,40.339996
140.160004,99.160004,46.339996,40.339996
136.160004,91.160004,46.339996,40.339996
124.160004,91.160004,46.339996,40.339996
116.160004,91.160004,46.339996,40.339996
112.160004,91.160004,46.339996,40.339996
108.160004,91.160004,46.339996,40.339996
104.160004,91.160004,46.339996,40.339996
104.160004,91.160004,46.339996,40.339996
104.160004,91.160004,46.339996,40.339996
104.160004,91.160004,46.339996,40.339996
104.160004,91.160004,46.339996,40.339996
108.160004,91.160004,46.339996,40.339996
108.160004,91.160004,46.339996,40.339996
108.160004,91.160004,46.339996,40.339996
108.160004,91.160004,46.339996,40.339996
112.160004,91.160004,46.339996,40.339996
112.160004,91.160004,46.339996,40.339996
