1
506.039978,228.059998,86.959991,35.440002
514.039978,236.059998,86.959991,35.440002
514.039978,240.059998,86.959991,35.440002
514.039978,244.059998,86.959991,35.440002
514.039978,248.059998,86.959991,35.440002
522.039978,256.059998,86.959991,35.440002
522.039978,260.059998,86.959991,35.440002
522.039978,264.059998,86.959991,35.440002
526.039978,264.059998,86.959991,35.440002
526.039978,268.059998,86.959991,35.440002
530.039978,272.059998,86.959991,35.440002
530.039978,272.059998,86.959991,35.440002
530.039978,276.059998,86.959991,35.440002
530.039978,284.059998,86.959991,35.440002
534.039978,288.059998,86.959991,35.440002
534.039978,292.059998,86.959991,35.440002
534.039978,296.059998,86.959991,35.440002
534.039978,296.059998,86.959991,35.440002
534.039978,300.059998,86.959991,35.440002
530.039978,304.059998,86.959991,35.440002
530.039978,316.059998,86.959991,35.440002
534.039978,320.059998,86.959991,35.440002
534.039978,320.059998,86.959991,35.440002
534.039978,324.059998,86.959991,35.440002
534.039978,328.059998,86.959991,35.440002
534.039978,336.059998,86.959991,35.440002
534.039978,340.059998,86.959991,35.440002
534.039978,344.059998,86.959991,35.440002
534.039978,344.059998,86.959991,35.440002
534.039978,348.059998,86.959991,35.440002
534.039978,352.059998,86.959991,35.440002
534.039978,356.059998,86.959991,35.440002
534.039978,360.059998,86.959991,35.440002
534.039978,360.059998,86.959991,35.440002
534.039978,356.059998,86.959991,35.440002
534.039978,356.059998,86.959991,35.440002
534.039978,348.059998,86.959991,35.440002
534.039978,348.059998,86.959991,35.440002
534.039978,352.059998,86.959991,35.440002
534.039978,352.059998,86.959991,35.440002
534.039978,344.059998,86.959991,35.440002
534.039978,340.059998,86.959991,35.440002
530.039978,332.059998,86.959991,35.440002
530.039978,328.059998,86.959991,35.440002
530.039978,328.059998,86.959991,35.440002
522.039978,320.059998,86.959991,35.440002
522.039978,312.059998,86.959991,35.440002
522.039978,308.059998,86.959991,35.440002
522.039978,308.059998,86.959991,35.440002
522.039978,308.059998,86.959991,35.440002
518.039978,304.059998,86.959991,35.440002
518.039978,304.059998,86.959991,35.440002
514.039978,304.059998,86.959991,35.440002
510.039978,300.059998,86.959991,35.440002
510.039978,300.059998,86.959991,35.440002
510.039978,308.059998,86.959991,35.440002
510.039978,312.059998,86.959991,35.440002
510.039978,312.059998,86.959991,35.440002
510.039978,308.059998,86.959991,35.440002
510.039978,308.059998,86.959991,35.440002
510.039978,316.059998,86.959991,35.440002
510.039978,328.059998,86.959991,35.440002
510.039978,332.059998,86.959991,35.440002
510.039978,332.059998,86.959991,35.440002
510.039978,336.059998,86.959991,35.440002
510.039978,344.059998,86.959991,35.440002
514.039978,352.059998,86.959991,35.440002
514.039978,352.059998,86.959991,35.440002
514.039978,348.059998,86.959991,35.440002
514.039978,352.059998,86.959991,35.440002
514.039978,356.059998,86.959991,35.440002
514.039978,356.059998,86.959991,35.440002
514.039978,352.059998,86.959991,35.440002
514.039978,348.059998,86.959991,35.440002
514.039978,348.059998,86.959991,35.440002
514.039978,344.059998,86.959991,35.440002
518.039978,344.059998,86.959991,35.440002
518.039978,340.059998,86.959991,35.440002
518.039978,336.059998,86.959991,35.440002
518.039978,332.059998,86.959991,35.440002
518.039978,332.059998,86.959991,35.440002
530.039978,336.059998,86.959991,35.440002
530.039978,340.059998,86.959991,35.440002
534.039978,336.059998,86.959991,35.440002
534.039978,336.059998,86.959991,35.440002
534.039978,332.059998,86.959991,35.440002
534.039978,336.059998,86.959991,35.440002
538.039978,340.059998,86.959991,35.440002
538.039978,344.059998,86.959991,35.440002
538.039978,348.059998,86.959991,35.440002
546.039978,352.059998,86.959991,35.440002
546.039978,356.059998,86.959991,35.440002
550.039978,360.059998,86.959991,35.440002
554.039978,364.059998,86.959991,35.440002
558.039978,368.059998,86.959991,35.440002
558.039978,372.059998,86.959991,35.440002
562.039978,380.059998,86.959991,35.440002
570.039978,384.059998,86.959991,35.440002
570.039978,388.059998,86.959991,35.440002
574.039978,384.059998,86.959991,35.440002
574.039978,384.059998,86.959991,35.440002
574.039978,384.059998,86.959991,35.440002
574.039978,384.059998,86.959991,35.440002
574.039978,380.059998,86.959991,35.440002
574.039978,372.059998,86.959991,35.440002
574.039978,368.059998,86.959991,35.440002
578.039978,368.059998,86.959991,35.440002
578.039978,368.059998,86.959991,35.440002
578.039978,364.059998,86.959991,35.440002
578.039978,360.059998,86.959991,35.440002
578.039978,352.059998,86.959991,35.440002
578.039978,348.059998,86.959991,35.440002
578.039978,344.059998,86.959991,35.440002
578.039978,340.059998,86.959991,35.440002
578.039978,340.059998,86.959991,35.440002
578.039978,328.059998,86.959991,35.440002
578.039978,324.059998,86.959991,35.440002
578.039978,316.059998,86.959991,35.440002
578.039978,312.059998,86.959991,35.440002
578.039978,308.059998,86.959991,35.440002
578.039978,296.059998,86.959991,35.440002
578.039978,288.059998,86.959991,35.440002
578.039978,284.059998,86.959991,35.440002
578.039978,284.059998,86.959991,35.440002
574.039978,284.059998,86.959991,35.440002
574.039978,272.059998,86.959991,35.440002
574.039978,272.059998,86.959991,35.440002
574.039978,268.059998,86.959991,35.440002
574.039978,264.059998,86.959991,35.440002
574.039978,264.059998,86.959991,35.440002
574.039978,256.059998,86.959991,35.440002
558.039978,248.059998,86.959991,35.440002
574.039978,252.059998,86.959991,35.440002
570.039978,252.059998,86.959991,35.440002
566.039978,248.059998,86.959991,35.440002
562.039978,252.059998,86.959991,35.440002
562.039978,252.059998,86.959991,35.440002
562.039978,248.059998,86.959991,35.440002
562.039978,248.059998,86.959991,35.440002
562.039978,248.059998,86.959991,35.440002
562.039978,252.059998,86.959991,35.440002
562.039978,256.059998,86.959991,35.440002
566.039978,252.059998,86.959991,35.440002
566.039978,248.059998,86.959991,35.440002
566.039978,252.059998,86.959991,35.440002
566.039978,256.059998,86.959991,35.440002
570.039978,256.059998,86.959991,35.440002
570.039978,260.059998,86.959991,35.440002
570.039978,264.059998,86.959991,35.440002
570.039978,264.059998,86.959991,35.440002
570.039978,272.059998,86.959991,35.440002
570.039978,276.059998,86.959991,35.440002
570.039978,280.059998,86.959991,35.440002
570.039978,284.059998,86.959991,35.440002
570.039978,292.059998,86.959991,35.440002
570.039978,308.059998,86.959991,35.440002
570.039978,316.059998,86.959991,35.440002
574.039978,324.059998,86.959991,35.440002
574.039978,328.059998,86.959991,35.440002
578.039978,336.059998,86.959991,35.440002
582.039978,348.059998,86.959991,35.440002
590.039978,352.059998,86.959991,35.440002
590.039978,356.059998,86.959991,35.440002
594.039978,364.059998,86.959991,35.440002
602.039978,368.059998,86.959991,35.440002
602.039978,372.059998,86.959991,35.440002
602.039978,376.059998,86.959991,35.440002
602.039978,380.059998,86.959991,35.440002
602.039978,384.059998,86.959991,35.440002
602.039978,384.059998,86.959991,35.440002
606.039978,384.059998,86.959991,35.440002
606.039978,384.059998,86.959991,35.440002
606.039978,392.059998,86.959991,35.440002
606.039978,392.059998,86.959991,35.440002
598.039978,388.059998,86.959991,35.440002
598.039978,388.059998,86.959991,35.440002
598.039978,388.059998,86.959991,35.440002
598.039978,388.059998,86.959991,35.440002
598.039978,384.059998,86.959991,35.440002
586.039978,372.059998,86.959991,35.440002
586.039978,368.059998,86.959991,35.440002
586.039978,368.059998,86.959991,35.440002
586.039978,364.059998,86.959991,35.440002
582.039978,360.059998,86.959991,35.440002
578.039978,348.059998,86.959991,35.440002
578.039978,344.059998,86.959991,35.440002
578.039978,340.059998,86.959991,35.440002
578.039978,336.059998,86.959991,35.440002
574.039978,332.059998,86.959991,35.440002
574.039978,320.059998,86.959991,35.440002
574.039978,316.059998,86.959991,35.440002
570.039978,312.059998,86.959991,35.440002
570.039978,308.059998,86.959991,35.440002
570.039978,308.059998,86.959991,35.440002
570.039978,304.059998,86.959991,35.440002
570.039978,300.059998,86.959991,35.440002
570.039978,296.059998,86.959991,35.440002
570.039978,292.059998,86.959991,35.440002
570.039978,288.059998,86.959991,35.440002
570.039978,292.059998,86.959991,35.440002
570.039978,292.059998,86.959991,35.440002
570.039978,296.059998,86.959991,35.440002
570.039978,296.059998,86.959991,35.440002
570.039978,292.059998,86.959991,35.440002
570.039978,288.059998,86.959991,35.440002
570.039978,296.059998,86.959991,35.440002
570.039978,300.059998,86.959991,35.440002
554.039978,308.059998,86.959991,35.440002
558.039978,308.059998,86.959991,35.440002
558.039978,308.059998,86.959991,35.440002
558.039978,308.059998,86.959991,35.440002
558.039978,312.059998,86.959991,35.440002
558.039978,320.059998,86.959991,35.440002
558.039978,328.059998,86.959991,35.440002
562.039978,328.059998,86.959991,35.440002
562.039978,328.059998,86.959991,35.440002
562.039978,332.059998,86.959991,35.440002
578.039978,336.059998,86.959991,35.440002
578.039978,340.059998,86.959991,35.440002
578.039978,348.059998,86.959991,35.440002
578.039978,348.059998,86.959991,35.440002
578.039978,356.059998,86.959991,35.440002
578.039978,364.059998,86.959991,35.440002
578.039978,368.059998,86.959991,35.440002
594.039978,372.059998,86.959991,35.440002
594.039978,376.059998,86.959991,35.440002
594.039978,384.059998,86.959991,35.440002
594.039978,388.059998,86.959991,35.440002
594.039978,392.059998,86.959991,35.440002
594.039978,388.059998,86.959991,35.440002
594.039978,392.059998,86.959991,35.440002
598.039978,396.059998,86.959991,35.440002
598.039978,396.059998,86.959991,35.440002
598.039978,392.059998,86.959991,35.440002
598.039978,388.059998,86.959991,35.440002
598.039978,388.059998,86.959991,35.440002
598.039978,384.059998,86.959991,35.440002
598.039978,380.059998,86.959991,35.440002
598.039978,372.059998,86.959991,35.440002
598.039978,368.059998,86.959991,35.440002
598.039978,368.059998,86.959991,35.440002
598.039978,364.059998,86.959991,35.440002
598.039978,360.059998,86.959991,35.440002
598.039978,352.059998,86.959991,35.440002
582.039978,348.059998,86.959991,35.440002
582.039978,348.059998,86.959991,35.440002
582.039978,344.059998,86.959991,35.440002
582.039978,340.059998,86.959991,35.440002
582.039978,336.059998,86.959991,35.440002
582.039978,324.059998,86.959991,35.440002
582.039978,320.059998,86.959991,35.440002
582.039978,316.059998,86.959991,35.440002
582.039978,312.059998,86.959991,35.440002
582.039978,312.059998,86.959991,35.440002
582.039978,300.059998,86.959991,35.440002
586.039978,296.059998,86.959991,35.440002
586.039978,292.059998,86.959991,35.440002
586.039978,284.059998,86.959991,35.440002
586.039978,284.059998,86.959991,35.440002
586.039978,288.059998,86.959991,35.440002
586.039978,284.059998,86.959991,35.440002
586.039978,276.059998,86.959991,35.440002
586.039978,276.059998,86.959991,35.440002
586.039978,272.059998,86.959991,35.440002
586.039978,276.059998,86.959991,35.440002
586.039978,276.059998,86.959991,35.440002
586.039978,276.059998,86.959991,35.440002
586.039978,280.059998,86.959991,35.440002
586.039978,280.059998,86.959991,35.440002
586.039978,284.059998,86.959991,35.440002
586.039978,292.059998,86.959991,35.440002
586.039978,296.059998,86.959991,35.440002
582.039978,300.059998,86.959991,35.440002
582.039978,304.059998,86.959991,35.440002
582.039978,312.059998,86.959991,35.440002
582.039978,320.059998,86.959991,35.440002
566.039978,332.059998,86.959991,35.440002
566.039978,336.059998,86.959991,35.440002
566.039978,340.059998,86.959991,35.440002
578.039978,348.059998,86.959991,35.440002
578.039978,360.059998,86.959991,35.440002
578.039978,364.059998,86.959991,35.440002
578.039978,372.059998,86.959991,35.440002
578.039978,376.059998,86.959991,35.440002
578.039978,380.059998,86.959991,35.440002
578.039978,388.059998,86.959991,35.440002
582.039978,392.059998,86.959991,35.440002
582.039978,392.059998,86.959991,35.440002
582.039978,392.059998,86.959991,35.440002
590.039978,396.059998,86.959991,35.440002
590.039978,400.059998,86.959991,35.440002
590.039978,396.059998,86.959991,35.440002
594.039978,396.059998,86.959991,35.440002
598.039978,396.059998,86.959991,35.440002
598.039978,408.059998,86.959991,35.440002
614.039978,408.059998,86.959991,35.440002
614.039978,404.059998,86.959991,35.440002
614.039978,404.059998,86.959991,35.440002
614.039978,404.059998,86.959991,35.440002
598.039978,416.059998,86.959991,35.440002
614.039978,412.059998,86.959991,35.440002
614.039978,408.059998,86.959991,35.440002
634.039978,400.059998,86.959991,35.440002
634.039978,400.059998,86.959991,35.440002
634.039978,404.059998,86.959991,35.440002
634.039978,404.059998,86.959991,35.440002
618.039978,404.059998,86.959991,35.440002
634.039978,392.059998,86.959991,35.440002
634.039978,396.059998,86.959991,35.440002
634.039978,392.059998,86.959991,35.440002
634.039978,392.059998,86.959991,35.440002
618.039978,392.059998,86.959991,35.440002
602.039978,392.059998,86.959991,35.440002
602.039978,388.059998,86.959991,35.440002
586.039978,392.059998,86.959991,35.440002
570.039978,396.059998,86.959991,35.440002
570.039978,392.059998,86.959991,35.440002
538.039978,392.059998,86.959991,35.440002
538.039978,384.059998,86.959991,35.440002
506.039978,384.059998,86.959991,35.440002
490.039978,384.059998,86.959991,35.440002
474.039978,384.059998,86.959991,35.440002
458.039978,384.059998,86.959991,35.440002
442.039978,376.059998,86.959991,35.440002
410.039978,372.059998,86.959991,35.440002
390.039978,372.059998,86.959991,35.440002
358.039978,368.059998,86.959991,35.440002
338.039978,368.059998,86.959991,35.440002
338.039978,364.059998,86.959991,35.440002
286.039978,356.059998,86.959991,35.440002
254.039993,352.059998,86.959991,35.440002
222.039993,348.059998,86.959991,35.440002
206.039993,348.059998,86.959991,35.440002
186.039993,344.059998,86.959991,35.440002
142.039993,340.059998,86.959991,35.440002
110.039993,328.059998,86.959991,35.440002
78.039993,324.059998,86.959991,35.440002
46.039993,320.059998,86.959991,35.440002
