1
283.280029,73.780006,76.219971,234.719986
283.280029,73.780006,76.219971,234.719986
283.280029,73.780006,76.219971,234.719986
279.280029,73.780006,76.219971,234.719986
279.280029,73.780006,76.219971,234.719986
279.280029,73.780006,76.219971,234.719986
275.280029,77.780006,76.219971,234.719986
271.280029,77.780006,76.219971,234.719986
271.280029,77.780006,76.219971,234.719986
267.280029,77.780006,76.219971,234.719986
267.280029,77.780006,76.219971,234.719986
267.280029,77.780006,76.219971,234.719986
263.280029,81.780006,76.219971,234.719986
263.280029,81.780006,76.219971,234.719986
259.280029,85.780006,76.219971,234.719986
251.280029,89.780006,76.219971,234.719986
251.280029,89.780006,76.219971,234.719986
251.280029,89.780006,76.219971,234.719986
251.280029,93.780006,76.219971,234.719986
255.280029,93.780006,76.219971,234.719986
251.280029,93.780006,76.219971,234.719986
255.280029,93.780006,76.219971,234.719986
255.280029,93.780006,76.219971,234.719986
255.280029,93.780006,76.219971,234.719986
255.280029,93.780006,76.219971,234.719986
255.280029,89.780006,76.219971,234.719986
255.280029,89.780006,76.219971,234.719986
255.280029,89.780006,76.219971,234.719986
255.280029,85.780006,76.219971,234.719986
255.280029,85.780006,76.219971,234.719986
259.280029,81.780006,76.219971,234.719986
259.280029,81.780006,76.219971,234.719986
259.280029,81.780006,76.219971,234.719986
259.280029,85.780006,76.219971,234.719986
259.280029,89.780006,76.219971,234.719986
259.280029,89.780006,76.219971,234.719986
259.280029,93.780006,76.219971,234.719986
259.280029,97.780006,76.219971,234.719986
259.280029,97.780006,76.219971,234.719986
259.280029,97.780006,76.219971,234.719986
267.280029,93.780006,76.219971,234.719986
271.280029,89.780006,76.219971,234.719986
279.280029,89.780006,76.219971,234.719986
287.280029,85.780006,76.219971,234.719986
291.280029,85.780006,76.219971,234.719986
295.280029,85.780006,76.219971,234.719986
299.280029,81.780006,76.219971,234.719986
299.280029,81.780006,76.219971,234.719986
299.280029,77.780006,76.219971,234.719986
295.280029,69.780006,76.219971,234.719986
295.280029,69.780006,76.219971,234.719986
291.280029,69.780006,76.219971,234.719986
291.280029,69.780006,76.219971,234.719986
291.280029,69.780006,76.219971,234.719986
291.280029,69.780006,76.219971,234.719986
287.280029,77.780006,76.219971,234.719986
287.280029,77.780006,76.219971,234.719986
287.280029,77.780006,76.219971,234.719986
283.280029,81.780006,76.219971,234.719986
283.280029,81.780006,76.219971,234.719986
283.280029,81.780006,76.219971,234.719986
283.280029,81.780006,76.219971,234.719986
283.280029,81.780006,76.219971,234.719986
287.280029,81.780006,76.219971,234.719986
303.280029,81.780006,76.219971,234.719986
307.280029,81.780006,76.219971,234.719986
311.280029,81.780006,76.219971,234.719986
311.280029,81.780006,76.219971,234.719986
311.280029,81.780006,76.219971,234.719986
311.280029,81.780006,76.219971,234.719986
311.280029,81.780006,76.219971,234.719986
311.280029,81.780006,76.219971,234.719986
311.280029,81.780006,76.219971,234.719986
307.280029,81.780006,76.219971,234.719986
307.280029,81.780006,76.219971,234.719986
303.280029,81.780006,76.219971,234.719986
299.280029,81.780006,76.219971,234.719986
299.280029,81.780006,76.219971,234.719986
299.280029,81.780006,76.219971,234.719986
295.280029,81.780006,76.219971,234.719986
295.280029,81.780006,76.219971,234.719986
295.280029,81.780006,76.219971,234.719986
291.280029,81.780006,76.219971,234.719986
291.280029,81.780006,76.219971,234.719986
291.280029,81.780006,76.219971,234.719986
291.280029,81.780006,76.219971,234.719986
291.280029,81.780006,76.219971,234.719986
295.280029,81.780006,76.219971,234.719986
303.280029,81.780006,76.219971,234.719986
303.280029,81.780006,76.219971,234.719986
307.280029,77.780006,76.219971,234.719986
311.280029,77.780006,76.219971,234.719986
311.280029,77.780006,76.219971,234.719986
311.280029,73.780006,76.219971,234.719986
311.280029,69.780006,76.219971,234.719986
311.280029,69.780006,76.219971,234.719986
311.280029,69.780006,76.219971,234.719986
307.280029,69.780006,76.219971,234.719986
307.280029,69.780006,76.219971,234.719986
303.280029,65.780006,76.219971,234.719986
295.280029,57.780006,76.219971,234.719986
295.280029,57.780006,76.219971,234.719986
291.280029,57.780006,76.219971,234.719986
287.280029,53.780006,76.219971,234.719986
283.280029,53.780006,76.219971,234.719986
283.280029,53.780006,76.219971,234.719986
275.280029,57.780006,76.219971,234.719986
275.280029,57.780006,76.219971,234.719986
275.280029,61.780006,76.219971,234.719986
275.280029,65.780006,76.219971,234.719986
275.280029,65.780006,76.219971,234.719986
275.280029,69.780006,76.219971,234.719986
271.280029,69.780006,76.219971,234.719986
271.280029,69.780006,76.219971,234.719986
271.280029,69.780006,76.219971,234.719986
263.280029,69.780006,76.219971,234.719986
263.280029,69.780006,76.219971,234.719986
259.280029,69.780006,76.219971,234.719986
259.280029,69.780006,76.219971,234.719986
259.280029,69.780006,76.219971,234.719986
263.280029,69.780006,76.219971,234.719986
275.280029,65.780006,76.219971,234.719986
279.280029,65.780006,76.219971,234.719986
283.280029,65.780006,76.219971,234.719986
295.280029,61.780006,76.219971,234.719986
299.280029,61.780006,76.219971,234.719986
299.280029,61.780006,76.219971,234.719986
299.280029,57.780006,76.219971,234.719986
299.280029,57.780006,76.219971,234.719986
299.280029,61.780006,76.219971,234.719986
299.280029,65.780006,76.219971,234.719986
299.280029,65.780006,76.219971,234.719986
299.280029,69.780006,76.219971,234.719986
299.280029,73.780006,76.219971,234.719986
299.280029,73.780006,76.219971,234.719986
299.280029,73.780006,76.219971,234.719986
295.280029,81.780006,76.219971,234.719986
295.280029,81.780006,76.219971,234.719986
295.280029,81.780006,76.219971,234.719986
295.280029,85.780006,76.219971,234.719986
295.280029,85.780006,76.219971,234.719986
299.280029,85.780006,76.219971,234.719986
303.280029,85.780006,76.219971,234.719986
303.280029,89.780006,76.219971,234.719986
303.280029,89.780006,76.219971,234.719986
307.280029,89.780006,76.219971,234.719986
307.280029,89.780006,76.219971,234.719986
307.280029,89.780006,76.219971,234.719986
307.280029,85.780006,76.219971,234.719986
307.280029,85.780006,76.219971,234.719986
307.280029,81.780006,76.219971,234.719986
299.280029,77.780006,76.219971,234.719986
299.280029,77.780006,76.219971,234.719986
295.280029,77.780006,76.219971,234.719986
287.280029,73.780006,76.219971,234.719986
287.280029,73.780006,76.219971,234.719986
283.280029,69.780006,76.219971,234.719986
275.280029,65.780006,76.219971,234.719986
275.280029,65.780006,76.219971,234.719986
275.280029,65.780006,76.219971,234.719986
271.280029,57.780006,76.219971,234.719986
271.280029,57.780006,76.219971,234.719986
267.280029,57.780006,76.219971,234.719986
263.280029,53.780006,76.219971,234.719986
263.280029,53.780006,76.219971,234.719986
259.280029,53.780006,76.219971,234.719986
255.280029,57.780006,76.219971,234.719986
255.280029,57.780006,76.219971,234.719986
255.280029,57.780006,76.219971,234.719986
247.280029,61.780006,76.219971,234.719986
247.280029,61.780006,76.219971,234.719986
247.280029,61.780006,76.219971,234.719986
247.280029,61.780006,76.219971,234.719986
247.280029,61.780006,76.219971,234.719986
247.280029,65.780006,76.219971,234.719986
251.280029,65.780006,76.219971,234.719986
251.280029,65.780006,76.219971,234.719986
255.280029,65.780006,76.219971,234.719986
259.280029,61.780006,76.219971,234.719986
263.280029,61.780006,76.219971,234.719986
263.280029,61.780006,76.219971,234.719986
267.280029,61.780006,76.219971,234.719986
267.280029,61.780006,76.219971,234.719986
267.280029,57.780006,76.219971,234.719986
271.280029,53.780006,76.219971,234.719986
271.280029,53.780006,76.219971,234.719986
271.280029,53.780006,76.219971,234.719986
275.280029,57.780006,76.219971,234.719986
275.280029,57.780006,76.219971,234.719986
279.280029,57.780006,76.219971,234.719986
283.280029,65.780006,76.219971,234.719986
283.280029,65.780006,76.219971,234.719986
283.280029,69.780006,76.219971,234.719986
287.280029,73.780006,76.219971,234.719986
287.280029,77.780006,76.219971,234.719986
291.280029,77.780006,76.219971,234.719986
291.280029,81.780006,76.219971,234.719986
291.280029,81.780006,76.219971,234.719986
291.280029,85.780006,76.219971,234.719986
295.280029,85.780006,76.219971,234.719986
295.280029,85.780006,76.219971,234.719986
295.280029,85.780006,76.219971,234.719986
299.280029,77.780006,76.219971,234.719986
299.280029,77.780006,76.219971,234.719986
299.280029,73.780006,76.219971,234.719986
295.280029,61.780006,76.219971,234.719986
295.280029,61.780006,76.219971,234.719986
291.280029,61.780006,76.219971,234.719986
283.280029,57.780006,76.219971,234.719986
283.280029,57.780006,76.219971,234.719986
279.280029,57.780006,76.219971,234.719986
279.280029,57.780006,76.219971,234.719986
279.280029,57.780006,76.219971,234.719986
279.280029,57.780006,76.219971,234.719986
279.280029,57.780006,76.219971,234.719986
279.280029,57.780006,76.219971,234.719986
279.280029,57.780006,76.219971,234.719986
279.280029,53.780006,76.219971,234.719986
279.280029,53.780006,76.219971,234.719986
279.280029,53.780006,76.219971,234.719986
283.280029,49.780006,76.219971,234.719986
283.280029,45.780006,76.219971,234.719986
283.280029,45.780006,76.219971,234.719986
283.280029,45.780006,76.219971,234.719986
283.280029,45.780006,76.219971,234.719986
283.280029,49.780006,76.219971,234.719986
287.280029,49.780006,76.219971,234.719986
291.280029,49.780006,76.219971,234.719986
291.280029,53.780006,76.219971,234.719986
295.280029,53.780006,76.219971,234.719986
299.280029,53.780006,76.219971,234.719986
299.280029,53.780006,76.219971,234.719986
303.280029,57.780006,76.219971,234.719986
303.280029,57.780006,76.219971,234.719986
307.280029,61.780006,76.219971,234.719986
311.280029,61.780006,76.219971,234.719986
311.280029,61.780006,76.219971,234.719986
311.280029,61.780006,76.219971,234.719986
311.280029,57.780006,76.219971,234.719986
311.280029,57.780006,76.219971,234.719986
311.280029,57.780006,76.219971,234.719986
311.280029,53.780006,76.219971,234.719986
311.280029,53.780006,76.219971,234.719986
311.280029,49.780006,76.219971,234.719986
315.280029,45.780006,76.219971,234.719986
315.280029,45.780006,76.219971,234.719986
315.280029,45.780006,76.219971,234.719986
323.280029,41.780006,76.219971,234.719986
323.280029,41.780006,76.219971,234.719986
323.280029,37.780006,76.219971,234.719986
327.280029,41.780006,76.219971,234.719986
327.280029,41.780006,76.219971,234.719986
327.280029,41.780006,76.219971,234.719986
327.280029,41.780006,76.219971,234.719986
327.280029,41.780006,76.219971,234.719986
327.280029,41.780006,76.219971,234.719986
327.280029,45.780006,76.219971,234.719986
327.280029,45.780006,76.219971,234.719986
327.280029,45.780006,76.219971,234.719986
327.280029,45.780006,76.219971,234.719986
327.280029,45.780006,76.219971,234.719986
323.280029,45.780006,76.219971,234.719986
323.280029,41.780006,76.219971,234.719986
323.280029,41.780006,76.219971,234.719986
327.280029,41.780006,76.219971,234.719986
327.280029,41.780006,76.219971,234.719986
327.280029,41.780006,76.219971,234.719986
327.280029,41.780006,76.219971,234.719986
331.280029,41.780006,76.219971,234.719986
331.280029,41.780006,76.219971,234.719986
331.280029,41.780006,76.219971,234.719986
327.280029,41.780006,76.219971,234.719986
327.280029,41.780006,76.219971,234.719986
327.280029,41.780006,76.219971,234.719986
327.280029,41.780006,76.219971,234.719986
327.280029,41.780006,76.219971,234.719986
327.280029,41.780006,76.219971,234.719986
323.280029,41.780006,76.219971,234.719986
323.280029,41.780006,76.219971,234.719986
323.280029,41.780006,76.219971,234.719986
323.280029,41.780006,76.219971,234.719986
319.280029,45.780006,76.219971,234.719986
319.280029,45.780006,76.219971,234.719986
319.280029,45.780006,76.219971,234.719986
315.280029,45.780006,76.219971,234.719986
315.280029,45.780006,76.219971,234.719986
315.280029,45.780006,76.219971,234.719986
311.280029,49.780006,76.219971,234.719986
311.280029,49.780006,76.219971,234.719986
307.280029,49.780006,76.219971,234.719986
299.280029,49.780006,76.219971,234.719986
299.280029,49.780006,76.219971,234.719986
299.280029,49.780006,76.219971,234.719986
291.280029,45.780006,76.219971,234.719986
291.280029,45.780006,76.219971,234.719986
287.280029,45.780006,76.219971,234.719986
279.280029,41.780006,76.219971,234.719986
279.280029,37.780006,76.219971,234.719986
275.280029,37.780006,76.219971,234.719986
271.280029,37.780006,76.219971,234.719986
267.280029,37.780006,76.219971,234.719986
267.280029,37.780006,76.219971,234.719986
263.280029,37.780006,76.219971,234.719986
263.280029,37.780006,76.219971,234.719986
263.280029,37.780006,76.219971,234.719986
263.280029,37.780006,76.219971,234.719986
263.280029,37.780006,76.219971,234.719986
263.280029,37.780006,76.219971,234.719986
263.280029,37.780006,76.219971,234.719986
263.280029,37.780006,76.219971,234.719986
263.280029,37.780006,76.219971,234.719986
263.280029,37.780006,76.219971,234.719986
263.280029,37.780006,76.219971,234.719986
263.280029,33.780006,76.219971,234.719986
263.280029,29.780006,76.219971,234.719986
263.280029,29.780006,76.219971,234.719986
263.280029,29.780006,76.219971,234.719986
267.280029,25.780006,76.219971,234.719986
267.280029,25.780006,76.219971,234.719986
267.280029,25.780006,76.219971,234.719986
271.280029,29.780006,76.219971,234.719986
271.280029,29.780006,76.219971,234.719986
271.280029,29.780006,76.219971,234.719986
275.280029,33.780006,76.219971,234.719986
275.280029,33.780006,76.219971,234.719986
275.280029,37.780006,76.219971,234.719986
275.280029,41.780006,76.219971,234.719986
275.280029,41.780006,76.219971,234.719986
275.280029,41.780006,76.219971,234.719986
275.280029,45.780006,76.219971,234.719986
275.280029,45.780006,76.219971,234.719986
275.280029,45.780006,76.219971,234.719986
275.280029,45.780006,76.219971,234.719986
275.280029,45.780006,76.219971,234.719986
275.280029,45.780006,76.219971,234.719986
279.280029,45.780006,76.219971,234.719986
279.280029,45.780006,76.219971,234.719986
283.280029,45.780006,76.219971,234.719986
287.280029,45.780006,76.219971,234.719986
287.280029,45.780006,76.219971,234.719986
287.280029,45.780006,76.219971,234.719986
295.280029,45.780006,76.219971,234.719986
295.280029,45.780006,76.219971,234.719986
299.280029,45.780006,76.219971,234.719986
299.280029,45.780006,76.219971,234.719986
299.280029,45.780006,76.219971,234.719986
299.280029,45.780006,76.219971,234.719986
295.280029,45.780006,76.219971,234.719986
295.280029,45.780006,76.219971,234.719986
295.280029,45.780006,76.219971,234.719986
291.280029,45.780006,76.219971,234.719986
291.280029,45.780006,76.219971,234.719986
291.280029,45.780006,76.219971,234.719986
287.280029,45.780006,76.219971,234.719986
283.280029,45.780006,76.219971,234.719986
279.280029,45.780006,76.219971,234.719986
283.280029,45.780006,76.219971,234.719986
283.280029,45.780006,76.219971,234.719986
283.280029,45.780006,76.219971,234.719986
279.280029,45.780006,76.219971,234.719986
279.280029,45.780006,76.219971,234.719986
279.280029,45.780006,76.219971,234.719986
275.280029,45.780006,76.219971,234.719986
275.280029,45.780006,76.219971,234.719986
271.280029,45.780006,76.219971,234.719986
271.280029,45.780006,76.219971,234.719986
271.280029,45.780006,76.219971,234.719986
271.280029,45.780006,76.219971,234.719986
267.280029,45.780006,76.219971,234.719986
267.280029,45.780006,76.219971,234.719986
267.280029,45.780006,76.219971,234.719986
279.280029,45.780006,76.219971,234.719986
283.280029,45.780006,76.219971,234.719986
287.280029,45.780006,76.219971,234.719986
291.280029,49.780006,76.219971,234.719986
291.280029,49.780006,76.219971,234.719986
291.280029,49.780006,76.219971,234.719986
291.280029,53.780006,76.219971,234.719986
291.280029,53.780006,76.219971,234.719986
295.280029,53.780006,76.219971,234.719986
299.280029,53.780006,76.219971,234.719986
299.280029,53.780006,76.219971,234.719986
299.280029,53.780006,76.219971,234.719986
307.280029,57.780006,76.219971,234.719986
307.280029,57.780006,76.219971,234.719986
307.280029,57.780006,76.219971,234.719986
307.280029,61.780006,76.219971,234.719986
307.280029,61.780006,76.219971,234.719986
311.280029,65.780006,76.219971,234.719986
311.280029,65.780006,76.219971,234.719986
311.280029,69.780006,76.219971,234.719986
315.280029,69.780006,76.219971,234.719986
323.280029,69.780006,76.219971,234.719986
327.280029,69.780006,76.219971,234.719986
331.280029,69.780006,76.219971,234.719986
335.280029,69.780006,76.219971,234.719986
335.280029,69.780006,76.219971,234.719986
335.280029,73.780006,76.219971,234.719986
339.280029,73.780006,76.219971,234.719986
339.280029,73.780006,76.219971,234.719986
339.280029,77.780006,76.219971,234.719986
339.280029,77.780006,76.219971,234.719986
339.280029,77.780006,76.219971,234.719986
339.280029,77.780006,76.219971,234.719986
339.280029,81.780006,76.219971,234.719986
339.280029,81.780006,76.219971,234.719986
335.280029,81.780006,76.219971,234.719986
331.280029,81.780006,76.219971,234.719986
331.280029,81.780006,76.219971,234.719986
327.280029,81.780006,76.219971,234.719986
323.280029,77.780006,76.219971,234.719986
323.280029,77.780006,76.219971,234.719986
319.280029,77.780006,76.219971,234.719986
315.280029,73.780006,76.219971,234.719986
315.280029,73.780006,76.219971,234.719986
315.280029,73.780006,76.219971,234.719986
311.280029,69.780006,76.219971,234.719986
311.280029,69.780006,76.219971,234.719986
311.280029,65.780006,76.219971,234.719986
307.280029,65.780006,76.219971,234.719986
307.280029,65.780006,76.219971,234.719986
303.280029,65.780006,76.219971,234.719986
295.280029,65.780006,76.219971,234.719986
295.280029,65.780006,76.219971,234.719986
291.280029,65.780006,76.219971,234.719986
287.280029,69.780006,76.219971,234.719986
287.280029,69.780006,76.219971,234.719986
287.280029,69.780006,76.219971,234.719986
279.280029,69.780006,76.219971,234.719986
279.280029,69.780006,76.219971,234.719986
275.280029,73.780006,76.219971,234.719986
275.280029,73.780006,76.219971,234.719986
275.280029,73.780006,76.219971,234.719986
275.280029,73.780006,76.219971,234.719986
271.280029,69.780006,76.219971,234.719986
271.280029,69.780006,76.219971,234.719986
267.280029,69.780006,76.219971,234.719986
263.280029,65.780006,76.219971,234.719986
263.280029,65.780006,76.219971,234.719986
263.280029,61.780006,76.219971,234.719986
263.280029,57.780006,76.219971,234.719986
263.280029,57.780006,76.219971,234.719986
263.280029,53.780006,76.219971,234.719986
267.280029,53.780006,76.219971,234.719986
267.280029,53.780006,76.219971,234.719986
271.280029,53.780006,76.219971,234.719986
279.280029,57.780006,76.219971,234.719986
279.280029,57.780006,76.219971,234.719986
283.280029,57.780006,76.219971,234.719986
279.280029,65.780006,76.219971,234.719986
279.280029,65.780006,76.219971,234.719986
279.280029,65.780006,76.219971,234.719986
279.280029,69.780006,76.219971,234.719986
279.280029,73.780006,76.219971,234.719986
279.280029,73.780006,76.219971,234.719986
279.280029,73.780006,76.219971,234.719986
279.280029,73.780006,76.219971,234.719986
279.280029,73.780006,76.219971,234.719986
275.280029,73.780006,76.219971,234.719986
275.280029,73.780006,76.219971,234.719986
271.280029,73.780006,76.219971,234.719986
267.280029,73.780006,76.219971,234.719986
267.280029,73.780006,76.219971,234.719986
263.280029,73.780006,76.219971,234.719986
263.280029,73.780006,76.219971,234.719986
263.280029,73.780006,76.219971,234.719986
263.280029,73.780006,76.219971,234.719986
263.280029,73.780006,76.219971,234.719986
263.280029,73.780006,76.219971,234.719986
263.280029,73.780006,76.219971,234.719986
267.280029,73.780006,76.219971,234.719986
271.280029,73.780006,76.219971,234.719986
271.280029,73.780006,76.219971,234.719986
275.280029,73.780006,76.219971,234.719986
275.280029,73.780006,76.219971,234.719986
279.280029,73.780006,76.219971,234.719986
279.280029,77.780006,76.219971,234.719986
279.280029,77.780006,76.219971,234.719986
279.280029,77.780006,76.219971,234.719986
279.280029,77.780006,76.219971,234.719986
279.280029,77.780006,76.219971,234.719986
283.280029,77.780006,76.219971,234.719986
279.280029,77.780006,76.219971,234.719986
279.280029,77.780006,76.219971,234.719986
275.280029,77.780006,76.219971,234.719986
271.280029,77.780006,76.219971,234.719986
271.280029,77.780006,76.219971,234.719986
271.280029,77.780006,76.219971,234.719986
271.280029,77.780006,76.219971,234.719986
271.280029,77.780006,76.219971,234.719986
271.280029,77.780006,76.219971,234.719986
271.280029,77.780006,76.219971,234.719986
271.280029,77.780006,76.219971,234.719986
275.280029,77.780006,76.219971,234.719986
275.280029,73.780006,76.219971,234.719986
275.280029,73.780006,76.219971,234.719986
279.280029,73.780006,76.219971,234.719986
283.280029,73.780006,76.219971,234.719986
283.280029,73.780006,76.219971,234.719986
283.280029,73.780006,76.219971,234.719986
287.280029,73.780006,76.219971,234.719986
287.280029,73.780006,76.219971,234.719986
287.280029,77.780006,76.219971,234.719986
287.280029,77.780006,76.219971,234.719986
287.280029,77.780006,76.219971,234.719986
287.280029,77.780006,76.219971,234.719986
291.280029,81.780006,76.219971,234.719986
291.280029,81.780006,76.219971,234.719986
291.280029,85.780006,76.219971,234.719986
287.280029,85.780006,76.219971,234.719986
287.280029,85.780006,76.219971,234.719986
283.280029,89.780006,76.219971,234.719986
279.280029,89.780006,76.219971,234.719986
279.280029,89.780006,76.219971,234.719986
275.280029,89.780006,76.219971,234.719986
275.280029,89.780006,76.219971,234.719986
275.280029,89.780006,76.219971,234.719986
271.280029,89.780006,76.219971,234.719986
271.280029,89.780006,76.219971,234.719986
267.280029,89.780006,76.219971,234.719986
267.280029,89.780006,76.219971,234.719986
267.280029,89.780006,76.219971,234.719986
267.280029,89.780006,76.219971,234.719986
267.280029,89.780006,76.219971,234.719986
267.280029,93.780006,76.219971,234.719986
267.280029,93.780006,76.219971,234.719986
267.280029,93.780006,76.219971,234.719986
263.280029,97.780006,76.219971,234.719986
263.280029,101.780006,76.219971,234.719986
263.280029,101.780006,76.219971,234.719986
263.280029,101.780006,76.219971,234.719986
263.280029,101.780006,76.219971,234.719986
263.280029,101.780006,76.219971,234.719986
263.280029,101.780006,76.219971,234.719986
263.280029,97.780006,76.219971,234.719986
263.280029,97.780006,76.219971,234.719986
259.280029,97.780006,76.219971,234.719986
259.280029,93.780006,76.219971,234.719986
259.280029,93.780006,76.219971,234.719986
255.280029,89.780006,76.219971,234.719986
259.280029,85.780006,76.219971,234.719986
259.280029,85.780006,76.219971,234.719986
263.280029,81.780006,76.219971,234.719986
267.280029,81.780006,76.219971,234.719986
267.280029,81.780006,76.219971,234.719986
271.280029,81.780006,76.219971,234.719986
275.280029,81.780006,76.219971,234.719986
275.280029,81.780006,76.219971,234.719986
271.280029,89.780006,76.219971,234.719986
275.280029,89.780006,76.219971,234.719986
275.280029,89.780006,76.219971,234.719986
279.280029,93.780006,76.219971,234.719986
279.280029,97.780006,76.219971,234.719986
279.280029,97.780006,76.219971,234.719986
283.280029,97.780006,76.219971,234.719986
291.280029,97.780006,76.219971,234.719986
291.280029,97.780006,76.219971,234.719986
295.280029,97.780006,76.219971,234.719986
299.280029,97.780006,76.219971,234.719986
299.280029,97.780006,76.219971,234.719986
303.280029,97.780006,76.219971,234.719986
311.280029,97.780006,76.219971,234.719986
311.280029,97.780006,76.219971,234.719986
311.280029,97.780006,76.219971,234.719986
303.280029,93.780006,76.219971,234.719986
303.280029,93.780006,76.219971,234.719986
303.280029,93.780006,76.219971,234.719986
311.280029,93.780006,76.219971,234.719986
311.280029,93.780006,76.219971,234.719986
311.280029,93.780006,76.219971,234.719986
315.280029,97.780006,76.219971,234.719986
315.280029,97.780006,76.219971,234.719986
315.280029,97.780006,76.219971,234.719986
315.280029,97.780006,76.219971,234.719986
315.280029,97.780006,76.219971,234.719986
311.280029,97.780006,76.219971,234.719986
307.280029,97.780006,76.219971,234.719986
307.280029,97.780006,76.219971,234.719986
307.280029,97.780006,76.219971,234.719986
307.280029,93.780006,76.219971,234.719986
307.280029,93.780006,76.219971,234.719986
307.280029,85.780006,76.219971,234.719986
307.280029,77.780006,76.219971,234.719986
307.280029,77.780006,76.219971,234.719986
307.280029,73.780006,76.219971,234.719986
307.280029,73.780006,76.219971,234.719986
307.280029,73.780006,76.219971,234.719986
303.280029,77.780006,76.219971,234.719986
307.280029,77.780006,76.219971,234.719986
307.280029,81.780006,76.219971,234.719986
307.280029,81.780006,76.219971,234.719986
319.280029,73.780006,76.219971,234.719986
323.280029,73.780006,76.219971,234.719986
327.280029,73.780006,76.219971,234.719986
331.280029,69.780006,76.219971,234.719986
335.280029,69.780006,76.219971,234.719986
339.280029,61.780006,76.219971,234.719986
355.280029,61.780006,76.219971,234.719986
359.280029,61.780006,76.219971,234.719986
363.280029,61.780006,76.219971,234.719986
375.280029,65.780006,76.219971,234.719986
379.280029,65.780006,76.219971,234.719986
383.280029,69.780006,76.219971,234.719986
391.280029,69.780006,76.219971,234.719986
395.280029,65.780006,76.219971,234.719986
407.280029,65.780006,76.219971,234.719986
411.280029,65.780006,76.219971,234.719986
415.280029,65.780006,76.219971,234.719986
415.280029,73.780006,76.219971,234.719986
415.280029,73.780006,76.219971,234.719986
419.280029,77.780006,76.219971,234.719986
419.280029,81.780006,76.219971,234.719986
419.280029,81.780006,76.219971,234.719986
411.280029,81.780006,76.219971,234.719986
399.280029,81.780006,76.219971,234.719986
395.280029,81.780006,76.219971,234.719986
395.280029,85.780006,76.219971,234.719986
391.280029,85.780006,76.219971,234.719986
391.280029,85.780006,76.219971,234.719986
391.280029,85.780006,76.219971,234.719986
387.280029,81.780006,76.219971,234.719986
387.280029,77.780006,76.219971,234.719986
387.280029,77.780006,76.219971,234.719986
387.280029,73.780006,76.219971,234.719986
387.280029,73.780006,76.219971,234.719986
387.280029,73.780006,76.219971,234.719986
383.280029,69.780006,76.219971,234.719986
383.280029,69.780006,76.219971,234.719986
383.280029,69.780006,76.219971,234.719986
383.280029,73.780006,76.219971,234.719986
383.280029,73.780006,76.219971,234.719986
383.280029,73.780006,76.219971,234.719986
383.280029,73.780006,76.219971,234.719986
383.280029,73.780006,76.219971,234.719986
383.280029,77.780006,76.219971,234.719986
379.280029,77.780006,76.219971,234.719986
379.280029,77.780006,76.219971,234.719986
375.280029,77.780006,76.219971,234.719986
375.280029,73.780006,76.219971,234.719986
375.280029,73.780006,76.219971,234.719986
375.280029,73.780006,76.219971,234.719986
375.280029,73.780006,76.219971,234.719986
375.280029,73.780006,76.219971,234.719986
375.280029,77.780006,76.219971,234.719986
375.280029,81.780006,76.219971,234.719986
375.280029,81.780006,76.219971,234.719986
375.280029,81.780006,76.219971,234.719986
371.280029,81.780006,76.219971,234.719986
371.280029,81.780006,76.219971,234.719986
371.280029,85.780006,76.219971,234.719986
367.280029,85.780006,76.219971,234.719986
367.280029,85.780006,76.219971,234.719986
363.280029,85.780006,76.219971,234.719986
363.280029,81.780006,76.219971,234.719986
363.280029,81.780006,76.219971,234.719986
363.280029,81.780006,76.219971,234.719986
359.280029,81.780006,76.219971,234.719986
359.280029,81.780006,76.219971,234.719986
359.280029,81.780006,76.219971,234.719986
359.280029,81.780006,76.219971,234.719986
359.280029,81.780006,76.219971,234.719986
355.280029,81.780006,76.219971,234.719986
355.280029,81.780006,76.219971,234.719986
355.280029,81.780006,76.219971,234.719986
351.280029,81.780006,76.219971,234.719986
347.280029,85.780006,76.219971,234.719986
347.280029,85.780006,76.219971,234.719986
347.280029,85.780006,76.219971,234.719986
339.280029,89.780006,76.219971,234.719986
339.280029,89.780006,76.219971,234.719986
339.280029,89.780006,76.219971,234.719986
335.280029,89.780006,76.219971,234.719986
331.280029,89.780006,76.219971,234.719986
331.280029,89.780006,76.219971,234.719986
327.280029,89.780006,76.219971,234.719986
327.280029,89.780006,76.219971,234.719986
323.280029,89.780006,76.219971,234.719986
315.280029,89.780006,76.219971,234.719986
315.280029,89.780006,76.219971,234.719986
311.280029,89.780006,76.219971,234.719986
303.280029,93.780006,76.219971,234.719986
303.280029,93.780006,76.219971,234.719986
299.280029,93.780006,76.219971,234.719986
295.280029,93.780006,76.219971,234.719986
295.280029,93.780006,76.219971,234.719986
291.280029,93.780006,76.219971,234.719986
291.280029,93.780006,76.219971,234.719986
291.280029,93.780006,76.219971,234.719986
291.280029,89.780006,76.219971,234.719986
295.280029,85.780006,76.219971,234.719986
295.280029,85.780006,76.219971,234.719986
295.280029,85.780006,76.219971,234.719986
299.280029,81.780006,76.219971,234.719986
299.280029,81.780006,76.219971,234.719986
303.280029,81.780006,76.219971,234.719986
303.280029,85.780006,76.219971,234.719986
303.280029,85.780006,76.219971,234.719986
303.280029,85.780006,76.219971,234.719986
303.280029,89.780006,76.219971,234.719986
303.280029,89.780006,76.219971,234.719986
303.280029,93.780006,76.219971,234.719986
307.280029,97.780006,76.219971,234.719986
307.280029,97.780006,76.219971,234.719986
307.280029,97.780006,76.219971,234.719986
311.280029,97.780006,76.219971,234.719986
311.280029,97.780006,76.219971,234.719986
