1.4961,1.4032,1.4819,0,0,0,0,0,0,0,0,0,0,0,0
1.4961,1.4032,1.4819,0,0,0,0,0,0,0,0,0,0,0,0
1.4961,1.4032,1.4819,0,0,0,0,0,0,0,0,0,0,0,0
1.4961,1.4032,1.4819,0,0,0,0,0,0,0,0,0,0,0,0
1.4961,1.4032,1.4819,0,0,0,0,0,0,0,0,0,0,0,0
1.4961,1.4032,1.4819,0,0,0,0,0,0,0,0,0,0,0,0
1.4961,1.4032,1.4819,0,0,0,0,0,0,0,0,0,0,0,0
1.4961,1.4032,1.4819,0,0,0,0,0,0,0,0,0,0,0,0
1.4961,1.4032,1.4819,0,0,0,0,0,0,0,0,0,0,0,0
1.4961,1.4032,1.4819,0,0,0,0,0,0,0,0,0,0,0,0
1.4961,1.4032,1.4819,0,0,0,0,0,0,0,0,0,0,0,0
1.4961,1.4032,1.4819,0,0,0,0,0,0,0,0,0,0,0,0
1.4961,1.4032,1.4819,0,0,0,0,0,0,0,0,0,0,0,0
1.4961,1.4032,1.4819,0,0,0,0,0,0,0,0,0,0,0,0
1.4961,1.4032,1.4819,0,0,0,0,0,0,0,0,0,0,0,0
1.4961,1.4032,1.4819,0,0,0,0,0,0,0,0,0,0,0,0
1.4961,1.4032,1.4819,0,0,0,0,0,0,0,0,0,0,0,0
1.4961,1.4032,1.4819,0,0,0,0,0,0,0,0,0,0,0,0
1.4961,1.4032,1.4819,0,0,0,0,0,0,0,0,0,0,0,0
1.4961,1.4032,1.4819,0,0,0,0,0,0,0,0,0,0,0,0
1.4961,1.4032,1.4819,0,0,0,0,0,0,0,0,0,0,0,0
1.4961,1.4032,1.4819,0,0,0,0,0,0,0,0,0,0,0,0
1.4961,1.4032,1.4819,0,0,0,0,0,0,0,0,0,0,0,0
1.4961,1.4032,1.4819,0,0,0,0,0,0,0,0,0,0,0,0
1.4961,1.4032,1.4819,0,0,0,0,0,0,0,0,0,0,0,0
1.4961,1.4032,1.4819,0,0,0,0,0,0,0,0,0,0,0,0
1.4961,1.4032,1.4819,0,0,0,0,0,0,0,0,0,0,0,0
1.4961,1.4032,1.4819,0,0,0,0,0,0,0,0,0,0,0,0
1.4961,1.4032,1.4819,0,0,0,0,0,0,0,0,0,0,0,0
1.4961,1.4032,1.4819,0,0,0,0,0,0,0,0,0,0,0,0
1.4961,1.4032,1.4819,0,0,0,0,0,0,0,0,0,0,0,0
1.4961,1.4032,1.4819,0,0,0,0,0,0,0,0,0,0,0,0
1.4961,1.4032,1.4819,0,0,0,0,0,0,0,0,0,0,0,0
1.4961,1.4032,1.4819,0,0,0,0,0,0,0,0,0,0,0,0
1.4961,1.4032,1.4819,0,0,0,0,0,0,0,0,0,0,0,0
1.4961,1.4032,1.4819,0,0,0,0,0,0,0,0,0,0,0,0
1.4961,1.4032,1.4819,0,0,0,0,0,0,0,0,0,0,0,0
1.4961,1.4032,1.4819,0,0,0,0,0,0,0,0,0,0,0,0
1.4961,1.4032,1.4819,0,0,0,0,0,0,0,0,0,0,0,0
1.4961,1.4032,1.4819,0,0,0,0,0,0,0,0,0,0,0,0
1.4961,1.4032,1.4819,0,0,0,0,0,0,0,0,0,0,0,0
1.4961,1.4032,1.4819,0,0,0,0,0,0,0,0,0,0,0,0
1.4961,1.4032,1.4819,0,0,0,0,0,0,0,0,0,0,0,0
1.4961,1.4032,1.4819,0,0,0,0,0,0,0,0,0,0,0,0
1.4961,1.4032,1.4819,0,0,0,0,0,0,0,0,0,0,0,0
1.4961,1.4032,1.4819,0,0,0,0,0,0,0,0,0,0,0,0
1.4961,1.4032,1.4819,0,0,0,0,0,0,0,0,0,0,0,0
1.4961,1.4032,1.4819,0,0,0,0,0,0,0,0,0,0,0,0
1.4961,1.4032,1.4819,0,0,0,0,0,0,0,0,0,0,0,0
1.4961,1.4032,1.4819,0,0,0,0,0,0,0,0,0,0,0,0
1.4961,1.4032,1.4819,0,0,0,0,0,0,0,0,0,0,0,0
1.4961,1.4032,1.4819,0,0,0,0,0,0,0,0,0,0,0,0
1.4961,1.4032,1.4819,0,0,0,0,0,0,0,0,0,0,0,0
1.4961,1.4032,1.4819,0,0,0,0,0,0,0,0,0,0,0,0
1.4961,1.4032,1.4819,0,0,0,0,0,0,0,0,0,0,0,0
1.4961,1.4032,1.4819,0,0,0,0,0,0,0,0,0,0,0,0
1.4961,1.4032,1.4819,0,0,0,0,0,0,0,0,0,0,0,0
1.4961,1.4032,1.4819,0,0,0,0,0,0,0,0,0,0,0,0
1.4961,1.4032,1.4819,0,0,0,0,0,0,0,0,0,0,0,0
1.4961,1.4032,1.4819,0,0,0,0,0,0,0,0,0,0,0,0
1.4961,1.4032,1.4819,0,0,0,0,0,0,0,0,0,0,0,0
1.4961,1.4032,1.4819,0,0,0,0,0,0,0,0,0,0,0,0
1.4961,1.4032,1.4819,0,0,0,0,0,0,0,0,0,0,0,0
1.4961,1.4032,1.4819,0,0,0,0,0,0,0,0,0,0,0,0
1.4961,1.4032,1.4819,0,0,0,0,0,0,0,0,0,0,0,0
1.4961,1.4032,1.4819,0,0,0,0,0,0,0,0,0,0,0,0
1.4961,1.4032,1.4819,0,0,0,0,0,0,0,0,0,0,0,0
1.4961,1.4032,1.4819,0,0,0,0,0,0,0,0,0,0,0,0
1.4961,1.4032,1.4819,0,0,0,0,0,0,0,0,0,0,0,0
1.4961,1.4032,1.4819,0,0,0,0,0,0,0,0,0,0,0,0
1.4961,1.4032,1.4819,0,0,0,0,0,0,0,0,0,0,0,0
1.4961,1.4032,1.4819,0,0,0,0,0,0,0,0,0,0,0,0
1.4961,1.4032,1.4819,0,0,0,0,0,0,0,0,0,0,0,0
1.4961,1.4032,1.4819,0,0,0,0,0,0,0,0,0,0,0,0
1.4961,1.4032,1.4819,0,0,0,0,0,0,0,0,0,0,0,0
1.4961,1.4032,1.4819,0,0,0,0,0,0,0,0,0,0,0,0
1.4961,1.4032,1.4819,0,0,0,0,0,0,0,0,0,0,0,0
1.4961,1.4032,1.4819,0,0,0,0,0,0,0,0,0,0,0,0
1.4961,1.4032,1.4819,0,0,0,0,0,0,0,0,0,0,0,0
1.4961,1.4032,1.4819,0,0,0,0,0,0,0,0,0,0,0,0
1.4961,1.4032,1.4819,0,0,0,0,0,0,0,0,0,0,0,0
1.4961,1.4032,1.4819,0,0,0,0,0,0,0,0,0,0,0,0
1.4961,1.4032,1.4819,0,0,0,0,0,0,0,0,0,0,0,0
1.4961,1.4032,1.4819,0,0,0,0,0,0,0,0,0,0,0,0
1.4961,1.4032,1.4819,0,0,0,0,0,0,0,0,0,0,0,0
1.4961,1.4032,1.4819,0,0,0,0,0,0,0,0,0,0,0,0
1.4961,1.4032,1.4819,0,0,0,0,0,0,0,0,0,0,0,0
1.4961,1.4032,1.4819,0,0,0,0,0,0,0,0,0,0,0,0
1.4961,1.4032,1.4819,0,0,0,0,0,0,0,0,0,0,0,0
1.4961,1.4032,1.4819,0,0,0,0,0,0,0,0,0,0,0,0
1.4961,1.4032,1.4819,0,0,0,0,0,0,0,0,0,0,0,0
1.4961,1.4032,1.4819,0,0,0,0,0,0,0,0,0,0,0,0
1.4961,1.4032,1.4819,0,0,0,0,0,0,0,0,0,0,0,0
1.4961,1.4032,1.4819,0,0,0,0,0,0,0,0,0,0,0,0
1.4961,1.4032,1.4819,0,0,0,0,0,0,0,0,0,0,0,0
1.4961,1.4032,1.4819,0,0,0,0,0,0,0,0,0,0,0,0
1.4961,1.4032,1.4819,0,0,0,0,0,0,0,0,0,0,0,0
1.4961,1.4032,1.4819,0,0,0,0,0,0,0,0,0,0,0,0
1.4961,1.4032,1.4819,0,0,0,0,0,0,0,0,0,0,0,0
1.4961,1.4032,1.4819,0,0,0,0,0,0,0,0,0,0,0,0
1.4961,1.4032,1.4819,0,0,0,0,0,0,0,0,0,0,0,0
1.4961,1.4032,1.4819,0,0,0,0,0,0,0,0,0,0,0,0
1.4961,1.4032,1.4819,0,0,0,0,0,0,0,0,0,0,0,0
1.4961,1.4032,1.4819,0,0,0,0,0,0,0,0,0,0,0,0
1.4961,1.4032,1.4819,0,0,0,0,0,0,0,0,0,0,0,0
1.4961,1.4032,1.4819,0,0,0,0,0,0,0,0,0,0,0,0
1.4961,1.4032,1.4819,0,0,0,0,0,0,0,0,0,0,0,0
1.4961,1.4032,1.4819,0,0,0,0,0,0,0,0,0,0,0,0
1.4961,1.4032,1.4819,0,0,0,0,0,0,0,0,0,0,0,0
1.4961,1.4032,1.4819,0,0,0,0,0,0,0,0,0,0,0,0
1.4961,1.4032,1.4819,0,0,0,0,0,0,0,0,0,0,0,0
1.4961,1.4032,1.4819,0,0,0,0,0,0,0,0,0,0,0,0
1.4961,1.4032,1.4819,0,0,0,0,0,0,0,0,0,0,0,0
1.4961,1.4032,1.4819,0,0,0,0,0,0,0,0,0,0,0,0
1.4961,1.4032,1.4819,0,0,0,0,0,0,0,0,0,0,0,0
1.4961,1.4032,1.4819,0,0,0,0,0,0,0,0,0,0,0,0
1.4961,1.4032,1.4819,0,0,0,0,0,0,0,0,0,0,0,0
1.4961,1.4032,1.4819,0,0,0,0,0,0,0,0,0,0,0,0
1.4961,1.4032,1.4819,0,0,0,0,0,0,0,0,0,0,0,0
1.4961,1.4032,1.4819,0,0,0,0,0,0,0,0,0,0,0,0
1.4961,1.4032,1.4819,0,0,0,0,0,0,0,0,0,0,0,0
1.4961,1.4032,1.4819,0,0,0,0,0,0,0,0,0,0,0,0
1.4961,1.4032,1.4819,0,0,0,0,0,0,0,0,0,0,0,0
1.4961,1.4032,1.4819,0,0,0,0,0,0,0,0,0,0,0,0
1.4961,1.4032,1.4819,0,0,0,0,0,0,0,0,0,0,0,0
1.4961,1.4032,1.4819,0,0,0,0,0,0,0,0,0,0,0,0
1.4961,1.4032,1.4819,0,0,0,0,0,0,0,0,0,0,0,0
1.4961,1.4032,1.4819,0,0,0,0,0,0,0,0,0,0,0,0
1.4961,1.4032,1.4819,0,0,0,0,0,0,0,0,0,0,0,0
1.4961,1.4032,1.4819,0,0,0,0,0,0,0,0,0,0,0,0
1.4961,1.4032,1.4819,0,0,0,0,0,0,0,0,0,0,0,0
1.4961,1.4032,1.4819,0,0,0,0,0,0,0,0,0,0,0,0
1.4961,1.4032,1.4819,0,0,0,0,0,0,0,0,0,0,0,0
1.4961,1.4032,1.4819,0,0,0,0,0,0,0,0,0,0,0,0
1.4961,1.4032,1.4819,0,0,0,0,0,0,0,0,0,0,0,0
1.4961,1.4032,1.4819,0,0,0,0,0,0,0,0,0,0,0,0
1.4961,1.4032,1.4819,0,0,0,0,0,0,0,0,0,0,0,0
1.4961,1.4032,1.4819,0,0,0,0,0,0,0,0,0,0,0,0
1.4961,1.4032,1.4819,0,0,0,0,0,0,0,0,0,0,0,0
1.4961,1.4032,1.4819,0,0,0,0,0,0,0,0,0,0,0,0
1.4961,1.4032,1.4819,0,0,0,0,0,0,0,0,0,0,0,0
1.4961,1.4032,1.4819,0,0,0,0,0,0,0,0,0,0,0,0
1.4961,1.4032,1.4819,0,0,0,0,0,0,0,0,0,0,0,0
1.4961,1.4032,1.4819,0,0,0,0,0,0,0,0,0,0,0,0
1.4961,1.4032,1.4819,0,0,0,0,0,0,0,0,0,0,0,0
1.4961,1.4032,1.4819,0,0,0,0,0,0,0,0,0,0,0,0
1.4961,1.4032,1.4819,0,0,0,0,0,0,0,0,0,0,0,0
1.4961,1.4032,1.4819,0,0,0,0,0,0,0,0,0,0,0,0
1.4961,1.4032,1.4819,0,0,0,0,0,0,0,0,0,0,0,0
1.4961,1.4032,1.4819,0,0,0,0,0,0,0,0,0,0,0,0
1.4961,1.4032,1.4819,0,0,0,0,0,0,0,0,0,0,0,0
1.4961,1.4032,1.4819,0,0,0,0,0,0,0,0,0,0,0,0
1.4961,1.4032,1.4819,0,0,0,0,0,0,0,0,0,0,0,0
1.4961,1.4032,1.4819,0,0,0,0,0,0,0,0,0,0,0,0
1.4961,1.4032,1.4819,0,0,0,0,0,0,0,0,0,0,0,0
1.4961,1.4032,1.4819,0,0,0,0,0,0,0,0,0,0,0,0
1.4961,1.4032,1.4819,0,0,0,0,0,0,0,0,0,0,0,0
1.4961,1.4032,1.4819,0,0,0,0,0,0,0,0,0,0,0,0
1.4961,1.4032,1.4819,0,0,0,0,0,0,0,0,0,0,0,0
1.4961,1.4032,1.4819,0,0,0,0,0,0,0,0,0,0,0,0
1.4961,1.4032,1.4819,0,0,0,0,0,0,0,0,0,0,0,0
1.4961,1.4032,1.4819,0,0,0,0,0,0,0,0,0,0,0,0
1.4961,1.4032,1.4819,0,0,0,0,0,0,0,0,0,0,0,0
1.4961,1.4032,1.4819,0,0,0,0,0,0,0,0,0,0,0,0
1.4961,1.4032,1.4819,0,0,0,0,0,0,0,0,0,0,0,0
1.4961,1.4032,1.4819,0,0,0,0,0,0,0,0,0,0,0,0
1.4961,1.4032,1.4819,0,0,0,0,0,0,0,0,0,0,0,0
1.4961,1.4032,1.4819,0,0,0,0,0,0,0,0,0,0,0,0
1.4961,1.4032,1.4819,0,0,0,0,0,0,0,0,0,0,0,0
1.4961,1.4032,1.4819,0,0,0,0,0,0,0,0,0,0,0,0
1.4961,1.4032,1.4819,0,0,0,0,0,0,0,0,0,0,0,0
1.4961,1.4032,1.4819,0,0,0,0,0,0,0,0,0,0,0,0
1.4961,1.4032,1.4819,0,0,0,0,0,0,0,0,0,0,0,0
1.4961,1.4032,1.4819,0,0,0,0,0,0,0,0,0,0,0,0
1.4961,1.4032,1.4819,0,0,0,0,0,0,0,0,0,0,0,0
1.4961,1.4032,1.4819,0,0,0,0,0,0,0,0,0,0,0,0
1.4961,1.4032,1.4819,0,0,0,0,0,0,0,0,0,0,0,0
1.4961,1.4032,1.4819,0,0,0,0,0,0,0,0,0,0,0,0
1.4961,1.4032,1.4819,0,0,0,0,0,0,0,0,0,0,0,0
1.4961,1.4032,1.4819,0,0,0,0,0,0,0,0,0,0,0,0
1.4961,1.4032,1.4819,0,0,0,0,0,0,0,0,0,0,0,0
1.4961,1.4032,1.4819,0,0,0,0,0,0,0,0,0,0,0,0
1.4961,1.4032,1.4819,0,0,0,0,0,0,0,0,0,0,0,0
1.4961,1.4032,1.4819,0,0,0,0,0,0,0,0,0,0,0,0
1.4961,1.4032,1.4819,0,0,0,0,0,0,0,0,0,0,0,0
1.4961,1.4032,1.4819,0,0,0,0,0,0,0,0,0,0,0,0
1.4961,1.4032,1.4819,0,0,0,0,0,0,0,0,0,0,0,0
1.4961,1.4032,1.4819,0,0,0,0,0,0,0,0,0,0,0,0
1.4961,1.4032,1.4819,0,0,0,0,0,0,0,0,0,0,0,0
1.4961,1.4032,1.4819,0,0,0,0,0,0,0,0,0,0,0,0
1.4961,1.4032,1.4819,0,0,0,0,0,0,0,0,0,0,0,0
1.4961,1.4032,1.4819,0,0,0,0,0,0,0,0,0,0,0,0
1.4961,1.4032,1.4819,0,0,0,0,0,0,0,0,0,0,0,0
1.4961,1.4032,1.4819,0,0,0,0,0,0,0,0,0,0,0,0
1.4961,1.4032,1.4819,0,0,0,0,0,0,0,0,0,0,0,0
1.4961,1.4032,1.4819,0,0,0,0,0,0,0,0,0,0,0,0
1.4961,1.4032,1.4819,0,0,0,0,0,0,0,0,0,0,0,0
1.4961,1.4032,1.4819,0,0,0,0,0,0,0,0,0,0,0,0
1.4961,1.4032,1.4819,0,0,0,0,0,0,0,0,0,0,0,0
1.4961,1.4032,1.4819,0,0,0,0,0,0,0,0,0,0,0,0
1.4961,1.4032,1.4819,0,0,0,0,0,0,0,0,0,0,0,0
1.4961,1.4032,1.4819,0,0,0,0,0,0,0,0,0,0,0,0
1.4961,1.4032,1.4819,0,0,0,0,0,0,0,0,0,0,0,0
1.4961,1.4032,1.4819,0,0,0,0,0,0,0,0,0,0,0,0
1.4961,1.4032,1.4819,0,0,0,0,0,0,0,0,0,0,0,0
1.4961,1.4032,1.4819,0,0,0,0,0,0,0,0,0,0,0,0
1.4961,1.4032,1.4819,0,0,0,0,0,0,0,0,0,0,0,0
1.4961,1.4032,1.4819,0,0,0,0,0,0,0,0,0,0,0,0
1.4961,1.4032,1.4819,0,0,0,0,0,0,0,0,0,0,0,0
1.4961,1.4032,1.4819,0,0,0,0,0,0,0,0,0,0,0,0
1.4961,1.4032,1.4819,0,0,0,0,0,0,0,0,0,0,0,0
1.4961,1.4032,1.4819,0,0,0,0,0,0,0,0,0,0,0,0
1.4961,1.4032,1.4819,0,0,0,0,0,0,0,0,0,0,0,0
1.4961,1.4032,1.4819,0,0,0,0,0,0,0,0,0,0,0,0
1.4961,1.4032,1.4819,0,0,0,0,0,0,0,0,0,0,0,0
1.4961,1.4032,1.4819,0,0,0,0,0,0,0,0,0,0,0,0
1.4961,1.4032,1.4819,0,0,0,0,0,0,0,0,0,0,0,0
1.4961,1.4032,1.4819,0,0,0,0,0,0,0,0,0,0,0,0
1.4961,1.4032,1.4819,0,0,0,0,0,0,0,0,0,0,0,0
1.4961,1.4032,1.4819,0,0,0,0,0,0,0,0,0,0,0,0
1.4961,1.4032,1.4819,0,0,0,0,0,0,0,0,0,0,0,0
1.4961,1.4032,1.4819,0,0,0,0,0,0,0,0,0,0,0,0
1.4961,1.4032,1.4819,0,0,0,0,0,0,0,0,0,0,0,0
1.4961,1.4032,1.4819,0,0,0,0,0,0,0,0,0,0,0,0
1.4961,1.4032,1.4819,0,0,0,0,0,0,0,0,0,0,0,0
1.4961,1.4032,1.4819,0,0,0,0,0,0,0,0,0,0,0,0
1.4961,1.4032,1.4819,0,0,0,0,0,0,0,0,0,0,0,0
1.4961,1.4032,1.4819,0,0,0,0,0,0,0,0,0,0,0,0
1.4961,1.4032,1.4819,0,0,0,0,0,0,0,0,0,0,0,0
1.4961,1.4032,1.4819,0,0,0,0,0,0,0,0,0,0,0,0
1.4961,1.4032,1.4819,0,0,0,0,0,0,0,0,0,0,0,0
1.4961,1.4032,1.4819,0,0,0,0,0,0,0,0,0,0,0,0
1.4961,1.4032,1.4819,0,0,0,0,0,0,0,0,0,0,0,0
1.4961,1.4032,1.4819,0,0,0,0,0,0,0,0,0,0,0,0
1.4961,1.4032,1.4819,0,0,0,0,0,0,0,0,0,0,0,0
1.4961,1.4032,1.4819,0,0,0,0,0,0,0,0,0,0,0,0
1.4961,1.4032,1.4819,0,0,0,0,0,0,0,0,0,0,0,0
1.4961,1.4032,1.4819,0,0,0,0,0,0,0,0,0,0,0,0
1.4961,1.4032,1.4819,0,0,0,0,0,0,0,0,0,0,0,0
1.4961,1.4032,1.4819,0,0,0,0,0,0,0,0,0,0,0,0
1.4961,1.4032,1.4819,0,0,0,0,0,0,0,0,0,0,0,0
1.4961,1.4032,1.4819,0,0,0,0,0,0,0,0,0,0,0,0
1.4961,1.4032,1.4819,0,0,0,0,0,0,0,0,0,0,0,0
1.4961,1.4032,1.4819,0,0,0,0,0,0,0,0,0,0,0,0
1.4961,1.4032,1.4819,0,0,0,0,0,0,0,0,0,0,0,0
1.4961,1.4032,1.4819,0,0,0,0,0,0,0,0,0,0,0,0
1.4961,1.4032,1.4819,0,0,0,0,0,0,0,0,0,0,0,0
1.4961,1.4032,1.4819,0,0,0,0,0,0,0,0,0,0,0,0
1.4961,1.4032,1.4819,0,0,0,0,0,0,0,0,0,0,0,0
1.4961,1.4032,1.4819,0,0,0,0,0,0,0,0,0,0,0,0
1.4961,1.4032,1.4819,0,0,0,0,0,0,0,0,0,0,0,0
1.4961,1.4032,1.4819,0,0,0,0,0,0,0,0,0,0,0,0
1.4961,1.4032,1.4819,0,0,0,0,0,0,0,0,0,0,0,0
1.4961,1.4032,1.4819,0,0,0,0,0,0,0,0,0,0,0,0
1.4961,1.4032,1.4819,0,0,0,0,0,0,0,0,0,0,0,0
1.4961,1.4032,1.4819,0,0,0,0,0,0,0,0,0,0,0,0
1.4961,1.4032,1.4819,0,0,0,0,0,0,0,0,0,0,0,0
1.4961,1.4032,1.4819,0,0,0,0,0,0,0,0,0,0,0,0
1.4961,1.4032,1.4819,0,0,0,0,0,0,0,0,0,0,0,0
1.4961,1.4032,1.4819,0,0,0,0,0,0,0,0,0,0,0,0
1.4961,1.4032,1.4819,0,0,0,0,0,0,0,0,0,0,0,0
1.4961,1.4032,1.4819,0,0,0,0,0,0,0,0,0,0,0,0
1.4961,1.4032,1.4819,0,0,0,0,0,0,0,0,0,0,0,0
1.4961,1.4032,1.4819,0,0,0,0,0,0,0,0,0,0,0,0
1.4961,1.4032,1.4819,0,0,0,0,0,0,0,0,0,0,0,0
1.4961,1.4032,1.4819,0,0,0,0,0,0,0,0,0,0,0,0
1.4961,1.4032,1.4819,0,0,0,0,0,0,0,0,0,0,0,0
1.4961,1.4032,1.4819,0,0,0,0,0,0,0,0,0,0,0,0
1.4961,1.4032,1.4819,0,0,0,0,0,0,0,0,0,0,0,0
1.4961,1.4032,1.4819,0,0,0,0,0,0,0,0,0,0,0,0
1.4961,1.4032,1.4819,0,0,0,0,0,0,0,0,0,0,0,0
1.4961,1.4032,1.4819,0,0,0,0,0,0,0,0,0,0,0,0
1.4961,1.4032,1.4819,0,0,0,0,0,0,0,0,0,0,0,0
1.4961,1.4032,1.4819,0,0,0,0,0,0,0,0,0,0,0,0
1.4961,1.4032,1.4819,0,0,0,0,0,0,0,0,0,0,0,0
1.4961,1.4032,1.4819,0,0,0,0,0,0,0,0,0,0,0,0
1.4961,1.4032,1.4819,0,0,0,0,0,0,0,0,0,0,0,0
1.4961,1.4032,1.4819,0,0,0,0,0,0,0,0,0,0,0,0
1.4961,1.4032,1.4819,0,0,0,0,0,0,0,0,0,0,0,0
1.4961,1.4032,1.4819,0,0,0,0,0,0,0,0,0,0,0,0
1.4961,1.4032,1.4819,0,0,0,0,0,0,0,0,0,0,0,0
1.4961,1.4032,1.4819,0,0,0,0,0,0,0,0,0,0,0,0
1.4961,1.4032,1.4819,0,0,0,0,0,0,0,0,0,0,0,0
1.4961,1.4032,1.4819,0,0,0,0,0,0,0,0,0,0,0,0
1.4961,1.4032,1.4819,0,0,0,0,0,0,0,0,0,0,0,0
1.4961,1.4032,1.4819,0,0,0,0,0,0,0,0,0,0,0,0
1.4961,1.4032,1.4819,0,0,0,0,0,0,0,0,0,0,0,0
1.4961,1.4032,1.4819,0,0,0,0,0,0,0,0,0,0,0,0
1.4961,1.4032,1.4819,0,0,0,0,0,0,0,0,0,0,0,0
1.4961,1.4032,1.4819,0,0,0,0,0,0,0,0,0,0,0,0
1.4961,1.4032,1.4819,0,0,0,0,0,0,0,0,0,0,0,0
1.4961,1.4032,1.4819,0,0,0,0,0,0,0,0,0,0,0,0
1.4961,1.4032,1.4819,0,0,0,0,0,0,0,0,0,0,0,0
1.4961,1.4032,1.4819,0,0,0,0,0,0,0,0,0,0,0,0
1.4961,1.4032,1.4819,0,0,0,0,0,0,0,0,0,0,0,0
1.4961,1.4032,1.4819,0,0,0,0,0,0,0,0,0,0,0,0
1.4961,1.4032,1.4819,0,0,0,0,0,0,0,0,0,0,0,0
1.4961,1.4032,1.4819,0,0,0,0,0,0,0,0,0,0,0,0
1.4961,1.4032,1.4819,0,0,0,0,0,0,0,0,0,0,0,0
1.4961,1.4032,1.4819,0,0,0,0,0,0,0,0,0,0,0,0
1.4961,1.4032,1.4819,0,0,0,0,0,0,0,0,0,0,0,0
1.4961,1.4032,1.4819,0,0,0,0,0,0,0,0,0,0,0,0
1.4961,1.4032,1.4819,0,0,0,0,0,0,0,0,0,0,0,0
1.4961,1.4032,1.4819,0,0,0,0,0,0,0,0,0,0,0,0
1.4961,1.4032,1.4819,0,0,0,0,0,0,0,0,0,0,0,0
1.4961,1.4032,1.4819,0,0,0,0,0,0,0,0,0,0,0,0
1.4961,1.4032,1.4819,0,0,0,0,0,0,0,0,0,0,0,0
1.4961,1.4032,1.4819,0,0,0,0,0,0,0,0,0,0,0,0
1.4961,1.4032,1.4819,0,0,0,0,0,0,0,0,0,0,0,0
1.4961,1.4032,1.4819,0,0,0,0,0,0,0,0,0,0,0,0
1.4961,1.4032,1.4819,0,0,0,0,0,0,0,0,0,0,0,0
1.4961,1.4032,1.4819,0,0,0,0,0,0,0,0,0,0,0,0
1.4961,1.4032,1.4819,0,0,0,0,0,0,0,0,0,0,0,0
1.4961,1.4032,1.4819,0,0,0,0,0,0,0,0,0,0,0,0
1.4961,1.4032,1.4819,0,0,0,0,0,0,0,0,0,0,0,0
1.4961,1.4032,1.4819,0,0,0,0,0,0,0,0,0,0,0,0
1.4961,1.4032,1.4819,0,0,0,0,0,0,0,0,0,0,0,0
1.4961,1.4032,1.4819,0,0,0,0,0,0,0,0,0,0,0,0
1.4961,1.4032,1.4819,0,0,0,0,0,0,0,0,0,0,0,0
1.4961,1.4032,1.4819,0,0,0,0,0,0,0,0,0,0,0,0
1.4961,1.4032,1.4819,0,0,0,0,0,0,0,0,0,0,0,0
1.4961,1.4032,1.4819,0,0,0,0,0,0,0,0,0,0,0,0
1.4961,1.4032,1.4819,0,0,0,0,0,0,0,0,0,0,0,0
1.4961,1.4032,1.4819,0,0,0,0,0,0,0,0,0,0,0,0
1.4961,1.4032,1.4819,0,0,0,0,0,0,0,0,0,0,0,0
1.4961,1.4032,1.4819,0,0,0,0,0,0,0,0,0,0,0,0
1.4961,1.4032,1.4819,0,0,0,0,0,0,0,0,0,0,0,0
1.4961,1.4032,1.4819,0,0,0,0,0,0,0,0,0,0,0,0
1.4961,1.4032,1.4819,0,0,0,0,0,0,0,0,0,0,0,0
1.4961,1.4032,1.4819,0,0,0,0,0,0,0,0,0,0,0,0
1.4961,1.4032,1.4819,0,0,0,0,0,0,0,0,0,0,0,0
1.4961,1.4032,1.4819,0,0,0,0,0,0,0,0,0,0,0,0
1.4961,1.4032,1.4819,0,0,0,0,0,0,0,0,0,0,0,0
1.4961,1.4032,1.4819,0,0,0,0,0,0,0,0,0,0,0,0
1.4961,1.4032,1.4819,0,0,0,0,0,0,0,0,0,0,0,0
1.4961,1.4032,1.4819,0,0,0,0,0,0,0,0,0,0,0,0
1.4961,1.4032,1.4819,0,0,0,0,0,0,0,0,0,0,0,0
1.4961,1.4032,1.4819,0,0,0,0,0,0,0,0,0,0,0,0
1.4961,1.4032,1.4819,0,0,0,0,0,0,0,0,0,0,0,0
1.4961,1.4032,1.4819,0,0,0,0,0,0,0,0,0,0,0,0
1.4961,1.4032,1.4819,0,0,0,0,0,0,0,0,0,0,0,0
1.4961,1.4032,1.4819,0,0,0,0,0,0,0,0,0,0,0,0
1.4961,1.4032,1.4819,0,0,0,0,0,0,0,0,0,0,0,0
1.4961,1.4032,1.4819,0,0,0,0,0,0,0,0,0,0,0,0
1.4961,1.4032,1.4819,0,0,0,0,0,0,0,0,0,0,0,0
1.4961,1.4032,1.4819,0,0,0,0,0,0,0,0,0,0,0,0
1.4961,1.4032,1.4819,0,0,0,0,0,0,0,0,0,0,0,0
1.4961,1.4032,1.4819,0,0,0,0,0,0,0,0,0,0,0,0
1.4961,1.4032,1.4819,0,0,0,0,0,0,0,0,0,0,0,0
1.4961,1.4032,1.4819,0,0,0,0,0,0,0,0,0,0,0,0
1.4961,1.4032,1.4819,0,0,0,0,0,0,0,0,0,0,0,0
1.4961,1.4032,1.4819,0,0,0,0,0,0,0,0,0,0,0,0
1.4961,1.4032,1.4819,0,0,0,0,0,0,0,0,0,0,0,0
1.4961,1.4032,1.4819,0,0,0,0,0,0,0,0,0,0,0,0
1.4961,1.4032,1.4819,0,0,0,0,0,0,0,0,0,0,0,0
1.4961,1.4032,1.4819,0,0,0,0,0,0,0,0,0,0,0,0
1.4961,1.4032,1.4819,0,0,0,0,0,0,0,0,0,0,0,0
1.4961,1.4032,1.4819,0,0,0,0,0,0,0,0,0,0,0,0
1.4961,1.4032,1.4819,0,0,0,0,0,0,0,0,0,0,0,0
1.4961,1.4032,1.4819,0,0,0,0,0,0,0,0,0,0,0,0
1.4961,1.4032,1.4819,0,0,0,0,0,0,0,0,0,0,0,0
1.4961,1.4032,1.4819,0,0,0,0,0,0,0,0,0,0,0,0
1.4961,1.4032,1.4819,0,0,0,0,0,0,0,0,0,0,0,0
1.4961,1.4032,1.4819,0,0,0,0,0,0,0,0,0,0,0,0
1.4961,1.4032,1.4819,0,0,0,0,0,0,0,0,0,0,0,0
1.4961,1.4032,1.4819,0,0,0,0,0,0,0,0,0,0,0,0
1.4961,1.4032,1.4819,0,0,0,0,0,0,0,0,0,0,0,0
1.4961,1.4032,1.4819,0,0,0,0,0,0,0,0,0,0,0,0
1.4961,1.4032,1.4819,0,0,0,0,0,0,0,0,0,0,0,0
1.4961,1.4032,1.4819,0,0,0,0,0,0,0,0,0,0,0,0
1.4961,1.4032,1.4819,0,0,0,0,0,0,0,0,0,0,0,0
1.4961,1.4032,1.4819,0,0,0,0,0,0,0,0,0,0,0,0
1.4961,1.4032,1.4819,0,0,0,0,0,0,0,0,0,0,0,0
1.4961,1.4032,1.4819,0,0,0,0,0,0,0,0,0,0,0,0
1.4961,1.4032,1.4819,0,0,0,0,0,0,0,0,0,0,0,0
1.4961,1.4032,1.4819,0,0,0,0,0,0,0,0,0,0,0,0
1.4961,1.4032,1.4819,0,0,0,0,0,0,0,0,0,0,0,0
1.4961,1.4032,1.4819,0,0,0,0,0,0,0,0,0,0,0,0
1.4961,1.4032,1.4819,0,0,0,0,0,0,0,0,0,0,0,0
1.4961,1.4032,1.4819,0,0,0,0,0,0,0,0,0,0,0,0
1.4961,1.4032,1.4819,0,0,0,0,0,0,0,0,0,0,0,0
1.4961,1.4032,1.4819,0,0,0,0,0,0,0,0,0,0,0,0
1.4961,1.4032,1.4819,0,0,0,0,0,0,0,0,0,0,0,0
1.4961,1.4032,1.4819,0,0,0,0,0,0,0,0,0,0,0,0
1.4961,1.4032,1.4819,0,0,0,0,0,0,0,0,0,0,0,0
1.4961,1.4032,1.4819,0,0,0,0,0,0,0,0,0,0,0,0
1.4961,1.4032,1.4819,0,0,0,0,0,0,0,0,0,0,0,0
1.4961,1.4032,1.4819,0,0,0,0,0,0,0,0,0,0,0,0
1.4961,1.4032,1.4819,0,0,0,0,0,0,0,0,0,0,0,0
1.4961,1.4032,1.4819,0,0,0,0,0,0,0,0,0,0,0,0
1.4961,1.4032,1.4819,0,0,0,0,0,0,0,0,0,0,0,0
1.4961,1.4032,1.4819,0,0,0,0,0,0,0,0,0,0,0,0
1.4961,1.4032,1.4819,0,0,0,0,0,0,0,0,0,0,0,0
1.4961,1.4032,1.4819,0,0,0,0,0,0,0,0,0,0,0,0
1.4961,1.4032,1.4819,0,0,0,0,0,0,0,0,0,0,0,0
1.4961,1.4032,1.4819,0,0,0,0,0,0,0,0,0,0,0,0
1.4961,1.4032,1.4819,0,0,0,0,0,0,0,0,0,0,0,0
1.4961,1.4032,1.4819,0,0,0,0,0,0,0,0,0,0,0,0
1.4961,1.4032,1.4819,0,0,0,0,0,0,0,0,0,0,0,0
1.4961,1.4032,1.4819,0,0,0,0,0,0,0,0,0,0,0,0
1.4961,1.4032,1.4819,0,0,0,0,0,0,0,0,0,0,0,0
1.4961,1.4032,1.4819,0,0,0,0,0,0,0,0,0,0,0,0
1.4961,1.4032,1.4819,0,0,0,0,0,0,0,0,0,0,0,0
1.4961,1.4032,1.4819,0,0,0,0,0,0,0,0,0,0,0,0
1.4961,1.4032,1.4819,0,0,0,0,0,0,0,0,0,0,0,0
1.4961,1.4032,1.4819,0,0,0,0,0,0,0,0,0,0,0,0
1.4961,1.4032,1.4819,0,0,0,0,0,0,0,0,0,0,0,0
1.4961,1.4032,1.4819,0,0,0,0,0,0,0,0,0,0,0,0
1.4961,1.4032,1.4819,0,0,0,0,0,0,0,0,0,0,0,0
1.4961,1.4032,1.4819,0,0,0,0,0,0,0,0,0,0,0,0
1.4961,1.4032,1.4819,0,0,0,0,0,0,0,0,0,0,0,0
1.4961,1.4032,1.4819,0,0,0,0,0,0,0,0,0,0,0,0
1.4961,1.4032,1.4819,0,0,0,0,0,0,0,0,0,0,0,0
1.4961,1.4032,1.4819,0,0,0,0,0,0,0,0,0,0,0,0
1.4961,1.4032,1.4819,0,0,0,0,0,0,0,0,0,0,0,0
1.4961,1.4032,1.4819,0,0,0,0,0,0,0,0,0,0,0,0
1.4961,1.4032,1.4819,0,0,0,0,0,0,0,0,0,0,0,0
1.4961,1.4032,1.4819,0,0,0,0,0,0,0,0,0,0,0,0
1.4961,1.4032,1.4819,0,0,0,0,0,0,0,0,0,0,0,0
1.4961,1.4032,1.4819,0,0,0,0,0,0,0,0,0,0,0,0
1.4961,1.4032,1.4819,0,0,0,0,0,0,0,0,0,0,0,0
1.4961,1.4032,1.4819,0,0,0,0,0,0,0,0,0,0,0,0
1.4961,1.4032,1.4819,0,0,0,0,0,0,0,0,0,0,0,0
1.4961,1.4032,1.4819,0,0,0,0,0,0,0,0,0,0,0,0
1.4961,1.4032,1.4819,0,0,0,0,0,0,0,0,0,0,0,0
1.4961,1.4032,1.4819,0,0,0,0,0,0,0,0,0,0,0,0
1.4961,1.4032,1.4819,0,0,0,0,0,0,0,0,0,0,0,0
1.4961,1.4032,1.4819,0,0,0,0,0,0,0,0,0,0,0,0
1.4961,1.4032,1.4819,0,0,0,0,0,0,0,0,0,0,0,0
1.4961,1.4032,1.4819,0,0,0,0,0,0,0,0,0,0,0,0
1.4961,1.4032,1.4819,0,0,0,0,0,0,0,0,0,0,0,0
1.4961,1.4032,1.4819,0,0,0,0,0,0,0,0,0,0,0,0
1.4961,1.4032,1.4819,0,0,0,0,0,0,0,0,0,0,0,0
1.4961,1.4032,1.4819,0,0,0,0,0,0,0,0,0,0,0,0
1.4961,1.4032,1.4819,0,0,0,0,0,0,0,0,0,0,0,0
1.4961,1.4032,1.4819,0,0,0,0,0,0,0,0,0,0,0,0
1.4961,1.4032,1.4819,0,0,0,0,0,0,0,0,0,0,0,0
1.4961,1.4032,1.4819,0,0,0,0,0,0,0,0,0,0,0,0
1.4961,1.4032,1.4819,0,0,0,0,0,0,0,0,0,0,0,0
1.4961,1.4032,1.4819,0,0,0,0,0,0,0,0,0,0,0,0
1.4961,1.4032,1.4819,0,0,0,0,0,0,0,0,0,0,0,0
1.4961,1.4032,1.4819,0,0,0,0,0,0,0,0,0,0,0,0
1.4961,1.4032,1.4819,0,0,0,0,0,0,0,0,0,0,0,0
1.4961,1.4032,1.4819,0,0,0,0,0,0,0,0,0,0,0,0
1.4961,1.4032,1.4819,0,0,0,0,0,0,0,0,0,0,0,0
1.4961,1.4032,1.4819,0,0,0,0,0,0,0,0,0,0,0,0
1.4961,1.4032,1.4819,0,0,0,0,0,0,0,0,0,0,0,0
1.4961,1.4032,1.4819,0,0,0,0,0,0,0,0,0,0,0,0
1.4961,1.4032,1.4819,0,0,0,0,0,0,0,0,0,0,0,0
1.4961,1.4032,1.4819,0,0,0,0,0,0,0,0,0,0,0,0
1.4961,1.4032,1.4819,0,0,0,0,0,0,0,0,0,0,0,0
1.4961,1.4032,1.4819,0,0,0,0,0,0,0,0,0,0,0,0
1.4961,1.4032,1.4819,0,0,0,0,0,0,0,0,0,0,0,0
1.4961,1.4032,1.4819,0,0,0,0,0,0,0,0,0,0,0,0
1.4961,1.4032,1.4819,0,0,0,0,0,0,0,0,0,0,0,0
1.4961,1.4032,1.4819,0,0,0,0,0,0,0,0,0,0,0,0
1.4961,1.4032,1.4819,0,0,0,0,0,0,0,0,0,0,0,0
1.4961,1.4032,1.4819,0,0,0,0,0,0,0,0,0,0,0,0
1.4961,1.4032,1.4819,0,0,0,0,0,0,0,0,0,0,0,0
1.4961,1.4032,1.4819,0,0,0,0,0,0,0,0,0,0,0,0
1.4961,1.4032,1.4819,0,0,0,0,0,0,0,0,0,0,0,0
1.4961,1.4032,1.4819,0,0,0,0,0,0,0,0,0,0,0,0
1.4961,1.4032,1.4819,0,0,0,0,0,0,0,0,0,0,0,0
1.4961,1.4032,1.4819,0,0,0,0,0,0,0,0,0,0,0,0
1.4961,1.4032,1.4819,0,0,0,0,0,0,0,0,0,0,0,0
1.4961,1.4032,1.4819,0,0,0,0,0,0,0,0,0,0,0,0
1.4961,1.4032,1.4819,0,0,0,0,0,0,0,0,0,0,0,0
1.4961,1.4032,1.4819,0,0,0,0,0,0,0,0,0,0,0,0
1.4961,1.4032,1.4819,0,0,0,0,0,0,0,0,0,0,0,0
1.4961,1.4032,1.4819,0,0,0,0,0,0,0,0,0,0,0,0
1.4961,1.4032,1.4819,0,0,0,0,0,0,0,0,0,0,0,0
1.4961,1.4032,1.4819,0,0,0,0,0,0,0,0,0,0,0,0
1.4961,1.4032,1.4819,0,0,0,0,0,0,0,0,0,0,0,0
1.4961,1.4032,1.4819,0,0,0,0,0,0,0,0,0,0,0,0
1.4961,1.4032,1.4819,0,0,0,0,0,0,0,0,0,0,0,0
1.4961,1.4032,1.4819,0,0,0,0,0,0,0,0,0,0,0,0
1.4961,1.4032,1.4819,0,0,0,0,0,0,0,0,0,0,0,0
1.4961,1.4032,1.4819,0,0,0,0,0,0,0,0,0,0,0,0
1.4961,1.4032,1.4819,0,0,0,0,0,0,0,0,0,0,0,0
1.4961,1.4032,1.4819,0,0,0,0,0,0,0,0,0,0,0,0
1.4961,1.4032,1.4819,0,0,0,0,0,0,0,0,0,0,0,0
1.4961,1.4032,1.4819,0,0,0,0,0,0,0,0,0,0,0,0
1.4961,1.4032,1.4819,0,0,0,0,0,0,0,0,0,0,0,0
1.4961,1.4032,1.4819,0,0,0,0,0,0,0,0,0,0,0,0
1.4961,1.4032,1.4819,0,0,0,0,0,0,0,0,0,0,0,0
1.4961,1.4032,1.4819,0,0,0,0,0,0,0,0,0,0,0,0
1.4961,1.4032,1.4819,0,0,0,0,0,0,0,0,0,0,0,0
1.4961,1.4032,1.4819,0,0,0,0,0,0,0,0,0,0,0,0
1.4961,1.4032,1.4819,0,0,0,0,0,0,0,0,0,0,0,0
1.4961,1.4032,1.4819,0,0,0,0,0,0,0,0,0,0,0,0
1.4961,1.4032,1.4819,0,0,0,0,0,0,0,0,0,0,0,0
1.4961,1.4032,1.4819,0,0,0,0,0,0,0,0,0,0,0,0
1.4961,1.4032,1.4819,0,0,0,0,0,0,0,0,0,0,0,0
1.4961,1.4032,1.4819,0,0,0,0,0,0,0,0,0,0,0,0
1.4961,1.4032,1.4819,0,0,0,0,0,0,0,0,0,0,0,0
1.4961,1.4032,1.4819,0,0,0,0,0,0,0,0,0,0,0,0
1.4961,1.4032,1.4819,0,0,0,0,0,0,0,0,0,0,0,0
1.4961,1.4032,1.4819,0,0,0,0,0,0,0,0,0,0,0,0
1.4961,1.4032,1.4819,0,0,0,0,0,0,0,0,0,0,0,0
1.4961,1.4032,1.4819,0,0,0,0,0,0,0,0,0,0,0,0
1.4961,1.4032,1.4819,0,0,0,0,0,0,0,0,0,0,0,0
1.4961,1.4032,1.4819,0,0,0,0,0,0,0,0,0,0,0,0
1.4961,1.4032,1.4819,0,0,0,0,0,0,0,0,0,0,0,0
1.4961,1.4032,1.4819,0,0,0,0,0,0,0,0,0,0,0,0
1.4961,1.4032,1.4819,0,0,0,0,0,0,0,0,0,0,0,0
1.4961,1.4032,1.4819,0,0,0,0,0,0,0,0,0,0,0,0
1.4961,1.4032,1.4819,0,0,0,0,0,0,0,0,0,0,0,0
1.4961,1.4032,1.4819,0,0,0,0,0,0,0,0,0,0,0,0
1.4961,1.4032,1.4819,0,0,0,0,0,0,0,0,0,0,0,0
1.4961,1.4032,1.4819,0,0,0,0,0,0,0,0,0,0,0,0
1.4961,1.4032,1.4819,0,0,0,0,0,0,0,0,0,0,0,0
1.4961,1.4032,1.4819,0,0,0,0,0,0,0,0,0,0,0,0
1.4961,1.4032,1.4819,0,0,0,0,0,0,0,0,0,0,0,0
1.4961,1.4032,1.4819,0,0,0,0,0,0,0,0,0,0,0,0
1.4961,1.4032,1.4819,0,0,0,0,0,0,0,0,0,0,0,0
1.4961,1.4032,1.4819,0,0,0,0,0,0,0,0,0,0,0,0
1.4961,1.4032,1.4819,0,0,0,0,0,0,0,0,0,0,0,0
1.4961,1.4032,1.4819,0,0,0,0,0,0,0,0,0,0,0,0
1.4961,1.4032,1.4819,0,0,0,0,0,0,0,0,0,0,0,0
1.4961,1.4032,1.4819,0,0,0,0,0,0,0,0,0,0,0,0
1.4961,1.4032,1.4819,0,0,0,0,0,0,0,0,0,0,0,0
1.4961,1.4032,1.4819,0,0,0,0,0,0,0,0,0,0,0,0
1.4961,1.4032,1.4819,0,0,0,0,0,0,0,0,0,0,0,0
1.4961,1.4032,1.4819,0,0,0,0,0,0,0,0,0,0,0,0
1.4961,1.4032,1.4819,0,0,0,0,0,0,0,0,0,0,0,0
1.4961,1.4032,1.4819,0,0,0,0,0,0,0,0,0,0,0,0
1.4961,1.4032,1.4819,0,0,0,0,0,0,0,0,0,0,0,0
1.4961,1.4032,1.4819,0,0,0,0,0,0,0,0,0,0,0,0
1.4961,1.4032,1.4819,0,0,0,0,0,0,0,0,0,0,0,0
1.4961,1.4032,1.4819,0,0,0,0,0,0,0,0,0,0,0,0
1.4961,1.4032,1.4819,0,0,0,0,0,0,0,0,0,0,0,0
1.4961,1.4032,1.4819,0,0,0,0,0,0,0,0,0,0,0,0
1.4961,1.4032,1.4819,0,0,0,0,0,0,0,0,0,0,0,0
1.4961,1.4032,1.4819,0,0,0,0,0,0,0,0,0,0,0,0
1.4961,1.4032,1.4819,0,0,0,0,0,0,0,0,0,0,0,0
1.4961,1.4032,1.4819,0,0,0,0,0,0,0,0,0,0,0,0
1.4961,1.4032,1.4819,0,0,0,0,0,0,0,0,0,0,0,0
1.4961,1.4032,1.4819,0,0,0,0,0,0,0,0,0,0,0,0
1.4961,1.4032,1.4819,0,0,0,0,0,0,0,0,0,0,0,0
1.4961,1.4032,1.4819,0,0,0,0,0,0,0,0,0,0,0,0
1.4961,1.4032,1.4819,0,0,0,0,0,0,0,0,0,0,0,0
1.4961,1.4032,1.4819,0,0,0,0,0,0,0,0,0,0,0,0
1.4961,1.4032,1.4819,0,0,0,0,0,0,0,0,0,0,0,0
1.4961,1.4032,1.4819,0,0,0,0,0,0,0,0,0,0,0,0
1.4961,1.4032,1.4819,0,0,0,0,0,0,0,0,0,0,0,0
1.4961,1.4032,1.4819,0,0,0,0,0,0,0,0,0,0,0,0
1.4961,1.4032,1.4819,0,0,0,0,0,0,0,0,0,0,0,0
1.4961,1.4032,1.4819,0,0,0,0,0,0,0,0,0,0,0,0
1.4961,1.4032,1.4819,0,0,0,0,0,0,0,0,0,0,0,0
1.4961,1.4032,1.4819,0,0,0,0,0,0,0,0,0,0,0,0
1.4961,1.4032,1.4819,0,0,0,0,0,0,0,0,0,0,0,0
1.4961,1.4032,1.4819,0,0,0,0,0,0,0,0,0,0,0,0
1.4961,1.4032,1.4819,0,0,0,0,0,0,0,0,0,0,0,0
1.4961,1.4032,1.4819,0,0,0,0,0,0,0,0,0,0,0,0
1.4961,1.4032,1.4819,0,0,0,0,0,0,0,0,0,0,0,0
1.4961,1.4032,1.4819,0,0,0,0,0,0,0,0,0,0,0,0
1.4961,1.4032,1.4819,0,0,0,0,0,0,0,0,0,0,0,0
1.4961,1.4032,1.4819,0,0,0,0,0,0,0,0,0,0,0,0
