1
441.324982,333.835022,51.450012,38.910004
441.324982,333.835022,51.450012,38.910004
441.324982,333.835022,51.450012,38.910004
441.324982,333.835022,51.450012,38.910004
437.324982,329.835022,51.450012,38.910004
437.324982,329.835022,51.450012,38.910004
437.324982,329.835022,51.450012,38.910004
437.324982,329.835022,51.450012,38.910004
437.324982,329.835022,51.450012,38.910004
437.324982,329.835022,51.450012,38.910004
433.324982,329.835022,51.450012,38.910004
433.324982,329.835022,51.450012,38.910004
433.324982,329.835022,51.450012,38.910004
425.324982,329.835022,51.450012,38.910004
425.324982,329.835022,51.450012,38.910004
425.324982,329.835022,51.450012,38.910004
425.324982,329.835022,51.450012,38.910004
425.324982,329.835022,51.450012,38.910004
425.324982,329.835022,51.450012,38.910004
421.324982,329.835022,51.450012,38.910004
421.324982,321.835022,51.450012,38.910004
417.324982,321.835022,51.450012,38.910004
417.324982,321.835022,51.450012,38.910004
417.324982,321.835022,51.450012,38.910004
413.324982,317.835022,51.450012,38.910004
413.324982,317.835022,51.450012,38.910004
413.324982,317.835022,51.450012,38.910004
421.324982,313.835022,51.450012,38.910004
421.324982,313.835022,51.450012,38.910004
421.324982,313.835022,51.450012,38.910004
425.324982,313.835022,51.450012,38.910004
429.324982,313.835022,51.450012,38.910004
433.324982,309.835022,51.450012,38.910004
437.324982,309.835022,51.450012,38.910004
437.324982,309.835022,51.450012,38.910004
437.324982,309.835022,51.450012,38.910004
441.324982,305.835022,51.450012,38.910004
445.324982,305.835022,51.450012,38.910004
445.324982,305.835022,51.450012,38.910004
445.324982,305.835022,51.450012,38.910004
445.324982,305.835022,51.450012,38.910004
445.324982,305.835022,51.450012,38.910004
445.324982,305.835022,51.450012,38.910004
453.324982,301.835022,51.450012,38.910004
461.324982,297.835022,51.450012,38.910004
465.324982,293.835022,51.450012,38.910004
465.324982,289.835022,51.450012,38.910004
465.324982,289.835022,51.450012,38.910004
469.324982,285.835022,51.450012,38.910004
469.324982,285.835022,51.450012,38.910004
473.324982,277.835022,51.450012,38.910004
473.324982,273.835022,51.450012,38.910004
473.324982,269.835022,51.450012,38.910004
473.324982,269.835022,51.450012,38.910004
473.324982,265.835022,51.450012,38.910004
473.324982,257.835022,51.450012,38.910004
469.324982,253.835007,51.450012,38.910004
469.324982,249.835007,51.450012,38.910004
469.324982,245.835007,51.450012,38.910004
469.324982,245.835007,51.450012,38.910004
469.324982,241.835007,51.450012,38.910004
469.324982,237.835007,51.450012,38.910004
469.324982,233.835007,51.450012,38.910004
469.324982,229.835007,51.450012,38.910004
469.324982,225.835007,51.450012,38.910004
469.324982,225.835007,51.450012,38.910004
469.324982,221.835007,51.450012,38.910004
465.324982,217.835007,51.450012,38.910004
465.324982,213.835007,51.450012,38.910004
457.324982,213.835007,51.450012,38.910004
457.324982,209.835007,51.450012,38.910004
457.324982,209.835007,51.450012,38.910004
457.324982,209.835007,51.450012,38.910004
457.324982,205.835007,51.450012,38.910004
457.324982,205.835007,51.450012,38.910004
461.324982,205.835007,51.450012,38.910004
469.324982,205.835007,51.450012,38.910004
469.324982,205.835007,51.450012,38.910004
481.324982,205.835007,51.450012,38.910004
493.324982,205.835007,51.450012,38.910004
505.324982,209.835007,51.450012,38.910004
525.324951,213.835007,51.450012,38.910004
537.324951,221.835007,51.450012,38.910004
537.324951,221.835007,51.450012,38.910004
549.324951,225.835007,51.450012,38.910004
557.324951,229.835007,51.450012,38.910004
565.324951,233.835007,51.450012,38.910004
565.324951,241.835007,51.450012,38.910004
569.324951,245.835007,51.450012,38.910004
569.324951,245.835007,51.450012,38.910004
577.324951,253.835007,51.450012,38.910004
585.324951,261.835022,51.450012,38.910004
593.324951,265.835022,51.450012,38.910004
601.324951,269.835022,51.450012,38.910004
605.324951,277.835022,51.450012,38.910004
605.324951,277.835022,51.450012,38.910004
613.324951,281.835022,51.450012,38.910004
613.324951,285.835022,51.450012,38.910004
621.324951,289.835022,51.450012,38.910004
625.324951,293.835022,51.450012,38.910004
625.324951,301.835022,51.450012,38.910004
629.324951,301.835022,51.450012,38.910004
629.324951,301.835022,51.450012,38.910004
629.324951,301.835022,51.450012,38.910004
629.324951,305.835022,51.450012,38.910004
633.324951,305.835022,51.450012,38.910004
633.324951,305.835022,51.450012,38.910004
633.324951,305.835022,51.450012,38.910004
633.324951,305.835022,51.450012,38.910004
637.324951,305.835022,51.450012,38.910004
637.324951,305.835022,51.450012,38.910004
637.324951,305.835022,51.450012,38.910004
637.324951,305.835022,51.450012,38.910004
637.324951,305.835022,51.450012,38.910004
641.324951,305.835022,51.450012,38.910004
641.324951,305.835022,51.450012,38.910004
641.324951,305.835022,51.450012,38.910004
641.324951,305.835022,51.450012,38.910004
637.324951,305.835022,51.450012,38.910004
637.324951,305.835022,51.450012,38.910004
633.324951,305.835022,51.450012,38.910004
629.324951,301.835022,51.450012,38.910004
629.324951,301.835022,51.450012,38.910004
629.324951,301.835022,51.450012,38.910004
625.324951,301.835022,51.450012,38.910004
625.324951,301.835022,51.450012,38.910004
621.324951,301.835022,51.450012,38.910004
621.324951,305.835022,51.450012,38.910004
621.324951,305.835022,51.450012,38.910004
617.324951,305.835022,51.450012,38.910004
617.324951,305.835022,51.450012,38.910004
617.324951,305.835022,51.450012,38.910004
617.324951,305.835022,51.450012,38.910004
617.324951,305.835022,51.450012,38.910004
613.324951,305.835022,51.450012,38.910004
613.324951,309.835022,51.450012,38.910004
609.324951,305.835022,51.450012,38.910004
609.324951,305.835022,51.450012,38.910004
601.324951,305.835022,51.450012,38.910004
601.324951,305.835022,51.450012,38.910004
593.324951,305.835022,51.450012,38.910004
589.324951,305.835022,51.450012,38.910004
585.324951,305.835022,51.450012,38.910004
585.324951,305.835022,51.450012,38.910004
581.324951,305.835022,51.450012,38.910004
577.324951,305.835022,51.450012,38.910004
573.324951,305.835022,51.450012,38.910004
569.324951,305.835022,51.450012,38.910004
565.324951,305.835022,51.450012,38.910004
565.324951,305.835022,51.450012,38.910004
565.324951,305.835022,51.450012,38.910004
561.324951,305.835022,51.450012,38.910004
561.324951,305.835022,51.450012,38.910004
557.324951,305.835022,51.450012,38.910004
557.324951,305.835022,51.450012,38.910004
557.324951,305.835022,51.450012,38.910004
553.324951,305.835022,51.450012,38.910004
545.324951,301.835022,51.450012,38.910004
545.324951,301.835022,51.450012,38.910004
537.324951,301.835022,51.450012,38.910004
537.324951,301.835022,51.450012,38.910004
537.324951,301.835022,51.450012,38.910004
533.324951,301.835022,51.450012,38.910004
529.324951,301.835022,51.450012,38.910004
525.324951,297.835022,51.450012,38.910004
521.324951,297.835022,51.450012,38.910004
517.324951,293.835022,51.450012,38.910004
517.324951,293.835022,51.450012,38.910004
509.324982,289.835022,51.450012,38.910004
505.324982,289.835022,51.450012,38.910004
497.324982,285.835022,51.450012,38.910004
489.324982,281.835022,51.450012,38.910004
481.324982,277.835022,51.450012,38.910004
481.324982,277.835022,51.450012,38.910004
473.324982,273.835022,51.450012,38.910004
469.324982,273.835022,51.450012,38.910004
461.324982,265.835022,51.450012,38.910004
453.324982,265.835022,51.450012,38.910004
445.324982,261.835022,51.450012,38.910004
445.324982,261.835022,51.450012,38.910004
437.324982,257.835022,51.450012,38.910004
429.324982,253.835007,51.450012,38.910004
421.324982,249.835007,51.450012,38.910004
413.324982,245.835007,51.450012,38.910004
405.324982,241.835007,51.450012,38.910004
405.324982,241.835007,51.450012,38.910004
397.324982,241.835007,51.450012,38.910004
385.324982,237.835007,51.450012,38.910004
377.324982,237.835007,51.450012,38.910004
373.324982,237.835007,51.450012,38.910004
365.324982,237.835007,51.450012,38.910004
357.324982,237.835007,51.450012,38.910004
357.324982,237.835007,51.450012,38.910004
353.324982,241.835007,51.450012,38.910004
345.324982,241.835007,51.450012,38.910004
345.324982,245.835007,51.450012,38.910004
337.324982,249.835007,51.450012,38.910004
337.324982,253.835007,51.450012,38.910004
337.324982,253.835007,51.450012,38.910004
337.324982,261.835022,51.450012,38.910004
337.324982,265.835022,51.450012,38.910004
337.324982,273.835022,51.450012,38.910004
337.324982,281.835022,51.450012,38.910004
337.324982,289.835022,51.450012,38.910004
337.324982,289.835022,51.450012,38.910004
337.324982,293.835022,51.450012,38.910004
337.324982,301.835022,51.450012,38.910004
341.324982,309.835022,51.450012,38.910004
341.324982,313.835022,51.450012,38.910004
345.324982,317.835022,51.450012,38.910004
345.324982,317.835022,51.450012,38.910004
349.324982,325.835022,51.450012,38.910004
349.324982,329.835022,51.450012,38.910004
357.324982,329.835022,51.450012,38.910004
357.324982,333.835022,51.450012,38.910004
357.324982,333.835022,51.450012,38.910004
357.324982,333.835022,51.450012,38.910004
361.324982,333.835022,51.450012,38.910004
361.324982,333.835022,51.450012,38.910004
365.324982,333.835022,51.450012,38.910004
365.324982,333.835022,51.450012,38.910004
365.324982,333.835022,51.450012,38.910004
365.324982,333.835022,51.450012,38.910004
365.324982,333.835022,51.450012,38.910004
369.324982,333.835022,51.450012,38.910004
369.324982,333.835022,51.450012,38.910004
369.324982,329.835022,51.450012,38.910004
369.324982,329.835022,51.450012,38.910004
369.324982,329.835022,51.450012,38.910004
373.324982,325.835022,51.450012,38.910004
373.324982,325.835022,51.450012,38.910004
373.324982,325.835022,51.450012,38.910004
373.324982,321.835022,51.450012,38.910004
373.324982,321.835022,51.450012,38.910004
373.324982,321.835022,51.450012,38.910004
373.324982,317.835022,51.450012,38.910004
373.324982,317.835022,51.450012,38.910004
373.324982,313.835022,51.450012,38.910004
373.324982,313.835022,51.450012,38.910004
369.324982,313.835022,51.450012,38.910004
369.324982,313.835022,51.450012,38.910004
369.324982,309.835022,51.450012,38.910004
365.324982,309.835022,51.450012,38.910004
365.324982,309.835022,51.450012,38.910004
357.324982,305.835022,51.450012,38.910004
357.324982,301.835022,51.450012,38.910004
357.324982,301.835022,51.450012,38.910004
353.324982,301.835022,51.450012,38.910004
349.324982,301.835022,51.450012,38.910004
345.324982,297.835022,51.450012,38.910004
345.324982,297.835022,51.450012,38.910004
341.324982,297.835022,51.450012,38.910004
341.324982,297.835022,51.450012,38.910004
341.324982,297.835022,51.450012,38.910004
337.324982,297.835022,51.450012,38.910004
337.324982,297.835022,51.450012,38.910004
337.324982,297.835022,51.450012,38.910004
333.324982,297.835022,51.450012,38.910004
333.324982,297.835022,51.450012,38.910004
333.324982,297.835022,51.450012,38.910004
333.324982,297.835022,51.450012,38.910004
329.324982,297.835022,51.450012,38.910004
329.324982,297.835022,51.450012,38.910004
329.324982,297.835022,51.450012,38.910004
329.324982,297.835022,51.450012,38.910004
325.324982,297.835022,51.450012,38.910004
325.324982,297.835022,51.450012,38.910004
325.324982,297.835022,51.450012,38.910004
325.324982,297.835022,51.450012,38.910004
321.324982,297.835022,51.450012,38.910004
321.324982,297.835022,51.450012,38.910004
321.324982,301.835022,51.450012,38.910004
321.324982,301.835022,51.450012,38.910004
321.324982,301.835022,51.450012,38.910004
321.324982,301.835022,51.450012,38.910004
321.324982,301.835022,51.450012,38.910004
321.324982,301.835022,51.450012,38.910004
321.324982,301.835022,51.450012,38.910004
321.324982,301.835022,51.450012,38.910004
321.324982,301.835022,51.450012,38.910004
321.324982,301.835022,51.450012,38.910004
321.324982,301.835022,51.450012,38.910004
321.324982,301.835022,51.450012,38.910004
321.324982,301.835022,51.450012,38.910004
321.324982,301.835022,51.450012,38.910004
325.324982,301.835022,51.450012,38.910004
325.324982,297.835022,51.450012,38.910004
325.324982,297.835022,51.450012,38.910004
325.324982,297.835022,51.450012,38.910004
325.324982,297.835022,51.450012,38.910004
325.324982,293.835022,51.450012,38.910004
325.324982,293.835022,51.450012,38.910004
325.324982,289.835022,51.450012,38.910004
325.324982,289.835022,51.450012,38.910004
325.324982,289.835022,51.450012,38.910004
325.324982,285.835022,51.450012,38.910004
321.324982,277.835022,51.450012,38.910004
317.324982,273.835022,51.450012,38.910004
313.324982,269.835022,51.450012,38.910004
313.324982,265.835022,51.450012,38.910004
313.324982,265.835022,51.450012,38.910004
305.324982,261.835022,51.450012,38.910004
305.324982,257.835022,51.450012,38.910004
297.324982,249.835007,51.450012,38.910004
297.324982,245.835007,51.450012,38.910004
289.324982,245.835007,51.450012,38.910004
289.324982,245.835007,51.450012,38.910004
289.324982,241.835007,51.450012,38.910004
281.324982,237.835007,51.450012,38.910004
281.324982,237.835007,51.450012,38.910004
273.324982,233.835007,51.450012,38.910004
273.324982,229.835007,51.450012,38.910004
273.324982,229.835007,51.450012,38.910004
265.324982,229.835007,51.450012,38.910004
261.324982,225.835007,51.450012,38.910004
257.324982,225.835007,51.450012,38.910004
249.324982,225.835007,51.450012,38.910004
245.324982,221.835007,51.450012,38.910004
245.324982,221.835007,51.450012,38.910004
241.324982,221.835007,51.450012,38.910004
237.324982,225.835007,51.450012,38.910004
233.324982,225.835007,51.450012,38.910004
229.324982,225.835007,51.450012,38.910004
229.324982,229.835007,51.450012,38.910004
229.324982,229.835007,51.450012,38.910004
225.324982,233.835007,51.450012,38.910004
225.324982,237.835007,51.450012,38.910004
225.324982,241.835007,51.450012,38.910004
225.324982,249.835007,51.450012,38.910004
225.324982,253.835007,51.450012,38.910004
225.324982,253.835007,51.450012,38.910004
229.324982,261.835022,51.450012,38.910004
233.324982,269.835022,51.450012,38.910004
237.324982,273.835022,51.450012,38.910004
245.324982,281.835022,51.450012,38.910004
249.324982,289.835022,51.450012,38.910004
249.324982,289.835022,51.450012,38.910004
257.324982,297.835022,51.450012,38.910004
257.324982,301.835022,51.450012,38.910004
261.324982,305.835022,51.450012,38.910004
261.324982,309.835022,51.450012,38.910004
265.324982,313.835022,51.450012,38.910004
265.324982,313.835022,51.450012,38.910004
265.324982,313.835022,51.450012,38.910004
265.324982,313.835022,51.450012,38.910004
261.324982,313.835022,51.450012,38.910004
253.324982,313.835022,51.450012,38.910004
249.324982,313.835022,51.450012,38.910004
249.324982,313.835022,51.450012,38.910004
241.324982,309.835022,51.450012,38.910004
237.324982,309.835022,51.450012,38.910004
229.324982,305.835022,51.450012,38.910004
225.324982,305.835022,51.450012,38.910004
217.324982,301.835022,51.450012,38.910004
217.324982,301.835022,51.450012,38.910004
213.324982,301.835022,51.450012,38.910004
205.324982,297.835022,51.450012,38.910004
197.324982,297.835022,51.450012,38.910004
189.324982,297.835022,51.450012,38.910004
181.324982,293.835022,51.450012,38.910004
181.324982,293.835022,51.450012,38.910004
173.324982,293.835022,51.450012,38.910004
169.324982,293.835022,51.450012,38.910004
161.324982,289.835022,51.450012,38.910004
153.324982,289.835022,51.450012,38.910004
145.324982,289.835022,51.450012,38.910004
145.324982,289.835022,51.450012,38.910004
141.324982,285.835022,51.450012,38.910004
133.324982,285.835022,51.450012,38.910004
129.324982,285.835022,51.450012,38.910004
125.324982,285.835022,51.450012,38.910004
125.324982,289.835022,51.450012,38.910004
125.324982,289.835022,51.450012,38.910004
133.324982,293.835022,51.450012,38.910004
141.324982,301.835022,51.450012,38.910004
153.324982,309.835022,51.450012,38.910004
169.324982,313.835022,51.450012,38.910004
181.324982,321.835022,51.450012,38.910004
185.324982,325.835022,51.450012,38.910004
201.324982,329.835022,51.450012,38.910004
213.324982,337.835022,51.450012,38.910004
221.324982,341.835022,51.450012,38.910004
229.324982,345.835022,51.450012,38.910004
233.324982,349.835022,51.450012,38.910004
233.324982,349.835022,51.450012,38.910004
237.324982,353.835022,51.450012,38.910004
241.324982,353.835022,51.450012,38.910004
245.324982,357.835022,51.450012,38.910004
249.324982,357.835022,51.450012,38.910004
257.324982,361.835022,51.450012,38.910004
265.324982,365.835022,51.450012,38.910004
265.324982,365.835022,51.450012,38.910004
273.324982,365.835022,51.450012,38.910004
285.324982,369.835022,51.450012,38.910004
293.324982,373.835022,51.450012,38.910004
305.324982,377.835022,51.450012,38.910004
313.324982,377.835022,51.450012,38.910004
313.324982,377.835022,51.450012,38.910004
321.324982,381.835022,51.450012,38.910004
329.324982,385.835022,51.450012,38.910004
337.324982,385.835022,51.450012,38.910004
337.324982,389.835022,51.450012,38.910004
345.324982,389.835022,51.450012,38.910004
345.324982,389.835022,51.450012,38.910004
353.324982,393.835022,51.450012,38.910004
361.324982,393.835022,51.450012,38.910004
369.324982,397.835022,51.450012,38.910004
381.324982,397.835022,51.450012,38.910004
385.324982,401.835022,51.450012,38.910004
385.324982,401.835022,51.450012,38.910004
393.324982,401.835022,51.450012,38.910004
405.324982,405.835022,51.450012,38.910004
413.324982,405.835022,51.450012,38.910004
421.324982,409.835022,51.450012,38.910004
433.324982,409.835022,51.450012,38.910004
433.324982,409.835022,51.450012,38.910004
445.324982,413.835022,51.450012,38.910004
453.324982,413.835022,51.450012,38.910004
461.324982,413.835022,51.450012,38.910004
469.324982,413.835022,51.450012,38.910004
473.324982,413.835022,51.450012,38.910004
473.324982,413.835022,51.450012,38.910004
481.324982,413.835022,51.450012,38.910004
489.324982,413.835022,51.450012,38.910004
501.324982,413.835022,51.450012,38.910004
513.324951,413.835022,51.450012,38.910004
525.324951,413.835022,51.450012,38.910004
525.324951,413.835022,51.450012,38.910004
537.324951,413.835022,51.450012,38.910004
553.324951,413.835022,51.450012,38.910004
565.324951,413.835022,51.450012,38.910004
577.324951,409.835022,51.450012,38.910004
589.324951,409.835022,51.450012,38.910004
589.324951,409.835022,51.450012,38.910004
601.324951,409.835022,51.450012,38.910004
609.324951,405.835022,51.450012,38.910004
617.324951,405.835022,51.450012,38.910004
617.324951,401.835022,51.450012,38.910004
617.324951,397.835022,51.450012,38.910004
617.324951,397.835022,51.450012,38.910004
617.324951,397.835022,51.450012,38.910004
617.324951,393.835022,51.450012,38.910004
617.324951,393.835022,51.450012,38.910004
613.324951,393.835022,51.450012,38.910004
613.324951,389.835022,51.450012,38.910004
613.324951,389.835022,51.450012,38.910004
609.324951,389.835022,51.450012,38.910004
601.324951,389.835022,51.450012,38.910004
601.324951,385.835022,51.450012,38.910004
593.324951,385.835022,51.450012,38.910004
589.324951,385.835022,51.450012,38.910004
589.324951,385.835022,51.450012,38.910004
585.324951,385.835022,51.450012,38.910004
577.324951,381.835022,51.450012,38.910004
577.324951,381.835022,51.450012,38.910004
569.324951,381.835022,51.450012,38.910004
565.324951,381.835022,51.450012,38.910004
565.324951,381.835022,51.450012,38.910004
561.324951,377.835022,51.450012,38.910004
561.324951,377.835022,51.450012,38.910004
557.324951,377.835022,51.450012,38.910004
553.324951,377.835022,51.450012,38.910004
549.324951,377.835022,51.450012,38.910004
549.324951,377.835022,51.450012,38.910004
549.324951,377.835022,51.450012,38.910004
545.324951,377.835022,51.450012,38.910004
541.324951,377.835022,51.450012,38.910004
541.324951,373.835022,51.450012,38.910004
537.324951,373.835022,51.450012,38.910004
537.324951,373.835022,51.450012,38.910004
537.324951,373.835022,51.450012,38.910004
533.324951,373.835022,51.450012,38.910004
533.324951,373.835022,51.450012,38.910004
533.324951,373.835022,51.450012,38.910004
529.324951,373.835022,51.450012,38.910004
529.324951,373.835022,51.450012,38.910004
529.324951,373.835022,51.450012,38.910004
529.324951,373.835022,51.450012,38.910004
529.324951,373.835022,51.450012,38.910004
529.324951,373.835022,51.450012,38.910004
529.324951,373.835022,51.450012,38.910004
529.324951,373.835022,51.450012,38.910004
533.324951,373.835022,51.450012,38.910004
533.324951,373.835022,51.450012,38.910004
537.324951,373.835022,51.450012,38.910004
537.324951,373.835022,51.450012,38.910004
545.324951,373.835022,51.450012,38.910004
545.324951,373.835022,51.450012,38.910004
549.324951,373.835022,51.450012,38.910004
553.324951,373.835022,51.450012,38.910004
561.324951,377.835022,51.450012,38.910004
565.324951,377.835022,51.450012,38.910004
573.324951,377.835022,51.450012,38.910004
573.324951,377.835022,51.450012,38.910004
581.324951,373.835022,51.450012,38.910004
585.324951,373.835022,51.450012,38.910004
593.324951,373.835022,51.450012,38.910004
601.324951,373.835022,51.450012,38.910004
609.324951,369.835022,51.450012,38.910004
609.324951,369.835022,51.450012,38.910004
617.324951,369.835022,51.450012,38.910004
625.324951,369.835022,51.450012,38.910004
629.324951,369.835022,51.450012,38.910004
637.324951,365.835022,51.450012,38.910004
637.324951,365.835022,51.450012,38.910004
637.324951,365.835022,51.450012,38.910004
641.324951,361.835022,51.450012,38.910004
645.324951,361.835022,51.450012,38.910004
645.324951,357.835022,51.450012,38.910004
649.324951,357.835022,51.450012,38.910004
653.324951,353.835022,51.450012,38.910004
653.324951,353.835022,51.450012,38.910004
653.324951,349.835022,51.450012,38.910004
657.324951,349.835022,51.450012,38.910004
657.324951,349.835022,51.450012,38.910004
657.324951,345.835022,51.450012,38.910004
657.324951,345.835022,51.450012,38.910004
657.324951,345.835022,51.450012,38.910004
653.324951,341.835022,51.450012,38.910004
653.324951,341.835022,51.450012,38.910004
645.324951,337.835022,51.450012,38.910004
645.324951,337.835022,51.450012,38.910004
641.324951,337.835022,51.450012,38.910004
641.324951,337.835022,51.450012,38.910004
637.324951,333.835022,51.450012,38.910004
633.324951,333.835022,51.450012,38.910004
629.324951,333.835022,51.450012,38.910004
625.324951,329.835022,51.450012,38.910004
621.324951,329.835022,51.450012,38.910004
621.324951,329.835022,51.450012,38.910004
617.324951,325.835022,51.450012,38.910004
617.324951,325.835022,51.450012,38.910004
617.324951,325.835022,51.450012,38.910004
617.324951,325.835022,51.450012,38.910004
617.324951,321.835022,51.450012,38.910004
617.324951,321.835022,51.450012,38.910004
617.324951,321.835022,51.450012,38.910004
617.324951,321.835022,51.450012,38.910004
617.324951,321.835022,51.450012,38.910004
617.324951,321.835022,51.450012,38.910004
617.324951,321.835022,51.450012,38.910004
617.324951,321.835022,51.450012,38.910004
621.324951,321.835022,51.450012,38.910004
621.324951,321.835022,51.450012,38.910004
625.324951,321.835022,51.450012,38.910004
625.324951,321.835022,51.450012,38.910004
629.324951,321.835022,51.450012,38.910004
629.324951,321.835022,51.450012,38.910004
629.324951,321.835022,51.450012,38.910004
629.324951,321.835022,51.450012,38.910004
629.324951,317.835022,51.450012,38.910004
629.324951,317.835022,51.450012,38.910004
629.324951,313.835022,51.450012,38.910004
629.324951,313.835022,51.450012,38.910004
629.324951,313.835022,51.450012,38.910004
629.324951,309.835022,51.450012,38.910004
629.324951,309.835022,51.450012,38.910004
