1.1504,1.1247,1.2257,0,0,0,0,0,0,0,0,0,0,0,0
1.1504,1.1247,1.2257,0,0,0,0,0,0,0,0,0,0,0,0
1.1504,1.1247,1.2257,0,0,0,0,0,0,0,0,0,0,0,0
1.1504,1.1247,1.2257,0,0,0,0,0,0,0,0,0,0,0,0
1.1504,1.1247,1.2257,0,0,0,0,0,0,0,0,0,0,0,0
1.1504,1.1247,1.2257,0,0,0,0,0,0,0,0,0,0,0,0
1.1504,1.1247,1.2257,0,0,0,0,0,0,0,0,0,0,0,0
1.1504,1.1247,1.2257,0,0,0,0,0,0,0,0,0,0,0,0
1.1504,1.1247,1.2257,0,0,0,0,0,0,0,0,0,0,0,0
1.1504,1.1247,1.2257,0,0,0,0,0,0,0,0,0,0,0,0
1.1504,1.1247,1.2257,0,0,0,0,0,0,0,0,0,0,0,0
1.1504,1.1247,1.2257,0,0,0,0,0,0,0,0,0,0,0,0
1.1504,1.1247,1.2257,0,0,0,0,0,0,0,0,0,0,0,0
1.1504,1.1247,1.2257,0,0,0,0,0,0,0,0,0,0,0,0
1.1504,1.1247,1.2257,0,0,0,0,0,0,0,0,0,0,0,0
1.1504,1.1247,1.2257,0,0,0,0,0,0,0,0,0,0,0,0
1.1504,1.1247,1.2257,0,0,0,0,0,0,0,0,0,0,0,0
1.1504,1.1247,1.2257,0,0,0,0,0,0,0,0,0,0,0,0
1.1504,1.1247,1.2257,0,0,0,0,0,0,0,0,0,0,0,0
1.1504,1.1247,1.2257,0,0,0,0,0,0,0,0,0,0,0,0
1.1504,1.1247,1.2257,0,0,0,0,0,0,0,0,0,0,0,0
1.1504,1.1247,1.2257,0,0,0,0,0,0,0,0,0,0,0,0
1.1504,1.1247,1.2257,0,0,0,0,0,0,0,0,0,0,0,0
1.1504,1.1247,1.2257,0,0,0,0,0,0,0,0,0,0,0,0
1.1504,1.1247,1.2257,0,0,0,0,0,0,0,0,0,0,0,0
1.1504,1.1247,1.2257,0,0,0,0,0,0,0,0,0,0,0,0
1.1504,1.1247,1.2257,0,0,0,0,0,0,0,0,0,0,0,0
1.1504,1.1247,1.2257,0,0,0,0,0,0,0,0,0,0,0,0
1.1504,1.1247,1.2257,0,0,0,0,0,0,0,0,0,0,0,0
1.1504,1.1247,1.2257,0,0,0,0,0,0,0,0,0,0,0,0
1.1504,1.1247,1.2257,0,0,0,0,0,0,0,0,0,0,0,0
1.1504,1.1247,1.2257,0,0,0,0,0,0,0,0,0,0,0,0
1.1504,1.1247,1.2257,0,0,0,0,0,0,0,0,0,0,0,0
1.1504,1.1247,1.2257,0,0,0,0,0,0,0,0,0,0,0,0
1.1504,1.1247,1.2257,0,0,0,0,0,0,0,0,0,0,0,0
1.1504,1.1247,1.2257,0,0,0,0,0,0,0,0,0,0,0,0
1.1504,1.1247,1.2257,0,0,0,0,0,0,0,0,0,0,0,0
1.1504,1.1247,1.2257,0,0,0,0,0,0,0,0,0,0,0,0
1.1504,1.1247,1.2257,0,0,0,0,0,0,0,0,0,0,0,0
1.1504,1.1247,1.2257,0,0,0,0,0,0,0,0,0,0,0,0
1.1504,1.1247,1.2257,0,0,0,0,0,0,0,0,0,0,0,0
1.1504,1.1247,1.2257,0,0,0,0,0,0,0,0,0,0,0,0
1.1504,1.1247,1.2257,0,0,0,0,0,0,0,0,0,0,0,0
1.1504,1.1247,1.2257,0,0,0,0,0,0,0,0,0,0,0,0
1.1504,1.1247,1.2257,0,0,0,0,0,0,0,0,0,0,0,0
1.1504,1.1247,1.2257,0,0,0,0,0,0,0,0,0,0,0,0
1.1504,1.1247,1.2257,0,0,0,0,0,0,0,0,0,0,0,0
1.1504,1.1247,1.2257,0,0,0,0,0,0,0,0,0,0,0,0
1.1504,1.1247,1.2257,0,0,0,0,0,0,0,0,0,0,0,0
1.1504,1.1247,1.2257,0,0,0,0,0,0,0,0,0,0,0,0
1.1504,1.1247,1.2257,0,0,0,0,0,0,0,0,0,0,0,0
1.1504,1.1247,1.2257,0,0,0,0,0,0,0,0,0,0,0,0
1.1504,1.1247,1.2257,0,0,0,0,0,0,0,0,0,0,0,0
1.1504,1.1247,1.2257,0,0,0,0,0,0,0,0,0,0,0,0
1.1504,1.1247,1.2257,0,0,0,0,0,0,0,0,0,0,0,0
1.1504,1.1247,1.2257,0,0,0,0,0,0,0,0,0,0,0,0
1.1504,1.1247,1.2257,0,0,0,0,0,0,0,0,0,0,0,0
1.1504,1.1247,1.2257,0,0,0,0,0,0,0,0,0,0,0,0
1.1504,1.1247,1.2257,0,0,0,0,0,0,0,0,0,0,0,0
1.1504,1.1247,1.2257,0,0,0,0,0,0,0,0,0,0,0,0
1.1504,1.1247,1.2257,0,0,0,0,0,0,0,0,0,0,0,0
1.1504,1.1247,1.2257,0,0,0,0,0,0,0,0,0,0,0,0
1.1504,1.1247,1.2257,0,0,0,0,0,0,0,0,0,0,0,0
1.1504,1.1247,1.2257,0,0,0,0,0,0,0,0,0,0,0,0
1.1504,1.1247,1.2257,0,0,0,0,0,0,0,0,0,0,0,0
1.1504,1.1247,1.2257,0,0,0,0,0,0,0,0,0,0,0,0
1.1504,1.1247,1.2257,0,0,0,0,0,0,0,0,0,0,0,0
1.1504,1.1247,1.2257,0,0,0,0,0,0,0,0,0,0,0,0
1.1504,1.1247,1.2257,0,0,0,0,0,0,0,0,0,0,0,0
1.1504,1.1247,1.2257,0,0,0,0,0,0,0,0,0,0,0,0
1.1504,1.1247,1.2257,0,0,0,0,0,0,0,0,0,0,0,0
1.1504,1.1247,1.2257,0,0,0,0,0,0,0,0,0,0,0,0
1.1504,1.1247,1.2257,0,0,0,0,0,0,0,0,0,0,0,0
1.1504,1.1247,1.2257,0,0,0,0,0,0,0,0,0,0,0,0
1.1504,1.1247,1.2257,0,0,0,0,0,0,0,0,0,0,0,0
1.1504,1.1247,1.2257,0,0,0,0,0,0,0,0,0,0,0,0
1.1504,1.1247,1.2257,0,0,0,0,0,0,0,0,0,0,0,0
1.1504,1.1247,1.2257,0,0,0,0,0,0,0,0,0,0,0,0
1.1504,1.1247,1.2257,0,0,0,0,0,0,0,0,0,0,0,0
1.1504,1.1247,1.2257,0,0,0,0,0,0,0,0,0,0,0,0
1.1504,1.1247,1.2257,0,0,0,0,0,0,0,0,0,0,0,0
1.1504,1.1247,1.2257,0,0,0,0,0,0,0,0,0,0,0,0
1.1504,1.1247,1.2257,0,0,0,0,0,0,0,0,0,0,0,0
1.1504,1.1247,1.2257,0,0,0,0,0,0,0,0,0,0,0,0
1.1504,1.1247,1.2257,0,0,0,0,0,0,0,0,0,0,0,0
1.1504,1.1247,1.2257,0,0,0,0,0,0,0,0,0,0,0,0
1.1504,1.1247,1.2257,0,0,0,0,0,0,0,0,0,0,0,0
1.1504,1.1247,1.2257,0,0,0,0,0,0,0,0,0,0,0,0
1.1504,1.1247,1.2257,0,0,0,0,0,0,0,0,0,0,0,0
1.1504,1.1247,1.2257,0,0,0,0,0,0,0,0,0,0,0,0
1.1504,1.1247,1.2257,0,0,0,0,0,0,0,0,0,0,0,0
1.1504,1.1247,1.2257,0,0,0,0,0,0,0,0,0,0,0,0
1.1504,1.1247,1.2257,0,0,0,0,0,0,0,0,0,0,0,0
1.1504,1.1247,1.2257,0,0,0,0,0,0,0,0,0,0,0,0
1.1504,1.1247,1.2257,0,0,0,0,0,0,0,0,0,0,0,0
1.1504,1.1247,1.2257,0,0,0,0,0,0,0,0,0,0,0,0
1.1504,1.1247,1.2257,0,0,0,0,0,0,0,0,0,0,0,0
1.1504,1.1247,1.2257,0,0,0,0,0,0,0,0,0,0,0,0
1.1504,1.1247,1.2257,0,0,0,0,0,0,0,0,0,0,0,0
1.1504,1.1247,1.2257,0,0,0,0,0,0,0,0,0,0,0,0
1.1504,1.1247,1.2257,0,0,0,0,0,0,0,0,0,0,0,0
1.1504,1.1247,1.2257,0,0,0,0,0,0,0,0,0,0,0,0
1.1504,1.1247,1.2257,0,0,0,0,0,0,0,0,0,0,0,0
1.1504,1.1247,1.2257,0,0,0,0,0,0,0,0,0,0,0,0
1.1504,1.1247,1.2257,0,0,0,0,0,0,0,0,0,0,0,0
1.1504,1.1247,1.2257,0,0,0,0,0,0,0,0,0,0,0,0
1.1504,1.1247,1.2257,0,0,0,0,0,0,0,0,0,0,0,0
1.1504,1.1247,1.2257,0,0,0,0,0,0,0,0,0,0,0,0
1.1504,1.1247,1.2257,0,0,0,0,0,0,0,0,0,0,0,0
1.1504,1.1247,1.2257,0,0,0,0,0,0,0,0,0,0,0,0
1.1504,1.1247,1.2257,0,0,0,0,0,0,0,0,0,0,0,0
1.1504,1.1247,1.2257,0,0,0,0,0,0,0,0,0,0,0,0
1.1504,1.1247,1.2257,0,0,0,0,0,0,0,0,0,0,0,0
1.1504,1.1247,1.2257,0,0,0,0,0,0,0,0,0,0,0,0
1.1504,1.1247,1.2257,0,0,0,0,0,0,0,0,0,0,0,0
1.1504,1.1247,1.2257,0,0,0,0,0,0,0,0,0,0,0,0
1.1504,1.1247,1.2257,0,0,0,0,0,0,0,0,0,0,0,0
1.1504,1.1247,1.2257,0,0,0,0,0,0,0,0,0,0,0,0
1.1504,1.1247,1.2257,0,0,0,0,0,0,0,0,0,0,0,0
1.1504,1.1247,1.2257,0,0,0,0,0,0,0,0,0,0,0,0
1.1504,1.1247,1.2257,0,0,0,0,0,0,0,0,0,0,0,0
1.1504,1.1247,1.2257,0,0,0,0,0,0,0,0,0,0,0,0
1.1504,1.1247,1.2257,0,0,0,0,0,0,0,0,0,0,0,0
1.1504,1.1247,1.2257,0,0,0,0,0,0,0,0,0,0,0,0
1.1504,1.1247,1.2257,0,0,0,0,0,0,0,0,0,0,0,0
1.1504,1.1247,1.2257,0,0,0,0,0,0,0,0,0,0,0,0
1.1504,1.1247,1.2257,0,0,0,0,0,0,0,0,0,0,0,0
1.1504,1.1247,1.2257,0,0,0,0,0,0,0,0,0,0,0,0
1.1504,1.1247,1.2257,0,0,0,0,0,0,0,0,0,0,0,0
1.1504,1.1247,1.2257,0,0,0,0,0,0,0,0,0,0,0,0
1.1504,1.1247,1.2257,0,0,0,0,0,0,0,0,0,0,0,0
1.1504,1.1247,1.2257,0,0,0,0,0,0,0,0,0,0,0,0
1.1504,1.1247,1.2257,0,0,0,0,0,0,0,0,0,0,0,0
1.1504,1.1247,1.2257,0,0,0,0,0,0,0,0,0,0,0,0
1.1504,1.1247,1.2257,0,0,0,0,0,0,0,0,0,0,0,0
1.1504,1.1247,1.2257,0,0,0,0,0,0,0,0,0,0,0,0
1.1504,1.1247,1.2257,0,0,0,0,0,0,0,0,0,0,0,0
1.1504,1.1247,1.2257,0,0,0,0,0,0,0,0,0,0,0,0
1.1504,1.1247,1.2257,0,0,0,0,0,0,0,0,0,0,0,0
1.1504,1.1247,1.2257,0,0,0,0,0,0,0,0,0,0,0,0
