1
491.500000,401.000000,47.000000,46.000000
491.500000,389.000000,47.000000,46.000000
495.500000,377.000000,47.000000,46.000000
495.500000,369.000000,47.000000,46.000000
495.500000,365.000000,47.000000,46.000000
495.500000,365.000000,47.000000,46.000000
495.500000,365.000000,47.000000,46.000000
499.500000,369.000000,47.000000,46.000000
499.500000,377.000000,47.000000,46.000000
499.500000,389.000000,47.000000,46.000000
507.500000,405.000000,47.000000,46.000000
507.500000,425.000000,47.000000,46.000000
507.500000,421.000000,47.000000,46.000000
507.500000,397.000000,47.000000,46.000000
507.500000,373.000000,47.000000,46.000000
507.500000,353.000000,47.000000,46.000000
507.500000,337.000000,47.000000,46.000000
503.500000,325.000000,47.000000,46.000000
507.500000,309.000000,47.000000,46.000000
507.500000,301.000000,47.000000,46.000000
507.500000,297.000000,47.000000,46.000000
507.500000,297.000000,47.000000,46.000000
507.500000,297.000000,47.000000,46.000000
507.500000,301.000000,47.000000,46.000000
511.500000,309.000000,47.000000,46.000000
511.500000,321.000000,47.000000,46.000000
511.500000,333.000000,47.000000,46.000000
511.500000,353.000000,47.000000,46.000000
511.500000,373.000000,47.000000,46.000000
511.500000,397.000000,47.000000,46.000000
511.500000,421.000000,47.000000,46.000000
515.500000,429.000000,47.000000,46.000000
515.500000,405.000000,47.000000,46.000000
519.500000,385.000000,47.000000,46.000000
519.500000,369.000000,47.000000,46.000000
523.500000,353.000000,47.000000,46.000000
527.500000,341.000000,47.000000,46.000000
527.500000,333.000000,47.000000,46.000000
531.500000,329.000000,47.000000,46.000000
531.500000,325.000000,47.000000,46.000000
535.500000,325.000000,47.000000,46.000000
539.500000,329.000000,47.000000,46.000000
547.500000,337.000000,47.000000,46.000000
547.500000,345.000000,47.000000,46.000000
547.500000,357.000000,47.000000,46.000000
551.500000,373.000000,47.000000,46.000000
555.500000,393.000000,47.000000,46.000000
551.500000,373.000000,47.000000,46.000000
547.500000,349.000000,47.000000,46.000000
539.500000,325.000000,47.000000,46.000000
531.500000,305.000000,47.000000,46.000000
523.500000,289.000000,47.000000,46.000000
519.500000,269.000000,47.000000,46.000000
511.500000,257.000000,47.000000,46.000000
503.500000,245.000000,47.000000,46.000000
495.500000,237.000000,47.000000,46.000000
487.500000,237.000000,47.000000,46.000000
483.500000,237.000000,47.000000,46.000000
475.500000,237.000000,47.000000,46.000000
467.500000,245.000000,47.000000,46.000000
459.500000,253.000000,47.000000,46.000000
451.500000,269.000000,47.000000,46.000000
443.500000,285.000000,47.000000,46.000000
439.500000,309.000000,47.000000,46.000000
431.500000,329.000000,47.000000,46.000000
427.500000,353.000000,47.000000,46.000000
419.500000,385.000000,47.000000,46.000000
411.500000,377.000000,47.000000,46.000000
411.500000,365.000000,47.000000,46.000000
407.500000,353.000000,47.000000,46.000000
403.500000,345.000000,47.000000,46.000000
399.500000,341.000000,47.000000,46.000000
399.500000,341.000000,47.000000,46.000000
399.500000,341.000000,47.000000,46.000000
395.500000,345.000000,47.000000,46.000000
395.500000,349.000000,47.000000,46.000000
391.500000,361.000000,47.000000,46.000000
387.500000,373.000000,47.000000,46.000000
387.500000,393.000000,47.000000,46.000000
383.500000,409.000000,47.000000,46.000000
383.500000,433.000000,47.000000,46.000000
383.500000,457.000000,47.000000,46.000000
383.500000,441.000000,47.000000,46.000000
383.500000,425.000000,47.000000,46.000000
383.500000,409.000000,47.000000,46.000000
383.500000,393.000000,47.000000,46.000000
383.500000,381.000000,47.000000,46.000000
383.500000,373.000000,47.000000,46.000000
387.500000,369.000000,47.000000,46.000000
387.500000,365.000000,47.000000,46.000000
387.500000,365.000000,47.000000,46.000000
391.500000,373.000000,47.000000,46.000000
391.500000,381.000000,47.000000,46.000000
391.500000,389.000000,47.000000,46.000000
391.500000,401.000000,47.000000,46.000000
395.500000,421.000000,47.000000,46.000000
399.500000,441.000000,47.000000,46.000000
399.500000,457.000000,47.000000,46.000000
403.500000,433.000000,47.000000,46.000000
407.500000,413.000000,47.000000,46.000000
415.500000,393.000000,47.000000,46.000000
423.500000,377.000000,47.000000,46.000000
427.500000,361.000000,47.000000,46.000000
435.500000,345.000000,47.000000,46.000000
