1
285.320007,251.339996,43.679993,45.659988
285.320007,251.339996,43.679993,45.659988
285.320007,251.339996,43.679993,45.659988
285.320007,251.339996,43.679993,45.659988
285.320007,255.339996,43.679993,45.659988
285.320007,255.339996,43.679993,45.659988
285.320007,259.339996,43.679993,45.659988
285.320007,259.339996,43.679993,45.659988
285.320007,263.339996,43.679993,45.659988
281.320007,263.339996,43.679993,45.659988
277.320007,263.339996,43.679993,45.659988
277.320007,263.339996,43.679993,45.659988
277.320007,267.339996,43.679993,45.659988
277.320007,267.339996,43.679993,45.659988
277.320007,267.339996,43.679993,45.659988
277.320007,271.339996,43.679993,45.659988
277.320007,271.339996,43.679993,45.659988
277.320007,271.339996,43.679993,45.659988
277.320007,271.339996,43.679993,45.659988
277.320007,271.339996,43.679993,45.659988
277.320007,271.339996,43.679993,45.659988
277.320007,271.339996,43.679993,45.659988
277.320007,271.339996,43.679993,45.659988
277.320007,271.339996,43.679993,45.659988
277.320007,271.339996,43.679993,45.659988
277.320007,271.339996,43.679993,45.659988
277.320007,271.339996,43.679993,45.659988
277.320007,271.339996,43.679993,45.659988
277.320007,271.339996,43.679993,45.659988
273.320007,271.339996,43.679993,45.659988
273.320007,279.339996,43.679993,45.659988
273.320007,279.339996,43.679993,45.659988
273.320007,279.339996,43.679993,45.659988
273.320007,279.339996,43.679993,45.659988
273.320007,279.339996,43.679993,45.659988
273.320007,279.339996,43.679993,45.659988
273.320007,279.339996,43.679993,45.659988
273.320007,275.339996,43.679993,45.659988
273.320007,275.339996,43.679993,45.659988
273.320007,275.339996,43.679993,45.659988
277.320007,275.339996,43.679993,45.659988
277.320007,275.339996,43.679993,45.659988
277.320007,271.339996,43.679993,45.659988
273.320007,271.339996,43.679993,45.659988
273.320007,271.339996,43.679993,45.659988
273.320007,267.339996,43.679993,45.659988
273.320007,267.339996,43.679993,45.659988
269.320007,267.339996,43.679993,45.659988
269.320007,271.339996,43.679993,45.659988
269.320007,271.339996,43.679993,45.659988
269.320007,271.339996,43.679993,45.659988
269.320007,271.339996,43.679993,45.659988
269.320007,271.339996,43.679993,45.659988
269.320007,271.339996,43.679993,45.659988
269.320007,271.339996,43.679993,45.659988
269.320007,271.339996,43.679993,45.659988
265.320007,271.339996,43.679993,45.659988
265.320007,271.339996,43.679993,45.659988
265.320007,271.339996,43.679993,45.659988
265.320007,271.339996,43.679993,45.659988
265.320007,271.339996,43.679993,45.659988
257.320007,271.339996,43.679993,45.659988
257.320007,271.339996,43.679993,45.659988
257.320007,271.339996,43.679993,45.659988
257.320007,271.339996,43.679993,45.659988
257.320007,271.339996,43.679993,45.659988
253.320007,271.339996,43.679993,45.659988
249.320007,271.339996,43.679993,45.659988
249.320007,271.339996,43.679993,45.659988
245.320007,271.339996,43.679993,45.659988
245.320007,271.339996,43.679993,45.659988
245.320007,271.339996,43.679993,45.659988
241.320007,271.339996,43.679993,45.659988
241.320007,271.339996,43.679993,45.659988
241.320007,271.339996,43.679993,45.659988
241.320007,271.339996,43.679993,45.659988
241.320007,271.339996,43.679993,45.659988
241.320007,271.339996,43.679993,45.659988
245.320007,271.339996,43.679993,45.659988
245.320007,271.339996,43.679993,45.659988
245.320007,271.339996,43.679993,45.659988
249.320007,271.339996,43.679993,45.659988
249.320007,271.339996,43.679993,45.659988
249.320007,271.339996,43.679993,45.659988
249.320007,275.339996,43.679993,45.659988
249.320007,275.339996,43.679993,45.659988
249.320007,275.339996,43.679993,45.659988
249.320007,275.339996,43.679993,45.659988
249.320007,275.339996,43.679993,45.659988
249.320007,275.339996,43.679993,45.659988
245.320007,275.339996,43.679993,45.659988
245.320007,275.339996,43.679993,45.659988
245.320007,275.339996,43.679993,45.659988
245.320007,275.339996,43.679993,45.659988
245.320007,271.339996,43.679993,45.659988
241.320007,271.339996,43.679993,45.659988
241.320007,271.339996,43.679993,45.659988
241.320007,267.339996,43.679993,45.659988
237.320007,271.339996,43.679993,45.659988
237.320007,271.339996,43.679993,45.659988
245.320007,287.339996,43.679993,45.659988
253.320007,303.339996,43.679993,45.659988
273.320007,311.339996,43.679993,45.659988
289.320007,319.339996,43.679993,45.659988
317.320007,327.339996,43.679993,45.659988
337.320007,331.339996,43.679993,45.659988
353.320007,331.339996,43.679993,45.659988
353.320007,335.339996,43.679993,45.659988
357.320007,335.339996,43.679993,45.659988
361.320007,327.339996,43.679993,45.659988
365.320007,319.339996,43.679993,45.659988
369.320007,319.339996,43.679993,45.659988
373.320007,319.339996,43.679993,45.659988
369.320007,319.339996,43.679993,45.659988
365.320007,323.339996,43.679993,45.659988
365.320007,323.339996,43.679993,45.659988
365.320007,327.339996,43.679993,45.659988
361.320007,327.339996,43.679993,45.659988
361.320007,327.339996,43.679993,45.659988
361.320007,327.339996,43.679993,45.659988
357.320007,331.339996,43.679993,45.659988
353.320007,331.339996,43.679993,45.659988
349.320007,331.339996,43.679993,45.659988
341.320007,327.339996,43.679993,45.659988
333.320007,323.339996,43.679993,45.659988
329.320007,319.339996,43.679993,45.659988
329.320007,319.339996,43.679993,45.659988
333.320007,319.339996,43.679993,45.659988
333.320007,319.339996,43.679993,45.659988
329.320007,319.339996,43.679993,45.659988
329.320007,319.339996,43.679993,45.659988
329.320007,319.339996,43.679993,45.659988
329.320007,319.339996,43.679993,45.659988
329.320007,315.339996,43.679993,45.659988
325.320007,307.339996,43.679993,45.659988
321.320007,307.339996,43.679993,45.659988
321.320007,307.339996,43.679993,45.659988
317.320007,315.339996,43.679993,45.659988
309.320007,315.339996,43.679993,45.659988
301.320007,319.339996,43.679993,45.659988
301.320007,319.339996,43.679993,45.659988
305.320007,319.339996,43.679993,45.659988
305.320007,319.339996,43.679993,45.659988
305.320007,319.339996,43.679993,45.659988
305.320007,315.339996,43.679993,45.659988
309.320007,311.339996,43.679993,45.659988
309.320007,307.339996,43.679993,45.659988
309.320007,303.339996,43.679993,45.659988
313.320007,295.339996,43.679993,45.659988
313.320007,295.339996,43.679993,45.659988
313.320007,295.339996,43.679993,45.659988
317.320007,295.339996,43.679993,45.659988
317.320007,295.339996,43.679993,45.659988
317.320007,295.339996,43.679993,45.659988
317.320007,291.339996,43.679993,45.659988
321.320007,287.339996,43.679993,45.659988
321.320007,287.339996,43.679993,45.659988
321.320007,287.339996,43.679993,45.659988
325.320007,283.339996,43.679993,45.659988
325.320007,283.339996,43.679993,45.659988
325.320007,275.339996,43.679993,45.659988
325.320007,275.339996,43.679993,45.659988
325.320007,275.339996,43.679993,45.659988
325.320007,275.339996,43.679993,45.659988
325.320007,275.339996,43.679993,45.659988
325.320007,275.339996,43.679993,45.659988
329.320007,271.339996,43.679993,45.659988
329.320007,271.339996,43.679993,45.659988
333.320007,271.339996,43.679993,45.659988
333.320007,271.339996,43.679993,45.659988
333.320007,271.339996,43.679993,45.659988
333.320007,271.339996,43.679993,45.659988
333.320007,271.339996,43.679993,45.659988
333.320007,271.339996,43.679993,45.659988
333.320007,271.339996,43.679993,45.659988
333.320007,267.339996,43.679993,45.659988
333.320007,267.339996,43.679993,45.659988
333.320007,263.339996,43.679993,45.659988
337.320007,255.339996,43.679993,45.659988
337.320007,255.339996,43.679993,45.659988
337.320007,251.339996,43.679993,45.659988
341.320007,251.339996,43.679993,45.659988
341.320007,247.339996,43.679993,45.659988
345.320007,247.339996,43.679993,45.659988
349.320007,247.339996,43.679993,45.659988
353.320007,247.339996,43.679993,45.659988
353.320007,247.339996,43.679993,45.659988
357.320007,247.339996,43.679993,45.659988
357.320007,247.339996,43.679993,45.659988
357.320007,247.339996,43.679993,45.659988
357.320007,247.339996,43.679993,45.659988
357.320007,247.339996,43.679993,45.659988
357.320007,247.339996,43.679993,45.659988
357.320007,247.339996,43.679993,45.659988
361.320007,247.339996,43.679993,45.659988
361.320007,247.339996,43.679993,45.659988
365.320007,247.339996,43.679993,45.659988
365.320007,247.339996,43.679993,45.659988
365.320007,247.339996,43.679993,45.659988
365.320007,247.339996,43.679993,45.659988
365.320007,247.339996,43.679993,45.659988
365.320007,243.339996,43.679993,45.659988
365.320007,243.339996,43.679993,45.659988
365.320007,239.339996,43.679993,45.659988
365.320007,239.339996,43.679993,45.659988
365.320007,239.339996,43.679993,45.659988
365.320007,243.339996,43.679993,45.659988
365.320007,243.339996,43.679993,45.659988
365.320007,247.339996,43.679993,45.659988
361.320007,251.339996,43.679993,45.659988
361.320007,251.339996,43.679993,45.659988
361.320007,251.339996,43.679993,45.659988
353.320007,255.339996,43.679993,45.659988
353.320007,251.339996,43.679993,45.659988
353.320007,251.339996,43.679993,45.659988
353.320007,243.339996,43.679993,45.659988
353.320007,243.339996,43.679993,45.659988
353.320007,243.339996,43.679993,45.659988
349.320007,247.339996,43.679993,45.659988
345.320007,247.339996,43.679993,45.659988
341.320007,243.339996,43.679993,45.659988
341.320007,243.339996,43.679993,45.659988
341.320007,243.339996,43.679993,45.659988
337.320007,243.339996,43.679993,45.659988
337.320007,243.339996,43.679993,45.659988
337.320007,239.339996,43.679993,45.659988
337.320007,239.339996,43.679993,45.659988
337.320007,239.339996,43.679993,45.659988
337.320007,239.339996,43.679993,45.659988
337.320007,235.339996,43.679993,45.659988
337.320007,235.339996,43.679993,45.659988
337.320007,231.339996,43.679993,45.659988
341.320007,231.339996,43.679993,45.659988
341.320007,227.339996,43.679993,45.659988
341.320007,227.339996,43.679993,45.659988
341.320007,227.339996,43.679993,45.659988
341.320007,227.339996,43.679993,45.659988
341.320007,227.339996,43.679993,45.659988
341.320007,227.339996,43.679993,45.659988
341.320007,227.339996,43.679993,45.659988
341.320007,227.339996,43.679993,45.659988
341.320007,223.339996,43.679993,45.659988
341.320007,223.339996,43.679993,45.659988
341.320007,219.339996,43.679993,45.659988
345.320007,219.339996,43.679993,45.659988
345.320007,219.339996,43.679993,45.659988
345.320007,219.339996,43.679993,45.659988
345.320007,219.339996,43.679993,45.659988
345.320007,219.339996,43.679993,45.659988
345.320007,219.339996,43.679993,45.659988
345.320007,219.339996,43.679993,45.659988
345.320007,215.339996,43.679993,45.659988
345.320007,215.339996,43.679993,45.659988
345.320007,215.339996,43.679993,45.659988
345.320007,215.339996,43.679993,45.659988
349.320007,215.339996,43.679993,45.659988
357.320007,215.339996,43.679993,45.659988
357.320007,219.339996,43.679993,45.659988
357.320007,223.339996,43.679993,45.659988
357.320007,231.339996,43.679993,45.659988
353.320007,231.339996,43.679993,45.659988
349.320007,235.339996,43.679993,45.659988
345.320007,235.339996,43.679993,45.659988
345.320007,239.339996,43.679993,45.659988
345.320007,239.339996,43.679993,45.659988
345.320007,239.339996,43.679993,45.659988
345.320007,239.339996,43.679993,45.659988
345.320007,239.339996,43.679993,45.659988
345.320007,243.339996,43.679993,45.659988
345.320007,243.339996,43.679993,45.659988
345.320007,239.339996,43.679993,45.659988
345.320007,239.339996,43.679993,45.659988
345.320007,239.339996,43.679993,45.659988
345.320007,239.339996,43.679993,45.659988
345.320007,239.339996,43.679993,45.659988
349.320007,239.339996,43.679993,45.659988
349.320007,239.339996,43.679993,45.659988
349.320007,235.339996,43.679993,45.659988
349.320007,235.339996,43.679993,45.659988
349.320007,235.339996,43.679993,45.659988
353.320007,235.339996,43.679993,45.659988
353.320007,235.339996,43.679993,45.659988
353.320007,235.339996,43.679993,45.659988
357.320007,235.339996,43.679993,45.659988
357.320007,235.339996,43.679993,45.659988
357.320007,235.339996,43.679993,45.659988
361.320007,235.339996,43.679993,45.659988
361.320007,239.339996,43.679993,45.659988
361.320007,239.339996,43.679993,45.659988
361.320007,239.339996,43.679993,45.659988
365.320007,239.339996,43.679993,45.659988
365.320007,239.339996,43.679993,45.659988
369.320007,239.339996,43.679993,45.659988
369.320007,239.339996,43.679993,45.659988
373.320007,239.339996,43.679993,45.659988
373.320007,239.339996,43.679993,45.659988
377.320007,239.339996,43.679993,45.659988
381.320007,239.339996,43.679993,45.659988
381.320007,239.339996,43.679993,45.659988
381.320007,239.339996,43.679993,45.659988
381.320007,239.339996,43.679993,45.659988
381.320007,235.339996,43.679993,45.659988
381.320007,235.339996,43.679993,45.659988
381.320007,235.339996,43.679993,45.659988
385.320007,235.339996,43.679993,45.659988
385.320007,235.339996,43.679993,45.659988
385.320007,235.339996,43.679993,45.659988
385.320007,231.339996,43.679993,45.659988
385.320007,231.339996,43.679993,45.659988
381.320007,231.339996,43.679993,45.659988
381.320007,231.339996,43.679993,45.659988
381.320007,235.339996,43.679993,45.659988
381.320007,235.339996,43.679993,45.659988
381.320007,235.339996,43.679993,45.659988
381.320007,235.339996,43.679993,45.659988
381.320007,235.339996,43.679993,45.659988
381.320007,235.339996,43.679993,45.659988
381.320007,235.339996,43.679993,45.659988
381.320007,235.339996,43.679993,45.659988
381.320007,235.339996,43.679993,45.659988
381.320007,235.339996,43.679993,45.659988
381.320007,235.339996,43.679993,45.659988
381.320007,231.339996,43.679993,45.659988
381.320007,231.339996,43.679993,45.659988
381.320007,231.339996,43.679993,45.659988
385.320007,227.339996,43.679993,45.659988
381.320007,227.339996,43.679993,45.659988
369.320007,235.339996,43.679993,45.659988
361.320007,235.339996,43.679993,45.659988
361.320007,235.339996,43.679993,45.659988
357.320007,235.339996,43.679993,45.659988
357.320007,235.339996,43.679993,45.659988
357.320007,235.339996,43.679993,45.659988
357.320007,235.339996,43.679993,45.659988
357.320007,235.339996,43.679993,45.659988
357.320007,235.339996,43.679993,45.659988
357.320007,235.339996,43.679993,45.659988
357.320007,235.339996,43.679993,45.659988
357.320007,235.339996,43.679993,45.659988
357.320007,235.339996,43.679993,45.659988
