1
302.000000,135.000000,66.000000,80.000000
298.000000,139.000000,66.000000,80.000000
298.000000,143.000000,66.000000,80.000000
298.000000,143.000000,66.000000,80.000000
302.000000,147.000000,66.000000,80.000000
306.000000,147.000000,66.000000,80.000000
306.000000,147.000000,66.000000,80.000000
306.000000,147.000000,66.000000,80.000000
306.000000,147.000000,66.000000,80.000000
306.000000,147.000000,66.000000,80.000000
310.000000,147.000000,66.000000,80.000000
318.000000,147.000000,66.000000,80.000000
326.000000,147.000000,66.000000,80.000000
330.000000,135.000000,66.000000,80.000000
334.000000,135.000000,66.000000,80.000000
334.000000,131.000000,66.000000,80.000000
334.000000,131.000000,66.000000,80.000000
334.000000,131.000000,66.000000,80.000000
338.000000,123.000000,66.000000,80.000000
342.000000,123.000000,66.000000,80.000000
350.000000,119.000000,66.000000,80.000000
354.000000,111.000000,66.000000,80.000000
358.000000,111.000000,66.000000,80.000000
366.000000,119.000000,66.000000,80.000000
378.000000,131.000000,66.000000,80.000000
378.000000,131.000000,66.000000,80.000000
378.000000,127.000000,66.000000,80.000000
374.000000,115.000000,66.000000,80.000000
362.000000,103.000000,66.000000,80.000000
354.000000,95.000000,66.000000,80.000000
346.000000,87.000000,66.000000,80.000000
342.000000,87.000000,66.000000,80.000000
342.000000,87.000000,66.000000,80.000000
342.000000,91.000000,66.000000,80.000000
354.000000,107.000000,66.000000,80.000000
366.000000,115.000000,66.000000,80.000000
378.000000,131.000000,66.000000,80.000000
378.000000,135.000000,66.000000,80.000000
378.000000,131.000000,66.000000,80.000000
370.000000,107.000000,66.000000,80.000000
366.000000,99.000000,66.000000,80.000000
366.000000,87.000000,66.000000,80.000000
366.000000,87.000000,66.000000,80.000000
366.000000,87.000000,66.000000,80.000000
366.000000,95.000000,66.000000,80.000000
370.000000,107.000000,66.000000,80.000000
374.000000,119.000000,66.000000,80.000000
382.000000,131.000000,66.000000,80.000000
382.000000,143.000000,66.000000,80.000000
378.000000,139.000000,66.000000,80.000000
374.000000,123.000000,66.000000,80.000000
370.000000,123.000000,66.000000,80.000000
366.000000,107.000000,66.000000,80.000000
366.000000,107.000000,66.000000,80.000000
366.000000,111.000000,66.000000,80.000000
354.000000,127.000000,66.000000,80.000000
354.000000,155.000000,66.000000,80.000000
358.000000,171.000000,66.000000,80.000000
366.000000,187.000000,66.000000,80.000000
346.000000,175.000000,66.000000,80.000000
334.000000,175.000000,66.000000,80.000000
322.000000,163.000000,66.000000,80.000000
322.000000,135.000000,66.000000,80.000000
322.000000,123.000000,66.000000,80.000000
310.000000,127.000000,66.000000,80.000000
310.000000,127.000000,66.000000,80.000000
310.000000,131.000000,66.000000,80.000000
306.000000,147.000000,66.000000,80.000000
306.000000,163.000000,66.000000,80.000000
306.000000,179.000000,66.000000,80.000000
306.000000,195.000000,66.000000,80.000000
294.000000,195.000000,66.000000,80.000000
286.000000,179.000000,66.000000,80.000000
278.000000,179.000000,66.000000,80.000000
278.000000,151.000000,66.000000,80.000000
274.000000,135.000000,66.000000,80.000000
270.000000,131.000000,66.000000,80.000000
270.000000,131.000000,66.000000,80.000000
270.000000,131.000000,66.000000,80.000000
262.000000,147.000000,66.000000,80.000000
262.000000,159.000000,66.000000,80.000000
258.000000,179.000000,66.000000,80.000000
258.000000,191.000000,66.000000,80.000000
258.000000,191.000000,66.000000,80.000000
254.000000,191.000000,66.000000,80.000000
250.000000,175.000000,66.000000,80.000000
242.000000,175.000000,66.000000,80.000000
238.000000,179.000000,66.000000,80.000000
238.000000,191.000000,66.000000,80.000000
238.000000,203.000000,66.000000,80.000000
238.000000,215.000000,66.000000,80.000000
238.000000,215.000000,66.000000,80.000000
238.000000,215.000000,66.000000,80.000000
238.000000,215.000000,66.000000,80.000000
238.000000,215.000000,66.000000,80.000000
242.000000,215.000000,66.000000,80.000000
242.000000,215.000000,66.000000,80.000000
242.000000,215.000000,66.000000,80.000000
242.000000,215.000000,66.000000,80.000000
246.000000,211.000000,66.000000,80.000000
250.000000,207.000000,66.000000,80.000000
250.000000,199.000000,66.000000,80.000000
254.000000,195.000000,66.000000,80.000000
254.000000,191.000000,66.000000,80.000000
254.000000,187.000000,66.000000,80.000000
254.000000,183.000000,66.000000,80.000000
242.000000,179.000000,66.000000,80.000000
242.000000,179.000000,66.000000,80.000000
222.000000,159.000000,66.000000,80.000000
230.000000,167.000000,66.000000,80.000000
238.000000,167.000000,66.000000,80.000000
246.000000,163.000000,66.000000,80.000000
242.000000,163.000000,66.000000,80.000000
238.000000,151.000000,66.000000,80.000000
242.000000,155.000000,66.000000,80.000000
222.000000,151.000000,66.000000,80.000000
226.000000,155.000000,66.000000,80.000000
226.000000,155.000000,66.000000,80.000000
230.000000,155.000000,66.000000,80.000000
206.000000,167.000000,66.000000,80.000000
226.000000,159.000000,66.000000,80.000000
230.000000,159.000000,66.000000,80.000000
234.000000,159.000000,66.000000,80.000000
234.000000,163.000000,66.000000,80.000000
238.000000,163.000000,66.000000,80.000000
246.000000,163.000000,66.000000,80.000000
246.000000,135.000000,66.000000,80.000000
282.000000,135.000000,66.000000,80.000000
286.000000,135.000000,66.000000,80.000000
298.000000,151.000000,66.000000,80.000000
294.000000,143.000000,66.000000,80.000000
294.000000,147.000000,66.000000,80.000000
294.000000,147.000000,66.000000,80.000000
302.000000,151.000000,66.000000,80.000000
302.000000,151.000000,66.000000,80.000000
306.000000,151.000000,66.000000,80.000000
306.000000,151.000000,66.000000,80.000000
306.000000,151.000000,66.000000,80.000000
306.000000,151.000000,66.000000,80.000000
302.000000,151.000000,66.000000,80.000000
302.000000,151.000000,66.000000,80.000000
302.000000,151.000000,66.000000,80.000000
298.000000,151.000000,66.000000,80.000000
298.000000,147.000000,66.000000,80.000000
298.000000,147.000000,66.000000,80.000000
290.000000,143.000000,66.000000,80.000000
282.000000,143.000000,66.000000,80.000000
274.000000,139.000000,66.000000,80.000000
270.000000,139.000000,66.000000,80.000000
266.000000,139.000000,66.000000,80.000000
258.000000,139.000000,66.000000,80.000000
246.000000,139.000000,66.000000,80.000000
246.000000,139.000000,66.000000,80.000000
242.000000,139.000000,66.000000,80.000000
242.000000,139.000000,66.000000,80.000000
242.000000,139.000000,66.000000,80.000000
234.000000,139.000000,66.000000,80.000000
234.000000,139.000000,66.000000,80.000000
230.000000,139.000000,66.000000,80.000000
230.000000,143.000000,66.000000,80.000000
234.000000,143.000000,66.000000,80.000000
238.000000,143.000000,66.000000,80.000000
242.000000,147.000000,66.000000,80.000000
246.000000,151.000000,66.000000,80.000000
254.000000,151.000000,66.000000,80.000000
262.000000,151.000000,66.000000,80.000000
270.000000,163.000000,66.000000,80.000000
282.000000,163.000000,66.000000,80.000000
290.000000,163.000000,66.000000,80.000000
290.000000,167.000000,66.000000,80.000000
294.000000,171.000000,66.000000,80.000000
298.000000,175.000000,66.000000,80.000000
302.000000,179.000000,66.000000,80.000000
306.000000,179.000000,66.000000,80.000000
310.000000,183.000000,66.000000,80.000000
314.000000,183.000000,66.000000,80.000000
322.000000,183.000000,66.000000,80.000000
326.000000,187.000000,66.000000,80.000000
326.000000,187.000000,66.000000,80.000000
326.000000,187.000000,66.000000,80.000000
330.000000,187.000000,66.000000,80.000000
334.000000,187.000000,66.000000,80.000000
342.000000,183.000000,66.000000,80.000000
346.000000,183.000000,66.000000,80.000000
354.000000,183.000000,66.000000,80.000000
358.000000,171.000000,66.000000,80.000000
366.000000,175.000000,66.000000,80.000000
370.000000,183.000000,66.000000,80.000000
378.000000,191.000000,66.000000,80.000000
374.000000,187.000000,66.000000,80.000000
370.000000,183.000000,66.000000,80.000000
358.000000,167.000000,66.000000,80.000000
354.000000,163.000000,66.000000,80.000000
354.000000,163.000000,66.000000,80.000000
354.000000,163.000000,66.000000,80.000000
358.000000,175.000000,66.000000,80.000000
362.000000,187.000000,66.000000,80.000000
366.000000,191.000000,66.000000,80.000000
362.000000,191.000000,66.000000,80.000000
358.000000,175.000000,66.000000,80.000000
358.000000,163.000000,66.000000,80.000000
358.000000,151.000000,66.000000,80.000000
358.000000,147.000000,66.000000,80.000000
358.000000,147.000000,66.000000,80.000000
358.000000,151.000000,66.000000,80.000000
354.000000,163.000000,66.000000,80.000000
354.000000,175.000000,66.000000,80.000000
346.000000,175.000000,66.000000,80.000000
338.000000,175.000000,66.000000,80.000000
326.000000,163.000000,66.000000,80.000000
322.000000,159.000000,66.000000,80.000000
322.000000,147.000000,66.000000,80.000000
318.000000,151.000000,66.000000,80.000000
314.000000,163.000000,66.000000,80.000000
310.000000,167.000000,66.000000,80.000000
310.000000,179.000000,66.000000,80.000000
310.000000,187.000000,66.000000,80.000000
310.000000,187.000000,66.000000,80.000000
310.000000,187.000000,66.000000,80.000000
310.000000,183.000000,66.000000,80.000000
310.000000,179.000000,66.000000,80.000000
314.000000,167.000000,66.000000,80.000000
310.000000,167.000000,66.000000,80.000000
310.000000,171.000000,66.000000,80.000000
310.000000,179.000000,66.000000,80.000000
310.000000,187.000000,66.000000,80.000000
310.000000,187.000000,66.000000,80.000000
306.000000,183.000000,66.000000,80.000000
298.000000,171.000000,66.000000,80.000000
298.000000,167.000000,66.000000,80.000000
294.000000,159.000000,66.000000,80.000000
294.000000,159.000000,66.000000,80.000000
294.000000,159.000000,66.000000,80.000000
294.000000,171.000000,66.000000,80.000000
294.000000,175.000000,66.000000,80.000000
294.000000,179.000000,66.000000,80.000000
294.000000,179.000000,66.000000,80.000000
298.000000,167.000000,66.000000,80.000000
302.000000,171.000000,66.000000,80.000000
302.000000,175.000000,66.000000,80.000000
306.000000,179.000000,66.000000,80.000000
306.000000,179.000000,66.000000,80.000000
306.000000,175.000000,66.000000,80.000000
306.000000,163.000000,66.000000,80.000000
302.000000,159.000000,66.000000,80.000000
302.000000,147.000000,66.000000,80.000000
302.000000,147.000000,66.000000,80.000000
302.000000,143.000000,66.000000,80.000000
302.000000,143.000000,66.000000,80.000000
302.000000,151.000000,66.000000,80.000000
302.000000,151.000000,66.000000,80.000000
306.000000,151.000000,66.000000,80.000000
306.000000,143.000000,66.000000,80.000000
302.000000,131.000000,66.000000,80.000000
302.000000,127.000000,66.000000,80.000000
302.000000,123.000000,66.000000,80.000000
302.000000,123.000000,66.000000,80.000000
302.000000,123.000000,66.000000,80.000000
302.000000,123.000000,66.000000,80.000000
298.000000,131.000000,66.000000,80.000000
298.000000,131.000000,66.000000,80.000000
294.000000,131.000000,66.000000,80.000000
294.000000,131.000000,66.000000,80.000000
290.000000,123.000000,66.000000,80.000000
290.000000,119.000000,66.000000,80.000000
290.000000,119.000000,66.000000,80.000000
286.000000,119.000000,66.000000,80.000000
286.000000,123.000000,66.000000,80.000000
282.000000,131.000000,66.000000,80.000000
282.000000,139.000000,66.000000,80.000000
282.000000,143.000000,66.000000,80.000000
282.000000,143.000000,66.000000,80.000000
282.000000,143.000000,66.000000,80.000000
282.000000,139.000000,66.000000,80.000000
282.000000,139.000000,66.000000,80.000000
286.000000,139.000000,66.000000,80.000000
286.000000,139.000000,66.000000,80.000000
290.000000,143.000000,66.000000,80.000000
290.000000,147.000000,66.000000,80.000000
290.000000,151.000000,66.000000,80.000000
290.000000,151.000000,66.000000,80.000000
290.000000,147.000000,66.000000,80.000000
290.000000,135.000000,66.000000,80.000000
290.000000,135.000000,66.000000,80.000000
290.000000,131.000000,66.000000,80.000000
290.000000,131.000000,66.000000,80.000000
290.000000,131.000000,66.000000,80.000000
290.000000,135.000000,66.000000,80.000000
290.000000,139.000000,66.000000,80.000000
290.000000,139.000000,66.000000,80.000000
290.000000,131.000000,66.000000,80.000000
294.000000,127.000000,66.000000,80.000000
294.000000,123.000000,66.000000,80.000000
298.000000,123.000000,66.000000,80.000000
302.000000,123.000000,66.000000,80.000000
302.000000,127.000000,66.000000,80.000000
302.000000,131.000000,66.000000,80.000000
302.000000,135.000000,66.000000,80.000000
302.000000,135.000000,66.000000,80.000000
302.000000,131.000000,66.000000,80.000000
302.000000,119.000000,66.000000,80.000000
302.000000,119.000000,66.000000,80.000000
302.000000,115.000000,66.000000,80.000000
302.000000,115.000000,66.000000,80.000000
302.000000,119.000000,66.000000,80.000000
302.000000,123.000000,66.000000,80.000000
302.000000,135.000000,66.000000,80.000000
302.000000,135.000000,66.000000,80.000000
306.000000,139.000000,66.000000,80.000000
306.000000,135.000000,66.000000,80.000000
306.000000,127.000000,66.000000,80.000000
310.000000,123.000000,66.000000,80.000000
310.000000,119.000000,66.000000,80.000000
310.000000,119.000000,66.000000,80.000000
310.000000,119.000000,66.000000,80.000000
310.000000,123.000000,66.000000,80.000000
310.000000,127.000000,66.000000,80.000000
310.000000,127.000000,66.000000,80.000000
310.000000,123.000000,66.000000,80.000000
310.000000,115.000000,66.000000,80.000000
310.000000,107.000000,66.000000,80.000000
310.000000,107.000000,66.000000,80.000000
306.000000,103.000000,66.000000,80.000000
306.000000,103.000000,66.000000,80.000000
302.000000,107.000000,66.000000,80.000000
302.000000,119.000000,66.000000,80.000000
298.000000,119.000000,66.000000,80.000000
298.000000,119.000000,66.000000,80.000000
298.000000,119.000000,66.000000,80.000000
294.000000,115.000000,66.000000,80.000000
294.000000,107.000000,66.000000,80.000000
294.000000,107.000000,66.000000,80.000000
294.000000,107.000000,66.000000,80.000000
294.000000,107.000000,66.000000,80.000000
294.000000,119.000000,66.000000,80.000000
294.000000,123.000000,66.000000,80.000000
294.000000,127.000000,66.000000,80.000000
298.000000,131.000000,66.000000,80.000000
298.000000,127.000000,66.000000,80.000000
302.000000,115.000000,66.000000,80.000000
302.000000,111.000000,66.000000,80.000000
302.000000,111.000000,66.000000,80.000000
306.000000,111.000000,66.000000,80.000000
306.000000,115.000000,66.000000,80.000000
306.000000,119.000000,66.000000,80.000000
310.000000,123.000000,66.000000,80.000000
310.000000,123.000000,66.000000,80.000000
314.000000,123.000000,66.000000,80.000000
314.000000,123.000000,66.000000,80.000000
314.000000,123.000000,66.000000,80.000000
310.000000,123.000000,66.000000,80.000000
306.000000,123.000000,66.000000,80.000000
302.000000,123.000000,66.000000,80.000000
302.000000,123.000000,66.000000,80.000000
302.000000,123.000000,66.000000,80.000000
302.000000,123.000000,66.000000,80.000000
302.000000,123.000000,66.000000,80.000000
302.000000,123.000000,66.000000,80.000000
302.000000,123.000000,66.000000,80.000000
298.000000,123.000000,66.000000,80.000000
294.000000,123.000000,66.000000,80.000000
294.000000,123.000000,66.000000,80.000000
294.000000,123.000000,66.000000,80.000000
294.000000,123.000000,66.000000,80.000000
294.000000,123.000000,66.000000,80.000000
290.000000,123.000000,66.000000,80.000000
290.000000,123.000000,66.000000,80.000000
290.000000,123.000000,66.000000,80.000000
290.000000,123.000000,66.000000,80.000000
290.000000,123.000000,66.000000,80.000000
294.000000,123.000000,66.000000,80.000000
294.000000,123.000000,66.000000,80.000000
294.000000,127.000000,66.000000,80.000000
294.000000,127.000000,66.000000,80.000000
294.000000,127.000000,66.000000,80.000000
298.000000,131.000000,66.000000,80.000000
302.000000,131.000000,66.000000,80.000000
306.000000,135.000000,66.000000,80.000000
310.000000,139.000000,66.000000,80.000000
314.000000,143.000000,66.000000,80.000000
318.000000,147.000000,66.000000,80.000000
322.000000,147.000000,66.000000,80.000000
334.000000,143.000000,66.000000,80.000000
338.000000,143.000000,66.000000,80.000000
338.000000,143.000000,66.000000,80.000000
338.000000,151.000000,66.000000,80.000000
338.000000,163.000000,66.000000,80.000000
334.000000,163.000000,66.000000,80.000000
334.000000,167.000000,66.000000,80.000000
334.000000,171.000000,66.000000,80.000000
334.000000,183.000000,66.000000,80.000000
