1
326.000000,417.500000,14.000000,37.000000
326.000000,417.500000,14.000000,37.000000
326.000000,421.500000,14.000000,37.000000
326.000000,417.500000,14.000000,37.000000
326.000000,421.500000,14.000000,37.000000
326.000000,421.500000,14.000000,37.000000
322.000000,425.500000,14.000000,37.000000
322.000000,425.500000,14.000000,37.000000
322.000000,425.500000,14.000000,37.000000
322.000000,425.500000,14.000000,37.000000
318.000000,425.500000,14.000000,37.000000
318.000000,425.500000,14.000000,37.000000
318.000000,425.500000,14.000000,37.000000
318.000000,425.500000,14.000000,37.000000
318.000000,425.500000,14.000000,37.000000
318.000000,425.500000,14.000000,37.000000
318.000000,425.500000,14.000000,37.000000
318.000000,425.500000,14.000000,37.000000
318.000000,425.500000,14.000000,37.000000
318.000000,425.500000,14.000000,37.000000
318.000000,425.500000,14.000000,37.000000
318.000000,425.500000,14.000000,37.000000
318.000000,425.500000,14.000000,37.000000
318.000000,425.500000,14.000000,37.000000
318.000000,425.500000,14.000000,37.000000
318.000000,429.500000,14.000000,37.000000
322.000000,433.500000,14.000000,37.000000
322.000000,433.500000,14.000000,37.000000
322.000000,437.500000,14.000000,37.000000
322.000000,433.500000,14.000000,37.000000
322.000000,433.500000,14.000000,37.000000
322.000000,433.500000,14.000000,37.000000
322.000000,429.500000,14.000000,37.000000
322.000000,429.500000,14.000000,37.000000
322.000000,429.500000,14.000000,37.000000
318.000000,429.500000,14.000000,37.000000
318.000000,433.500000,14.000000,37.000000
314.000000,437.500000,14.000000,37.000000
314.000000,441.500000,14.000000,37.000000
314.000000,441.500000,14.000000,37.000000
314.000000,445.500000,14.000000,37.000000
310.000000,445.500000,14.000000,37.000000
310.000000,441.500000,14.000000,37.000000
310.000000,437.500000,14.000000,37.000000
310.000000,433.500000,14.000000,37.000000
306.000000,429.500000,14.000000,37.000000
302.000000,425.500000,14.000000,37.000000
302.000000,425.500000,14.000000,37.000000
302.000000,425.500000,14.000000,37.000000
302.000000,425.500000,14.000000,37.000000
302.000000,429.500000,14.000000,37.000000
302.000000,429.500000,14.000000,37.000000
302.000000,429.500000,14.000000,37.000000
302.000000,429.500000,14.000000,37.000000
298.000000,429.500000,14.000000,37.000000
298.000000,429.500000,14.000000,37.000000
294.000000,429.500000,14.000000,37.000000
294.000000,429.500000,14.000000,37.000000
294.000000,425.500000,14.000000,37.000000
294.000000,425.500000,14.000000,37.000000
290.000000,421.500000,14.000000,37.000000
290.000000,421.500000,14.000000,37.000000
286.000000,421.500000,14.000000,37.000000
286.000000,421.500000,14.000000,37.000000
286.000000,421.500000,14.000000,37.000000
286.000000,421.500000,14.000000,37.000000
290.000000,425.500000,14.000000,37.000000
290.000000,425.500000,14.000000,37.000000
290.000000,425.500000,14.000000,37.000000
290.000000,425.500000,14.000000,37.000000
290.000000,425.500000,14.000000,37.000000
290.000000,425.500000,14.000000,37.000000
290.000000,425.500000,14.000000,37.000000
290.000000,421.500000,14.000000,37.000000
290.000000,417.500000,14.000000,37.000000
286.000000,417.500000,14.000000,37.000000
286.000000,417.500000,14.000000,37.000000
286.000000,413.500000,14.000000,37.000000
286.000000,409.500000,14.000000,37.000000
286.000000,405.500000,14.000000,37.000000
282.000000,405.500000,14.000000,37.000000
282.000000,401.500000,14.000000,37.000000
282.000000,397.500000,14.000000,37.000000
282.000000,393.500000,14.000000,37.000000
282.000000,389.500000,14.000000,37.000000
282.000000,389.500000,14.000000,37.000000
282.000000,389.500000,14.000000,37.000000
278.000000,385.500000,14.000000,37.000000
278.000000,381.500000,14.000000,37.000000
278.000000,381.500000,14.000000,37.000000
278.000000,381.500000,14.000000,37.000000
278.000000,381.500000,14.000000,37.000000
278.000000,381.500000,14.000000,37.000000
282.000000,381.500000,14.000000,37.000000
282.000000,381.500000,14.000000,37.000000
282.000000,385.500000,14.000000,37.000000
282.000000,385.500000,14.000000,37.000000
282.000000,389.500000,14.000000,37.000000
282.000000,389.500000,14.000000,37.000000
282.000000,389.500000,14.000000,37.000000
282.000000,389.500000,14.000000,37.000000
278.000000,389.500000,14.000000,37.000000
278.000000,389.500000,14.000000,37.000000
278.000000,389.500000,14.000000,37.000000
278.000000,389.500000,14.000000,37.000000
274.000000,389.500000,14.000000,37.000000
270.000000,389.500000,14.000000,37.000000
270.000000,389.500000,14.000000,37.000000
266.000000,389.500000,14.000000,37.000000
266.000000,389.500000,14.000000,37.000000
266.000000,389.500000,14.000000,37.000000
266.000000,389.500000,14.000000,37.000000
266.000000,389.500000,14.000000,37.000000
266.000000,389.500000,14.000000,37.000000
266.000000,389.500000,14.000000,37.000000
266.000000,389.500000,14.000000,37.000000
266.000000,389.500000,14.000000,37.000000
262.000000,389.500000,14.000000,37.000000
262.000000,389.500000,14.000000,37.000000
262.000000,389.500000,14.000000,37.000000
262.000000,389.500000,14.000000,37.000000
262.000000,389.500000,14.000000,37.000000
262.000000,389.500000,14.000000,37.000000
262.000000,393.500000,14.000000,37.000000
262.000000,397.500000,14.000000,37.000000
262.000000,397.500000,14.000000,37.000000
262.000000,401.500000,14.000000,37.000000
262.000000,401.500000,14.000000,37.000000
262.000000,401.500000,14.000000,37.000000
266.000000,401.500000,14.000000,37.000000
266.000000,401.500000,14.000000,37.000000
266.000000,401.500000,14.000000,37.000000
266.000000,401.500000,14.000000,37.000000
266.000000,401.500000,14.000000,37.000000
266.000000,397.500000,14.000000,37.000000
266.000000,397.500000,14.000000,37.000000
266.000000,397.500000,14.000000,37.000000
266.000000,397.500000,14.000000,37.000000
266.000000,397.500000,14.000000,37.000000
262.000000,401.500000,14.000000,37.000000
262.000000,401.500000,14.000000,37.000000
262.000000,401.500000,14.000000,37.000000
262.000000,401.500000,14.000000,37.000000
262.000000,401.500000,14.000000,37.000000
262.000000,401.500000,14.000000,37.000000
262.000000,397.500000,14.000000,37.000000
262.000000,397.500000,14.000000,37.000000
258.000000,397.500000,14.000000,37.000000
258.000000,397.500000,14.000000,37.000000
254.000000,393.500000,14.000000,37.000000
254.000000,393.500000,14.000000,37.000000
250.000000,393.500000,14.000000,37.000000
250.000000,389.500000,14.000000,37.000000
246.000000,385.500000,14.000000,37.000000
242.000000,385.500000,14.000000,37.000000
242.000000,381.500000,14.000000,37.000000
238.000000,385.500000,14.000000,37.000000
238.000000,389.500000,14.000000,37.000000
238.000000,393.500000,14.000000,37.000000
238.000000,393.500000,14.000000,37.000000
238.000000,397.500000,14.000000,37.000000
242.000000,405.500000,14.000000,37.000000
250.000000,405.500000,14.000000,37.000000
258.000000,405.500000,14.000000,37.000000
266.000000,401.500000,14.000000,37.000000
274.000000,401.500000,14.000000,37.000000
278.000000,401.500000,14.000000,37.000000
278.000000,401.500000,14.000000,37.000000
278.000000,397.500000,14.000000,37.000000
278.000000,389.500000,14.000000,37.000000
278.000000,389.500000,14.000000,37.000000
274.000000,389.500000,14.000000,37.000000
270.000000,393.500000,14.000000,37.000000
2
0
0
0
0
1
219.160004,387.994995,16.339996,44.670013
215.160004,387.994995,16.339996,44.670013
211.160004,387.994995,16.339996,44.670013
207.160004,391.994995,16.339996,44.670013
203.160004,391.994995,16.339996,44.670013
199.160004,395.994995,16.339996,44.670013
195.160004,395.994995,16.339996,44.670013
191.160004,395.994995,16.339996,44.670013
191.160004,395.994995,16.339996,44.670013
187.160004,399.994995,16.339996,44.670013
187.160004,403.994995,16.339996,44.670013
187.160004,403.994995,16.339996,44.670013
187.160004,403.994995,16.339996,44.670013
187.160004,403.994995,16.339996,44.670013
187.160004,403.994995,16.339996,44.670013
191.160004,403.994995,16.339996,44.670013
195.160004,403.994995,16.339996,44.670013
195.160004,399.994995,16.339996,44.670013
199.160004,399.994995,16.339996,44.670013
203.160004,395.994995,16.339996,44.670013
207.160004,391.994995,16.339996,44.670013
207.160004,391.994995,16.339996,44.670013
207.160004,391.994995,16.339996,44.670013
211.160004,395.994995,16.339996,44.670013
215.160004,399.994995,16.339996,44.670013
219.160004,399.994995,16.339996,44.670013
219.160004,399.994995,16.339996,44.670013
223.160004,399.994995,16.339996,44.670013
223.160004,399.994995,16.339996,44.670013
215.160004,399.994995,16.339996,44.670013
211.160004,399.994995,16.339996,44.670013
211.160004,403.994995,16.339996,44.670013
207.160004,403.994995,16.339996,44.670013
207.160004,407.994995,16.339996,44.670013
207.160004,407.994995,16.339996,44.670013
207.160004,407.994995,16.339996,44.670013
207.160004,407.994995,16.339996,44.670013
207.160004,411.994995,16.339996,44.670013
207.160004,411.994995,16.339996,44.670013
207.160004,407.994995,16.339996,44.670013
211.160004,411.994995,16.339996,44.670013
211.160004,407.994995,16.339996,44.670013
211.160004,407.994995,16.339996,44.670013
215.160004,407.994995,16.339996,44.670013
215.160004,407.994995,16.339996,44.670013
215.160004,407.994995,16.339996,44.670013
219.160004,407.994995,16.339996,44.670013
219.160004,411.994995,16.339996,44.670013
219.160004,411.994995,16.339996,44.670013
219.160004,415.994995,16.339996,44.670013
219.160004,419.994995,16.339996,44.670013
219.160004,423.994995,16.339996,44.670013
219.160004,427.994995,16.339996,44.670013
219.160004,427.994995,16.339996,44.670013
219.160004,431.994995,16.339996,44.670013
215.160004,435.994995,16.339996,44.670013
215.160004,439.994995,16.339996,44.670013
211.160004,439.994995,16.339996,44.670013
211.160004,435.994995,16.339996,44.670013
211.160004,435.994995,16.339996,44.670013
211.160004,431.994995,16.339996,44.670013
211.160004,431.994995,16.339996,44.670013
211.160004,431.994995,16.339996,44.670013
211.160004,427.994995,16.339996,44.670013
211.160004,427.994995,16.339996,44.670013
211.160004,427.994995,16.339996,44.670013
211.160004,427.994995,16.339996,44.670013
211.160004,431.994995,16.339996,44.670013
215.160004,431.994995,16.339996,44.670013
215.160004,435.994995,16.339996,44.670013
215.160004,435.994995,16.339996,44.670013
219.160004,439.994995,16.339996,44.670013
223.160004,439.994995,16.339996,44.670013
223.160004,439.994995,16.339996,44.670013
223.160004,443.994995,16.339996,44.670013
227.160004,443.994995,16.339996,44.670013
227.160004,447.994995,16.339996,44.670013
227.160004,451.994995,16.339996,44.670013
227.160004,451.994995,16.339996,44.670013
227.160004,451.994995,16.339996,44.670013
223.160004,455.994995,16.339996,44.670013
223.160004,459.994995,16.339996,44.670013
219.160004,459.994995,16.339996,44.670013
219.160004,459.994995,16.339996,44.670013
219.160004,463.994995,16.339996,44.670013
219.160004,463.994995,16.339996,44.670013
219.160004,463.994995,16.339996,44.670013
215.160004,467.994995,16.339996,44.670013
215.160004,467.994995,16.339996,44.670013
215.160004,467.994995,16.339996,44.670013
215.160004,463.994995,16.339996,44.670013
211.160004,455.994995,16.339996,44.670013
211.160004,451.994995,16.339996,44.670013
207.160004,447.994995,16.339996,44.670013
207.160004,443.994995,16.339996,44.670013
203.160004,439.994995,16.339996,44.670013
203.160004,435.994995,16.339996,44.670013
203.160004,435.994995,16.339996,44.670013
207.160004,435.994995,16.339996,44.670013
207.160004,435.994995,16.339996,44.670013
211.160004,435.994995,16.339996,44.670013
211.160004,435.994995,16.339996,44.670013
211.160004,439.994995,16.339996,44.670013
211.160004,439.994995,16.339996,44.670013
211.160004,439.994995,16.339996,44.670013
211.160004,435.994995,16.339996,44.670013
211.160004,435.994995,16.339996,44.670013
203.160004,435.994995,16.339996,44.670013
195.160004,435.994995,16.339996,44.670013
191.160004,439.994995,16.339996,44.670013
183.160004,443.994995,16.339996,44.670013
179.160004,443.994995,16.339996,44.670013
175.160004,447.994995,16.339996,44.670013
167.160004,447.994995,16.339996,44.670013
163.160004,447.994995,16.339996,44.670013
163.160004,451.994995,16.339996,44.670013
163.160004,455.994995,16.339996,44.670013
163.160004,455.994995,16.339996,44.670013
163.160004,459.994995,16.339996,44.670013
167.160004,463.994995,16.339996,44.670013
171.160004,463.994995,16.339996,44.670013
175.160004,463.994995,16.339996,44.670013
179.160004,463.994995,16.339996,44.670013
183.160004,463.994995,16.339996,44.670013
187.160004,467.994995,16.339996,44.670013
187.160004,471.994995,16.339996,44.670013
187.160004,471.994995,16.339996,44.670013
187.160004,475.994995,16.339996,44.670013
187.160004,475.994995,16.339996,44.670013
187.160004,475.994995,16.339996,44.670013
187.160004,471.994995,16.339996,44.670013
187.160004,467.994995,16.339996,44.670013
187.160004,463.994995,16.339996,44.670013
179.160004,455.994995,16.339996,44.670013
175.160004,447.994995,16.339996,44.670013
175.160004,443.994995,16.339996,44.670013
175.160004,439.994995,16.339996,44.670013
175.160004,443.994995,16.339996,44.670013
183.160004,447.994995,16.339996,44.670013
191.160004,451.994995,16.339996,44.670013
195.160004,451.994995,16.339996,44.670013
207.160004,451.994995,16.339996,44.670013
215.160004,459.994995,16.339996,44.670013
223.160004,463.994995,16.339996,44.670013
227.160004,467.994995,16.339996,44.670013
231.160004,467.994995,16.339996,44.670013
239.160004,467.994995,16.339996,44.670013
247.160004,467.994995,16.339996,44.670013
251.160004,463.994995,16.339996,44.670013
255.160004,455.994995,16.339996,44.670013
255.160004,451.994995,16.339996,44.670013
259.160004,451.994995,16.339996,44.670013
263.160004,447.994995,16.339996,44.670013
263.160004,443.994995,16.339996,44.670013
263.160004,443.994995,16.339996,44.670013
263.160004,443.994995,16.339996,44.670013
263.160004,447.994995,16.339996,44.670013
267.160004,451.994995,16.339996,44.670013
267.160004,451.994995,16.339996,44.670013
267.160004,451.994995,16.339996,44.670013
263.160004,447.994995,16.339996,44.670013
263.160004,447.994995,16.339996,44.670013
263.160004,443.994995,16.339996,44.670013
263.160004,439.994995,16.339996,44.670013
263.160004,439.994995,16.339996,44.670013
263.160004,439.994995,16.339996,44.670013
263.160004,439.994995,16.339996,44.670013
263.160004,439.994995,16.339996,44.670013
263.160004,435.994995,16.339996,44.670013
263.160004,431.994995,16.339996,44.670013
263.160004,427.994995,16.339996,44.670013
263.160004,423.994995,16.339996,44.670013
263.160004,423.994995,16.339996,44.670013
263.160004,423.994995,16.339996,44.670013
263.160004,419.994995,16.339996,44.670013
263.160004,415.994995,16.339996,44.670013
267.160004,411.994995,16.339996,44.670013
271.160004,407.994995,16.339996,44.670013
271.160004,407.994995,16.339996,44.670013
271.160004,407.994995,16.339996,44.670013
271.160004,403.994995,16.339996,44.670013
271.160004,407.994995,16.339996,44.670013
275.160004,407.994995,16.339996,44.670013
275.160004,411.994995,16.339996,44.670013
275.160004,411.994995,16.339996,44.670013
275.160004,411.994995,16.339996,44.670013
275.160004,419.994995,16.339996,44.670013
275.160004,427.994995,16.339996,44.670013
271.160004,431.994995,16.339996,44.670013
271.160004,435.994995,16.339996,44.670013
267.160004,439.994995,16.339996,44.670013
267.160004,439.994995,16.339996,44.670013
267.160004,439.994995,16.339996,44.670013
267.160004,439.994995,16.339996,44.670013
271.160004,443.994995,16.339996,44.670013
271.160004,439.994995,16.339996,44.670013
271.160004,439.994995,16.339996,44.670013
271.160004,439.994995,16.339996,44.670013
275.160004,435.994995,16.339996,44.670013
279.160004,435.994995,16.339996,44.670013
279.160004,439.994995,16.339996,44.670013
279.160004,443.994995,16.339996,44.670013
279.160004,443.994995,16.339996,44.670013
279.160004,443.994995,16.339996,44.670013
275.160004,443.994995,16.339996,44.670013
275.160004,443.994995,16.339996,44.670013
275.160004,443.994995,16.339996,44.670013
275.160004,443.994995,16.339996,44.670013
275.160004,443.994995,16.339996,44.670013
275.160004,447.994995,16.339996,44.670013
275.160004,447.994995,16.339996,44.670013
275.160004,447.994995,16.339996,44.670013
275.160004,447.994995,16.339996,44.670013
271.160004,447.994995,16.339996,44.670013
271.160004,451.994995,16.339996,44.670013
275.160004,459.994995,16.339996,44.670013
275.160004,467.994995,16.339996,44.670013
275.160004,471.994995,16.339996,44.670013
275.160004,475.994995,16.339996,44.670013
275.160004,483.994995,16.339996,44.670013
275.160004,495.994995,16.339996,44.670013
275.160004,499.994995,16.339996,44.670013
275.160004,495.994995,16.339996,44.670013
271.160004,491.994995,16.339996,44.670013
267.160004,487.994995,16.339996,44.670013
263.160004,483.994995,16.339996,44.670013
259.160004,475.994995,16.339996,44.670013
255.160004,463.994995,16.339996,44.670013
251.160004,451.994995,16.339996,44.670013
251.160004,443.994995,16.339996,44.670013
251.160004,443.994995,16.339996,44.670013
251.160004,443.994995,16.339996,44.670013
255.160004,443.994995,16.339996,44.670013
255.160004,443.994995,16.339996,44.670013
255.160004,447.994995,16.339996,44.670013
255.160004,451.994995,16.339996,44.670013
255.160004,451.994995,16.339996,44.670013
255.160004,451.994995,16.339996,44.670013
255.160004,447.994995,16.339996,44.670013
255.160004,447.994995,16.339996,44.670013
255.160004,447.994995,16.339996,44.670013
255.160004,443.994995,16.339996,44.670013
259.160004,443.994995,16.339996,44.670013
259.160004,447.994995,16.339996,44.670013
263.160004,455.994995,16.339996,44.670013
263.160004,463.994995,16.339996,44.670013
267.160004,479.994995,16.339996,44.670013
267.160004,483.994995,16.339996,44.670013
267.160004,483.994995,16.339996,44.670013
271.160004,483.994995,16.339996,44.670013
271.160004,483.994995,16.339996,44.670013
267.160004,479.994995,16.339996,44.670013
263.160004,479.994995,16.339996,44.670013
259.160004,475.994995,16.339996,44.670013
255.160004,463.994995,16.339996,44.670013
255.160004,459.994995,16.339996,44.670013
255.160004,455.994995,16.339996,44.670013
251.160004,451.994995,16.339996,44.670013
251.160004,451.994995,16.339996,44.670013
251.160004,451.994995,16.339996,44.670013
251.160004,455.994995,16.339996,44.670013
251.160004,463.994995,16.339996,44.670013
251.160004,467.994995,16.339996,44.670013
251.160004,463.994995,16.339996,44.670013
255.160004,463.994995,16.339996,44.670013
259.160004,463.994995,16.339996,44.670013
263.160004,467.994995,16.339996,44.670013
263.160004,467.994995,16.339996,44.670013
263.160004,459.994995,16.339996,44.670013
263.160004,455.994995,16.339996,44.670013
259.160004,451.994995,16.339996,44.670013
255.160004,447.994995,16.339996,44.670013
255.160004,443.994995,16.339996,44.670013
251.160004,443.994995,16.339996,44.670013
247.160004,443.994995,16.339996,44.670013
239.160004,443.994995,16.339996,44.670013
235.160004,443.994995,16.339996,44.670013
235.160004,443.994995,16.339996,44.670013
235.160004,443.994995,16.339996,44.670013
235.160004,443.994995,16.339996,44.670013
231.160004,443.994995,16.339996,44.670013
231.160004,443.994995,16.339996,44.670013
231.160004,439.994995,16.339996,44.670013
231.160004,435.994995,16.339996,44.670013
231.160004,431.994995,16.339996,44.670013
231.160004,431.994995,16.339996,44.670013
231.160004,435.994995,16.339996,44.670013
231.160004,435.994995,16.339996,44.670013
231.160004,431.994995,16.339996,44.670013
231.160004,431.994995,16.339996,44.670013
235.160004,431.994995,16.339996,44.670013
239.160004,431.994995,16.339996,44.670013
239.160004,431.994995,16.339996,44.670013
239.160004,431.994995,16.339996,44.670013
243.160004,435.994995,16.339996,44.670013
247.160004,435.994995,16.339996,44.670013
251.160004,435.994995,16.339996,44.670013
255.160004,439.994995,16.339996,44.670013
255.160004,443.994995,16.339996,44.670013
259.160004,443.994995,16.339996,44.670013
259.160004,443.994995,16.339996,44.670013
259.160004,447.994995,16.339996,44.670013
259.160004,447.994995,16.339996,44.670013
259.160004,447.994995,16.339996,44.670013
263.160004,451.994995,16.339996,44.670013
263.160004,455.994995,16.339996,44.670013
263.160004,455.994995,16.339996,44.670013
263.160004,459.994995,16.339996,44.670013
263.160004,463.994995,16.339996,44.670013
263.160004,463.994995,16.339996,44.670013
263.160004,463.994995,16.339996,44.670013
263.160004,467.994995,16.339996,44.670013
263.160004,467.994995,16.339996,44.670013
263.160004,467.994995,16.339996,44.670013
263.160004,463.994995,16.339996,44.670013
263.160004,463.994995,16.339996,44.670013
263.160004,459.994995,16.339996,44.670013
263.160004,451.994995,16.339996,44.670013
263.160004,447.994995,16.339996,44.670013
263.160004,447.994995,16.339996,44.670013
263.160004,447.994995,16.339996,44.670013
263.160004,443.994995,16.339996,44.670013
267.160004,443.994995,16.339996,44.670013
267.160004,443.994995,16.339996,44.670013
271.160004,443.994995,16.339996,44.670013
271.160004,443.994995,16.339996,44.670013
271.160004,439.994995,16.339996,44.670013
271.160004,439.994995,16.339996,44.670013
271.160004,443.994995,16.339996,44.670013
271.160004,443.994995,16.339996,44.670013
275.160004,443.994995,16.339996,44.670013
275.160004,443.994995,16.339996,44.670013
275.160004,447.994995,16.339996,44.670013
275.160004,447.994995,16.339996,44.670013
271.160004,451.994995,16.339996,44.670013
271.160004,459.994995,16.339996,44.670013
267.160004,463.994995,16.339996,44.670013
263.160004,467.994995,16.339996,44.670013
255.160004,471.994995,16.339996,44.670013
251.160004,475.994995,16.339996,44.670013
247.160004,479.994995,16.339996,44.670013
247.160004,479.994995,16.339996,44.670013
243.160004,479.994995,16.339996,44.670013
243.160004,483.994995,16.339996,44.670013
239.160004,483.994995,16.339996,44.670013
239.160004,483.994995,16.339996,44.670013
239.160004,483.994995,16.339996,44.670013
239.160004,483.994995,16.339996,44.670013
239.160004,483.994995,16.339996,44.670013
239.160004,487.994995,16.339996,44.670013
239.160004,487.994995,16.339996,44.670013
239.160004,487.994995,16.339996,44.670013
239.160004,491.994995,16.339996,44.670013
243.160004,491.994995,16.339996,44.670013
243.160004,491.994995,16.339996,44.670013
243.160004,491.994995,16.339996,44.670013
243.160004,491.994995,16.339996,44.670013
247.160004,491.994995,16.339996,44.670013
247.160004,491.994995,16.339996,44.670013
247.160004,491.994995,16.339996,44.670013
247.160004,491.994995,16.339996,44.670013
247.160004,491.994995,16.339996,44.670013
247.160004,491.994995,16.339996,44.670013
247.160004,491.994995,16.339996,44.670013
247.160004,491.994995,16.339996,44.670013
251.160004,491.994995,16.339996,44.670013
251.160004,491.994995,16.339996,44.670013
255.160004,495.994995,16.339996,44.670013
255.160004,495.994995,16.339996,44.670013
255.160004,495.994995,16.339996,44.670013
255.160004,495.994995,16.339996,44.670013
247.160004,491.994995,16.339996,44.670013
243.160004,491.994995,16.339996,44.670013
247.160004,487.994995,16.339996,44.670013
255.160004,483.994995,16.339996,44.670013
259.160004,479.994995,16.339996,44.670013
259.160004,479.994995,16.339996,44.670013
259.160004,483.994995,16.339996,44.670013
259.160004,487.994995,16.339996,44.670013
259.160004,487.994995,16.339996,44.670013
259.160004,491.994995,16.339996,44.670013
255.160004,491.994995,16.339996,44.670013
255.160004,487.994995,16.339996,44.670013
259.160004,483.994995,16.339996,44.670013
263.160004,479.994995,16.339996,44.670013
263.160004,479.994995,16.339996,44.670013
267.160004,475.994995,16.339996,44.670013
267.160004,475.994995,16.339996,44.670013
271.160004,471.994995,16.339996,44.670013
275.160004,471.994995,16.339996,44.670013
275.160004,471.994995,16.339996,44.670013
275.160004,471.994995,16.339996,44.670013
275.160004,471.994995,16.339996,44.670013
275.160004,467.994995,16.339996,44.670013
275.160004,467.994995,16.339996,44.670013
279.160004,467.994995,16.339996,44.670013
279.160004,467.994995,16.339996,44.670013
279.160004,467.994995,16.339996,44.670013
279.160004,471.994995,16.339996,44.670013
279.160004,475.994995,16.339996,44.670013
279.160004,475.994995,16.339996,44.670013
275.160004,475.994995,16.339996,44.670013
271.160004,475.994995,16.339996,44.670013
267.160004,475.994995,16.339996,44.670013
263.160004,475.994995,16.339996,44.670013
259.160004,475.994995,16.339996,44.670013
255.160004,471.994995,16.339996,44.670013
251.160004,471.994995,16.339996,44.670013
251.160004,471.994995,16.339996,44.670013
251.160004,471.994995,16.339996,44.670013
251.160004,471.994995,16.339996,44.670013
251.160004,471.994995,16.339996,44.670013
251.160004,471.994995,16.339996,44.670013
255.160004,471.994995,16.339996,44.670013
259.160004,471.994995,16.339996,44.670013
259.160004,471.994995,16.339996,44.670013
259.160004,471.994995,16.339996,44.670013
259.160004,475.994995,16.339996,44.670013
259.160004,475.994995,16.339996,44.670013
259.160004,475.994995,16.339996,44.670013
259.160004,479.994995,16.339996,44.670013
259.160004,483.994995,16.339996,44.670013
259.160004,487.994995,16.339996,44.670013
259.160004,487.994995,16.339996,44.670013
255.160004,491.994995,16.339996,44.670013
255.160004,495.994995,16.339996,44.670013
255.160004,499.994995,16.339996,44.670013
255.160004,503.994995,16.339996,44.670013
255.160004,503.994995,16.339996,44.670013
255.160004,503.994995,16.339996,44.670013
255.160004,503.994995,16.339996,44.670013
255.160004,503.994995,16.339996,44.670013
255.160004,503.994995,16.339996,44.670013
259.160004,503.994995,16.339996,44.670013
259.160004,507.994995,16.339996,44.670013
259.160004,507.994995,16.339996,44.670013
259.160004,511.994995,16.339996,44.670013
259.160004,511.994995,16.339996,44.670013
259.160004,515.994995,16.339996,44.670013
259.160004,519.994995,16.339996,44.670013
259.160004,523.994995,16.339996,44.670013
259.160004,527.994995,16.339996,44.670013
259.160004,527.994995,16.339996,44.670013
259.160004,531.994995,16.339996,44.670013
259.160004,535.994995,16.339996,44.670013
259.160004,539.994995,16.339996,44.670013
259.160004,539.994995,16.339996,44.670013
259.160004,539.994995,16.339996,44.670013
259.160004,543.994995,16.339996,44.670013
259.160004,543.994995,16.339996,44.670013
259.160004,543.994995,16.339996,44.670013
255.160004,543.994995,16.339996,44.670013
251.160004,543.994995,16.339996,44.670013
247.160004,539.994995,16.339996,44.670013
247.160004,535.994995,16.339996,44.670013
251.160004,535.994995,16.339996,44.670013
251.160004,531.994995,16.339996,44.670013
255.160004,531.994995,16.339996,44.670013
255.160004,531.994995,16.339996,44.670013
259.160004,531.994995,16.339996,44.670013
259.160004,531.994995,16.339996,44.670013
259.160004,535.994995,16.339996,44.670013
259.160004,535.994995,16.339996,44.670013
259.160004,535.994995,16.339996,44.670013
255.160004,539.994995,16.339996,44.670013
255.160004,539.994995,16.339996,44.670013
255.160004,543.994995,16.339996,44.670013
255.160004,543.994995,16.339996,44.670013
255.160004,547.994995,16.339996,44.670013
255.160004,547.994995,16.339996,44.670013
259.160004,551.994995,16.339996,44.670013
259.160004,555.994995,16.339996,44.670013
259.160004,559.994995,16.339996,44.670013
259.160004,559.994995,16.339996,44.670013
259.160004,559.994995,16.339996,44.670013
259.160004,559.994995,16.339996,44.670013
259.160004,559.994995,16.339996,44.670013
259.160004,559.994995,16.339996,44.670013
259.160004,559.994995,16.339996,44.670013
259.160004,559.994995,16.339996,44.670013
259.160004,559.994995,16.339996,44.670013
259.160004,559.994995,16.339996,44.670013
259.160004,555.994995,16.339996,44.670013
259.160004,555.994995,16.339996,44.670013
259.160004,555.994995,16.339996,44.670013
259.160004,559.994995,16.339996,44.670013
259.160004,559.994995,16.339996,44.670013
259.160004,555.994995,16.339996,44.670013
259.160004,555.994995,16.339996,44.670013
259.160004,551.994995,16.339996,44.670013
259.160004,547.994995,16.339996,44.670013
259.160004,543.994995,16.339996,44.670013
259.160004,539.994995,16.339996,44.670013
259.160004,535.994995,16.339996,44.670013
259.160004,531.994995,16.339996,44.670013
259.160004,527.994995,16.339996,44.670013
259.160004,527.994995,16.339996,44.670013
259.160004,527.994995,16.339996,44.670013
263.160004,523.994995,16.339996,44.670013
267.160004,523.994995,16.339996,44.670013
267.160004,523.994995,16.339996,44.670013
271.160004,527.994995,16.339996,44.670013
271.160004,527.994995,16.339996,44.670013
275.160004,527.994995,16.339996,44.670013
279.160004,531.994995,16.339996,44.670013
279.160004,531.994995,16.339996,44.670013
279.160004,531.994995,16.339996,44.670013
279.160004,531.994995,16.339996,44.670013
283.160004,527.994995,16.339996,44.670013
283.160004,527.994995,16.339996,44.670013
283.160004,527.994995,16.339996,44.670013
283.160004,527.994995,16.339996,44.670013
283.160004,531.994995,16.339996,44.670013
283.160004,535.994995,16.339996,44.670013
283.160004,535.994995,16.339996,44.670013
283.160004,539.994995,16.339996,44.670013
283.160004,543.994995,16.339996,44.670013
283.160004,543.994995,16.339996,44.670013
283.160004,543.994995,16.339996,44.670013
279.160004,543.994995,16.339996,44.670013
279.160004,543.994995,16.339996,44.670013
279.160004,543.994995,16.339996,44.670013
275.160004,543.994995,16.339996,44.670013
275.160004,539.994995,16.339996,44.670013
275.160004,539.994995,16.339996,44.670013
275.160004,535.994995,16.339996,44.670013
275.160004,535.994995,16.339996,44.670013
275.160004,535.994995,16.339996,44.670013
275.160004,535.994995,16.339996,44.670013
271.160004,539.994995,16.339996,44.670013
267.160004,539.994995,16.339996,44.670013
263.160004,539.994995,16.339996,44.670013
263.160004,539.994995,16.339996,44.670013
