1
183.000000,18.500000,52.000000,39.000000
183.000000,22.500000,52.000000,39.000000
183.000000,22.500000,52.000000,39.000000
183.000000,26.500000,52.000000,39.000000
183.000000,26.500000,52.000000,39.000000
183.000000,26.500000,52.000000,39.000000
183.000000,30.500000,52.000000,39.000000
183.000000,30.500000,52.000000,39.000000
183.000000,30.500000,52.000000,39.000000
183.000000,34.500000,52.000000,39.000000
179.000000,34.500000,52.000000,39.000000
179.000000,38.500000,52.000000,39.000000
179.000000,38.500000,52.000000,39.000000
179.000000,38.500000,52.000000,39.000000
179.000000,38.500000,52.000000,39.000000
179.000000,42.500000,52.000000,39.000000
179.000000,42.500000,52.000000,39.000000
179.000000,42.500000,52.000000,39.000000
179.000000,46.500000,52.000000,39.000000
179.000000,46.500000,52.000000,39.000000
179.000000,46.500000,52.000000,39.000000
179.000000,46.500000,52.000000,39.000000
179.000000,50.500000,52.000000,39.000000
179.000000,50.500000,52.000000,39.000000
179.000000,54.500000,52.000000,39.000000
175.000000,54.500000,52.000000,39.000000
175.000000,54.500000,52.000000,39.000000
175.000000,54.500000,52.000000,39.000000
175.000000,54.500000,52.000000,39.000000
175.000000,58.500000,52.000000,39.000000
175.000000,58.500000,52.000000,39.000000
175.000000,58.500000,52.000000,39.000000
175.000000,58.500000,52.000000,39.000000
175.000000,58.500000,52.000000,39.000000
175.000000,58.500000,52.000000,39.000000
175.000000,58.500000,52.000000,39.000000
175.000000,58.500000,52.000000,39.000000
175.000000,58.500000,52.000000,39.000000
175.000000,58.500000,52.000000,39.000000
175.000000,58.500000,52.000000,39.000000
175.000000,58.500000,52.000000,39.000000
175.000000,58.500000,52.000000,39.000000
175.000000,58.500000,52.000000,39.000000
175.000000,58.500000,52.000000,39.000000
175.000000,58.500000,52.000000,39.000000
179.000000,58.500000,52.000000,39.000000
179.000000,58.500000,52.000000,39.000000
179.000000,58.500000,52.000000,39.000000
179.000000,58.500000,52.000000,39.000000
179.000000,58.500000,52.000000,39.000000
183.000000,58.500000,52.000000,39.000000
183.000000,58.500000,52.000000,39.000000
183.000000,58.500000,52.000000,39.000000
183.000000,54.500000,52.000000,39.000000
187.000000,54.500000,52.000000,39.000000
187.000000,54.500000,52.000000,39.000000
191.000000,54.500000,52.000000,39.000000
191.000000,54.500000,52.000000,39.000000
191.000000,54.500000,52.000000,39.000000
191.000000,50.500000,52.000000,39.000000
195.000000,50.500000,52.000000,39.000000
195.000000,50.500000,52.000000,39.000000
195.000000,50.500000,52.000000,39.000000
195.000000,50.500000,52.000000,39.000000
199.000000,50.500000,52.000000,39.000000
199.000000,50.500000,52.000000,39.000000
199.000000,50.500000,52.000000,39.000000
199.000000,50.500000,52.000000,39.000000
199.000000,50.500000,52.000000,39.000000
199.000000,50.500000,52.000000,39.000000
199.000000,50.500000,52.000000,39.000000
199.000000,50.500000,52.000000,39.000000
199.000000,50.500000,52.000000,39.000000
203.000000,50.500000,52.000000,39.000000
203.000000,50.500000,52.000000,39.000000
203.000000,50.500000,52.000000,39.000000
203.000000,50.500000,52.000000,39.000000
207.000000,50.500000,52.000000,39.000000
207.000000,50.500000,52.000000,39.000000
207.000000,50.500000,52.000000,39.000000
207.000000,50.500000,52.000000,39.000000
211.000000,50.500000,52.000000,39.000000
211.000000,50.500000,52.000000,39.000000
211.000000,50.500000,52.000000,39.000000
211.000000,50.500000,52.000000,39.000000
215.000000,46.500000,52.000000,39.000000
215.000000,46.500000,52.000000,39.000000
215.000000,46.500000,52.000000,39.000000
215.000000,46.500000,52.000000,39.000000
219.000000,46.500000,52.000000,39.000000
219.000000,46.500000,52.000000,39.000000
219.000000,46.500000,52.000000,39.000000
219.000000,46.500000,52.000000,39.000000
219.000000,42.500000,52.000000,39.000000
219.000000,42.500000,52.000000,39.000000
219.000000,42.500000,52.000000,39.000000
219.000000,42.500000,52.000000,39.000000
219.000000,42.500000,52.000000,39.000000
219.000000,38.500000,52.000000,39.000000
219.000000,38.500000,52.000000,39.000000
219.000000,38.500000,52.000000,39.000000
219.000000,34.500000,52.000000,39.000000
215.000000,34.500000,52.000000,39.000000
215.000000,30.500000,52.000000,39.000000
215.000000,30.500000,52.000000,39.000000
215.000000,26.500000,52.000000,39.000000
215.000000,22.500000,52.000000,39.000000
215.000000,22.500000,52.000000,39.000000
215.000000,18.500000,52.000000,39.000000
215.000000,18.500000,52.000000,39.000000
211.000000,18.500000,52.000000,39.000000
211.000000,18.500000,52.000000,39.000000
211.000000,14.500000,52.000000,39.000000
211.000000,14.500000,52.000000,39.000000
211.000000,14.500000,52.000000,39.000000
211.000000,10.500000,52.000000,39.000000
211.000000,10.500000,52.000000,39.000000
211.000000,10.500000,52.000000,39.000000
211.000000,10.500000,52.000000,39.000000
211.000000,6.500000,52.000000,39.000000
211.000000,6.500000,52.000000,39.000000
211.000000,6.500000,52.000000,39.000000
211.000000,6.500000,52.000000,39.000000
219.000000,-1.500000,52.000000,39.000000
219.000000,-1.500000,52.000000,39.000000
219.000000,-1.500000,52.000000,39.000000
219.000000,-1.500000,52.000000,39.000000
219.000000,-1.500000,52.000000,39.000000
219.000000,-1.500000,52.000000,39.000000
219.000000,2.500000,52.000000,39.000000
219.000000,6.500000,52.000000,39.000000
223.000000,10.500000,52.000000,39.000000
223.000000,10.500000,52.000000,39.000000
223.000000,10.500000,52.000000,39.000000
227.000000,10.500000,52.000000,39.000000
227.000000,10.500000,52.000000,39.000000
227.000000,10.500000,52.000000,39.000000
231.000000,10.500000,52.000000,39.000000
231.000000,10.500000,52.000000,39.000000
231.000000,10.500000,52.000000,39.000000
239.000000,10.500000,52.000000,39.000000
239.000000,10.500000,52.000000,39.000000
239.000000,10.500000,52.000000,39.000000
239.000000,10.500000,52.000000,39.000000
239.000000,10.500000,52.000000,39.000000
239.000000,6.500000,52.000000,39.000000
239.000000,6.500000,52.000000,39.000000
2
0
0
0
0
1
241.940002,68.360001,22.559998,72.140007
241.940002,64.360001,22.559998,72.140007
241.940002,64.360001,22.559998,72.140007
241.940002,64.360001,22.559998,72.140007
241.940002,64.360001,22.559998,72.140007
241.940002,64.360001,22.559998,72.140007
241.940002,64.360001,22.559998,72.140007
241.940002,64.360001,22.559998,72.140007
237.940002,64.360001,22.559998,72.140007
237.940002,64.360001,22.559998,72.140007
237.940002,64.360001,22.559998,72.140007
233.940002,64.360001,22.559998,72.140007
233.940002,64.360001,22.559998,72.140007
233.940002,64.360001,22.559998,72.140007
233.940002,64.360001,22.559998,72.140007
229.940002,64.360001,22.559998,72.140007
229.940002,64.360001,22.559998,72.140007
225.940002,64.360001,22.559998,72.140007
225.940002,64.360001,22.559998,72.140007
221.940002,68.360001,22.559998,72.140007
221.940002,68.360001,22.559998,72.140007
221.940002,68.360001,22.559998,72.140007
2
0
0
0
0
1
208.744995,152.944992,43.870010,59.130005
208.744995,152.944992,43.870010,59.130005
204.744995,156.944992,43.870010,59.130005
204.744995,160.944992,43.870010,59.130005
204.744995,160.944992,43.870010,59.130005
204.744995,164.944992,43.870010,59.130005
200.744995,164.944992,43.870010,59.130005
200.744995,168.944992,43.870010,59.130005
200.744995,168.944992,43.870010,59.130005
200.744995,168.944992,43.870010,59.130005
200.744995,172.944992,43.870010,59.130005
200.744995,172.944992,43.870010,59.130005
200.744995,172.944992,43.870010,59.130005
196.744995,172.944992,43.870010,59.130005
196.744995,172.944992,43.870010,59.130005
196.744995,172.944992,43.870010,59.130005
192.744995,172.944992,43.870010,59.130005
192.744995,172.944992,43.870010,59.130005
188.744995,172.944992,43.870010,59.130005
188.744995,172.944992,43.870010,59.130005
184.744995,172.944992,43.870010,59.130005
184.744995,172.944992,43.870010,59.130005
184.744995,172.944992,43.870010,59.130005
184.744995,176.944992,43.870010,59.130005
184.744995,180.944992,43.870010,59.130005
180.744995,180.944992,43.870010,59.130005
176.744995,180.944992,43.870010,59.130005
172.744995,184.944992,43.870010,59.130005
172.744995,184.944992,43.870010,59.130005
168.744995,184.944992,43.870010,59.130005
168.744995,188.944992,43.870010,59.130005
164.744995,188.944992,43.870010,59.130005
164.744995,188.944992,43.870010,59.130005
164.744995,192.944992,43.870010,59.130005
160.744995,192.944992,43.870010,59.130005
160.744995,192.944992,43.870010,59.130005
156.744995,196.944992,43.870010,59.130005
156.744995,196.944992,43.870010,59.130005
152.744995,196.944992,43.870010,59.130005
152.744995,196.944992,43.870010,59.130005
152.744995,196.944992,43.870010,59.130005
148.744995,196.944992,43.870010,59.130005
148.744995,200.944992,43.870010,59.130005
148.744995,200.944992,43.870010,59.130005
148.744995,200.944992,43.870010,59.130005
148.744995,200.944992,43.870010,59.130005
148.744995,204.944992,43.870010,59.130005
148.744995,204.944992,43.870010,59.130005
144.744995,204.944992,43.870010,59.130005
140.744995,212.944992,43.870010,59.130005
136.744995,212.944992,43.870010,59.130005
136.744995,212.944992,43.870010,59.130005
132.744995,212.944992,43.870010,59.130005
132.744995,212.944992,43.870010,59.130005
128.744995,212.944992,43.870010,59.130005
128.744995,212.944992,43.870010,59.130005
124.744987,212.944992,43.870010,59.130005
124.744987,212.944992,43.870010,59.130005
124.744987,212.944992,43.870010,59.130005
124.744987,212.944992,43.870010,59.130005
124.744987,212.944992,43.870010,59.130005
120.744987,212.944992,43.870010,59.130005
120.744987,212.944992,43.870010,59.130005
120.744987,212.944992,43.870010,59.130005
116.744987,212.944992,43.870010,59.130005
116.744987,208.944992,43.870010,59.130005
116.744987,208.944992,43.870010,59.130005
116.744987,208.944992,43.870010,59.130005
112.744987,208.944992,43.870010,59.130005
108.744987,208.944992,43.870010,59.130005
104.744987,208.944992,43.870010,59.130005
100.744987,208.944992,43.870010,59.130005
100.744987,208.944992,43.870010,59.130005
96.744987,208.944992,43.870010,59.130005
92.744987,208.944992,43.870010,59.130005
92.744987,208.944992,43.870010,59.130005
88.744987,212.944992,43.870010,59.130005
88.744987,212.944992,43.870010,59.130005
88.744987,212.944992,43.870010,59.130005
88.744987,212.944992,43.870010,59.130005
88.744987,212.944992,43.870010,59.130005
84.744987,216.944992,43.870010,59.130005
84.744987,216.944992,43.870010,59.130005
88.744987,216.944992,43.870010,59.130005
92.744987,216.944992,43.870010,59.130005
96.744987,216.944992,43.870010,59.130005
100.744987,216.944992,43.870010,59.130005
104.744987,216.944992,43.870010,59.130005
108.744987,216.944992,43.870010,59.130005
112.744987,216.944992,43.870010,59.130005
112.744987,216.944992,43.870010,59.130005
116.744987,216.944992,43.870010,59.130005
116.744987,216.944992,43.870010,59.130005
120.744987,216.944992,43.870010,59.130005
120.744987,216.944992,43.870010,59.130005
120.744987,216.944992,43.870010,59.130005
120.744987,216.944992,43.870010,59.130005
120.744987,216.944992,43.870010,59.130005
120.744987,216.944992,43.870010,59.130005
120.744987,216.944992,43.870010,59.130005
120.744987,216.944992,43.870010,59.130005
120.744987,212.944992,43.870010,59.130005
116.744987,212.944992,43.870010,59.130005
116.744987,212.944992,43.870010,59.130005
112.744987,208.944992,43.870010,59.130005
2
0
0
0
0
1
154.559998,200.660004,73.940002,57.239990
154.559998,200.660004,73.940002,57.239990
154.559998,200.660004,73.940002,57.239990
154.559998,200.660004,73.940002,57.239990
154.559998,200.660004,73.940002,57.239990
154.559998,200.660004,73.940002,57.239990
154.559998,200.660004,73.940002,57.239990
154.559998,200.660004,73.940002,57.239990
158.559998,200.660004,73.940002,57.239990
158.559998,200.660004,73.940002,57.239990
158.559998,200.660004,73.940002,57.239990
158.559998,200.660004,73.940002,57.239990
162.559998,200.660004,73.940002,57.239990
162.559998,200.660004,73.940002,57.239990
162.559998,204.660004,73.940002,57.239990
162.559998,204.660004,73.940002,57.239990
162.559998,204.660004,73.940002,57.239990
162.559998,204.660004,73.940002,57.239990
162.559998,204.660004,73.940002,57.239990
162.559998,204.660004,73.940002,57.239990
162.559998,204.660004,73.940002,57.239990
162.559998,204.660004,73.940002,57.239990
166.559998,204.660004,73.940002,57.239990
166.559998,204.660004,73.940002,57.239990
166.559998,204.660004,73.940002,57.239990
166.559998,204.660004,73.940002,57.239990
166.559998,208.660004,73.940002,57.239990
166.559998,208.660004,73.940002,57.239990
166.559998,208.660004,73.940002,57.239990
166.559998,212.660004,73.940002,57.239990
2
0
0
0
0
1
250.639999,168.254990,74.040009,66.790009
254.639999,168.254990,74.040009,66.790009
258.640015,168.254990,74.040009,66.790009
258.640015,168.254990,74.040009,66.790009
262.640015,164.254990,74.040009,66.790009
262.640015,164.254990,74.040009,66.790009
266.640015,160.254990,74.040009,66.790009
270.640015,160.254990,74.040009,66.790009
274.640015,156.254990,74.040009,66.790009
278.640015,152.254990,74.040009,66.790009
286.640015,152.254990,74.040009,66.790009
286.640015,152.254990,74.040009,66.790009
290.640015,148.254990,74.040009,66.790009
298.640015,148.254990,74.040009,66.790009
302.640015,148.254990,74.040009,66.790009
302.640015,148.254990,74.040009,66.790009
306.640015,148.254990,74.040009,66.790009
310.640015,148.254990,74.040009,66.790009
310.640015,148.254990,74.040009,66.790009
310.640015,148.254990,74.040009,66.790009
310.640015,148.254990,74.040009,66.790009
310.640015,148.254990,74.040009,66.790009
314.640015,148.254990,74.040009,66.790009
314.640015,148.254990,74.040009,66.790009
314.640015,148.254990,74.040009,66.790009
314.640015,148.254990,74.040009,66.790009
314.640015,148.254990,74.040009,66.790009
314.640015,152.254990,74.040009,66.790009
310.640015,152.254990,74.040009,66.790009
310.640015,152.254990,74.040009,66.790009
310.640015,156.254990,74.040009,66.790009
306.640015,156.254990,74.040009,66.790009
298.640015,156.254990,74.040009,66.790009
298.640015,160.254990,74.040009,66.790009
294.640015,160.254990,74.040009,66.790009
294.640015,160.254990,74.040009,66.790009
294.640015,160.254990,74.040009,66.790009
