1.3185,1.4043,1.4248,0,0,0,0,0,0,0,0,0,0,0,0
1.3185,1.4043,1.4248,0,0,0,0,0,0,0,0,0,0,0,0
1.3185,1.4043,1.4248,0,0,0,0,0,0,0,0,0,0,0,0
1.3185,1.4043,1.4248,0,0,0,0,0,0,0,0,0,0,0,0
1.3185,1.4043,1.4248,0,0,0,0,0,0,0,0,0,0,0,0
1.3185,1.4043,1.4248,0,0,0,0,0,0,0,0,0,0,0,0
1.3185,1.4043,1.4248,0,0,0,0,0,0,0,0,0,0,0,0
1.3185,1.4043,1.4248,0,0,0,0,0,0,0,0,0,0,0,0
1.3185,1.4043,1.4248,0,0,0,0,0,0,0,0,0,0,0,0
1.3185,1.4043,1.4248,0,0,0,0,0,0,0,0,0,0,0,0
1.3185,1.4043,1.4248,0,0,0,0,0,0,0,0,0,0,0,0
1.3185,1.4043,1.4248,0,0,0,0,0,0,0,0,0,0,0,0
1.3185,1.4043,1.4248,0,0,0,0,0,0,0,0,0,0,0,0
1.3185,1.4043,1.4248,0,0,0,0,0,0,0,0,0,0,0,0
1.3185,1.4043,1.4248,0,0,0,0,0,0,0,0,0,0,0,0
1.3185,1.4043,1.4248,0,0,0,0,0,0,0,0,0,0,0,0
1.3185,1.4043,1.4248,0,0,0,0,0,0,0,0,0,0,0,0
1.3185,1.4043,1.4248,0,0,0,0,0,0,0,0,0,0,0,0
1.3185,1.4043,1.4248,0,0,0,0,0,0,0,0,0,0,0,0
1.3185,1.4043,1.4248,0,0,0,0,0,0,0,0,0,0,0,0
1.3185,1.4043,1.4248,0,0,0,0,0,0,0,0,0,0,0,0
1.3185,1.4043,1.4248,0,0,0,0,0,0,0,0,0,0,0,0
1.3185,1.4043,1.4248,0,0,0,0,0,0,0,0,0,0,0,0
1.3185,1.4043,1.4248,0,0,0,0,0,0,0,0,0,0,0,0
1.3185,1.4043,1.4248,0,0,0,0,0,0,0,0,0,0,0,0
1.3185,1.4043,1.4248,0,0,0,0,0,0,0,0,0,0,0,0
1.3185,1.4043,1.4248,0,0,0,0,0,0,0,0,0,0,0,0
1.3185,1.4043,1.4248,0,0,0,0,0,0,0,0,0,0,0,0
1.3185,1.4043,1.4248,0,0,0,0,0,0,0,0,0,0,0,0
1.3185,1.4043,1.4248,0,0,0,0,0,0,0,0,0,0,0,0
1.3185,1.4043,1.4248,0,0,0,0,0,0,0,0,0,0,0,0
1.3185,1.4043,1.4248,0,0,0,0,0,0,0,0,0,0,0,0
1.3185,1.4043,1.4248,0,0,0,0,0,0,0,0,0,0,0,0
1.3185,1.4043,1.4248,0,0,0,0,0,0,0,0,0,0,0,0
1.3185,1.4043,1.4248,0,0,0,0,0,0,0,0,0,0,0,0
1.3185,1.4043,1.4248,0,0,0,0,0,0,0,0,0,0,0,0
1.3185,1.4043,1.4248,0,0,0,0,0,0,0,0,0,0,0,0
1.3185,1.4043,1.4248,0,0,0,0,0,0,0,0,0,0,0,0
1.3185,1.4043,1.4248,0,0,0,0,0,0,0,0,0,0,0,0
1.3185,1.4043,1.4248,0,0,0,0,0,0,0,0,0,0,0,0
1.3185,1.4043,1.4248,0,0,0,0,0,0,0,0,0,0,0,0
1.3185,1.4043,1.4248,0,0,0,0,0,0,0,0,0,0,0,0
1.3185,1.4043,1.4248,0,0,0,0,0,0,0,0,0,0,0,0
1.3185,1.4043,1.4248,0,0,0,0,0,0,0,0,0,0,0,0
1.3185,1.4043,1.4248,0,0,0,0,0,0,0,0,0,0,0,0
1.3185,1.4043,1.4248,0,0,0,0,0,0,0,0,0,0,0,0
1.3185,1.4043,1.4248,0,0,0,0,0,0,0,0,0,0,0,0
1.3185,1.4043,1.4248,0,0,0,0,0,0,0,0,0,0,0,0
1.3185,1.4043,1.4248,0,0,0,0,0,0,0,0,0,0,0,0
1.3185,1.4043,1.4248,0,0,0,0,0,0,0,0,0,0,0,0
1.3185,1.4043,1.4248,0,0,0,0,0,0,0,0,0,0,0,0
1.3185,1.4043,1.4248,0,0,0,0,0,0,0,0,0,0,0,0
1.3185,1.4043,1.4248,0,0,0,0,0,0,0,0,0,0,0,0
1.3185,1.4043,1.4248,0,0,0,0,0,0,0,0,0,0,0,0
1.3185,1.4043,1.4248,0,0,0,0,0,0,0,0,0,0,0,0
1.3185,1.4043,1.4248,0,0,0,0,0,0,0,0,0,0,0,0
1.3185,1.4043,1.4248,0,0,0,0,0,0,0,0,0,0,0,0
1.3185,1.4043,1.4248,0,0,0,0,0,0,0,0,0,0,0,0
1.3185,1.4043,1.4248,0,0,0,0,0,0,0,0,0,0,0,0
1.3185,1.4043,1.4248,0,0,0,0,0,0,0,0,0,0,0,0
1.3185,1.4043,1.4248,0,0,0,0,0,0,0,0,0,0,0,0
1.3185,1.4043,1.4248,0,0,0,0,0,0,0,0,0,0,0,0
1.3185,1.4043,1.4248,0,0,0,0,0,0,0,0,0,0,0,0
1.3185,1.4043,1.4248,0,0,0,0,0,0,0,0,0,0,0,0
1.3185,1.4043,1.4248,0,0,0,0,0,0,0,0,0,0,0,0
1.3185,1.4043,1.4248,0,0,0,0,0,0,0,0,0,0,0,0
1.3185,1.4043,1.4248,0,0,0,0,0,0,0,0,0,0,0,0
1.3185,1.4043,1.4248,0,0,0,0,0,0,0,0,0,0,0,0
1.3185,1.4043,1.4248,0,0,0,0,0,0,0,0,0,0,0,0
1.3185,1.4043,1.4248,0,0,0,0,0,0,0,0,0,0,0,0
1.3185,1.4043,1.4248,0,0,0,0,0,0,0,0,0,0,0,0
1.3185,1.4043,1.4248,0,0,0,0,0,0,0,0,0,0,0,0
1.3185,1.4043,1.4248,0,0,0,0,0,0,0,0,0,0,0,0
1.3185,1.4043,1.4248,0,0,0,0,0,0,0,0,0,0,0,0
1.3185,1.4043,1.4248,0,0,0,0,0,0,0,0,0,0,0,0
1.3185,1.4043,1.4248,0,0,0,0,0,0,0,0,0,0,0,0
1.3185,1.4043,1.4248,0,0,0,0,0,0,0,0,0,0,0,0
1.3185,1.4043,1.4248,0,0,0,0,0,0,0,0,0,0,0,0
1.3185,1.4043,1.4248,0,0,0,0,0,0,0,0,0,0,0,0
1.3185,1.4043,1.4248,0,0,0,0,0,0,0,0,0,0,0,0
1.3185,1.4043,1.4248,0,0,0,0,0,0,0,0,0,0,0,0
1.3185,1.4043,1.4248,0,0,0,0,0,0,0,0,0,0,0,0
1.3185,1.4043,1.4248,0,0,0,0,0,0,0,0,0,0,0,0
1.3185,1.4043,1.4248,0,0,0,0,0,0,0,0,0,0,0,0
1.3185,1.4043,1.4248,0,0,0,0,0,0,0,0,0,0,0,0
1.3185,1.4043,1.4248,0,0,0,0,0,0,0,0,0,0,0,0
1.3185,1.4043,1.4248,0,0,0,0,0,0,0,0,0,0,0,0
1.3185,1.4043,1.4248,0,0,0,0,0,0,0,0,0,0,0,0
1.3185,1.4043,1.4248,0,0,0,0,0,0,0,0,0,0,0,0
1.3185,1.4043,1.4248,0,0,0,0,0,0,0,0,0,0,0,0
1.3185,1.4043,1.4248,0,0,0,0,0,0,0,0,0,0,0,0
1.3185,1.4043,1.4248,0,0,0,0,0,0,0,0,0,0,0,0
1.3185,1.4043,1.4248,0,0,0,0,0,0,0,0,0,0,0,0
1.3185,1.4043,1.4248,0,0,0,0,0,0,0,0,0,0,0,0
1.3185,1.4043,1.4248,0,0,0,0,0,0,0,0,0,0,0,0
1.3185,1.4043,1.4248,0,0,0,0,0,0,0,0,0,0,0,0
1.3185,1.4043,1.4248,0,0,0,0,0,0,0,0,0,0,0,0
1.3185,1.4043,1.4248,0,0,0,0,0,0,0,0,0,0,0,0
1.3185,1.4043,1.4248,0,0,0,0,0,0,0,0,0,0,0,0
1.3185,1.4043,1.4248,0,0,0,0,0,0,0,0,0,0,0,0
1.3185,1.4043,1.4248,0,0,0,0,0,0,0,0,0,0,0,0
1.3185,1.4043,1.4248,0,0,0,0,0,0,0,0,0,0,0,0
1.3185,1.4043,1.4248,0,0,0,0,0,0,0,0,0,0,0,0
1.3185,1.4043,1.4248,0,0,0,0,0,0,0,0,0,0,0,0
1.3185,1.4043,1.4248,0,0,0,0,0,0,0,0,0,0,0,0
1.3185,1.4043,1.4248,0,0,0,0,0,0,0,0,0,0,0,0
1.3185,1.4043,1.4248,0,0,0,0,0,0,0,0,0,0,0,0
1.3185,1.4043,1.4248,0,0,0,0,0,0,0,0,0,0,0,0
1.3185,1.4043,1.4248,0,0,0,0,0,0,0,0,0,0,0,0
1.3185,1.4043,1.4248,0,0,0,0,0,0,0,0,0,0,0,0
1.3185,1.4043,1.4248,0,0,0,0,0,0,0,0,0,0,0,0
1.3185,1.4043,1.4248,0,0,0,0,0,0,0,0,0,0,0,0
1.3185,1.4043,1.4248,0,0,0,0,0,0,0,0,0,0,0,0
1.3185,1.4043,1.4248,0,0,0,0,0,0,0,0,0,0,0,0
1.3185,1.4043,1.4248,0,0,0,0,0,0,0,0,0,0,0,0
1.3185,1.4043,1.4248,0,0,0,0,0,0,0,0,0,0,0,0
1.3185,1.4043,1.4248,0,0,0,0,0,0,0,0,0,0,0,0
1.3185,1.4043,1.4248,0,0,0,0,0,0,0,0,0,0,0,0
1.3185,1.4043,1.4248,0,0,0,0,0,0,0,0,0,0,0,0
1.3185,1.4043,1.4248,0,0,0,0,0,0,0,0,0,0,0,0
1.3185,1.4043,1.4248,0,0,0,0,0,0,0,0,0,0,0,0
1.3185,1.4043,1.4248,0,0,0,0,0,0,0,0,0,0,0,0
1.3185,1.4043,1.4248,0,0,0,0,0,0,0,0,0,0,0,0
1.3185,1.4043,1.4248,0,0,0,0,0,0,0,0,0,0,0,0
1.3185,1.4043,1.4248,0,0,0,0,0,0,0,0,0,0,0,0
1.3185,1.4043,1.4248,0,0,0,0,0,0,0,0,0,0,0,0
1.3185,1.4043,1.4248,0,0,0,0,0,0,0,0,0,0,0,0
1.3185,1.4043,1.4248,0,0,0,0,0,0,0,0,0,0,0,0
1.3185,1.4043,1.4248,0,0,0,0,0,0,0,0,0,0,0,0
1.3185,1.4043,1.4248,0,0,0,0,0,0,0,0,0,0,0,0
1.3185,1.4043,1.4248,0,0,0,0,0,0,0,0,0,0,0,0
1.3185,1.4043,1.4248,0,0,0,0,0,0,0,0,0,0,0,0
1.3185,1.4043,1.4248,0,0,0,0,0,0,0,0,0,0,0,0
1.3185,1.4043,1.4248,0,0,0,0,0,0,0,0,0,0,0,0
1.3185,1.4043,1.4248,0,0,0,0,0,0,0,0,0,0,0,0
1.3185,1.4043,1.4248,0,0,0,0,0,0,0,0,0,0,0,0
1.3185,1.4043,1.4248,0,0,0,0,0,0,0,0,0,0,0,0
1.3185,1.4043,1.4248,0,0,0,0,0,0,0,0,0,0,0,0
1.3185,1.4043,1.4248,0,0,0,0,0,0,0,0,0,0,0,0
1.3185,1.4043,1.4248,0,0,0,0,0,0,0,0,0,0,0,0
1.3185,1.4043,1.4248,0,0,0,0,0,0,0,0,0,0,0,0
1.3185,1.4043,1.4248,0,0,0,0,0,0,0,0,0,0,0,0
1.3185,1.4043,1.4248,0,0,0,0,0,0,0,0,0,0,0,0
1.3185,1.4043,1.4248,0,0,0,0,0,0,0,0,0,0,0,0
1.3185,1.4043,1.4248,0,0,0,0,0,0,0,0,0,0,0,0
1.3185,1.4043,1.4248,0,0,0,0,0,0,0,0,0,0,0,0
1.3185,1.4043,1.4248,0,0,0,0,0,0,0,0,0,0,0,0
1.3185,1.4043,1.4248,0,0,0,0,0,0,0,0,0,0,0,0
1.3185,1.4043,1.4248,0,0,0,0,0,0,0,0,0,0,0,0
1.3185,1.4043,1.4248,0,0,0,0,0,0,0,0,0,0,0,0
1.3185,1.4043,1.4248,0,0,0,0,0,0,0,0,0,0,0,0
1.3185,1.4043,1.4248,0,0,0,0,0,0,0,0,0,0,0,0
1.3185,1.4043,1.4248,0,0,0,0,0,0,0,0,0,0,0,0
1.3185,1.4043,1.4248,0,0,0,0,0,0,0,0,0,0,0,0
1.3185,1.4043,1.4248,0,0,0,0,0,0,0,0,0,0,0,0
1.3185,1.4043,1.4248,0,0,0,0,0,0,0,0,0,0,0,0
1.3185,1.4043,1.4248,0,0,0,0,0,0,0,0,0,0,0,0
1.3185,1.4043,1.4248,0,0,0,0,0,0,0,0,0,0,0,0
1.3185,1.4043,1.4248,0,0,0,0,0,0,0,0,0,0,0,0
1.3185,1.4043,1.4248,0,0,0,0,0,0,0,0,0,0,0,0
1.3185,1.4043,1.4248,0,0,0,0,0,0,0,0,0,0,0,0
1.3185,1.4043,1.4248,0,0,0,0,0,0,0,0,0,0,0,0
1.3185,1.4043,1.4248,0,0,0,0,0,0,0,0,0,0,0,0
1.3185,1.4043,1.4248,0,0,0,0,0,0,0,0,0,0,0,0
1.3185,1.4043,1.4248,0,0,0,0,0,0,0,0,0,0,0,0
1.3185,1.4043,1.4248,0,0,0,0,0,0,0,0,0,0,0,0
1.3185,1.4043,1.4248,0,0,0,0,0,0,0,0,0,0,0,0
1.3185,1.4043,1.4248,0,0,0,0,0,0,0,0,0,0,0,0
1.3185,1.4043,1.4248,0,0,0,0,0,0,0,0,0,0,0,0
1.3185,1.4043,1.4248,0,0,0,0,0,0,0,0,0,0,0,0
1.3185,1.4043,1.4248,0,0,0,0,0,0,0,0,0,0,0,0
1.3185,1.4043,1.4248,0,0,0,0,0,0,0,0,0,0,0,0
1.3185,1.4043,1.4248,0,0,0,0,0,0,0,0,0,0,0,0
1.3185,1.4043,1.4248,0,0,0,0,0,0,0,0,0,0,0,0
1.3185,1.4043,1.4248,0,0,0,0,0,0,0,0,0,0,0,0
1.3185,1.4043,1.4248,0,0,0,0,0,0,0,0,0,0,0,0
1.3185,1.4043,1.4248,0,0,0,0,0,0,0,0,0,0,0,0
1.3185,1.4043,1.4248,0,0,0,0,0,0,0,0,0,0,0,0
1.3185,1.4043,1.4248,0,0,0,0,0,0,0,0,0,0,0,0
1.3185,1.4043,1.4248,0,0,0,0,0,0,0,0,0,0,0,0
1.3185,1.4043,1.4248,0,0,0,0,0,0,0,0,0,0,0,0
1.3185,1.4043,1.4248,0,0,0,0,0,0,0,0,0,0,0,0
1.3185,1.4043,1.4248,0,0,0,0,0,0,0,0,0,0,0,0
1.3185,1.4043,1.4248,0,0,0,0,0,0,0,0,0,0,0,0
1.3185,1.4043,1.4248,0,0,0,0,0,0,0,0,0,0,0,0
1.3185,1.4043,1.4248,0,0,0,0,0,0,0,0,0,0,0,0
1.3185,1.4043,1.4248,0,0,0,0,0,0,0,0,0,0,0,0
1.3185,1.4043,1.4248,0,0,0,0,0,0,0,0,0,0,0,0
1.3185,1.4043,1.4248,0,0,0,0,0,0,0,0,0,0,0,0
1.3185,1.4043,1.4248,0,0,0,0,0,0,0,0,0,0,0,0
1.3185,1.4043,1.4248,0,0,0,0,0,0,0,0,0,0,0,0
1.3185,1.4043,1.4248,0,0,0,0,0,0,0,0,0,0,0,0
1.3185,1.4043,1.4248,0,0,0,0,0,0,0,0,0,0,0,0
1.3185,1.4043,1.4248,0,0,0,0,0,0,0,0,0,0,0,0
1.3185,1.4043,1.4248,0,0,0,0,0,0,0,0,0,0,0,0
1.3185,1.4043,1.4248,0,0,0,0,0,0,0,0,0,0,0,0
1.3185,1.4043,1.4248,0,0,0,0,0,0,0,0,0,0,0,0
1.3185,1.4043,1.4248,0,0,0,0,0,0,0,0,0,0,0,0
1.3185,1.4043,1.4248,0,0,0,0,0,0,0,0,0,0,0,0
1.3185,1.4043,1.4248,0,0,0,0,0,0,0,0,0,0,0,0
1.3185,1.4043,1.4248,0,0,0,0,0,0,0,0,0,0,0,0
1.3185,1.4043,1.4248,0,0,0,0,0,0,0,0,0,0,0,0
1.3185,1.4043,1.4248,0,0,0,0,0,0,0,0,0,0,0,0
1.3185,1.4043,1.4248,0,0,0,0,0,0,0,0,0,0,0,0
1.3185,1.4043,1.4248,0,0,0,0,0,0,0,0,0,0,0,0
1.3185,1.4043,1.4248,0,0,0,0,0,0,0,0,0,0,0,0
1.3185,1.4043,1.4248,0,0,0,0,0,0,0,0,0,0,0,0
1.3185,1.4043,1.4248,0,0,0,0,0,0,0,0,0,0,0,0
1.3185,1.4043,1.4248,0,0,0,0,0,0,0,0,0,0,0,0
1.3185,1.4043,1.4248,0,0,0,0,0,0,0,0,0,0,0,0
1.3185,1.4043,1.4248,0,0,0,0,0,0,0,0,0,0,0,0
1.3185,1.4043,1.4248,0,0,0,0,0,0,0,0,0,0,0,0
1.3185,1.4043,1.4248,0,0,0,0,0,0,0,0,0,0,0,0
1.3185,1.4043,1.4248,0,0,0,0,0,0,0,0,0,0,0,0
1.3185,1.4043,1.4248,0,0,0,0,0,0,0,0,0,0,0,0
1.3185,1.4043,1.4248,0,0,0,0,0,0,0,0,0,0,0,0
1.3185,1.4043,1.4248,0,0,0,0,0,0,0,0,0,0,0,0
1.3185,1.4043,1.4248,0,0,0,0,0,0,0,0,0,0,0,0
1.3185,1.4043,1.4248,0,0,0,0,0,0,0,0,0,0,0,0
1.3185,1.4043,1.4248,0,0,0,0,0,0,0,0,0,0,0,0
1.3185,1.4043,1.4248,0,0,0,0,0,0,0,0,0,0,0,0
1.3185,1.4043,1.4248,0,0,0,0,0,0,0,0,0,0,0,0
1.3185,1.4043,1.4248,0,0,0,0,0,0,0,0,0,0,0,0
1.3185,1.4043,1.4248,0,0,0,0,0,0,0,0,0,0,0,0
1.3185,1.4043,1.4248,0,0,0,0,0,0,0,0,0,0,0,0
1.3185,1.4043,1.4248,0,0,0,0,0,0,0,0,0,0,0,0
1.3185,1.4043,1.4248,0,0,0,0,0,0,0,0,0,0,0,0
1.3185,1.4043,1.4248,0,0,0,0,0,0,0,0,0,0,0,0
1.3185,1.4043,1.4248,0,0,0,0,0,0,0,0,0,0,0,0
1.3185,1.4043,1.4248,0,0,0,0,0,0,0,0,0,0,0,0
1.3185,1.4043,1.4248,0,0,0,0,0,0,0,0,0,0,0,0
1.3185,1.4043,1.4248,0,0,0,0,0,0,0,0,0,0,0,0
1.3185,1.4043,1.4248,0,0,0,0,0,0,0,0,0,0,0,0
1.3185,1.4043,1.4248,0,0,0,0,0,0,0,0,0,0,0,0
1.3185,1.4043,1.4248,0,0,0,0,0,0,0,0,0,0,0,0
1.3185,1.4043,1.4248,0,0,0,0,0,0,0,0,0,0,0,0
1.3185,1.4043,1.4248,0,0,0,0,0,0,0,0,0,0,0,0
1.3185,1.4043,1.4248,0,0,0,0,0,0,0,0,0,0,0,0
1.3185,1.4043,1.4248,0,0,0,0,0,0,0,0,0,0,0,0
1.3185,1.4043,1.4248,0,0,0,0,0,0,0,0,0,0,0,0
1.3185,1.4043,1.4248,0,0,0,0,0,0,0,0,0,0,0,0
1.3185,1.4043,1.4248,0,0,0,0,0,0,0,0,0,0,0,0
1.3185,1.4043,1.4248,0,0,0,0,0,0,0,0,0,0,0,0
1.3185,1.4043,1.4248,0,0,0,0,0,0,0,0,0,0,0,0
1.3185,1.4043,1.4248,0,0,0,0,0,0,0,0,0,0,0,0
1.3185,1.4043,1.4248,0,0,0,0,0,0,0,0,0,0,0,0
1.3185,1.4043,1.4248,0,0,0,0,0,0,0,0,0,0,0,0
1.3185,1.4043,1.4248,0,0,0,0,0,0,0,0,0,0,0,0
1.3185,1.4043,1.4248,0,0,0,0,0,0,0,0,0,0,0,0
1.3185,1.4043,1.4248,0,0,0,0,0,0,0,0,0,0,0,0
1.3185,1.4043,1.4248,0,0,0,0,0,0,0,0,0,0,0,0
1.3185,1.4043,1.4248,0,0,0,0,0,0,0,0,0,0,0,0
1.3185,1.4043,1.4248,0,0,0,0,0,0,0,0,0,0,0,0
1.3185,1.4043,1.4248,0,0,0,0,0,0,0,0,0,0,0,0
1.3185,1.4043,1.4248,0,0,0,0,0,0,0,0,0,0,0,0
1.3185,1.4043,1.4248,0,0,0,0,0,0,0,0,0,0,0,0
1.3185,1.4043,1.4248,0,0,0,0,0,0,0,0,0,0,0,0
1.3185,1.4043,1.4248,0,0,0,0,0,0,0,0,0,0,0,0
1.3185,1.4043,1.4248,0,0,0,0,0,0,0,0,0,0,0,0
1.3185,1.4043,1.4248,0,0,0,0,0,0,0,0,0,0,0,0
1.3185,1.4043,1.4248,0,0,0,0,0,0,0,0,0,0,0,0
1.3185,1.4043,1.4248,0,0,0,0,0,0,0,0,0,0,0,0
1.3185,1.4043,1.4248,0,0,0,0,0,0,0,0,0,0,0,0
1.3185,1.4043,1.4248,0,0,0,0,0,0,0,0,0,0,0,0
1.3185,1.4043,1.4248,0,0,0,0,0,0,0,0,0,0,0,0
1.3185,1.4043,1.4248,0,0,0,0,0,0,0,0,0,0,0,0
1.3185,1.4043,1.4248,0,0,0,0,0,0,0,0,0,0,0,0
1.3185,1.4043,1.4248,0,0,0,0,0,0,0,0,0,0,0,0
1.3185,1.4043,1.4248,0,0,0,0,0,0,0,0,0,0,0,0
1.3185,1.4043,1.4248,0,0,0,0,0,0,0,0,0,0,0,0
1.3185,1.4043,1.4248,0,0,0,0,0,0,0,0,0,0,0,0
1.3185,1.4043,1.4248,0,0,0,0,0,0,0,0,0,0,0,0
1.3185,1.4043,1.4248,0,0,0,0,0,0,0,0,0,0,0,0
1.3185,1.4043,1.4248,0,0,0,0,0,0,0,0,0,0,0,0
1.3185,1.4043,1.4248,0,0,0,0,0,0,0,0,0,0,0,0
1.3185,1.4043,1.4248,0,0,0,0,0,0,0,0,0,0,0,0
1.3185,1.4043,1.4248,0,0,0,0,0,0,0,0,0,0,0,0
1.3185,1.4043,1.4248,0,0,0,0,0,0,0,0,0,0,0,0
1.3185,1.4043,1.4248,0,0,0,0,0,0,0,0,0,0,0,0
1.3185,1.4043,1.4248,0,0,0,0,0,0,0,0,0,0,0,0
1.3185,1.4043,1.4248,0,0,0,0,0,0,0,0,0,0,0,0
1.3185,1.4043,1.4248,0,0,0,0,0,0,0,0,0,0,0,0
1.3185,1.4043,1.4248,0,0,0,0,0,0,0,0,0,0,0,0
1.3185,1.4043,1.4248,0,0,0,0,0,0,0,0,0,0,0,0
1.3185,1.4043,1.4248,0,0,0,0,0,0,0,0,0,0,0,0
1.3185,1.4043,1.4248,0,0,0,0,0,0,0,0,0,0,0,0
1.3185,1.4043,1.4248,0,0,0,0,0,0,0,0,0,0,0,0
1.3185,1.4043,1.4248,0,0,0,0,0,0,0,0,0,0,0,0
1.3185,1.4043,1.4248,0,0,0,0,0,0,0,0,0,0,0,0
1.3185,1.4043,1.4248,0,0,0,0,0,0,0,0,0,0,0,0
1.3185,1.4043,1.4248,0,0,0,0,0,0,0,0,0,0,0,0
1.3185,1.4043,1.4248,0,0,0,0,0,0,0,0,0,0,0,0
1.3185,1.4043,1.4248,0,0,0,0,0,0,0,0,0,0,0,0
1.3185,1.4043,1.4248,0,0,0,0,0,0,0,0,0,0,0,0
1.3185,1.4043,1.4248,0,0,0,0,0,0,0,0,0,0,0,0
1.3185,1.4043,1.4248,0,0,0,0,0,0,0,0,0,0,0,0
1.3185,1.4043,1.4248,0,0,0,0,0,0,0,0,0,0,0,0
1.3185,1.4043,1.4248,0,0,0,0,0,0,0,0,0,0,0,0
1.3185,1.4043,1.4248,0,0,0,0,0,0,0,0,0,0,0,0
1.3185,1.4043,1.4248,0,0,0,0,0,0,0,0,0,0,0,0
1.3185,1.4043,1.4248,0,0,0,0,0,0,0,0,0,0,0,0
1.3185,1.4043,1.4248,0,0,0,0,0,0,0,0,0,0,0,0
1.3185,1.4043,1.4248,0,0,0,0,0,0,0,0,0,0,0,0
1.3185,1.4043,1.4248,0,0,0,0,0,0,0,0,0,0,0,0
1.3185,1.4043,1.4248,0,0,0,0,0,0,0,0,0,0,0,0
1.3185,1.4043,1.4248,0,0,0,0,0,0,0,0,0,0,0,0
1.3185,1.4043,1.4248,0,0,0,0,0,0,0,0,0,0,0,0
1.3185,1.4043,1.4248,0,0,0,0,0,0,0,0,0,0,0,0
1.3185,1.4043,1.4248,0,0,0,0,0,0,0,0,0,0,0,0
1.3185,1.4043,1.4248,0,0,0,0,0,0,0,0,0,0,0,0
1.3185,1.4043,1.4248,0,0,0,0,0,0,0,0,0,0,0,0
1.3185,1.4043,1.4248,0,0,0,0,0,0,0,0,0,0,0,0
1.3185,1.4043,1.4248,0,0,0,0,0,0,0,0,0,0,0,0
1.3185,1.4043,1.4248,0,0,0,0,0,0,0,0,0,0,0,0
1.3185,1.4043,1.4248,0,0,0,0,0,0,0,0,0,0,0,0
1.3185,1.4043,1.4248,0,0,0,0,0,0,0,0,0,0,0,0
1.3185,1.4043,1.4248,0,0,0,0,0,0,0,0,0,0,0,0
1.3185,1.4043,1.4248,0,0,0,0,0,0,0,0,0,0,0,0
1.3185,1.4043,1.4248,0,0,0,0,0,0,0,0,0,0,0,0
1.3185,1.4043,1.4248,0,0,0,0,0,0,0,0,0,0,0,0
1.3185,1.4043,1.4248,0,0,0,0,0,0,0,0,0,0,0,0
1.3185,1.4043,1.4248,0,0,0,0,0,0,0,0,0,0,0,0
1.3185,1.4043,1.4248,0,0,0,0,0,0,0,0,0,0,0,0
1.3185,1.4043,1.4248,0,0,0,0,0,0,0,0,0,0,0,0
1.3185,1.4043,1.4248,0,0,0,0,0,0,0,0,0,0,0,0
1.3185,1.4043,1.4248,0,0,0,0,0,0,0,0,0,0,0,0
1.3185,1.4043,1.4248,0,0,0,0,0,0,0,0,0,0,0,0
1.3185,1.4043,1.4248,0,0,0,0,0,0,0,0,0,0,0,0
1.3185,1.4043,1.4248,0,0,0,0,0,0,0,0,0,0,0,0
1.3185,1.4043,1.4248,0,0,0,0,0,0,0,0,0,0,0,0
1.3185,1.4043,1.4248,0,0,0,0,0,0,0,0,0,0,0,0
1.3185,1.4043,1.4248,0,0,0,0,0,0,0,0,0,0,0,0
1.3185,1.4043,1.4248,0,0,0,0,0,0,0,0,0,0,0,0
1.3185,1.4043,1.4248,0,0,0,0,0,0,0,0,0,0,0,0
1.3185,1.4043,1.4248,0,0,0,0,0,0,0,0,0,0,0,0
1.3185,1.4043,1.4248,0,0,0,0,0,0,0,0,0,0,0,0
1.3185,1.4043,1.4248,0,0,0,0,0,0,0,0,0,0,0,0
1.3185,1.4043,1.4248,0,0,0,0,0,0,0,0,0,0,0,0
1.3185,1.4043,1.4248,0,0,0,0,0,0,0,0,0,0,0,0
1.3185,1.4043,1.4248,0,0,0,0,0,0,0,0,0,0,0,0
1.3185,1.4043,1.4248,0,0,0,0,0,0,0,0,0,0,0,0
1.3185,1.4043,1.4248,0,0,0,0,0,0,0,0,0,0,0,0
1.3185,1.4043,1.4248,0,0,0,0,0,0,0,0,0,0,0,0
1.3185,1.4043,1.4248,0,0,0,0,0,0,0,0,0,0,0,0
1.3185,1.4043,1.4248,0,0,0,0,0,0,0,0,0,0,0,0
1.3185,1.4043,1.4248,0,0,0,0,0,0,0,0,0,0,0,0
1.3185,1.4043,1.4248,0,0,0,0,0,0,0,0,0,0,0,0
1.3185,1.4043,1.4248,0,0,0,0,0,0,0,0,0,0,0,0
1.3185,1.4043,1.4248,0,0,0,0,0,0,0,0,0,0,0,0
1.3185,1.4043,1.4248,0,0,0,0,0,0,0,0,0,0,0,0
1.3185,1.4043,1.4248,0,0,0,0,0,0,0,0,0,0,0,0
1.3185,1.4043,1.4248,0,0,0,0,0,0,0,0,0,0,0,0
1.3185,1.4043,1.4248,0,0,0,0,0,0,0,0,0,0,0,0
1.3185,1.4043,1.4248,0,0,0,0,0,0,0,0,0,0,0,0
1.3185,1.4043,1.4248,0,0,0,0,0,0,0,0,0,0,0,0
1.3185,1.4043,1.4248,0,0,0,0,0,0,0,0,0,0,0,0
1.3185,1.4043,1.4248,0,0,0,0,0,0,0,0,0,0,0,0
1.3185,1.4043,1.4248,0,0,0,0,0,0,0,0,0,0,0,0
1.3185,1.4043,1.4248,0,0,0,0,0,0,0,0,0,0,0,0
1.3185,1.4043,1.4248,0,0,0,0,0,0,0,0,0,0,0,0
1.3185,1.4043,1.4248,0,0,0,0,0,0,0,0,0,0,0,0
1.3185,1.4043,1.4248,0,0,0,0,0,0,0,0,0,0,0,0
1.3185,1.4043,1.4248,0,0,0,0,0,0,0,0,0,0,0,0
1.3185,1.4043,1.4248,0,0,0,0,0,0,0,0,0,0,0,0
1.3185,1.4043,1.4248,0,0,0,0,0,0,0,0,0,0,0,0
1.3185,1.4043,1.4248,0,0,0,0,0,0,0,0,0,0,0,0
