1
627.500000,276.500000,153.000000,95.000000
627.500000,276.500000,153.000000,95.000000
627.500000,276.500000,153.000000,95.000000
631.500000,276.500000,153.000000,95.000000
635.500000,276.500000,153.000000,95.000000
635.500000,280.500000,153.000000,95.000000
639.500000,280.500000,153.000000,95.000000
639.500000,280.500000,153.000000,95.000000
639.500000,280.500000,153.000000,95.000000
639.500000,280.500000,153.000000,95.000000
639.500000,284.500000,153.000000,95.000000
639.500000,284.500000,153.000000,95.000000
639.500000,284.500000,153.000000,95.000000
639.500000,284.500000,153.000000,95.000000
639.500000,284.500000,153.000000,95.000000
639.500000,288.500000,153.000000,95.000000
643.500000,288.500000,153.000000,95.000000
643.500000,288.500000,153.000000,95.000000
643.500000,292.500000,153.000000,95.000000
647.500000,292.500000,153.000000,95.000000
647.500000,296.500000,153.000000,95.000000
647.500000,296.500000,153.000000,95.000000
647.500000,296.500000,153.000000,95.000000
647.500000,300.500000,153.000000,95.000000
647.500000,300.500000,153.000000,95.000000
647.500000,300.500000,153.000000,95.000000
647.500000,300.500000,153.000000,95.000000
647.500000,304.500000,153.000000,95.000000
647.500000,304.500000,153.000000,95.000000
647.500000,304.500000,153.000000,95.000000
647.500000,304.500000,153.000000,95.000000
647.500000,304.500000,153.000000,95.000000
647.500000,304.500000,153.000000,95.000000
647.500000,308.500000,153.000000,95.000000
647.500000,308.500000,153.000000,95.000000
647.500000,308.500000,153.000000,95.000000
647.500000,308.500000,153.000000,95.000000
647.500000,308.500000,153.000000,95.000000
647.500000,308.500000,153.000000,95.000000
647.500000,308.500000,153.000000,95.000000
647.500000,308.500000,153.000000,95.000000
647.500000,308.500000,153.000000,95.000000
647.500000,308.500000,153.000000,95.000000
647.500000,308.500000,153.000000,95.000000
647.500000,308.500000,153.000000,95.000000
647.500000,308.500000,153.000000,95.000000
647.500000,308.500000,153.000000,95.000000
647.500000,308.500000,153.000000,95.000000
647.500000,308.500000,153.000000,95.000000
647.500000,308.500000,153.000000,95.000000
647.500000,308.500000,153.000000,95.000000
647.500000,312.500000,153.000000,95.000000
647.500000,312.500000,153.000000,95.000000
647.500000,312.500000,153.000000,95.000000
647.500000,312.500000,153.000000,95.000000
647.500000,312.500000,153.000000,95.000000
647.500000,312.500000,153.000000,95.000000
647.500000,312.500000,153.000000,95.000000
647.500000,312.500000,153.000000,95.000000
647.500000,312.500000,153.000000,95.000000
647.500000,308.500000,153.000000,95.000000
647.500000,308.500000,153.000000,95.000000
647.500000,308.500000,153.000000,95.000000
647.500000,308.500000,153.000000,95.000000
647.500000,304.500000,153.000000,95.000000
647.500000,304.500000,153.000000,95.000000
647.500000,304.500000,153.000000,95.000000
647.500000,304.500000,153.000000,95.000000
647.500000,304.500000,153.000000,95.000000
647.500000,304.500000,153.000000,95.000000
647.500000,304.500000,153.000000,95.000000
647.500000,304.500000,153.000000,95.000000
647.500000,304.500000,153.000000,95.000000
647.500000,304.500000,153.000000,95.000000
647.500000,304.500000,153.000000,95.000000
647.500000,304.500000,153.000000,95.000000
647.500000,304.500000,153.000000,95.000000
647.500000,304.500000,153.000000,95.000000
647.500000,304.500000,153.000000,95.000000
647.500000,308.500000,153.000000,95.000000
647.500000,308.500000,153.000000,95.000000
647.500000,308.500000,153.000000,95.000000
647.500000,308.500000,153.000000,95.000000
647.500000,308.500000,153.000000,95.000000
647.500000,308.500000,153.000000,95.000000
647.500000,308.500000,153.000000,95.000000
647.500000,308.500000,153.000000,95.000000
647.500000,308.500000,153.000000,95.000000
647.500000,308.500000,153.000000,95.000000
647.500000,308.500000,153.000000,95.000000
647.500000,308.500000,153.000000,95.000000
647.500000,308.500000,153.000000,95.000000
647.500000,308.500000,153.000000,95.000000
647.500000,308.500000,153.000000,95.000000
647.500000,308.500000,153.000000,95.000000
647.500000,308.500000,153.000000,95.000000
647.500000,308.500000,153.000000,95.000000
647.500000,308.500000,153.000000,95.000000
647.500000,304.500000,153.000000,95.000000
647.500000,304.500000,153.000000,95.000000
647.500000,304.500000,153.000000,95.000000
647.500000,304.500000,153.000000,95.000000
647.500000,304.500000,153.000000,95.000000
647.500000,304.500000,153.000000,95.000000
647.500000,304.500000,153.000000,95.000000
647.500000,304.500000,153.000000,95.000000
647.500000,304.500000,153.000000,95.000000
647.500000,304.500000,153.000000,95.000000
647.500000,304.500000,153.000000,95.000000
647.500000,304.500000,153.000000,95.000000
647.500000,304.500000,153.000000,95.000000
647.500000,304.500000,153.000000,95.000000
647.500000,304.500000,153.000000,95.000000
647.500000,304.500000,153.000000,95.000000
643.500000,304.500000,153.000000,95.000000
643.500000,304.500000,153.000000,95.000000
643.500000,304.500000,153.000000,95.000000
639.500000,304.500000,153.000000,95.000000
639.500000,304.500000,153.000000,95.000000
639.500000,304.500000,153.000000,95.000000
639.500000,304.500000,153.000000,95.000000
639.500000,304.500000,153.000000,95.000000
639.500000,304.500000,153.000000,95.000000
639.500000,304.500000,153.000000,95.000000
639.500000,304.500000,153.000000,95.000000
639.500000,304.500000,153.000000,95.000000
639.500000,304.500000,153.000000,95.000000
639.500000,304.500000,153.000000,95.000000
639.500000,304.500000,153.000000,95.000000
639.500000,304.500000,153.000000,95.000000
639.500000,304.500000,153.000000,95.000000
639.500000,300.500000,153.000000,95.000000
639.500000,300.500000,153.000000,95.000000
639.500000,300.500000,153.000000,95.000000
639.500000,300.500000,153.000000,95.000000
639.500000,300.500000,153.000000,95.000000
639.500000,300.500000,153.000000,95.000000
643.500000,300.500000,153.000000,95.000000
643.500000,300.500000,153.000000,95.000000
643.500000,300.500000,153.000000,95.000000
643.500000,300.500000,153.000000,95.000000
643.500000,300.500000,153.000000,95.000000
643.500000,300.500000,153.000000,95.000000
643.500000,300.500000,153.000000,95.000000
643.500000,300.500000,153.000000,95.000000
643.500000,300.500000,153.000000,95.000000
643.500000,300.500000,153.000000,95.000000
643.500000,300.500000,153.000000,95.000000
643.500000,300.500000,153.000000,95.000000
643.500000,296.500000,153.000000,95.000000
643.500000,296.500000,153.000000,95.000000
643.500000,296.500000,153.000000,95.000000
643.500000,296.500000,153.000000,95.000000
643.500000,296.500000,153.000000,95.000000
643.500000,296.500000,153.000000,95.000000
643.500000,296.500000,153.000000,95.000000
643.500000,300.500000,153.000000,95.000000
643.500000,300.500000,153.000000,95.000000
643.500000,300.500000,153.000000,95.000000
643.500000,300.500000,153.000000,95.000000
643.500000,304.500000,153.000000,95.000000
643.500000,304.500000,153.000000,95.000000
643.500000,304.500000,153.000000,95.000000
643.500000,304.500000,153.000000,95.000000
643.500000,304.500000,153.000000,95.000000
643.500000,304.500000,153.000000,95.000000
643.500000,304.500000,153.000000,95.000000
643.500000,304.500000,153.000000,95.000000
643.500000,300.500000,153.000000,95.000000
643.500000,300.500000,153.000000,95.000000
643.500000,296.500000,153.000000,95.000000
643.500000,296.500000,153.000000,95.000000
643.500000,292.500000,153.000000,95.000000
643.500000,288.500000,153.000000,95.000000
643.500000,288.500000,153.000000,95.000000
643.500000,284.500000,153.000000,95.000000
643.500000,280.500000,153.000000,95.000000
643.500000,280.500000,153.000000,95.000000
643.500000,276.500000,153.000000,95.000000
643.500000,276.500000,153.000000,95.000000
643.500000,272.500000,153.000000,95.000000
643.500000,272.500000,153.000000,95.000000
643.500000,272.500000,153.000000,95.000000
643.500000,272.500000,153.000000,95.000000
643.500000,276.500000,153.000000,95.000000
643.500000,280.500000,153.000000,95.000000
643.500000,288.500000,153.000000,95.000000
643.500000,300.500000,153.000000,95.000000
643.500000,312.500000,153.000000,95.000000
643.500000,324.500000,153.000000,95.000000
643.500000,340.500000,153.000000,95.000000
643.500000,352.500000,153.000000,95.000000
647.500000,360.500000,153.000000,95.000000
651.500000,368.500000,153.000000,95.000000
655.500000,368.500000,153.000000,95.000000
659.500000,372.500000,153.000000,95.000000
659.500000,372.500000,153.000000,95.000000
659.500000,376.500000,153.000000,95.000000
659.500000,384.500000,153.000000,95.000000
663.500000,388.500000,153.000000,95.000000
663.500000,396.500000,153.000000,95.000000
667.500000,404.500000,153.000000,95.000000
667.500000,412.500000,153.000000,95.000000
671.500000,416.500000,153.000000,95.000000
671.500000,424.500000,153.000000,95.000000
675.500000,428.500000,153.000000,95.000000
675.500000,432.500000,153.000000,95.000000
679.500000,436.500000,153.000000,95.000000
679.500000,440.500000,153.000000,95.000000
679.500000,444.500000,153.000000,95.000000
679.500000,444.500000,153.000000,95.000000
683.500000,444.500000,153.000000,95.000000
683.500000,448.500000,153.000000,95.000000
683.500000,448.500000,153.000000,95.000000
683.500000,448.500000,153.000000,95.000000
683.500000,448.500000,153.000000,95.000000
683.500000,444.500000,153.000000,95.000000
679.500000,440.500000,153.000000,95.000000
675.500000,436.500000,153.000000,95.000000
671.500000,432.500000,153.000000,95.000000
667.500000,432.500000,153.000000,95.000000
663.500000,428.500000,153.000000,95.000000
659.500000,424.500000,153.000000,95.000000
659.500000,420.500000,153.000000,95.000000
655.500000,416.500000,153.000000,95.000000
655.500000,412.500000,153.000000,95.000000
651.500000,404.500000,153.000000,95.000000
651.500000,400.500000,153.000000,95.000000
651.500000,392.500000,153.000000,95.000000
651.500000,384.500000,153.000000,95.000000
647.500000,376.500000,153.000000,95.000000
643.500000,364.500000,153.000000,95.000000
643.500000,356.500000,153.000000,95.000000
639.500000,352.500000,153.000000,95.000000
635.500000,344.500000,153.000000,95.000000
635.500000,336.500000,153.000000,95.000000
631.500000,328.500000,153.000000,95.000000
631.500000,324.500000,153.000000,95.000000
631.500000,316.500000,153.000000,95.000000
631.500000,316.500000,153.000000,95.000000
631.500000,312.500000,153.000000,95.000000
631.500000,312.500000,153.000000,95.000000
631.500000,312.500000,153.000000,95.000000
631.500000,312.500000,153.000000,95.000000
631.500000,316.500000,153.000000,95.000000
631.500000,320.500000,153.000000,95.000000
631.500000,320.500000,153.000000,95.000000
631.500000,324.500000,153.000000,95.000000
631.500000,328.500000,153.000000,95.000000
627.500000,328.500000,153.000000,95.000000
623.500000,332.500000,153.000000,95.000000
623.500000,336.500000,153.000000,95.000000
623.500000,344.500000,153.000000,95.000000
623.500000,352.500000,153.000000,95.000000
623.500000,360.500000,153.000000,95.000000
623.500000,368.500000,153.000000,95.000000
623.500000,376.500000,153.000000,95.000000
623.500000,384.500000,153.000000,95.000000
623.500000,392.500000,153.000000,95.000000
627.500000,404.500000,153.000000,95.000000
631.500000,412.500000,153.000000,95.000000
631.500000,424.500000,153.000000,95.000000
635.500000,432.500000,153.000000,95.000000
635.500000,440.500000,153.000000,95.000000
639.500000,448.500000,153.000000,95.000000
643.500000,456.500000,153.000000,95.000000
647.500000,460.500000,153.000000,95.000000
651.500000,464.500000,153.000000,95.000000
655.500000,468.500000,153.000000,95.000000
655.500000,472.500000,153.000000,95.000000
659.500000,476.500000,153.000000,95.000000
659.500000,480.500000,153.000000,95.000000
659.500000,484.500000,153.000000,95.000000
663.500000,488.500000,153.000000,95.000000
663.500000,492.500000,153.000000,95.000000
663.500000,492.500000,153.000000,95.000000
663.500000,492.500000,153.000000,95.000000
663.500000,496.500000,153.000000,95.000000
667.500000,496.500000,153.000000,95.000000
667.500000,496.500000,153.000000,95.000000
667.500000,496.500000,153.000000,95.000000
667.500000,496.500000,153.000000,95.000000
667.500000,496.500000,153.000000,95.000000
667.500000,496.500000,153.000000,95.000000
667.500000,496.500000,153.000000,95.000000
667.500000,496.500000,153.000000,95.000000
667.500000,492.500000,153.000000,95.000000
667.500000,488.500000,153.000000,95.000000
667.500000,484.500000,153.000000,95.000000
667.500000,480.500000,153.000000,95.000000
