1
728.500000,227.500000,193.000000,113.000000
728.500000,227.500000,193.000000,113.000000
728.500000,227.500000,193.000000,113.000000
728.500000,227.500000,193.000000,113.000000
728.500000,227.500000,193.000000,113.000000
728.500000,227.500000,193.000000,113.000000
728.500000,227.500000,193.000000,113.000000
728.500000,227.500000,193.000000,113.000000
728.500000,227.500000,193.000000,113.000000
728.500000,227.500000,193.000000,113.000000
728.500000,227.500000,193.000000,113.000000
728.500000,227.500000,193.000000,113.000000
728.500000,227.500000,193.000000,113.000000
728.500000,231.500000,193.000000,113.000000
728.500000,231.500000,193.000000,113.000000
728.500000,227.500000,193.000000,113.000000
728.500000,227.500000,193.000000,113.000000
728.500000,227.500000,193.000000,113.000000
728.500000,227.500000,193.000000,113.000000
728.500000,227.500000,193.000000,113.000000
728.500000,227.500000,193.000000,113.000000
728.500000,227.500000,193.000000,113.000000
728.500000,227.500000,193.000000,113.000000
728.500000,227.500000,193.000000,113.000000
728.500000,227.500000,193.000000,113.000000
728.500000,227.500000,193.000000,113.000000
728.500000,227.500000,193.000000,113.000000
728.500000,227.500000,193.000000,113.000000
728.500000,227.500000,193.000000,113.000000
728.500000,227.500000,193.000000,113.000000
728.500000,227.500000,193.000000,113.000000
728.500000,227.500000,193.000000,113.000000
728.500000,227.500000,193.000000,113.000000
728.500000,227.500000,193.000000,113.000000
728.500000,227.500000,193.000000,113.000000
728.500000,227.500000,193.000000,113.000000
728.500000,227.500000,193.000000,113.000000
728.500000,227.500000,193.000000,113.000000
728.500000,227.500000,193.000000,113.000000
728.500000,227.500000,193.000000,113.000000
728.500000,227.500000,193.000000,113.000000
728.500000,223.500000,193.000000,113.000000
728.500000,223.500000,193.000000,113.000000
728.500000,227.500000,193.000000,113.000000
728.500000,227.500000,193.000000,113.000000
728.500000,227.500000,193.000000,113.000000
728.500000,227.500000,193.000000,113.000000
728.500000,227.500000,193.000000,113.000000
728.500000,227.500000,193.000000,113.000000
728.500000,227.500000,193.000000,113.000000
728.500000,227.500000,193.000000,113.000000
728.500000,227.500000,193.000000,113.000000
728.500000,227.500000,193.000000,113.000000
728.500000,227.500000,193.000000,113.000000
728.500000,227.500000,193.000000,113.000000
728.500000,231.500000,193.000000,113.000000
728.500000,231.500000,193.000000,113.000000
728.500000,231.500000,193.000000,113.000000
728.500000,231.500000,193.000000,113.000000
728.500000,231.500000,193.000000,113.000000
728.500000,231.500000,193.000000,113.000000
728.500000,231.500000,193.000000,113.000000
728.500000,231.500000,193.000000,113.000000
728.500000,231.500000,193.000000,113.000000
728.500000,231.500000,193.000000,113.000000
728.500000,231.500000,193.000000,113.000000
728.500000,231.500000,193.000000,113.000000
728.500000,231.500000,193.000000,113.000000
728.500000,231.500000,193.000000,113.000000
728.500000,231.500000,193.000000,113.000000
728.500000,231.500000,193.000000,113.000000
728.500000,231.500000,193.000000,113.000000
728.500000,231.500000,193.000000,113.000000
728.500000,231.500000,193.000000,113.000000
728.500000,231.500000,193.000000,113.000000
728.500000,231.500000,193.000000,113.000000
728.500000,231.500000,193.000000,113.000000
728.500000,231.500000,193.000000,113.000000
728.500000,231.500000,193.000000,113.000000
728.500000,231.500000,193.000000,113.000000
728.500000,231.500000,193.000000,113.000000
728.500000,231.500000,193.000000,113.000000
728.500000,231.500000,193.000000,113.000000
728.500000,231.500000,193.000000,113.000000
728.500000,231.500000,193.000000,113.000000
728.500000,231.500000,193.000000,113.000000
728.500000,231.500000,193.000000,113.000000
728.500000,231.500000,193.000000,113.000000
728.500000,231.500000,193.000000,113.000000
728.500000,231.500000,193.000000,113.000000
728.500000,231.500000,193.000000,113.000000
728.500000,231.500000,193.000000,113.000000
728.500000,231.500000,193.000000,113.000000
728.500000,231.500000,193.000000,113.000000
728.500000,231.500000,193.000000,113.000000
728.500000,231.500000,193.000000,113.000000
728.500000,231.500000,193.000000,113.000000
728.500000,231.500000,193.000000,113.000000
728.500000,231.500000,193.000000,113.000000
728.500000,231.500000,193.000000,113.000000
728.500000,231.500000,193.000000,113.000000
728.500000,231.500000,193.000000,113.000000
728.500000,231.500000,193.000000,113.000000
728.500000,231.500000,193.000000,113.000000
728.500000,231.500000,193.000000,113.000000
728.500000,231.500000,193.000000,113.000000
728.500000,231.500000,193.000000,113.000000
728.500000,231.500000,193.000000,113.000000
728.500000,231.500000,193.000000,113.000000
728.500000,231.500000,193.000000,113.000000
728.500000,231.500000,193.000000,113.000000
728.500000,231.500000,193.000000,113.000000
728.500000,231.500000,193.000000,113.000000
728.500000,231.500000,193.000000,113.000000
728.500000,231.500000,193.000000,113.000000
728.500000,231.500000,193.000000,113.000000
728.500000,231.500000,193.000000,113.000000
728.500000,231.500000,193.000000,113.000000
728.500000,231.500000,193.000000,113.000000
728.500000,231.500000,193.000000,113.000000
728.500000,231.500000,193.000000,113.000000
728.500000,231.500000,193.000000,113.000000
728.500000,231.500000,193.000000,113.000000
728.500000,231.500000,193.000000,113.000000
728.500000,231.500000,193.000000,113.000000
728.500000,227.500000,193.000000,113.000000
728.500000,227.500000,193.000000,113.000000
728.500000,227.500000,193.000000,113.000000
728.500000,227.500000,193.000000,113.000000
728.500000,227.500000,193.000000,113.000000
728.500000,227.500000,193.000000,113.000000
728.500000,227.500000,193.000000,113.000000
728.500000,227.500000,193.000000,113.000000
728.500000,227.500000,193.000000,113.000000
728.500000,227.500000,193.000000,113.000000
728.500000,227.500000,193.000000,113.000000
728.500000,227.500000,193.000000,113.000000
728.500000,227.500000,193.000000,113.000000
728.500000,227.500000,193.000000,113.000000
728.500000,227.500000,193.000000,113.000000
728.500000,227.500000,193.000000,113.000000
728.500000,227.500000,193.000000,113.000000
728.500000,227.500000,193.000000,113.000000
728.500000,227.500000,193.000000,113.000000
728.500000,227.500000,193.000000,113.000000
728.500000,227.500000,193.000000,113.000000
728.500000,227.500000,193.000000,113.000000
728.500000,227.500000,193.000000,113.000000
728.500000,227.500000,193.000000,113.000000
728.500000,227.500000,193.000000,113.000000
728.500000,227.500000,193.000000,113.000000
728.500000,227.500000,193.000000,113.000000
728.500000,227.500000,193.000000,113.000000
728.500000,227.500000,193.000000,113.000000
728.500000,227.500000,193.000000,113.000000
728.500000,227.500000,193.000000,113.000000
728.500000,227.500000,193.000000,113.000000
728.500000,227.500000,193.000000,113.000000
728.500000,227.500000,193.000000,113.000000
728.500000,227.500000,193.000000,113.000000
728.500000,227.500000,193.000000,113.000000
728.500000,227.500000,193.000000,113.000000
728.500000,227.500000,193.000000,113.000000
728.500000,227.500000,193.000000,113.000000
728.500000,227.500000,193.000000,113.000000
728.500000,227.500000,193.000000,113.000000
728.500000,227.500000,193.000000,113.000000
728.500000,227.500000,193.000000,113.000000
728.500000,227.500000,193.000000,113.000000
728.500000,227.500000,193.000000,113.000000
728.500000,227.500000,193.000000,113.000000
728.500000,231.500000,193.000000,113.000000
728.500000,231.500000,193.000000,113.000000
728.500000,231.500000,193.000000,113.000000
728.500000,231.500000,193.000000,113.000000
728.500000,231.500000,193.000000,113.000000
728.500000,231.500000,193.000000,113.000000
728.500000,231.500000,193.000000,113.000000
728.500000,231.500000,193.000000,113.000000
728.500000,231.500000,193.000000,113.000000
728.500000,231.500000,193.000000,113.000000
728.500000,231.500000,193.000000,113.000000
728.500000,231.500000,193.000000,113.000000
728.500000,231.500000,193.000000,113.000000
728.500000,231.500000,193.000000,113.000000
728.500000,231.500000,193.000000,113.000000
728.500000,231.500000,193.000000,113.000000
728.500000,231.500000,193.000000,113.000000
728.500000,231.500000,193.000000,113.000000
728.500000,231.500000,193.000000,113.000000
728.500000,231.500000,193.000000,113.000000
728.500000,231.500000,193.000000,113.000000
728.500000,231.500000,193.000000,113.000000
728.500000,231.500000,193.000000,113.000000
728.500000,231.500000,193.000000,113.000000
728.500000,231.500000,193.000000,113.000000
728.500000,231.500000,193.000000,113.000000
728.500000,231.500000,193.000000,113.000000
728.500000,231.500000,193.000000,113.000000
728.500000,231.500000,193.000000,113.000000
728.500000,231.500000,193.000000,113.000000
728.500000,231.500000,193.000000,113.000000
728.500000,231.500000,193.000000,113.000000
728.500000,231.500000,193.000000,113.000000
728.500000,231.500000,193.000000,113.000000
728.500000,231.500000,193.000000,113.000000
728.500000,231.500000,193.000000,113.000000
728.500000,231.500000,193.000000,113.000000
728.500000,231.500000,193.000000,113.000000
728.500000,231.500000,193.000000,113.000000
728.500000,231.500000,193.000000,113.000000
728.500000,231.500000,193.000000,113.000000
728.500000,231.500000,193.000000,113.000000
728.500000,231.500000,193.000000,113.000000
728.500000,231.500000,193.000000,113.000000
728.500000,231.500000,193.000000,113.000000
728.500000,231.500000,193.000000,113.000000
728.500000,231.500000,193.000000,113.000000
728.500000,231.500000,193.000000,113.000000
728.500000,231.500000,193.000000,113.000000
728.500000,231.500000,193.000000,113.000000
728.500000,231.500000,193.000000,113.000000
728.500000,231.500000,193.000000,113.000000
728.500000,231.500000,193.000000,113.000000
728.500000,231.500000,193.000000,113.000000
728.500000,231.500000,193.000000,113.000000
728.500000,231.500000,193.000000,113.000000
728.500000,231.500000,193.000000,113.000000
728.500000,231.500000,193.000000,113.000000
728.500000,231.500000,193.000000,113.000000
728.500000,231.500000,193.000000,113.000000
728.500000,231.500000,193.000000,113.000000
728.500000,231.500000,193.000000,113.000000
728.500000,231.500000,193.000000,113.000000
728.500000,231.500000,193.000000,113.000000
728.500000,227.500000,193.000000,113.000000
728.500000,227.500000,193.000000,113.000000
728.500000,227.500000,193.000000,113.000000
728.500000,227.500000,193.000000,113.000000
728.500000,227.500000,193.000000,113.000000
728.500000,227.500000,193.000000,113.000000
728.500000,227.500000,193.000000,113.000000
728.500000,227.500000,193.000000,113.000000
728.500000,227.500000,193.000000,113.000000
728.500000,231.500000,193.000000,113.000000
728.500000,227.500000,193.000000,113.000000
728.500000,231.500000,193.000000,113.000000
2
0
0
0
0
1
430.649994,198.125000,204.299988,111.849991
430.649994,198.125000,204.299988,111.849991
430.649994,198.125000,204.299988,111.849991
430.649994,198.125000,204.299988,111.849991
430.649994,198.125000,204.299988,111.849991
430.649994,198.125000,204.299988,111.849991
430.649994,198.125000,204.299988,111.849991
430.649994,198.125000,204.299988,111.849991
430.649994,198.125000,204.299988,111.849991
430.649994,198.125000,204.299988,111.849991
430.649994,198.125000,204.299988,111.849991
430.649994,198.125000,204.299988,111.849991
430.649994,198.125000,204.299988,111.849991
430.649994,198.125000,204.299988,111.849991
430.649994,198.125000,204.299988,111.849991
430.649994,198.125000,204.299988,111.849991
430.649994,198.125000,204.299988,111.849991
430.649994,198.125000,204.299988,111.849991
430.649994,198.125000,204.299988,111.849991
430.649994,198.125000,204.299988,111.849991
430.649994,198.125000,204.299988,111.849991
430.649994,198.125000,204.299988,111.849991
430.649994,198.125000,204.299988,111.849991
430.649994,198.125000,204.299988,111.849991
430.649994,198.125000,204.299988,111.849991
430.649994,198.125000,204.299988,111.849991
430.649994,198.125000,204.299988,111.849991
430.649994,202.125000,204.299988,111.849991
430.649994,198.125000,204.299988,111.849991
430.649994,198.125000,204.299988,111.849991
430.649994,198.125000,204.299988,111.849991
430.649994,198.125000,204.299988,111.849991
430.649994,198.125000,204.299988,111.849991
430.649994,198.125000,204.299988,111.849991
430.649994,198.125000,204.299988,111.849991
430.649994,198.125000,204.299988,111.849991
430.649994,202.125000,204.299988,111.849991
430.649994,202.125000,204.299988,111.849991
430.649994,198.125000,204.299988,111.849991
430.649994,202.125000,204.299988,111.849991
430.649994,198.125000,204.299988,111.849991
430.649994,198.125000,204.299988,111.849991
430.649994,198.125000,204.299988,111.849991
430.649994,198.125000,204.299988,111.849991
430.649994,198.125000,204.299988,111.849991
430.649994,198.125000,204.299988,111.849991
430.649994,198.125000,204.299988,111.849991
430.649994,202.125000,204.299988,111.849991
430.649994,198.125000,204.299988,111.849991
430.649994,202.125000,204.299988,111.849991
430.649994,202.125000,204.299988,111.849991
430.649994,202.125000,204.299988,111.849991
430.649994,202.125000,204.299988,111.849991
430.649994,202.125000,204.299988,111.849991
430.649994,202.125000,204.299988,111.849991
430.649994,202.125000,204.299988,111.849991
430.649994,202.125000,204.299988,111.849991
430.649994,202.125000,204.299988,111.849991
430.649994,202.125000,204.299988,111.849991
430.649994,202.125000,204.299988,111.849991
430.649994,202.125000,204.299988,111.849991
430.649994,202.125000,204.299988,111.849991
430.649994,202.125000,204.299988,111.849991
430.649994,202.125000,204.299988,111.849991
430.649994,202.125000,204.299988,111.849991
430.649994,202.125000,204.299988,111.849991
430.649994,202.125000,204.299988,111.849991
430.649994,202.125000,204.299988,111.849991
430.649994,202.125000,204.299988,111.849991
430.649994,202.125000,204.299988,111.849991
430.649994,202.125000,204.299988,111.849991
430.649994,202.125000,204.299988,111.849991
430.649994,202.125000,204.299988,111.849991
430.649994,202.125000,204.299988,111.849991
430.649994,202.125000,204.299988,111.849991
430.649994,202.125000,204.299988,111.849991
430.649994,202.125000,204.299988,111.849991
430.649994,202.125000,204.299988,111.849991
430.649994,202.125000,204.299988,111.849991
430.649994,202.125000,204.299988,111.849991
430.649994,202.125000,204.299988,111.849991
430.649994,202.125000,204.299988,111.849991
430.649994,202.125000,204.299988,111.849991
430.649994,202.125000,204.299988,111.849991
430.649994,202.125000,204.299988,111.849991
430.649994,202.125000,204.299988,111.849991
430.649994,202.125000,204.299988,111.849991
430.649994,202.125000,204.299988,111.849991
430.649994,202.125000,204.299988,111.849991
430.649994,202.125000,204.299988,111.849991
430.649994,202.125000,204.299988,111.849991
430.649994,202.125000,204.299988,111.849991
430.649994,202.125000,204.299988,111.849991
430.649994,202.125000,204.299988,111.849991
430.649994,202.125000,204.299988,111.849991
430.649994,202.125000,204.299988,111.849991
430.649994,202.125000,204.299988,111.849991
430.649994,202.125000,204.299988,111.849991
430.649994,202.125000,204.299988,111.849991
430.649994,202.125000,204.299988,111.849991
430.649994,202.125000,204.299988,111.849991
430.649994,202.125000,204.299988,111.849991
430.649994,202.125000,204.299988,111.849991
430.649994,202.125000,204.299988,111.849991
430.649994,202.125000,204.299988,111.849991
430.649994,202.125000,204.299988,111.849991
430.649994,198.125000,204.299988,111.849991
430.649994,198.125000,204.299988,111.849991
430.649994,198.125000,204.299988,111.849991
430.649994,198.125000,204.299988,111.849991
430.649994,198.125000,204.299988,111.849991
430.649994,202.125000,204.299988,111.849991
430.649994,202.125000,204.299988,111.849991
430.649994,202.125000,204.299988,111.849991
430.649994,202.125000,204.299988,111.849991
430.649994,202.125000,204.299988,111.849991
430.649994,202.125000,204.299988,111.849991
430.649994,202.125000,204.299988,111.849991
430.649994,202.125000,204.299988,111.849991
430.649994,202.125000,204.299988,111.849991
430.649994,202.125000,204.299988,111.849991
430.649994,202.125000,204.299988,111.849991
430.649994,202.125000,204.299988,111.849991
430.649994,202.125000,204.299988,111.849991
430.649994,202.125000,204.299988,111.849991
430.649994,202.125000,204.299988,111.849991
2
0
0
0
0
1
223.744995,222.000000,191.169998,92.000000
223.744995,222.000000,191.169998,92.000000
223.744995,222.000000,191.169998,92.000000
223.744995,222.000000,191.169998,92.000000
223.744995,222.000000,191.169998,92.000000
223.744995,222.000000,191.169998,92.000000
223.744995,222.000000,191.169998,92.000000
223.744995,222.000000,191.169998,92.000000
223.744995,226.000000,191.169998,92.000000
223.744995,226.000000,191.169998,92.000000
223.744995,226.000000,191.169998,92.000000
223.744995,226.000000,191.169998,92.000000
223.744995,222.000000,191.169998,92.000000
223.744995,222.000000,191.169998,92.000000
223.744995,222.000000,191.169998,92.000000
223.744995,222.000000,191.169998,92.000000
223.744995,222.000000,191.169998,92.000000
223.744995,222.000000,191.169998,92.000000
223.744995,222.000000,191.169998,92.000000
223.744995,222.000000,191.169998,92.000000
223.744995,222.000000,191.169998,92.000000
223.744995,222.000000,191.169998,92.000000
223.744995,222.000000,191.169998,92.000000
223.744995,222.000000,191.169998,92.000000
223.744995,222.000000,191.169998,92.000000
223.744995,222.000000,191.169998,92.000000
223.744995,222.000000,191.169998,92.000000
223.744995,222.000000,191.169998,92.000000
223.744995,222.000000,191.169998,92.000000
223.744995,222.000000,191.169998,92.000000
223.744995,222.000000,191.169998,92.000000
223.744995,222.000000,191.169998,92.000000
223.744995,222.000000,191.169998,92.000000
223.744995,222.000000,191.169998,92.000000
223.744995,222.000000,191.169998,92.000000
223.744995,222.000000,191.169998,92.000000
223.744995,222.000000,191.169998,92.000000
223.744995,222.000000,191.169998,92.000000
223.744995,222.000000,191.169998,92.000000
223.744995,222.000000,191.169998,92.000000
223.744995,222.000000,191.169998,92.000000
223.744995,222.000000,191.169998,92.000000
223.744995,222.000000,191.169998,92.000000
223.744995,222.000000,191.169998,92.000000
223.744995,222.000000,191.169998,92.000000
223.744995,222.000000,191.169998,92.000000
223.744995,222.000000,191.169998,92.000000
223.744995,222.000000,191.169998,92.000000
223.744995,222.000000,191.169998,92.000000
223.744995,222.000000,191.169998,92.000000
223.744995,222.000000,191.169998,92.000000
223.744995,222.000000,191.169998,92.000000
223.744995,222.000000,191.169998,92.000000
223.744995,226.000000,191.169998,92.000000
223.744995,226.000000,191.169998,92.000000
223.744995,226.000000,191.169998,92.000000
223.744995,226.000000,191.169998,92.000000
223.744995,226.000000,191.169998,92.000000
223.744995,226.000000,191.169998,92.000000
223.744995,226.000000,191.169998,92.000000
223.744995,226.000000,191.169998,92.000000
223.744995,226.000000,191.169998,92.000000
223.744995,226.000000,191.169998,92.000000
223.744995,226.000000,191.169998,92.000000
223.744995,226.000000,191.169998,92.000000
223.744995,226.000000,191.169998,92.000000
223.744995,226.000000,191.169998,92.000000
223.744995,226.000000,191.169998,92.000000
223.744995,226.000000,191.169998,92.000000
223.744995,226.000000,191.169998,92.000000
223.744995,226.000000,191.169998,92.000000
223.744995,226.000000,191.169998,92.000000
223.744995,226.000000,191.169998,92.000000
223.744995,226.000000,191.169998,92.000000
223.744995,226.000000,191.169998,92.000000
223.744995,222.000000,191.169998,92.000000
223.744995,222.000000,191.169998,92.000000
223.744995,222.000000,191.169998,92.000000
223.744995,226.000000,191.169998,92.000000
223.744995,226.000000,191.169998,92.000000
223.744995,226.000000,191.169998,92.000000
223.744995,226.000000,191.169998,92.000000
223.744995,226.000000,191.169998,92.000000
223.744995,226.000000,191.169998,92.000000
223.744995,226.000000,191.169998,92.000000
223.744995,226.000000,191.169998,92.000000
223.744995,226.000000,191.169998,92.000000
223.744995,226.000000,191.169998,92.000000
223.744995,226.000000,191.169998,92.000000
223.744995,226.000000,191.169998,92.000000
223.744995,226.000000,191.169998,92.000000
223.744995,226.000000,191.169998,92.000000
223.744995,226.000000,191.169998,92.000000
223.744995,226.000000,191.169998,92.000000
223.744995,226.000000,191.169998,92.000000
223.744995,226.000000,191.169998,92.000000
223.744995,226.000000,191.169998,92.000000
223.744995,226.000000,191.169998,92.000000
223.744995,226.000000,191.169998,92.000000
223.744995,226.000000,191.169998,92.000000
2
0
0
0
0
1
38.000000,218.625000,176.500000,101.750000
38.000000,218.625000,176.500000,101.750000
38.000000,218.625000,176.500000,101.750000
38.000000,218.625000,176.500000,101.750000
38.000000,218.625000,176.500000,101.750000
38.000000,218.625000,176.500000,101.750000
38.000000,218.625000,176.500000,101.750000
38.000000,218.625000,176.500000,101.750000
38.000000,218.625000,176.500000,101.750000
38.000000,218.625000,176.500000,101.750000
38.000000,218.625000,176.500000,101.750000
38.000000,218.625000,176.500000,101.750000
38.000000,218.625000,176.500000,101.750000
38.000000,218.625000,176.500000,101.750000
38.000000,218.625000,176.500000,101.750000
38.000000,218.625000,176.500000,101.750000
38.000000,218.625000,176.500000,101.750000
38.000000,218.625000,176.500000,101.750000
38.000000,218.625000,176.500000,101.750000
38.000000,218.625000,176.500000,101.750000
38.000000,218.625000,176.500000,101.750000
38.000000,222.625000,176.500000,101.750000
38.000000,222.625000,176.500000,101.750000
38.000000,218.625000,176.500000,101.750000
38.000000,218.625000,176.500000,101.750000
38.000000,218.625000,176.500000,101.750000
38.000000,218.625000,176.500000,101.750000
38.000000,218.625000,176.500000,101.750000
38.000000,218.625000,176.500000,101.750000
38.000000,218.625000,176.500000,101.750000
38.000000,218.625000,176.500000,101.750000
38.000000,218.625000,176.500000,101.750000
38.000000,218.625000,176.500000,101.750000
38.000000,218.625000,176.500000,101.750000
38.000000,218.625000,176.500000,101.750000
38.000000,218.625000,176.500000,101.750000
38.000000,218.625000,176.500000,101.750000
38.000000,218.625000,176.500000,101.750000
38.000000,218.625000,176.500000,101.750000
38.000000,218.625000,176.500000,101.750000
38.000000,218.625000,176.500000,101.750000
38.000000,218.625000,176.500000,101.750000
38.000000,218.625000,176.500000,101.750000
38.000000,218.625000,176.500000,101.750000
38.000000,218.625000,176.500000,101.750000
38.000000,218.625000,176.500000,101.750000
38.000000,218.625000,176.500000,101.750000
38.000000,218.625000,176.500000,101.750000
38.000000,218.625000,176.500000,101.750000
38.000000,218.625000,176.500000,101.750000
38.000000,218.625000,176.500000,101.750000
38.000000,218.625000,176.500000,101.750000
38.000000,218.625000,176.500000,101.750000
38.000000,218.625000,176.500000,101.750000
38.000000,218.625000,176.500000,101.750000
38.000000,218.625000,176.500000,101.750000
38.000000,218.625000,176.500000,101.750000
38.000000,218.625000,176.500000,101.750000
38.000000,218.625000,176.500000,101.750000
38.000000,218.625000,176.500000,101.750000
38.000000,218.625000,176.500000,101.750000
38.000000,218.625000,176.500000,101.750000
38.000000,218.625000,176.500000,101.750000
38.000000,218.625000,176.500000,101.750000
38.000000,218.625000,176.500000,101.750000
38.000000,218.625000,176.500000,101.750000
38.000000,218.625000,176.500000,101.750000
38.000000,218.625000,176.500000,101.750000
38.000000,218.625000,176.500000,101.750000
38.000000,218.625000,176.500000,101.750000
38.000000,218.625000,176.500000,101.750000
38.000000,218.625000,176.500000,101.750000
38.000000,218.625000,176.500000,101.750000
38.000000,218.625000,176.500000,101.750000
38.000000,218.625000,176.500000,101.750000
38.000000,218.625000,176.500000,101.750000
38.000000,218.625000,176.500000,101.750000
38.000000,218.625000,176.500000,101.750000
30.000000,218.625000,176.500000,101.750000
30.000000,218.625000,176.500000,101.750000
26.000000,218.625000,176.500000,101.750000
26.000000,218.625000,176.500000,101.750000
26.000000,218.625000,176.500000,101.750000
22.000000,218.625000,176.500000,101.750000
22.000000,218.625000,176.500000,101.750000
22.000000,218.625000,176.500000,101.750000
22.000000,218.625000,176.500000,101.750000
22.000000,218.625000,176.500000,101.750000
22.000000,218.625000,176.500000,101.750000
22.000000,218.625000,176.500000,101.750000
22.000000,218.625000,176.500000,101.750000
26.000000,218.625000,176.500000,101.750000
30.000000,218.625000,176.500000,101.750000
34.000000,218.625000,176.500000,101.750000
38.000000,214.625000,176.500000,101.750000
38.000000,214.625000,176.500000,101.750000
38.000000,214.625000,176.500000,101.750000
38.000000,214.625000,176.500000,101.750000
38.000000,214.625000,176.500000,101.750000
38.000000,214.625000,176.500000,101.750000
38.000000,214.625000,176.500000,101.750000
38.000000,218.625000,176.500000,101.750000
38.000000,218.625000,176.500000,101.750000
38.000000,218.625000,176.500000,101.750000
38.000000,218.625000,176.500000,101.750000
38.000000,218.625000,176.500000,101.750000
38.000000,218.625000,176.500000,101.750000
38.000000,218.625000,176.500000,101.750000
42.000000,222.625000,176.500000,101.750000
42.000000,222.625000,176.500000,101.750000
46.000000,222.625000,176.500000,101.750000
46.000000,222.625000,176.500000,101.750000
46.000000,222.625000,176.500000,101.750000
46.000000,222.625000,176.500000,101.750000
46.000000,222.625000,176.500000,101.750000
46.000000,222.625000,176.500000,101.750000
46.000000,222.625000,176.500000,101.750000
46.000000,222.625000,176.500000,101.750000
46.000000,222.625000,176.500000,101.750000
46.000000,222.625000,176.500000,101.750000
46.000000,222.625000,176.500000,101.750000
46.000000,222.625000,176.500000,101.750000
46.000000,222.625000,176.500000,101.750000
46.000000,222.625000,176.500000,101.750000
46.000000,222.625000,176.500000,101.750000
46.000000,222.625000,176.500000,101.750000
46.000000,222.625000,176.500000,101.750000
46.000000,222.625000,176.500000,101.750000
46.000000,222.625000,176.500000,101.750000
46.000000,222.625000,176.500000,101.750000
46.000000,222.625000,176.500000,101.750000
46.000000,222.625000,176.500000,101.750000
46.000000,222.625000,176.500000,101.750000
46.000000,222.625000,176.500000,101.750000
46.000000,222.625000,176.500000,101.750000
46.000000,222.625000,176.500000,101.750000
46.000000,222.625000,176.500000,101.750000
46.000000,222.625000,176.500000,101.750000
46.000000,222.625000,176.500000,101.750000
46.000000,222.625000,176.500000,101.750000
46.000000,222.625000,176.500000,101.750000
46.000000,222.625000,176.500000,101.750000
46.000000,222.625000,176.500000,101.750000
46.000000,222.625000,176.500000,101.750000
46.000000,222.625000,176.500000,101.750000
50.000000,222.625000,176.500000,101.750000
50.000000,222.625000,176.500000,101.750000
50.000000,218.625000,176.500000,101.750000
50.000000,218.625000,176.500000,101.750000
50.000000,218.625000,176.500000,101.750000
50.000000,218.625000,176.500000,101.750000
50.000000,218.625000,176.500000,101.750000
50.000000,218.625000,176.500000,101.750000
50.000000,218.625000,176.500000,101.750000
50.000000,218.625000,176.500000,101.750000
50.000000,222.625000,176.500000,101.750000
50.000000,222.625000,176.500000,101.750000
50.000000,222.625000,176.500000,101.750000
50.000000,222.625000,176.500000,101.750000
50.000000,226.625000,176.500000,101.750000
50.000000,226.625000,176.500000,101.750000
50.000000,226.625000,176.500000,101.750000
50.000000,226.625000,176.500000,101.750000
50.000000,230.625000,176.500000,101.750000
50.000000,230.625000,176.500000,101.750000
50.000000,230.625000,176.500000,101.750000
50.000000,230.625000,176.500000,101.750000
50.000000,230.625000,176.500000,101.750000
50.000000,230.625000,176.500000,101.750000
50.000000,230.625000,176.500000,101.750000
50.000000,230.625000,176.500000,101.750000
50.000000,230.625000,176.500000,101.750000
50.000000,230.625000,176.500000,101.750000
50.000000,230.625000,176.500000,101.750000
50.000000,230.625000,176.500000,101.750000
50.000000,226.625000,176.500000,101.750000
50.000000,226.625000,176.500000,101.750000
50.000000,226.625000,176.500000,101.750000
50.000000,226.625000,176.500000,101.750000
50.000000,222.625000,176.500000,101.750000
54.000000,222.625000,176.500000,101.750000
54.000000,222.625000,176.500000,101.750000
54.000000,222.625000,176.500000,101.750000
54.000000,222.625000,176.500000,101.750000
54.000000,222.625000,176.500000,101.750000
54.000000,218.625000,176.500000,101.750000
54.000000,218.625000,176.500000,101.750000
54.000000,218.625000,176.500000,101.750000
54.000000,218.625000,176.500000,101.750000
54.000000,218.625000,176.500000,101.750000
54.000000,218.625000,176.500000,101.750000
54.000000,218.625000,176.500000,101.750000
54.000000,218.625000,176.500000,101.750000
54.000000,218.625000,176.500000,101.750000
58.000000,218.625000,176.500000,101.750000
58.000000,218.625000,176.500000,101.750000
58.000000,218.625000,176.500000,101.750000
58.000000,218.625000,176.500000,101.750000
90.000000,218.625000,176.500000,101.750000
90.000000,218.625000,176.500000,101.750000
90.000000,218.625000,176.500000,101.750000
94.000000,218.625000,176.500000,101.750000
98.000000,218.625000,176.500000,101.750000
102.000000,214.625000,176.500000,101.750000
106.000000,214.625000,176.500000,101.750000
106.000000,214.625000,176.500000,101.750000
110.000000,214.625000,176.500000,101.750000
110.000000,214.625000,176.500000,101.750000
114.000000,214.625000,176.500000,101.750000
118.000000,214.625000,176.500000,101.750000
118.000000,214.625000,176.500000,101.750000
122.000000,214.625000,176.500000,101.750000
122.000000,210.625000,176.500000,101.750000
126.000000,210.625000,176.500000,101.750000
130.000000,210.625000,176.500000,101.750000
130.000000,210.625000,176.500000,101.750000
130.000000,210.625000,176.500000,101.750000
134.000000,210.625000,176.500000,101.750000
134.000000,210.625000,176.500000,101.750000
134.000000,210.625000,176.500000,101.750000
134.000000,210.625000,176.500000,101.750000
138.000000,210.625000,176.500000,101.750000
138.000000,210.625000,176.500000,101.750000
138.000000,210.625000,176.500000,101.750000
138.000000,210.625000,176.500000,101.750000
138.000000,210.625000,176.500000,101.750000
142.000000,210.625000,176.500000,101.750000
142.000000,210.625000,176.500000,101.750000
146.000000,210.625000,176.500000,101.750000
150.000000,210.625000,176.500000,101.750000
154.000000,210.625000,176.500000,101.750000
158.000000,210.625000,176.500000,101.750000
162.000000,210.625000,176.500000,101.750000
166.000000,210.625000,176.500000,101.750000
166.000000,210.625000,176.500000,101.750000
170.000000,210.625000,176.500000,101.750000
170.000000,210.625000,176.500000,101.750000
170.000000,210.625000,176.500000,101.750000
170.000000,210.625000,176.500000,101.750000
170.000000,210.625000,176.500000,101.750000
174.000000,210.625000,176.500000,101.750000
174.000000,210.625000,176.500000,101.750000
174.000000,210.625000,176.500000,101.750000
174.000000,210.625000,176.500000,101.750000
174.000000,210.625000,176.500000,101.750000
178.000000,210.625000,176.500000,101.750000
178.000000,210.625000,176.500000,101.750000
178.000000,210.625000,176.500000,101.750000
182.000000,210.625000,176.500000,101.750000
182.000000,210.625000,176.500000,101.750000
182.000000,210.625000,176.500000,101.750000
182.000000,210.625000,176.500000,101.750000
182.000000,210.625000,176.500000,101.750000
182.000000,210.625000,176.500000,101.750000
182.000000,210.625000,176.500000,101.750000
182.000000,210.625000,176.500000,101.750000
182.000000,210.625000,176.500000,101.750000
182.000000,210.625000,176.500000,101.750000
182.000000,210.625000,176.500000,101.750000
182.000000,210.625000,176.500000,101.750000
182.000000,210.625000,176.500000,101.750000
182.000000,210.625000,176.500000,101.750000
182.000000,210.625000,176.500000,101.750000
182.000000,210.625000,176.500000,101.750000
182.000000,210.625000,176.500000,101.750000
182.000000,210.625000,176.500000,101.750000
182.000000,210.625000,176.500000,101.750000
182.000000,210.625000,176.500000,101.750000
182.000000,210.625000,176.500000,101.750000
182.000000,210.625000,176.500000,101.750000
182.000000,210.625000,176.500000,101.750000
182.000000,210.625000,176.500000,101.750000
182.000000,210.625000,176.500000,101.750000
182.000000,210.625000,176.500000,101.750000
182.000000,210.625000,176.500000,101.750000
182.000000,210.625000,176.500000,101.750000
182.000000,210.625000,176.500000,101.750000
182.000000,210.625000,176.500000,101.750000
182.000000,210.625000,176.500000,101.750000
182.000000,210.625000,176.500000,101.750000
182.000000,210.625000,176.500000,101.750000
182.000000,210.625000,176.500000,101.750000
182.000000,210.625000,176.500000,101.750000
182.000000,210.625000,176.500000,101.750000
182.000000,210.625000,176.500000,101.750000
182.000000,210.625000,176.500000,101.750000
182.000000,210.625000,176.500000,101.750000
182.000000,210.625000,176.500000,101.750000
182.000000,210.625000,176.500000,101.750000
182.000000,210.625000,176.500000,101.750000
182.000000,210.625000,176.500000,101.750000
182.000000,210.625000,176.500000,101.750000
182.000000,210.625000,176.500000,101.750000
182.000000,210.625000,176.500000,101.750000
182.000000,210.625000,176.500000,101.750000
182.000000,210.625000,176.500000,101.750000
182.000000,210.625000,176.500000,101.750000
182.000000,210.625000,176.500000,101.750000
182.000000,210.625000,176.500000,101.750000
182.000000,210.625000,176.500000,101.750000
182.000000,210.625000,176.500000,101.750000
182.000000,210.625000,176.500000,101.750000
182.000000,210.625000,176.500000,101.750000
182.000000,210.625000,176.500000,101.750000
182.000000,210.625000,176.500000,101.750000
182.000000,210.625000,176.500000,101.750000
182.000000,206.625000,176.500000,101.750000
182.000000,206.625000,176.500000,101.750000
182.000000,206.625000,176.500000,101.750000
182.000000,206.625000,176.500000,101.750000
182.000000,206.625000,176.500000,101.750000
182.000000,206.625000,176.500000,101.750000
182.000000,206.625000,176.500000,101.750000
182.000000,206.625000,176.500000,101.750000
182.000000,210.625000,176.500000,101.750000
182.000000,210.625000,176.500000,101.750000
182.000000,210.625000,176.500000,101.750000
182.000000,210.625000,176.500000,101.750000
182.000000,206.625000,176.500000,101.750000
182.000000,206.625000,176.500000,101.750000
182.000000,210.625000,176.500000,101.750000
182.000000,210.625000,176.500000,101.750000
182.000000,210.625000,176.500000,101.750000
182.000000,210.625000,176.500000,101.750000
182.000000,210.625000,176.500000,101.750000
182.000000,210.625000,176.500000,101.750000
182.000000,210.625000,176.500000,101.750000
182.000000,210.625000,176.500000,101.750000
182.000000,210.625000,176.500000,101.750000
182.000000,210.625000,176.500000,101.750000
182.000000,210.625000,176.500000,101.750000
182.000000,210.625000,176.500000,101.750000
182.000000,210.625000,176.500000,101.750000
182.000000,210.625000,176.500000,101.750000
182.000000,210.625000,176.500000,101.750000
182.000000,210.625000,176.500000,101.750000
182.000000,210.625000,176.500000,101.750000
182.000000,210.625000,176.500000,101.750000
182.000000,210.625000,176.500000,101.750000
182.000000,210.625000,176.500000,101.750000
182.000000,210.625000,176.500000,101.750000
182.000000,210.625000,176.500000,101.750000
182.000000,210.625000,176.500000,101.750000
182.000000,210.625000,176.500000,101.750000
182.000000,210.625000,176.500000,101.750000
182.000000,210.625000,176.500000,101.750000
182.000000,210.625000,176.500000,101.750000
182.000000,210.625000,176.500000,101.750000
182.000000,210.625000,176.500000,101.750000
182.000000,210.625000,176.500000,101.750000
182.000000,210.625000,176.500000,101.750000
182.000000,210.625000,176.500000,101.750000
182.000000,210.625000,176.500000,101.750000
182.000000,210.625000,176.500000,101.750000
182.000000,210.625000,176.500000,101.750000
182.000000,210.625000,176.500000,101.750000
182.000000,210.625000,176.500000,101.750000
182.000000,210.625000,176.500000,101.750000
182.000000,210.625000,176.500000,101.750000
182.000000,210.625000,176.500000,101.750000
182.000000,210.625000,176.500000,101.750000
182.000000,210.625000,176.500000,101.750000
182.000000,210.625000,176.500000,101.750000
182.000000,210.625000,176.500000,101.750000
182.000000,210.625000,176.500000,101.750000
182.000000,210.625000,176.500000,101.750000
182.000000,210.625000,176.500000,101.750000
182.000000,210.625000,176.500000,101.750000
182.000000,210.625000,176.500000,101.750000
182.000000,210.625000,176.500000,101.750000
182.000000,210.625000,176.500000,101.750000
182.000000,210.625000,176.500000,101.750000
182.000000,210.625000,176.500000,101.750000
182.000000,210.625000,176.500000,101.750000
182.000000,210.625000,176.500000,101.750000
182.000000,210.625000,176.500000,101.750000
182.000000,210.625000,176.500000,101.750000
182.000000,210.625000,176.500000,101.750000
182.000000,210.625000,176.500000,101.750000
182.000000,210.625000,176.500000,101.750000
182.000000,210.625000,176.500000,101.750000
182.000000,210.625000,176.500000,101.750000
182.000000,210.625000,176.500000,101.750000
182.000000,210.625000,176.500000,101.750000
182.000000,210.625000,176.500000,101.750000
182.000000,210.625000,176.500000,101.750000
182.000000,210.625000,176.500000,101.750000
182.000000,210.625000,176.500000,101.750000
182.000000,210.625000,176.500000,101.750000
182.000000,210.625000,176.500000,101.750000
182.000000,210.625000,176.500000,101.750000
182.000000,210.625000,176.500000,101.750000
182.000000,210.625000,176.500000,101.750000
182.000000,210.625000,176.500000,101.750000
182.000000,210.625000,176.500000,101.750000
182.000000,210.625000,176.500000,101.750000
182.000000,210.625000,176.500000,101.750000
182.000000,210.625000,176.500000,101.750000
182.000000,210.625000,176.500000,101.750000
182.000000,210.625000,176.500000,101.750000
182.000000,210.625000,176.500000,101.750000
182.000000,210.625000,176.500000,101.750000
182.000000,210.625000,176.500000,101.750000
182.000000,210.625000,176.500000,101.750000
182.000000,210.625000,176.500000,101.750000
182.000000,210.625000,176.500000,101.750000
182.000000,210.625000,176.500000,101.750000
182.000000,210.625000,176.500000,101.750000
182.000000,210.625000,176.500000,101.750000
182.000000,210.625000,176.500000,101.750000
182.000000,210.625000,176.500000,101.750000
182.000000,210.625000,176.500000,101.750000
182.000000,210.625000,176.500000,101.750000
182.000000,210.625000,176.500000,101.750000
182.000000,210.625000,176.500000,101.750000
182.000000,210.625000,176.500000,101.750000
182.000000,210.625000,176.500000,101.750000
182.000000,210.625000,176.500000,101.750000
182.000000,210.625000,176.500000,101.750000
182.000000,210.625000,176.500000,101.750000
182.000000,210.625000,176.500000,101.750000
182.000000,210.625000,176.500000,101.750000
182.000000,210.625000,176.500000,101.750000
182.000000,210.625000,176.500000,101.750000
182.000000,210.625000,176.500000,101.750000
182.000000,210.625000,176.500000,101.750000
182.000000,210.625000,176.500000,101.750000
182.000000,210.625000,176.500000,101.750000
182.000000,210.625000,176.500000,101.750000
182.000000,210.625000,176.500000,101.750000
182.000000,210.625000,176.500000,101.750000
182.000000,210.625000,176.500000,101.750000
182.000000,210.625000,176.500000,101.750000
182.000000,210.625000,176.500000,101.750000
182.000000,206.625000,176.500000,101.750000
182.000000,206.625000,176.500000,101.750000
182.000000,206.625000,176.500000,101.750000
182.000000,206.625000,176.500000,101.750000
182.000000,206.625000,176.500000,101.750000
182.000000,206.625000,176.500000,101.750000
182.000000,206.625000,176.500000,101.750000
182.000000,206.625000,176.500000,101.750000
182.000000,206.625000,176.500000,101.750000
2
0
0
0
0
1
380.000000,210.500000,178.000000,96.000000
380.000000,210.500000,178.000000,96.000000
380.000000,210.500000,178.000000,96.000000
380.000000,210.500000,178.000000,96.000000
380.000000,214.500000,178.000000,96.000000
380.000000,214.500000,178.000000,96.000000
380.000000,214.500000,178.000000,96.000000
380.000000,214.500000,178.000000,96.000000
380.000000,210.500000,178.000000,96.000000
380.000000,210.500000,178.000000,96.000000
380.000000,210.500000,178.000000,96.000000
380.000000,210.500000,178.000000,96.000000
380.000000,210.500000,178.000000,96.000000
380.000000,210.500000,178.000000,96.000000
380.000000,210.500000,178.000000,96.000000
380.000000,210.500000,178.000000,96.000000
380.000000,210.500000,178.000000,96.000000
380.000000,210.500000,178.000000,96.000000
2
0
0
0
0
1
714.750000,229.750000,121.500000,71.500000
718.750000,229.750000,121.500000,71.500000
742.750000,229.750000,121.500000,71.500000
746.750000,229.750000,121.500000,71.500000
746.750000,233.750000,121.500000,71.500000
746.750000,233.750000,121.500000,71.500000
746.750000,233.750000,121.500000,71.500000
718.750000,229.750000,121.500000,71.500000
718.750000,229.750000,121.500000,71.500000
718.750000,229.750000,121.500000,71.500000
718.750000,225.750000,121.500000,71.500000
718.750000,229.750000,121.500000,71.500000
718.750000,229.750000,121.500000,71.500000
718.750000,229.750000,121.500000,71.500000
718.750000,229.750000,121.500000,71.500000
718.750000,229.750000,121.500000,71.500000
718.750000,229.750000,121.500000,71.500000
718.750000,229.750000,121.500000,71.500000
718.750000,229.750000,121.500000,71.500000
718.750000,229.750000,121.500000,71.500000
718.750000,229.750000,121.500000,71.500000
718.750000,229.750000,121.500000,71.500000
718.750000,229.750000,121.500000,71.500000
718.750000,229.750000,121.500000,71.500000
718.750000,229.750000,121.500000,71.500000
718.750000,229.750000,121.500000,71.500000
718.750000,229.750000,121.500000,71.500000
718.750000,229.750000,121.500000,71.500000
718.750000,229.750000,121.500000,71.500000
718.750000,229.750000,121.500000,71.500000
718.750000,229.750000,121.500000,71.500000
718.750000,229.750000,121.500000,71.500000
718.750000,229.750000,121.500000,71.500000
718.750000,229.750000,121.500000,71.500000
