1.3292,1.3407,1.2984,0,0,0,0,0,0,0,0,0,0,0,0
1.3292,1.3407,1.2984,0,0,0,0,0,0,0,0,0,0,0,0
1.3292,1.3407,1.2984,0,0,0,0,0,0,0,0,0,0,0,0
1.3292,1.3407,1.2984,0,0,0,0,0,0,0,0,0,0,0,0
1.3292,1.3407,1.2984,0,0,0,0,0,0,0,0,0,0,0,0
1.3292,1.3407,1.2984,0,0,0,0,0,0,0,0,0,0,0,0
1.3292,1.3407,1.2984,0,0,0,0,0,0,0,0,0,0,0,0
1.3292,1.3407,1.2984,0,0,0,0,0,0,0,0,0,0,0,0
1.3292,1.3407,1.2984,0,0,0,0,0,0,0,0,0,0,0,0
1.3292,1.3407,1.2984,0,0,0,0,0,0,0,0,0,0,0,0
1.3292,1.3407,1.2984,0,0,0,0,0,0,0,0,0,0,0,0
1.3292,1.3407,1.2984,0,0,0,0,0,0,0,0,0,0,0,0
1.3292,1.3407,1.2984,0,0,0,0,0,0,0,0,0,0,0,0
1.3292,1.3407,1.2984,0,0,0,0,0,0,0,0,0,0,0,0
1.3292,1.3407,1.2984,0,0,0,0,0,0,0,0,0,0,0,0
1.3292,1.3407,1.2984,0,0,0,0,0,0,0,0,0,0,0,0
1.3292,1.3407,1.2984,0,0,0,0,0,0,0,0,0,0,0,0
1.3292,1.3407,1.2984,0,0,0,0,0,0,0,0,0,0,0,0
1.3292,1.3407,1.2984,0,0,0,0,0,0,0,0,0,0,0,0
1.3292,1.3407,1.2984,0,0,0,0,0,0,0,0,0,0,0,0
1.3292,1.3407,1.2984,0,0,0,0,0,0,0,0,0,0,0,0
1.3292,1.3407,1.2984,0,0,0,0,0,0,0,0,0,0,0,0
1.3292,1.3407,1.2984,0,0,0,0,0,0,0,0,0,0,0,0
1.3292,1.3407,1.2984,0,0,0,0,0,0,0,0,0,0,0,0
1.3292,1.3407,1.2984,0,0,0,0,0,0,0,0,0,0,0,0
1.3292,1.3407,1.2984,0,0,0,0,0,0,0,0,0,0,0,0
1.3292,1.3407,1.2984,0,0,0,0,0,0,0,0,0,0,0,0
1.3292,1.3407,1.2984,0,0,0,0,0,0,0,0,0,0,0,0
1.3292,1.3407,1.2984,0,0,0,0,0,0,0,0,0,0,0,0
1.3292,1.3407,1.2984,0,0,0,0,0,0,0,0,0,0,0,0
1.3292,1.3407,1.2984,0,0,0,0,0,0,0,0,0,0,0,0
1.3292,1.3407,1.2984,0,0,0,0,0,0,0,0,0,0,0,0
1.3292,1.3407,1.2984,0,0,0,0,0,0,0,0,0,0,0,0
1.3292,1.3407,1.2984,0,0,0,0,0,0,0,0,0,0,0,0
1.3292,1.3407,1.2984,0,0,0,0,0,0,0,0,0,0,0,0
1.3292,1.3407,1.2984,0,0,0,0,0,0,0,0,0,0,0,0
1.3292,1.3407,1.2984,0,0,0,0,0,0,0,0,0,0,0,0
1.3292,1.3407,1.2984,0,0,0,0,0,0,0,0,0,0,0,0
1.3292,1.3407,1.2984,0,0,0,0,0,0,0,0,0,0,0,0
1.3292,1.3407,1.2984,0,0,0,0,0,0,0,0,0,0,0,0
1.3292,1.3407,1.2984,0,0,0,0,0,0,0,0,0,0,0,0
1.3292,1.3407,1.2984,0,0,0,0,0,0,0,0,0,0,0,0
1.3292,1.3407,1.2984,0,0,0,0,0,0,0,0,0,0,0,0
1.3292,1.3407,1.2984,0,0,0,0,0,0,0,0,0,0,0,0
1.3292,1.3407,1.2984,0,0,0,0,0,0,0,0,0,0,0,0
1.3292,1.3407,1.2984,0,0,0,0,0,0,0,0,0,0,0,0
1.3292,1.3407,1.2984,0,0,0,0,0,0,0,0,0,0,0,0
1.3292,1.3407,1.2984,0,0,0,0,0,0,0,0,0,0,0,0
1.3292,1.3407,1.2984,0,0,0,0,0,0,0,0,0,0,0,0
1.3292,1.3407,1.2984,0,0,0,0,0,0,0,0,0,0,0,0
1.3292,1.3407,1.2984,0,0,0,0,0,0,0,0,0,0,0,0
1.3292,1.3407,1.2984,0,0,0,0,0,0,0,0,0,0,0,0
1.3292,1.3407,1.2984,0,0,0,0,0,0,0,0,0,0,0,0
1.3292,1.3407,1.2984,0,0,0,0,0,0,0,0,0,0,0,0
1.3292,1.3407,1.2984,0,0,0,0,0,0,0,0,0,0,0,0
1.3292,1.3407,1.2984,0,0,0,0,0,0,0,0,0,0,0,0
1.3292,1.3407,1.2984,0,0,0,0,0,0,0,0,0,0,0,0
1.3292,1.3407,1.2984,0,0,0,0,0,0,0,0,0,0,0,0
1.3292,1.3407,1.2984,0,0,0,0,0,0,0,0,0,0,0,0
1.3292,1.3407,1.2984,0,0,0,0,0,0,0,0,0,0,0,0
1.3292,1.3407,1.2984,0,0,0,0,0,0,0,0,0,0,0,0
1.3292,1.3407,1.2984,0,0,0,0,0,0,0,0,0,0,0,0
1.3292,1.3407,1.2984,0,0,0,0,0,0,0,0,0,0,0,0
1.3292,1.3407,1.2984,0,0,0,0,0,0,0,0,0,0,0,0
1.3292,1.3407,1.2984,0,0,0,0,0,0,0,0,0,0,0,0
1.3292,1.3407,1.2984,0,0,0,0,0,0,0,0,0,0,0,0
1.3292,1.3407,1.2984,0,0,0,0,0,0,0,0,0,0,0,0
1.3292,1.3407,1.2984,0,0,0,0,0,0,0,0,0,0,0,0
1.3292,1.3407,1.2984,0,0,0,0,0,0,0,0,0,0,0,0
1.3292,1.3407,1.2984,0,0,0,0,0,0,0,0,0,0,0,0
1.3292,1.3407,1.2984,0,0,0,0,0,0,0,0,0,0,0,0
1.3292,1.3407,1.2984,0,0,0,0,0,0,0,0,0,0,0,0
1.3292,1.3407,1.2984,0,0,0,0,0,0,0,0,0,0,0,0
1.3292,1.3407,1.2984,0,0,0,0,0,0,0,0,0,0,0,0
1.3292,1.3407,1.2984,0,0,0,0,0,0,0,0,0,0,0,0
1.3292,1.3407,1.2984,0,0,0,0,0,0,0,0,0,0,0,0
1.3292,1.3407,1.2984,0,0,0,0,0,0,0,0,0,0,0,0
1.3292,1.3407,1.2984,0,0,0,0,0,0,0,0,0,0,0,0
1.3292,1.3407,1.2984,0,0,0,0,0,0,0,0,0,0,0,0
1.3292,1.3407,1.2984,0,0,0,0,0,0,0,0,0,0,0,0
1.3292,1.3407,1.2984,0,0,0,0,0,0,0,0,0,0,0,0
1.3292,1.3407,1.2984,0,0,0,0,0,0,0,0,0,0,0,0
1.3292,1.3407,1.2984,0,0,0,0,0,0,0,0,0,0,0,0
1.3292,1.3407,1.2984,0,0,0,0,0,0,0,0,0,0,0,0
1.3292,1.3407,1.2984,0,0,0,0,0,0,0,0,0,0,0,0
1.3292,1.3407,1.2984,0,0,0,0,0,0,0,0,0,0,0,0
1.3292,1.3407,1.2984,0,0,0,0,0,0,0,0,0,0,0,0
1.3292,1.3407,1.2984,0,0,0,0,0,0,0,0,0,0,0,0
1.3292,1.3407,1.2984,0,0,0,0,0,0,0,0,0,0,0,0
1.3292,1.3407,1.2984,0,0,0,0,0,0,0,0,0,0,0,0
1.3292,1.3407,1.2984,0,0,0,0,0,0,0,0,0,0,0,0
1.3292,1.3407,1.2984,0,0,0,0,0,0,0,0,0,0,0,0
1.3292,1.3407,1.2984,0,0,0,0,0,0,0,0,0,0,0,0
1.3292,1.3407,1.2984,0,0,0,0,0,0,0,0,0,0,0,0
1.3292,1.3407,1.2984,0,0,0,0,0,0,0,0,0,0,0,0
1.3292,1.3407,1.2984,0,0,0,0,0,0,0,0,0,0,0,0
1.3292,1.3407,1.2984,0,0,0,0,0,0,0,0,0,0,0,0
1.3292,1.3407,1.2984,0,0,0,0,0,0,0,0,0,0,0,0
1.3292,1.3407,1.2984,0,0,0,0,0,0,0,0,0,0,0,0
1.3292,1.3407,1.2984,0,0,0,0,0,0,0,0,0,0,0,0
1.3292,1.3407,1.2984,0,0,0,0,0,0,0,0,0,0,0,0
1.3292,1.3407,1.2984,0,0,0,0,0,0,0,0,0,0,0,0
1.3292,1.3407,1.2984,0,0,0,0,0,0,0,0,0,0,0,0
1.3292,1.3407,1.2984,0,0,0,0,0,0,0,0,0,0,0,0
1.3292,1.3407,1.2984,0,0,0,0,0,0,0,0,0,0,0,0
1.3292,1.3407,1.2984,0,0,0,0,0,0,0,0,0,0,0,0
1.3292,1.3407,1.2984,0,0,0,0,0,0,0,0,0,0,0,0
1.3292,1.3407,1.2984,0,0,0,0,0,0,0,0,0,0,0,0
1.3292,1.3407,1.2984,0,0,0,0,0,0,0,0,0,0,0,0
1.3292,1.3407,1.2984,0,0,0,0,0,0,0,0,0,0,0,0
1.3292,1.3407,1.2984,0,0,0,0,0,0,0,0,0,0,0,0
1.3292,1.3407,1.2984,0,0,0,0,0,0,0,0,0,0,0,0
1.3292,1.3407,1.2984,0,0,0,0,0,0,0,0,0,0,0,0
1.3292,1.3407,1.2984,0,0,0,0,0,0,0,0,0,0,0,0
1.3292,1.3407,1.2984,0,0,0,0,0,0,0,0,0,0,0,0
1.3292,1.3407,1.2984,0,0,0,0,0,0,0,0,0,0,0,0
1.3292,1.3407,1.2984,0,0,0,0,0,0,0,0,0,0,0,0
1.3292,1.3407,1.2984,0,0,0,0,0,0,0,0,0,0,0,0
1.3292,1.3407,1.2984,0,0,0,0,0,0,0,0,0,0,0,0
1.3292,1.3407,1.2984,0,0,0,0,0,0,0,0,0,0,0,0
1.3292,1.3407,1.2984,0,0,0,0,0,0,0,0,0,0,0,0
1.3292,1.3407,1.2984,0,0,0,0,0,0,0,0,0,0,0,0
1.3292,1.3407,1.2984,0,0,0,0,0,0,0,0,0,0,0,0
1.3292,1.3407,1.2984,0,0,0,0,0,0,0,0,0,0,0,0
1.3292,1.3407,1.2984,0,0,0,0,0,0,0,0,0,0,0,0
1.3292,1.3407,1.2984,0,0,0,0,0,0,0,0,0,0,0,0
1.3292,1.3407,1.2984,0,0,0,0,0,0,0,0,0,0,0,0
1.3292,1.3407,1.2984,0,0,0,0,0,0,0,0,0,0,0,0
1.3292,1.3407,1.2984,0,0,0,0,0,0,0,0,0,0,0,0
1.3292,1.3407,1.2984,0,0,0,0,0,0,0,0,0,0,0,0
1.3292,1.3407,1.2984,0,0,0,0,0,0,0,0,0,0,0,0
1.3292,1.3407,1.2984,0,0,0,0,0,0,0,0,0,0,0,0
1.3292,1.3407,1.2984,0,0,0,0,0,0,0,0,0,0,0,0
1.3292,1.3407,1.2984,0,0,0,0,0,0,0,0,0,0,0,0
1.3292,1.3407,1.2984,0,0,0,0,0,0,0,0,0,0,0,0
1.3292,1.3407,1.2984,0,0,0,0,0,0,0,0,0,0,0,0
1.3292,1.3407,1.2984,0,0,0,0,0,0,0,0,0,0,0,0
1.3292,1.3407,1.2984,0,0,0,0,0,0,0,0,0,0,0,0
1.3292,1.3407,1.2984,0,0,0,0,0,0,0,0,0,0,0,0
1.3292,1.3407,1.2984,0,0,0,0,0,0,0,0,0,0,0,0
1.3292,1.3407,1.2984,0,0,0,0,0,0,0,0,0,0,0,0
1.3292,1.3407,1.2984,0,0,0,0,0,0,0,0,0,0,0,0
1.3292,1.3407,1.2984,0,0,0,0,0,0,0,0,0,0,0,0
1.3292,1.3407,1.2984,0,0,0,0,0,0,0,0,0,0,0,0
1.3292,1.3407,1.2984,0,0,0,0,0,0,0,0,0,0,0,0
1.3292,1.3407,1.2984,0,0,0,0,0,0,0,0,0,0,0,0
1.3292,1.3407,1.2984,0,0,0,0,0,0,0,0,0,0,0,0
1.3292,1.3407,1.2984,0,0,0,0,0,0,0,0,0,0,0,0
1.3292,1.3407,1.2984,0,0,0,0,0,0,0,0,0,0,0,0
1.3292,1.3407,1.2984,0,0,0,0,0,0,0,0,0,0,0,0
1.3292,1.3407,1.2984,0,0,0,0,0,0,0,0,0,0,0,0
1.3292,1.3407,1.2984,0,0,0,0,0,0,0,0,0,0,0,0
1.3292,1.3407,1.2984,0,0,0,0,0,0,0,0,0,0,0,0
1.3292,1.3407,1.2984,0,0,0,0,0,0,0,0,0,0,0,0
1.3292,1.3407,1.2984,0,0,0,0,0,0,0,0,0,0,0,0
1.3292,1.3407,1.2984,0,0,0,0,0,0,0,0,0,0,0,0
1.3292,1.3407,1.2984,0,0,0,0,0,0,0,0,0,0,0,0
1.3292,1.3407,1.2984,0,0,0,0,0,0,0,0,0,0,0,0
1.3292,1.3407,1.2984,0,0,0,0,0,0,0,0,0,0,0,0
1.3292,1.3407,1.2984,0,0,0,0,0,0,0,0,0,0,0,0
1.3292,1.3407,1.2984,0,0,0,0,0,0,0,0,0,0,0,0
1.3292,1.3407,1.2984,0,0,0,0,0,0,0,0,0,0,0,0
1.3292,1.3407,1.2984,0,0,0,0,0,0,0,0,0,0,0,0
1.3292,1.3407,1.2984,0,0,0,0,0,0,0,0,0,0,0,0
1.3292,1.3407,1.2984,0,0,0,0,0,0,0,0,0,0,0,0
1.3292,1.3407,1.2984,0,0,0,0,0,0,0,0,0,0,0,0
1.3292,1.3407,1.2984,0,0,0,0,0,0,0,0,0,0,0,0
1.3292,1.3407,1.2984,0,0,0,0,0,0,0,0,0,0,0,0
1.3292,1.3407,1.2984,0,0,0,0,0,0,0,0,0,0,0,0
1.3292,1.3407,1.2984,0,0,0,0,0,0,0,0,0,0,0,0
1.3292,1.3407,1.2984,0,0,0,0,0,0,0,0,0,0,0,0
1.3292,1.3407,1.2984,0,0,0,0,0,0,0,0,0,0,0,0
1.3292,1.3407,1.2984,0,0,0,0,0,0,0,0,0,0,0,0
1.3292,1.3407,1.2984,0,0,0,0,0,0,0,0,0,0,0,0
1.3292,1.3407,1.2984,0,0,0,0,0,0,0,0,0,0,0,0
1.3292,1.3407,1.2984,0,0,0,0,0,0,0,0,0,0,0,0
1.3292,1.3407,1.2984,0,0,0,0,0,0,0,0,0,0,0,0
1.3292,1.3407,1.2984,0,0,0,0,0,0,0,0,0,0,0,0
1.3292,1.3407,1.2984,0,0,0,0,0,0,0,0,0,0,0,0
1.3292,1.3407,1.2984,0,0,0,0,0,0,0,0,0,0,0,0
1.3292,1.3407,1.2984,0,0,0,0,0,0,0,0,0,0,0,0
1.3292,1.3407,1.2984,0,0,0,0,0,0,0,0,0,0,0,0
1.3292,1.3407,1.2984,0,0,0,0,0,0,0,0,0,0,0,0
1.3292,1.3407,1.2984,0,0,0,0,0,0,0,0,0,0,0,0
1.3292,1.3407,1.2984,0,0,0,0,0,0,0,0,0,0,0,0
1.3292,1.3407,1.2984,0,0,0,0,0,0,0,0,0,0,0,0
1.3292,1.3407,1.2984,0,0,0,0,0,0,0,0,0,0,0,0
1.3292,1.3407,1.2984,0,0,0,0,0,0,0,0,0,0,0,0
1.3292,1.3407,1.2984,0,0,0,0,0,0,0,0,0,0,0,0
1.3292,1.3407,1.2984,0,0,0,0,0,0,0,0,0,0,0,0
1.3292,1.3407,1.2984,0,0,0,0,0,0,0,0,0,0,0,0
1.3292,1.3407,1.2984,0,0,0,0,0,0,0,0,0,0,0,0
1.3292,1.3407,1.2984,0,0,0,0,0,0,0,0,0,0,0,0
1.3292,1.3407,1.2984,0,0,0,0,0,0,0,0,0,0,0,0
1.3292,1.3407,1.2984,0,0,0,0,0,0,0,0,0,0,0,0
1.3292,1.3407,1.2984,0,0,0,0,0,0,0,0,0,0,0,0
1.3292,1.3407,1.2984,0,0,0,0,0,0,0,0,0,0,0,0
1.3292,1.3407,1.2984,0,0,0,0,0,0,0,0,0,0,0,0
1.3292,1.3407,1.2984,0,0,0,0,0,0,0,0,0,0,0,0
1.3292,1.3407,1.2984,0,0,0,0,0,0,0,0,0,0,0,0
1.3292,1.3407,1.2984,0,0,0,0,0,0,0,0,0,0,0,0
1.3292,1.3407,1.2984,0,0,0,0,0,0,0,0,0,0,0,0
1.3292,1.3407,1.2984,0,0,0,0,0,0,0,0,0,0,0,0
1.3292,1.3407,1.2984,0,0,0,0,0,0,0,0,0,0,0,0
1.3292,1.3407,1.2984,0,0,0,0,0,0,0,0,0,0,0,0
1.3292,1.3407,1.2984,0,0,0,0,0,0,0,0,0,0,0,0
1.3292,1.3407,1.2984,0,0,0,0,0,0,0,0,0,0,0,0
1.3292,1.3407,1.2984,0,0,0,0,0,0,0,0,0,0,0,0
1.3292,1.3407,1.2984,0,0,0,0,0,0,0,0,0,0,0,0
1.3292,1.3407,1.2984,0,0,0,0,0,0,0,0,0,0,0,0
1.3292,1.3407,1.2984,0,0,0,0,0,0,0,0,0,0,0,0
1.3292,1.3407,1.2984,0,0,0,0,0,0,0,0,0,0,0,0
1.3292,1.3407,1.2984,0,0,0,0,0,0,0,0,0,0,0,0
1.3292,1.3407,1.2984,0,0,0,0,0,0,0,0,0,0,0,0
1.3292,1.3407,1.2984,0,0,0,0,0,0,0,0,0,0,0,0
1.3292,1.3407,1.2984,0,0,0,0,0,0,0,0,0,0,0,0
1.3292,1.3407,1.2984,0,0,0,0,0,0,0,0,0,0,0,0
1.3292,1.3407,1.2984,0,0,0,0,0,0,0,0,0,0,0,0
1.3292,1.3407,1.2984,0,0,0,0,0,0,0,0,0,0,0,0
1.3292,1.3407,1.2984,0,0,0,0,0,0,0,0,0,0,0,0
1.3292,1.3407,1.2984,0,0,0,0,0,0,0,0,0,0,0,0
1.3292,1.3407,1.2984,0,0,0,0,0,0,0,0,0,0,0,0
1.3292,1.3407,1.2984,0,0,0,0,0,0,0,0,0,0,0,0
1.3292,1.3407,1.2984,0,0,0,0,0,0,0,0,0,0,0,0
1.3292,1.3407,1.2984,0,0,0,0,0,0,0,0,0,0,0,0
1.3292,1.3407,1.2984,0,0,0,0,0,0,0,0,0,0,0,0
1.3292,1.3407,1.2984,0,0,0,0,0,0,0,0,0,0,0,0
1.3292,1.3407,1.2984,0,0,0,0,0,0,0,0,0,0,0,0
1.3292,1.3407,1.2984,0,0,0,0,0,0,0,0,0,0,0,0
1.3292,1.3407,1.2984,0,0,0,0,0,0,0,0,0,0,0,0
1.3292,1.3407,1.2984,0,0,0,0,0,0,0,0,0,0,0,0
1.3292,1.3407,1.2984,0,0,0,0,0,0,0,0,0,0,0,0
1.3292,1.3407,1.2984,0,0,0,0,0,0,0,0,0,0,0,0
1.3292,1.3407,1.2984,0,0,0,0,0,0,0,0,0,0,0,0
1.3292,1.3407,1.2984,0,0,0,0,0,0,0,0,0,0,0,0
1.3292,1.3407,1.2984,0,0,0,0,0,0,0,0,0,0,0,0
1.3292,1.3407,1.2984,0,0,0,0,0,0,0,0,0,0,0,0
1.3292,1.3407,1.2984,0,0,0,0,0,0,0,0,0,0,0,0
1.3292,1.3407,1.2984,0,0,0,0,0,0,0,0,0,0,0,0
1.3292,1.3407,1.2984,0,0,0,0,0,0,0,0,0,0,0,0
1.3292,1.3407,1.2984,0,0,0,0,0,0,0,0,0,0,0,0
1.3292,1.3407,1.2984,0,0,0,0,0,0,0,0,0,0,0,0
1.3292,1.3407,1.2984,0,0,0,0,0,0,0,0,0,0,0,0
1.3292,1.3407,1.2984,0,0,0,0,0,0,0,0,0,0,0,0
1.3292,1.3407,1.2984,0,0,0,0,0,0,0,0,0,0,0,0
1.3292,1.3407,1.2984,0,0,0,0,0,0,0,0,0,0,0,0
1.3292,1.3407,1.2984,0,0,0,0,0,0,0,0,0,0,0,0
1.3292,1.3407,1.2984,0,0,0,0,0,0,0,0,0,0,0,0
1.3292,1.3407,1.2984,0,0,0,0,0,0,0,0,0,0,0,0
1.3292,1.3407,1.2984,0,0,0,0,0,0,0,0,0,0,0,0
1.3292,1.3407,1.2984,0,0,0,0,0,0,0,0,0,0,0,0
1.3292,1.3407,1.2984,0,0,0,0,0,0,0,0,0,0,0,0
1.3292,1.3407,1.2984,0,0,0,0,0,0,0,0,0,0,0,0
1.3292,1.3407,1.2984,0,0,0,0,0,0,0,0,0,0,0,0
1.3292,1.3407,1.2984,0,0,0,0,0,0,0,0,0,0,0,0
1.3292,1.3407,1.2984,0,0,0,0,0,0,0,0,0,0,0,0
1.3292,1.3407,1.2984,0,0,0,0,0,0,0,0,0,0,0,0
1.3292,1.3407,1.2984,0,0,0,0,0,0,0,0,0,0,0,0
1.3292,1.3407,1.2984,0,0,0,0,0,0,0,0,0,0,0,0
1.3292,1.3407,1.2984,0,0,0,0,0,0,0,0,0,0,0,0
1.3292,1.3407,1.2984,0,0,0,0,0,0,0,0,0,0,0,0
1.3292,1.3407,1.2984,0,0,0,0,0,0,0,0,0,0,0,0
1.3292,1.3407,1.2984,0,0,0,0,0,0,0,0,0,0,0,0
1.3292,1.3407,1.2984,0,0,0,0,0,0,0,0,0,0,0,0
1.3292,1.3407,1.2984,0,0,0,0,0,0,0,0,0,0,0,0
1.3292,1.3407,1.2984,0,0,0,0,0,0,0,0,0,0,0,0
1.3292,1.3407,1.2984,0,0,0,0,0,0,0,0,0,0,0,0
1.3292,1.3407,1.2984,0,0,0,0,0,0,0,0,0,0,0,0
1.3292,1.3407,1.2984,0,0,0,0,0,0,0,0,0,0,0,0
1.3292,1.3407,1.2984,0,0,0,0,0,0,0,0,0,0,0,0
1.3292,1.3407,1.2984,0,0,0,0,0,0,0,0,0,0,0,0
1.3292,1.3407,1.2984,0,0,0,0,0,0,0,0,0,0,0,0
1.3292,1.3407,1.2984,0,0,0,0,0,0,0,0,0,0,0,0
1.3292,1.3407,1.2984,0,0,0,0,0,0,0,0,0,0,0,0
1.3292,1.3407,1.2984,0,0,0,0,0,0,0,0,0,0,0,0
1.3292,1.3407,1.2984,0,0,0,0,0,0,0,0,0,0,0,0
1.3292,1.3407,1.2984,0,0,0,0,0,0,0,0,0,0,0,0
1.3292,1.3407,1.2984,0,0,0,0,0,0,0,0,0,0,0,0
1.3292,1.3407,1.2984,0,0,0,0,0,0,0,0,0,0,0,0
1.3292,1.3407,1.2984,0,0,0,0,0,0,0,0,0,0,0,0
1.3292,1.3407,1.2984,0,0,0,0,0,0,0,0,0,0,0,0
1.3292,1.3407,1.2984,0,0,0,0,0,0,0,0,0,0,0,0
1.3292,1.3407,1.2984,0,0,0,0,0,0,0,0,0,0,0,0
1.3292,1.3407,1.2984,0,0,0,0,0,0,0,0,0,0,0,0
1.3292,1.3407,1.2984,0,0,0,0,0,0,0,0,0,0,0,0
1.3292,1.3407,1.2984,0,0,0,0,0,0,0,0,0,0,0,0
1.3292,1.3407,1.2984,0,0,0,0,0,0,0,0,0,0,0,0
1.3292,1.3407,1.2984,0,0,0,0,0,0,0,0,0,0,0,0
1.3292,1.3407,1.2984,0,0,0,0,0,0,0,0,0,0,0,0
1.3292,1.3407,1.2984,0,0,0,0,0,0,0,0,0,0,0,0
1.3292,1.3407,1.2984,0,0,0,0,0,0,0,0,0,0,0,0
1.3292,1.3407,1.2984,0,0,0,0,0,0,0,0,0,0,0,0
1.3292,1.3407,1.2984,0,0,0,0,0,0,0,0,0,0,0,0
1.3292,1.3407,1.2984,0,0,0,0,0,0,0,0,0,0,0,0
1.3292,1.3407,1.2984,0,0,0,0,0,0,0,0,0,0,0,0
1.3292,1.3407,1.2984,0,0,0,0,0,0,0,0,0,0,0,0
1.3292,1.3407,1.2984,0,0,0,0,0,0,0,0,0,0,0,0
1.3292,1.3407,1.2984,0,0,0,0,0,0,0,0,0,0,0,0
1.3292,1.3407,1.2984,0,0,0,0,0,0,0,0,0,0,0,0
1.3292,1.3407,1.2984,0,0,0,0,0,0,0,0,0,0,0,0
1.3292,1.3407,1.2984,0,0,0,0,0,0,0,0,0,0,0,0
1.3292,1.3407,1.2984,0,0,0,0,0,0,0,0,0,0,0,0
1.3292,1.3407,1.2984,0,0,0,0,0,0,0,0,0,0,0,0
1.3292,1.3407,1.2984,0,0,0,0,0,0,0,0,0,0,0,0
1.3292,1.3407,1.2984,0,0,0,0,0,0,0,0,0,0,0,0
1.3292,1.3407,1.2984,0,0,0,0,0,0,0,0,0,0,0,0
1.3292,1.3407,1.2984,0,0,0,0,0,0,0,0,0,0,0,0
1.3292,1.3407,1.2984,0,0,0,0,0,0,0,0,0,0,0,0
1.3292,1.3407,1.2984,0,0,0,0,0,0,0,0,0,0,0,0
1.3292,1.3407,1.2984,0,0,0,0,0,0,0,0,0,0,0,0
1.3292,1.3407,1.2984,0,0,0,0,0,0,0,0,0,0,0,0
1.3292,1.3407,1.2984,0,0,0,0,0,0,0,0,0,0,0,0
1.3292,1.3407,1.2984,0,0,0,0,0,0,0,0,0,0,0,0
1.3292,1.3407,1.2984,0,0,0,0,0,0,0,0,0,0,0,0
1.3292,1.3407,1.2984,0,0,0,0,0,0,0,0,0,0,0,0
1.3292,1.3407,1.2984,0,0,0,0,0,0,0,0,0,0,0,0
1.3292,1.3407,1.2984,0,0,0,0,0,0,0,0,0,0,0,0
1.3292,1.3407,1.2984,0,0,0,0,0,0,0,0,0,0,0,0
1.3292,1.3407,1.2984,0,0,0,0,0,0,0,0,0,0,0,0
1.3292,1.3407,1.2984,0,0,0,0,0,0,0,0,0,0,0,0
1.3292,1.3407,1.2984,0,0,0,0,0,0,0,0,0,0,0,0
1.3292,1.3407,1.2984,0,0,0,0,0,0,0,0,0,0,0,0
1.3292,1.3407,1.2984,0,0,0,0,0,0,0,0,0,0,0,0
1.3292,1.3407,1.2984,0,0,0,0,0,0,0,0,0,0,0,0
1.3292,1.3407,1.2984,0,0,0,0,0,0,0,0,0,0,0,0
1.3292,1.3407,1.2984,0,0,0,0,0,0,0,0,0,0,0,0
1.3292,1.3407,1.2984,0,0,0,0,0,0,0,0,0,0,0,0
1.3292,1.3407,1.2984,0,0,0,0,0,0,0,0,0,0,0,0
1.3292,1.3407,1.2984,0,0,0,0,0,0,0,0,0,0,0,0
1.3292,1.3407,1.2984,0,0,0,0,0,0,0,0,0,0,0,0
1.3292,1.3407,1.2984,0,0,0,0,0,0,0,0,0,0,0,0
1.3292,1.3407,1.2984,0,0,0,0,0,0,0,0,0,0,0,0
1.3292,1.3407,1.2984,0,0,0,0,0,0,0,0,0,0,0,0
1.3292,1.3407,1.2984,0,0,0,0,0,0,0,0,0,0,0,0
1.3292,1.3407,1.2984,0,0,0,0,0,0,0,0,0,0,0,0
1.3292,1.3407,1.2984,0,0,0,0,0,0,0,0,0,0,0,0
1.3292,1.3407,1.2984,0,0,0,0,0,0,0,0,0,0,0,0
1.3292,1.3407,1.2984,0,0,0,0,0,0,0,0,0,0,0,0
1.3292,1.3407,1.2984,0,0,0,0,0,0,0,0,0,0,0,0
1.3292,1.3407,1.2984,0,0,0,0,0,0,0,0,0,0,0,0
1.3292,1.3407,1.2984,0,0,0,0,0,0,0,0,0,0,0,0
1.3292,1.3407,1.2984,0,0,0,0,0,0,0,0,0,0,0,0
1.3292,1.3407,1.2984,0,0,0,0,0,0,0,0,0,0,0,0
1.3292,1.3407,1.2984,0,0,0,0,0,0,0,0,0,0,0,0
1.3292,1.3407,1.2984,0,0,0,0,0,0,0,0,0,0,0,0
1.3292,1.3407,1.2984,0,0,0,0,0,0,0,0,0,0,0,0
1.3292,1.3407,1.2984,0,0,0,0,0,0,0,0,0,0,0,0
1.3292,1.3407,1.2984,0,0,0,0,0,0,0,0,0,0,0,0
1.3292,1.3407,1.2984,0,0,0,0,0,0,0,0,0,0,0,0
1.3292,1.3407,1.2984,0,0,0,0,0,0,0,0,0,0,0,0
1.3292,1.3407,1.2984,0,0,0,0,0,0,0,0,0,0,0,0
1.3292,1.3407,1.2984,0,0,0,0,0,0,0,0,0,0,0,0
1.3292,1.3407,1.2984,0,0,0,0,0,0,0,0,0,0,0,0
1.3292,1.3407,1.2984,0,0,0,0,0,0,0,0,0,0,0,0
1.3292,1.3407,1.2984,0,0,0,0,0,0,0,0,0,0,0,0
1.3292,1.3407,1.2984,0,0,0,0,0,0,0,0,0,0,0,0
1.3292,1.3407,1.2984,0,0,0,0,0,0,0,0,0,0,0,0
1.3292,1.3407,1.2984,0,0,0,0,0,0,0,0,0,0,0,0
1.3292,1.3407,1.2984,0,0,0,0,0,0,0,0,0,0,0,0
1.3292,1.3407,1.2984,0,0,0,0,0,0,0,0,0,0,0,0
1.3292,1.3407,1.2984,0,0,0,0,0,0,0,0,0,0,0,0
1.3292,1.3407,1.2984,0,0,0,0,0,0,0,0,0,0,0,0
1.3292,1.3407,1.2984,0,0,0,0,0,0,0,0,0,0,0,0
1.3292,1.3407,1.2984,0,0,0,0,0,0,0,0,0,0,0,0
1.3292,1.3407,1.2984,0,0,0,0,0,0,0,0,0,0,0,0
1.3292,1.3407,1.2984,0,0,0,0,0,0,0,0,0,0,0,0
1.3292,1.3407,1.2984,0,0,0,0,0,0,0,0,0,0,0,0
1.3292,1.3407,1.2984,0,0,0,0,0,0,0,0,0,0,0,0
1.3292,1.3407,1.2984,0,0,0,0,0,0,0,0,0,0,0,0
1.3292,1.3407,1.2984,0,0,0,0,0,0,0,0,0,0,0,0
1.3292,1.3407,1.2984,0,0,0,0,0,0,0,0,0,0,0,0
1.3292,1.3407,1.2984,0,0,0,0,0,0,0,0,0,0,0,0
1.3292,1.3407,1.2984,0,0,0,0,0,0,0,0,0,0,0,0
1.3292,1.3407,1.2984,0,0,0,0,0,0,0,0,0,0,0,0
1.3292,1.3407,1.2984,0,0,0,0,0,0,0,0,0,0,0,0
1.3292,1.3407,1.2984,0,0,0,0,0,0,0,0,0,0,0,0
1.3292,1.3407,1.2984,0,0,0,0,0,0,0,0,0,0,0,0
1.3292,1.3407,1.2984,0,0,0,0,0,0,0,0,0,0,0,0
1.3292,1.3407,1.2984,0,0,0,0,0,0,0,0,0,0,0,0
1.3292,1.3407,1.2984,0,0,0,0,0,0,0,0,0,0,0,0
1.3292,1.3407,1.2984,0,0,0,0,0,0,0,0,0,0,0,0
1.3292,1.3407,1.2984,0,0,0,0,0,0,0,0,0,0,0,0
1.3292,1.3407,1.2984,0,0,0,0,0,0,0,0,0,0,0,0
1.3292,1.3407,1.2984,0,0,0,0,0,0,0,0,0,0,0,0
1.3292,1.3407,1.2984,0,0,0,0,0,0,0,0,0,0,0,0
1.3292,1.3407,1.2984,0,0,0,0,0,0,0,0,0,0,0,0
1.3292,1.3407,1.2984,0,0,0,0,0,0,0,0,0,0,0,0
1.3292,1.3407,1.2984,0,0,0,0,0,0,0,0,0,0,0,0
1.3292,1.3407,1.2984,0,0,0,0,0,0,0,0,0,0,0,0
1.3292,1.3407,1.2984,0,0,0,0,0,0,0,0,0,0,0,0
1.3292,1.3407,1.2984,0,0,0,0,0,0,0,0,0,0,0,0
1.3292,1.3407,1.2984,0,0,0,0,0,0,0,0,0,0,0,0
1.3292,1.3407,1.2984,0,0,0,0,0,0,0,0,0,0,0,0
1.3292,1.3407,1.2984,0,0,0,0,0,0,0,0,0,0,0,0
1.3292,1.3407,1.2984,0,0,0,0,0,0,0,0,0,0,0,0
1.3292,1.3407,1.2984,0,0,0,0,0,0,0,0,0,0,0,0
1.3292,1.3407,1.2984,0,0,0,0,0,0,0,0,0,0,0,0
1.3292,1.3407,1.2984,0,0,0,0,0,0,0,0,0,0,0,0
1.3292,1.3407,1.2984,0,0,0,0,0,0,0,0,0,0,0,0
1.3292,1.3407,1.2984,0,0,0,0,0,0,0,0,0,0,0,0
1.3292,1.3407,1.2984,0,0,0,0,0,0,0,0,0,0,0,0
1.3292,1.3407,1.2984,0,0,0,0,0,0,0,0,0,0,0,0
1.3292,1.3407,1.2984,0,0,0,0,0,0,0,0,0,0,0,0
1.3292,1.3407,1.2984,0,0,0,0,0,0,0,0,0,0,0,0
1.3292,1.3407,1.2984,0,0,0,0,0,0,0,0,0,0,0,0
1.3292,1.3407,1.2984,0,0,0,0,0,0,0,0,0,0,0,0
1.3292,1.3407,1.2984,0,0,0,0,0,0,0,0,0,0,0,0
1.3292,1.3407,1.2984,0,0,0,0,0,0,0,0,0,0,0,0
1.3292,1.3407,1.2984,0,0,0,0,0,0,0,0,0,0,0,0
1.3292,1.3407,1.2984,0,0,0,0,0,0,0,0,0,0,0,0
1.3292,1.3407,1.2984,0,0,0,0,0,0,0,0,0,0,0,0
1.3292,1.3407,1.2984,0,0,0,0,0,0,0,0,0,0,0,0
1.3292,1.3407,1.2984,0,0,0,0,0,0,0,0,0,0,0,0
1.3292,1.3407,1.2984,0,0,0,0,0,0,0,0,0,0,0,0
1.3292,1.3407,1.2984,0,0,0,0,0,0,0,0,0,0,0,0
1.3292,1.3407,1.2984,0,0,0,0,0,0,0,0,0,0,0,0
1.3292,1.3407,1.2984,0,0,0,0,0,0,0,0,0,0,0,0
1.3292,1.3407,1.2984,0,0,0,0,0,0,0,0,0,0,0,0
1.3292,1.3407,1.2984,0,0,0,0,0,0,0,0,0,0,0,0
1.3292,1.3407,1.2984,0,0,0,0,0,0,0,0,0,0,0,0
1.3292,1.3407,1.2984,0,0,0,0,0,0,0,0,0,0,0,0
1.3292,1.3407,1.2984,0,0,0,0,0,0,0,0,0,0,0,0
1.3292,1.3407,1.2984,0,0,0,0,0,0,0,0,0,0,0,0
1.3292,1.3407,1.2984,0,0,0,0,0,0,0,0,0,0,0,0
1.3292,1.3407,1.2984,0,0,0,0,0,0,0,0,0,0,0,0
1.3292,1.3407,1.2984,0,0,0,0,0,0,0,0,0,0,0,0
1.3292,1.3407,1.2984,0,0,0,0,0,0,0,0,0,0,0,0
1.3292,1.3407,1.2984,0,0,0,0,0,0,0,0,0,0,0,0
1.3292,1.3407,1.2984,0,0,0,0,0,0,0,0,0,0,0,0
1.3292,1.3407,1.2984,0,0,0,0,0,0,0,0,0,0,0,0
1.3292,1.3407,1.2984,0,0,0,0,0,0,0,0,0,0,0,0
1.3292,1.3407,1.2984,0,0,0,0,0,0,0,0,0,0,0,0
1.3292,1.3407,1.2984,0,0,0,0,0,0,0,0,0,0,0,0
1.3292,1.3407,1.2984,0,0,0,0,0,0,0,0,0,0,0,0
1.3292,1.3407,1.2984,0,0,0,0,0,0,0,0,0,0,0,0
1.3292,1.3407,1.2984,0,0,0,0,0,0,0,0,0,0,0,0
1.3292,1.3407,1.2984,0,0,0,0,0,0,0,0,0,0,0,0
1.3292,1.3407,1.2984,0,0,0,0,0,0,0,0,0,0,0,0
1.3292,1.3407,1.2984,0,0,0,0,0,0,0,0,0,0,0,0
1.3292,1.3407,1.2984,0,0,0,0,0,0,0,0,0,0,0,0
1.3292,1.3407,1.2984,0,0,0,0,0,0,0,0,0,0,0,0
1.3292,1.3407,1.2984,0,0,0,0,0,0,0,0,0,0,0,0
1.3292,1.3407,1.2984,0,0,0,0,0,0,0,0,0,0,0,0
1.3292,1.3407,1.2984,0,0,0,0,0,0,0,0,0,0,0,0
1.3292,1.3407,1.2984,0,0,0,0,0,0,0,0,0,0,0,0
1.3292,1.3407,1.2984,0,0,0,0,0,0,0,0,0,0,0,0
1.3292,1.3407,1.2984,0,0,0,0,0,0,0,0,0,0,0,0
1.3292,1.3407,1.2984,0,0,0,0,0,0,0,0,0,0,0,0
1.3292,1.3407,1.2984,0,0,0,0,0,0,0,0,0,0,0,0
1.3292,1.3407,1.2984,0,0,0,0,0,0,0,0,0,0,0,0
1.3292,1.3407,1.2984,0,0,0,0,0,0,0,0,0,0,0,0
1.3292,1.3407,1.2984,0,0,0,0,0,0,0,0,0,0,0,0
1.3292,1.3407,1.2984,0,0,0,0,0,0,0,0,0,0,0,0
1.3292,1.3407,1.2984,0,0,0,0,0,0,0,0,0,0,0,0
1.3292,1.3407,1.2984,0,0,0,0,0,0,0,0,0,0,0,0
1.3292,1.3407,1.2984,0,0,0,0,0,0,0,0,0,0,0,0
1.3292,1.3407,1.2984,0,0,0,0,0,0,0,0,0,0,0,0
1.3292,1.3407,1.2984,0,0,0,0,0,0,0,0,0,0,0,0
1.3292,1.3407,1.2984,0,0,0,0,0,0,0,0,0,0,0,0
1.3292,1.3407,1.2984,0,0,0,0,0,0,0,0,0,0,0,0
1.3292,1.3407,1.2984,0,0,0,0,0,0,0,0,0,0,0,0
1.3292,1.3407,1.2984,0,0,0,0,0,0,0,0,0,0,0,0
1.3292,1.3407,1.2984,0,0,0,0,0,0,0,0,0,0,0,0
1.3292,1.3407,1.2984,0,0,0,0,0,0,0,0,0,0,0,0
1.3292,1.3407,1.2984,0,0,0,0,0,0,0,0,0,0,0,0
1.3292,1.3407,1.2984,0,0,0,0,0,0,0,0,0,0,0,0
1.3292,1.3407,1.2984,0,0,0,0,0,0,0,0,0,0,0,0
1.3292,1.3407,1.2984,0,0,0,0,0,0,0,0,0,0,0,0
1.3292,1.3407,1.2984,0,0,0,0,0,0,0,0,0,0,0,0
1.3292,1.3407,1.2984,0,0,0,0,0,0,0,0,0,0,0,0
1.3292,1.3407,1.2984,0,0,0,0,0,0,0,0,0,0,0,0
1.3292,1.3407,1.2984,0,0,0,0,0,0,0,0,0,0,0,0
1.3292,1.3407,1.2984,0,0,0,0,0,0,0,0,0,0,0,0
1.3292,1.3407,1.2984,0,0,0,0,0,0,0,0,0,0,0,0
1.3292,1.3407,1.2984,0,0,0,0,0,0,0,0,0,0,0,0
1.3292,1.3407,1.2984,0,0,0,0,0,0,0,0,0,0,0,0
1.3292,1.3407,1.2984,0,0,0,0,0,0,0,0,0,0,0,0
1.3292,1.3407,1.2984,0,0,0,0,0,0,0,0,0,0,0,0
1.3292,1.3407,1.2984,0,0,0,0,0,0,0,0,0,0,0,0
1.3292,1.3407,1.2984,0,0,0,0,0,0,0,0,0,0,0,0
1.3292,1.3407,1.2984,0,0,0,0,0,0,0,0,0,0,0,0
1.3292,1.3407,1.2984,0,0,0,0,0,0,0,0,0,0,0,0
1.3292,1.3407,1.2984,0,0,0,0,0,0,0,0,0,0,0,0
1.3292,1.3407,1.2984,0,0,0,0,0,0,0,0,0,0,0,0
1.3292,1.3407,1.2984,0,0,0,0,0,0,0,0,0,0,0,0
1.3292,1.3407,1.2984,0,0,0,0,0,0,0,0,0,0,0,0
1.3292,1.3407,1.2984,0,0,0,0,0,0,0,0,0,0,0,0
1.3292,1.3407,1.2984,0,0,0,0,0,0,0,0,0,0,0,0
1.3292,1.3407,1.2984,0,0,0,0,0,0,0,0,0,0,0,0
1.3292,1.3407,1.2984,0,0,0,0,0,0,0,0,0,0,0,0
1.3292,1.3407,1.2984,0,0,0,0,0,0,0,0,0,0,0,0
1.3292,1.3407,1.2984,0,0,0,0,0,0,0,0,0,0,0,0
1.3292,1.3407,1.2984,0,0,0,0,0,0,0,0,0,0,0,0
1.3292,1.3407,1.2984,0,0,0,0,0,0,0,0,0,0,0,0
1.3292,1.3407,1.2984,0,0,0,0,0,0,0,0,0,0,0,0
1.3292,1.3407,1.2984,0,0,0,0,0,0,0,0,0,0,0,0
1.3292,1.3407,1.2984,0,0,0,0,0,0,0,0,0,0,0,0
1.3292,1.3407,1.2984,0,0,0,0,0,0,0,0,0,0,0,0
1.3292,1.3407,1.2984,0,0,0,0,0,0,0,0,0,0,0,0
1.3292,1.3407,1.2984,0,0,0,0,0,0,0,0,0,0,0,0
1.3292,1.3407,1.2984,0,0,0,0,0,0,0,0,0,0,0,0
1.3292,1.3407,1.2984,0,0,0,0,0,0,0,0,0,0,0,0
1.3292,1.3407,1.2984,0,0,0,0,0,0,0,0,0,0,0,0
1.3292,1.3407,1.2984,0,0,0,0,0,0,0,0,0,0,0,0
1.3292,1.3407,1.2984,0,0,0,0,0,0,0,0,0,0,0,0
1.3292,1.3407,1.2984,0,0,0,0,0,0,0,0,0,0,0,0
1.3292,1.3407,1.2984,0,0,0,0,0,0,0,0,0,0,0,0
1.3292,1.3407,1.2984,0,0,0,0,0,0,0,0,0,0,0,0
1.3292,1.3407,1.2984,0,0,0,0,0,0,0,0,0,0,0,0
1.3292,1.3407,1.2984,0,0,0,0,0,0,0,0,0,0,0,0
1.3292,1.3407,1.2984,0,0,0,0,0,0,0,0,0,0,0,0
1.3292,1.3407,1.2984,0,0,0,0,0,0,0,0,0,0,0,0
1.3292,1.3407,1.2984,0,0,0,0,0,0,0,0,0,0,0,0
1.3292,1.3407,1.2984,0,0,0,0,0,0,0,0,0,0,0,0
1.3292,1.3407,1.2984,0,0,0,0,0,0,0,0,0,0,0,0
1.3292,1.3407,1.2984,0,0,0,0,0,0,0,0,0,0,0,0
1.3292,1.3407,1.2984,0,0,0,0,0,0,0,0,0,0,0,0
1.3292,1.3407,1.2984,0,0,0,0,0,0,0,0,0,0,0,0
1.3292,1.3407,1.2984,0,0,0,0,0,0,0,0,0,0,0,0
1.3292,1.3407,1.2984,0,0,0,0,0,0,0,0,0,0,0,0
1.3292,1.3407,1.2984,0,0,0,0,0,0,0,0,0,0,0,0
1.3292,1.3407,1.2984,0,0,0,0,0,0,0,0,0,0,0,0
1.3292,1.3407,1.2984,0,0,0,0,0,0,0,0,0,0,0,0
1.3292,1.3407,1.2984,0,0,0,0,0,0,0,0,0,0,0,0
1.3292,1.3407,1.2984,0,0,0,0,0,0,0,0,0,0,0,0
1.3292,1.3407,1.2984,0,0,0,0,0,0,0,0,0,0,0,0
1.3292,1.3407,1.2984,0,0,0,0,0,0,0,0,0,0,0,0
1.3292,1.3407,1.2984,0,0,0,0,0,0,0,0,0,0,0,0
1.3292,1.3407,1.2984,0,0,0,0,0,0,0,0,0,0,0,0
1.3292,1.3407,1.2984,0,0,0,0,0,0,0,0,0,0,0,0
1.3292,1.3407,1.2984,0,0,0,0,0,0,0,0,0,0,0,0
1.3292,1.3407,1.2984,0,0,0,0,0,0,0,0,0,0,0,0
1.3292,1.3407,1.2984,0,0,0,0,0,0,0,0,0,0,0,0
1.3292,1.3407,1.2984,0,0,0,0,0,0,0,0,0,0,0,0
1.3292,1.3407,1.2984,0,0,0,0,0,0,0,0,0,0,0,0
1.3292,1.3407,1.2984,0,0,0,0,0,0,0,0,0,0,0,0
1.3292,1.3407,1.2984,0,0,0,0,0,0,0,0,0,0,0,0
1.3292,1.3407,1.2984,0,0,0,0,0,0,0,0,0,0,0,0
1.3292,1.3407,1.2984,0,0,0,0,0,0,0,0,0,0,0,0
1.3292,1.3407,1.2984,0,0,0,0,0,0,0,0,0,0,0,0
1.3292,1.3407,1.2984,0,0,0,0,0,0,0,0,0,0,0,0
1.3292,1.3407,1.2984,0,0,0,0,0,0,0,0,0,0,0,0
1.3292,1.3407,1.2984,0,0,0,0,0,0,0,0,0,0,0,0
1.3292,1.3407,1.2984,0,0,0,0,0,0,0,0,0,0,0,0
1.3292,1.3407,1.2984,0,0,0,0,0,0,0,0,0,0,0,0
1.3292,1.3407,1.2984,0,0,0,0,0,0,0,0,0,0,0,0
1.3292,1.3407,1.2984,0,0,0,0,0,0,0,0,0,0,0,0
1.3292,1.3407,1.2984,0,0,0,0,0,0,0,0,0,0,0,0
1.3292,1.3407,1.2984,0,0,0,0,0,0,0,0,0,0,0,0
1.3292,1.3407,1.2984,0,0,0,0,0,0,0,0,0,0,0,0
1.3292,1.3407,1.2984,0,0,0,0,0,0,0,0,0,0,0,0
1.3292,1.3407,1.2984,0,0,0,0,0,0,0,0,0,0,0,0
1.3292,1.3407,1.2984,0,0,0,0,0,0,0,0,0,0,0,0
1.3292,1.3407,1.2984,0,0,0,0,0,0,0,0,0,0,0,0
1.3292,1.3407,1.2984,0,0,0,0,0,0,0,0,0,0,0,0
1.3292,1.3407,1.2984,0,0,0,0,0,0,0,0,0,0,0,0
1.3292,1.3407,1.2984,0,0,0,0,0,0,0,0,0,0,0,0
1.3292,1.3407,1.2984,0,0,0,0,0,0,0,0,0,0,0,0
1.3292,1.3407,1.2984,0,0,0,0,0,0,0,0,0,0,0,0
1.3292,1.3407,1.2984,0,0,0,0,0,0,0,0,0,0,0,0
1.3292,1.3407,1.2984,0,0,0,0,0,0,0,0,0,0,0,0
1.3292,1.3407,1.2984,0,0,0,0,0,0,0,0,0,0,0,0
1.3292,1.3407,1.2984,0,0,0,0,0,0,0,0,0,0,0,0
1.3292,1.3407,1.2984,0,0,0,0,0,0,0,0,0,0,0,0
1.3292,1.3407,1.2984,0,0,0,0,0,0,0,0,0,0,0,0
1.3292,1.3407,1.2984,0,0,0,0,0,0,0,0,0,0,0,0
1.3292,1.3407,1.2984,0,0,0,0,0,0,0,0,0,0,0,0
