1
135.000000,28.000000,41.000000,124.000000
135.000000,28.000000,41.000000,124.000000
135.000000,28.000000,41.000000,124.000000
135.000000,28.000000,41.000000,124.000000
135.000000,28.000000,41.000000,124.000000
135.000000,28.000000,41.000000,124.000000
131.000000,28.000000,41.000000,124.000000
131.000000,28.000000,41.000000,124.000000
131.000000,28.000000,41.000000,124.000000
131.000000,28.000000,41.000000,124.000000
131.000000,28.000000,41.000000,124.000000
131.000000,28.000000,41.000000,124.000000
131.000000,32.000000,41.000000,124.000000
131.000000,32.000000,41.000000,124.000000
127.000000,32.000000,41.000000,124.000000
127.000000,32.000000,41.000000,124.000000
127.000000,32.000000,41.000000,124.000000
127.000000,32.000000,41.000000,124.000000
127.000000,32.000000,41.000000,124.000000
127.000000,32.000000,41.000000,124.000000
127.000000,32.000000,41.000000,124.000000
127.000000,32.000000,41.000000,124.000000
127.000000,32.000000,41.000000,124.000000
127.000000,32.000000,41.000000,124.000000
131.000000,32.000000,41.000000,124.000000
131.000000,32.000000,41.000000,124.000000
131.000000,32.000000,41.000000,124.000000
131.000000,32.000000,41.000000,124.000000
131.000000,32.000000,41.000000,124.000000
131.000000,32.000000,41.000000,124.000000
131.000000,32.000000,41.000000,124.000000
131.000000,32.000000,41.000000,124.000000
131.000000,32.000000,41.000000,124.000000
131.000000,32.000000,41.000000,124.000000
131.000000,32.000000,41.000000,124.000000
131.000000,32.000000,41.000000,124.000000
131.000000,32.000000,41.000000,124.000000
131.000000,32.000000,41.000000,124.000000
131.000000,32.000000,41.000000,124.000000
131.000000,32.000000,41.000000,124.000000
127.000000,32.000000,41.000000,124.000000
127.000000,32.000000,41.000000,124.000000
127.000000,32.000000,41.000000,124.000000
127.000000,32.000000,41.000000,124.000000
127.000000,32.000000,41.000000,124.000000
127.000000,32.000000,41.000000,124.000000
127.000000,32.000000,41.000000,124.000000
127.000000,36.000000,41.000000,124.000000
127.000000,36.000000,41.000000,124.000000
127.000000,36.000000,41.000000,124.000000
127.000000,36.000000,41.000000,124.000000
127.000000,36.000000,41.000000,124.000000
127.000000,36.000000,41.000000,124.000000
127.000000,36.000000,41.000000,124.000000
127.000000,36.000000,41.000000,124.000000
127.000000,36.000000,41.000000,124.000000
127.000000,36.000000,41.000000,124.000000
127.000000,36.000000,41.000000,124.000000
127.000000,36.000000,41.000000,124.000000
127.000000,36.000000,41.000000,124.000000
127.000000,36.000000,41.000000,124.000000
131.000000,36.000000,41.000000,124.000000
131.000000,36.000000,41.000000,124.000000
131.000000,36.000000,41.000000,124.000000
131.000000,36.000000,41.000000,124.000000
131.000000,36.000000,41.000000,124.000000
131.000000,36.000000,41.000000,124.000000
131.000000,36.000000,41.000000,124.000000
131.000000,36.000000,41.000000,124.000000
131.000000,36.000000,41.000000,124.000000
131.000000,36.000000,41.000000,124.000000
131.000000,36.000000,41.000000,124.000000
131.000000,36.000000,41.000000,124.000000
131.000000,40.000000,41.000000,124.000000
131.000000,40.000000,41.000000,124.000000
127.000000,40.000000,41.000000,124.000000
123.000000,40.000000,41.000000,124.000000
119.000000,36.000000,41.000000,124.000000
115.000000,36.000000,41.000000,124.000000
111.000000,32.000000,41.000000,124.000000
107.000000,32.000000,41.000000,124.000000
99.000000,28.000000,41.000000,124.000000
99.000000,32.000000,41.000000,124.000000
99.000000,32.000000,41.000000,124.000000
99.000000,28.000000,41.000000,124.000000
99.000000,32.000000,41.000000,124.000000
95.000000,32.000000,41.000000,124.000000
87.000000,24.000000,41.000000,124.000000
87.000000,52.000000,41.000000,124.000000
83.000000,28.000000,41.000000,124.000000
83.000000,24.000000,41.000000,124.000000
83.000000,24.000000,41.000000,124.000000
83.000000,24.000000,41.000000,124.000000
83.000000,24.000000,41.000000,124.000000
75.000000,48.000000,41.000000,124.000000
2
0
0
0
0
1
107.830002,27.639996,75.000000,124.120010
107.830002,27.639996,75.000000,124.120010
107.830002,27.639996,75.000000,124.120010
107.830002,31.639996,75.000000,124.120010
107.830002,31.639996,75.000000,124.120010
107.830002,31.639996,75.000000,124.120010
103.830002,31.639996,75.000000,124.120010
107.830002,31.639996,75.000000,124.120010
111.830002,31.639996,75.000000,124.120010
111.830002,31.639996,75.000000,124.120010
111.830002,31.639996,75.000000,124.120010
115.830002,31.639996,75.000000,124.120010
119.830002,27.639996,75.000000,124.120010
119.830002,27.639996,75.000000,124.120010
119.830002,31.639996,75.000000,124.120010
115.830002,35.639996,75.000000,124.120010
115.830002,35.639996,75.000000,124.120010
115.830002,35.639996,75.000000,124.120010
115.830002,35.639996,75.000000,124.120010
115.830002,31.639996,75.000000,124.120010
115.830002,35.639996,75.000000,124.120010
115.830002,39.639996,75.000000,124.120010
119.830002,39.639996,75.000000,124.120010
123.830002,39.639996,75.000000,124.120010
123.830002,35.639996,75.000000,124.120010
123.830002,35.639996,75.000000,124.120010
123.830002,35.639996,75.000000,124.120010
123.830002,35.639996,75.000000,124.120010
123.830002,35.639996,75.000000,124.120010
119.830002,39.639996,75.000000,124.120010
119.830002,43.639996,75.000000,124.120010
119.830002,43.639996,75.000000,124.120010
119.830002,51.639996,75.000000,124.120010
119.830002,55.639996,75.000000,124.120010
127.830002,23.639996,75.000000,124.120010
119.830002,43.639996,75.000000,124.120010
115.830002,47.639996,75.000000,124.120010
111.830002,31.639996,75.000000,124.120010
111.830002,15.639996,75.000000,124.120010
115.830002,11.639996,75.000000,124.120010
119.830002,7.639996,75.000000,124.120010
127.830002,7.639996,75.000000,124.120010
131.830002,7.639996,75.000000,124.120010
139.830002,11.639996,75.000000,124.120010
139.830002,11.639996,75.000000,124.120010
139.830002,15.639996,75.000000,124.120010
139.830002,19.639996,75.000000,124.120010
143.830002,19.639996,75.000000,124.120010
147.830002,19.639996,75.000000,124.120010
147.830002,23.639996,75.000000,124.120010
143.830002,27.639996,75.000000,124.120010
143.830002,27.639996,75.000000,124.120010
139.830002,27.639996,75.000000,124.120010
135.830002,27.639996,75.000000,124.120010
135.830002,27.639996,75.000000,124.120010
147.830002,27.639996,75.000000,124.120010
151.830002,23.639996,75.000000,124.120010
147.830002,19.639996,75.000000,124.120010
143.830002,15.639996,75.000000,124.120010
143.830002,11.639996,75.000000,124.120010
139.830002,11.639996,75.000000,124.120010
139.830002,7.639996,75.000000,124.120010
131.830002,7.639996,75.000000,124.120010
127.830002,7.639996,75.000000,124.120010
131.830002,3.639996,75.000000,124.120010
135.830002,3.639996,75.000000,124.120010
139.830002,3.639996,75.000000,124.120010
135.830002,3.639996,75.000000,124.120010
135.830002,3.639996,75.000000,124.120010
135.830002,3.639996,75.000000,124.120010
139.830002,3.639996,75.000000,124.120010
139.830002,3.639996,75.000000,124.120010
139.830002,3.639996,75.000000,124.120010
143.830002,3.639996,75.000000,124.120010
147.830002,-0.360004,75.000000,124.120010
147.830002,-0.360004,75.000000,124.120010
147.830002,3.639996,75.000000,124.120010
143.830002,3.639996,75.000000,124.120010
143.830002,-0.360004,75.000000,124.120010
143.830002,-0.360004,75.000000,124.120010
143.830002,-4.360004,75.000000,124.120010
143.830002,-4.360004,75.000000,124.120010
147.830002,-4.360004,75.000000,124.120010
147.830002,-0.360004,75.000000,124.120010
147.830002,3.639996,75.000000,124.120010
147.830002,3.639996,75.000000,124.120010
147.830002,3.639996,75.000000,124.120010
147.830002,3.639996,75.000000,124.120010
147.830002,3.639996,75.000000,124.120010
147.830002,3.639996,75.000000,124.120010
147.830002,3.639996,75.000000,124.120010
147.830002,3.639996,75.000000,124.120010
151.830002,3.639996,75.000000,124.120010
151.830002,3.639996,75.000000,124.120010
155.830002,3.639996,75.000000,124.120010
155.830002,3.639996,75.000000,124.120010
155.830002,3.639996,75.000000,124.120010
159.830002,3.639996,75.000000,124.120010
159.830002,3.639996,75.000000,124.120010
159.830002,3.639996,75.000000,124.120010
155.830002,3.639996,75.000000,124.120010
155.830002,3.639996,75.000000,124.120010
155.830002,3.639996,75.000000,124.120010
151.830002,3.639996,75.000000,124.120010
151.830002,3.639996,75.000000,124.120010
151.830002,3.639996,75.000000,124.120010
147.830002,3.639996,75.000000,124.120010
147.830002,3.639996,75.000000,124.120010
147.830002,3.639996,75.000000,124.120010
147.830002,3.639996,75.000000,124.120010
147.830002,3.639996,75.000000,124.120010
147.830002,3.639996,75.000000,124.120010
147.830002,3.639996,75.000000,124.120010
151.830002,3.639996,75.000000,124.120010
151.830002,3.639996,75.000000,124.120010
151.830002,3.639996,75.000000,124.120010
151.830002,3.639996,75.000000,124.120010
151.830002,3.639996,75.000000,124.120010
155.830002,3.639996,75.000000,124.120010
155.830002,3.639996,75.000000,124.120010
155.830002,3.639996,75.000000,124.120010
155.830002,3.639996,75.000000,124.120010
159.830002,3.639996,75.000000,124.120010
159.830002,3.639996,75.000000,124.120010
159.830002,3.639996,75.000000,124.120010
159.830002,7.639996,75.000000,124.120010
163.830002,7.639996,75.000000,124.120010
163.830002,7.639996,75.000000,124.120010
163.830002,7.639996,75.000000,124.120010
163.830002,7.639996,75.000000,124.120010
163.830002,7.639996,75.000000,124.120010
163.830002,7.639996,75.000000,124.120010
163.830002,7.639996,75.000000,124.120010
167.830002,7.639996,75.000000,124.120010
167.830002,7.639996,75.000000,124.120010
167.830002,7.639996,75.000000,124.120010
167.830002,7.639996,75.000000,124.120010
167.830002,7.639996,75.000000,124.120010
167.830002,7.639996,75.000000,124.120010
167.830002,7.639996,75.000000,124.120010
167.830002,7.639996,75.000000,124.120010
167.830002,7.639996,75.000000,124.120010
167.830002,7.639996,75.000000,124.120010
167.830002,7.639996,75.000000,124.120010
167.830002,7.639996,75.000000,124.120010
167.830002,7.639996,75.000000,124.120010
167.830002,7.639996,75.000000,124.120010
167.830002,7.639996,75.000000,124.120010
167.830002,7.639996,75.000000,124.120010
167.830002,7.639996,75.000000,124.120010
167.830002,7.639996,75.000000,124.120010
167.830002,7.639996,75.000000,124.120010
167.830002,7.639996,75.000000,124.120010
167.830002,7.639996,75.000000,124.120010
167.830002,7.639996,75.000000,124.120010
167.830002,7.639996,75.000000,124.120010
167.830002,7.639996,75.000000,124.120010
167.830002,7.639996,75.000000,124.120010
163.830002,7.639996,75.000000,124.120010
163.830002,7.639996,75.000000,124.120010
163.830002,7.639996,75.000000,124.120010
163.830002,7.639996,75.000000,124.120010
163.830002,7.639996,75.000000,124.120010
163.830002,7.639996,75.000000,124.120010
163.830002,7.639996,75.000000,124.120010
159.830002,7.639996,75.000000,124.120010
159.830002,7.639996,75.000000,124.120010
159.830002,7.639996,75.000000,124.120010
159.830002,7.639996,75.000000,124.120010
159.830002,7.639996,75.000000,124.120010
159.830002,7.639996,75.000000,124.120010
159.830002,7.639996,75.000000,124.120010
159.830002,7.639996,75.000000,124.120010
159.830002,7.639996,75.000000,124.120010
159.830002,7.639996,75.000000,124.120010
159.830002,11.639996,75.000000,124.120010
159.830002,11.639996,75.000000,124.120010
159.830002,11.639996,75.000000,124.120010
159.830002,11.639996,75.000000,124.120010
159.830002,11.639996,75.000000,124.120010
159.830002,11.639996,75.000000,124.120010
159.830002,11.639996,75.000000,124.120010
159.830002,11.639996,75.000000,124.120010
159.830002,11.639996,75.000000,124.120010
159.830002,11.639996,75.000000,124.120010
159.830002,11.639996,75.000000,124.120010
159.830002,11.639996,75.000000,124.120010
159.830002,11.639996,75.000000,124.120010
159.830002,11.639996,75.000000,124.120010
159.830002,11.639996,75.000000,124.120010
163.830002,11.639996,75.000000,124.120010
163.830002,11.639996,75.000000,124.120010
163.830002,11.639996,75.000000,124.120010
163.830002,11.639996,75.000000,124.120010
163.830002,11.639996,75.000000,124.120010
163.830002,11.639996,75.000000,124.120010
163.830002,11.639996,75.000000,124.120010
163.830002,11.639996,75.000000,124.120010
163.830002,11.639996,75.000000,124.120010
163.830002,11.639996,75.000000,124.120010
163.830002,11.639996,75.000000,124.120010
163.830002,11.639996,75.000000,124.120010
163.830002,7.639996,75.000000,124.120010
163.830002,7.639996,75.000000,124.120010
163.830002,7.639996,75.000000,124.120010
163.830002,7.639996,75.000000,124.120010
163.830002,7.639996,75.000000,124.120010
163.830002,7.639996,75.000000,124.120010
163.830002,7.639996,75.000000,124.120010
163.830002,7.639996,75.000000,124.120010
163.830002,7.639996,75.000000,124.120010
163.830002,7.639996,75.000000,124.120010
163.830002,7.639996,75.000000,124.120010
163.830002,7.639996,75.000000,124.120010
163.830002,7.639996,75.000000,124.120010
163.830002,7.639996,75.000000,124.120010
163.830002,7.639996,75.000000,124.120010
159.830002,7.639996,75.000000,124.120010
159.830002,7.639996,75.000000,124.120010
159.830002,7.639996,75.000000,124.120010
159.830002,7.639996,75.000000,124.120010
159.830002,7.639996,75.000000,124.120010
159.830002,7.639996,75.000000,124.120010
159.830002,7.639996,75.000000,124.120010
159.830002,7.639996,75.000000,124.120010
163.830002,7.639996,75.000000,124.120010
167.830002,7.639996,75.000000,124.120010
171.830002,7.639996,75.000000,124.120010
171.830002,7.639996,75.000000,124.120010
175.830002,7.639996,75.000000,124.120010
179.830002,7.639996,75.000000,124.120010
179.830002,7.639996,75.000000,124.120010
183.830002,7.639996,75.000000,124.120010
187.830002,7.639996,75.000000,124.120010
187.830002,7.639996,75.000000,124.120010
191.830002,7.639996,75.000000,124.120010
195.830002,7.639996,75.000000,124.120010
2
0
0
0
0
1
132.820007,62.760006,53.179993,77.239990
132.820007,62.760006,53.179993,77.239990
132.820007,62.760006,53.179993,77.239990
136.820007,62.760006,53.179993,77.239990
140.820007,62.760006,53.179993,77.239990
140.820007,62.760006,53.179993,77.239990
140.820007,54.760006,53.179993,77.239990
144.820007,62.760006,53.179993,77.239990
148.820007,62.760006,53.179993,77.239990
148.820007,58.760006,53.179993,77.239990
152.820007,58.760006,53.179993,77.239990
152.820007,54.760006,53.179993,77.239990
152.820007,54.760006,53.179993,77.239990
156.820007,54.760006,53.179993,77.239990
156.820007,54.760006,53.179993,77.239990
156.820007,50.760006,53.179993,77.239990
156.820007,50.760006,53.179993,77.239990
160.820007,54.760006,53.179993,77.239990
160.820007,54.760006,53.179993,77.239990
160.820007,58.760006,53.179993,77.239990
164.820007,62.760006,53.179993,77.239990
164.820007,62.760006,53.179993,77.239990
164.820007,66.760010,53.179993,77.239990
168.820007,66.760010,53.179993,77.239990
168.820007,66.760010,53.179993,77.239990
172.820007,66.760010,53.179993,77.239990
172.820007,62.760006,53.179993,77.239990
176.820007,62.760006,53.179993,77.239990
180.820007,58.760006,53.179993,77.239990
180.820007,58.760006,53.179993,77.239990
176.820007,58.760006,53.179993,77.239990
176.820007,74.760010,53.179993,77.239990
180.820007,74.760010,53.179993,77.239990
180.820007,74.760010,53.179993,77.239990
180.820007,66.760010,53.179993,77.239990
180.820007,58.760006,53.179993,77.239990
180.820007,58.760006,53.179993,77.239990
180.820007,50.760006,53.179993,77.239990
168.820007,50.760006,53.179993,77.239990
168.820007,54.760006,53.179993,77.239990
168.820007,58.760006,53.179993,77.239990
172.820007,58.760006,53.179993,77.239990
172.820007,58.760006,53.179993,77.239990
176.820007,54.760006,53.179993,77.239990
176.820007,42.760006,53.179993,77.239990
176.820007,34.760006,53.179993,77.239990
172.820007,30.760006,53.179993,77.239990
172.820007,30.760006,53.179993,77.239990
172.820007,30.760006,53.179993,77.239990
176.820007,30.760006,53.179993,77.239990
176.820007,30.760006,53.179993,77.239990
176.820007,30.760006,53.179993,77.239990
176.820007,30.760006,53.179993,77.239990
176.820007,30.760006,53.179993,77.239990
176.820007,34.760006,53.179993,77.239990
176.820007,34.760006,53.179993,77.239990
176.820007,34.760006,53.179993,77.239990
176.820007,34.760006,53.179993,77.239990
176.820007,34.760006,53.179993,77.239990
180.820007,34.760006,53.179993,77.239990
180.820007,38.760006,53.179993,77.239990
180.820007,38.760006,53.179993,77.239990
180.820007,38.760006,53.179993,77.239990
180.820007,38.760006,53.179993,77.239990
184.820007,38.760006,53.179993,77.239990
184.820007,38.760006,53.179993,77.239990
188.820007,38.760006,53.179993,77.239990
2
0
0
0
0
1
166.179993,68.860001,26.520004,52.439995
170.179993,68.860001,26.520004,52.439995
170.179993,68.860001,26.520004,52.439995
174.179993,68.860001,26.520004,52.439995
174.179993,68.860001,26.520004,52.439995
178.179993,68.860001,26.520004,52.439995
178.179993,68.860001,26.520004,52.439995
178.179993,68.860001,26.520004,52.439995
178.179993,68.860001,26.520004,52.439995
182.179993,68.860001,26.520004,52.439995
2
0
0
0
0
1
140.000000,76.500000,34.000000,15.000000
140.000000,76.500000,34.000000,15.000000
140.000000,76.500000,34.000000,15.000000
140.000000,76.500000,34.000000,15.000000
140.000000,76.500000,34.000000,15.000000
140.000000,76.500000,34.000000,15.000000
144.000000,76.500000,34.000000,15.000000
144.000000,76.500000,34.000000,15.000000
144.000000,72.500000,34.000000,15.000000
148.000000,72.500000,34.000000,15.000000
148.000000,72.500000,34.000000,15.000000
148.000000,72.500000,34.000000,15.000000
152.000000,72.500000,34.000000,15.000000
152.000000,72.500000,34.000000,15.000000
152.000000,72.500000,34.000000,15.000000
156.000000,72.500000,34.000000,15.000000
156.000000,72.500000,34.000000,15.000000
156.000000,72.500000,34.000000,15.000000
156.000000,76.500000,34.000000,15.000000
156.000000,76.500000,34.000000,15.000000
156.000000,76.500000,34.000000,15.000000
156.000000,76.500000,34.000000,15.000000
156.000000,76.500000,34.000000,15.000000
156.000000,76.500000,34.000000,15.000000
156.000000,76.500000,34.000000,15.000000
156.000000,76.500000,34.000000,15.000000
156.000000,76.500000,34.000000,15.000000
156.000000,76.500000,34.000000,15.000000
156.000000,76.500000,34.000000,15.000000
156.000000,76.500000,34.000000,15.000000
156.000000,76.500000,34.000000,15.000000
156.000000,76.500000,34.000000,15.000000
156.000000,76.500000,34.000000,15.000000
156.000000,76.500000,34.000000,15.000000
156.000000,76.500000,34.000000,15.000000
156.000000,76.500000,34.000000,15.000000
160.000000,76.500000,34.000000,15.000000
160.000000,76.500000,34.000000,15.000000
160.000000,76.500000,34.000000,15.000000
160.000000,76.500000,34.000000,15.000000
160.000000,76.500000,34.000000,15.000000
160.000000,76.500000,34.000000,15.000000
160.000000,76.500000,34.000000,15.000000
160.000000,76.500000,34.000000,15.000000
160.000000,76.500000,34.000000,15.000000
160.000000,80.500000,34.000000,15.000000
160.000000,80.500000,34.000000,15.000000
160.000000,80.500000,34.000000,15.000000
160.000000,80.500000,34.000000,15.000000
160.000000,80.500000,34.000000,15.000000
160.000000,80.500000,34.000000,15.000000
160.000000,80.500000,34.000000,15.000000
160.000000,80.500000,34.000000,15.000000
160.000000,84.500000,34.000000,15.000000
160.000000,84.500000,34.000000,15.000000
160.000000,84.500000,34.000000,15.000000
160.000000,84.500000,34.000000,15.000000
160.000000,84.500000,34.000000,15.000000
160.000000,84.500000,34.000000,15.000000
160.000000,84.500000,34.000000,15.000000
160.000000,88.500000,34.000000,15.000000
160.000000,88.500000,34.000000,15.000000
160.000000,88.500000,34.000000,15.000000
160.000000,88.500000,34.000000,15.000000
160.000000,88.500000,34.000000,15.000000
160.000000,88.500000,34.000000,15.000000
160.000000,88.500000,34.000000,15.000000
160.000000,88.500000,34.000000,15.000000
160.000000,88.500000,34.000000,15.000000
160.000000,88.500000,34.000000,15.000000
160.000000,88.500000,34.000000,15.000000
160.000000,88.500000,34.000000,15.000000
160.000000,88.500000,34.000000,15.000000
160.000000,88.500000,34.000000,15.000000
160.000000,88.500000,34.000000,15.000000
160.000000,88.500000,34.000000,15.000000
160.000000,88.500000,34.000000,15.000000
160.000000,88.500000,34.000000,15.000000
2
0
0
0
0
1
136.069992,63.980000,34.600006,73.799995
136.069992,63.980000,34.600006,73.799995
136.069992,63.980000,34.600006,73.799995
136.069992,63.980000,34.600006,73.799995
136.069992,63.980000,34.600006,73.799995
140.069992,63.980000,34.600006,73.799995
140.069992,63.980000,34.600006,73.799995
140.069992,63.980000,34.600006,73.799995
140.069992,63.980000,34.600006,73.799995
136.069992,63.980000,34.600006,73.799995
136.069992,63.980000,34.600006,73.799995
136.069992,63.980000,34.600006,73.799995
136.069992,63.980000,34.600006,73.799995
136.069992,63.980000,34.600006,73.799995
136.069992,67.979996,34.600006,73.799995
136.069992,67.979996,34.600006,73.799995
136.069992,67.979996,34.600006,73.799995
136.069992,67.979996,34.600006,73.799995
136.069992,67.979996,34.600006,73.799995
136.069992,67.979996,34.600006,73.799995
136.069992,67.979996,34.600006,73.799995
136.069992,67.979996,34.600006,73.799995
136.069992,67.979996,34.600006,73.799995
136.069992,67.979996,34.600006,73.799995
136.069992,67.979996,34.600006,73.799995
136.069992,67.979996,34.600006,73.799995
136.069992,67.979996,34.600006,73.799995
136.069992,67.979996,34.600006,73.799995
140.069992,67.979996,34.600006,73.799995
140.069992,67.979996,34.600006,73.799995
140.069992,67.979996,34.600006,73.799995
140.069992,67.979996,34.600006,73.799995
140.069992,67.979996,34.600006,73.799995
140.069992,63.980000,34.600006,73.799995
140.069992,63.980000,34.600006,73.799995
140.069992,63.980000,34.600006,73.799995
140.069992,63.980000,34.600006,73.799995
140.069992,63.980000,34.600006,73.799995
140.069992,67.979996,34.600006,73.799995
140.069992,67.979996,34.600006,73.799995
140.069992,67.979996,34.600006,73.799995
140.069992,67.979996,34.600006,73.799995
140.069992,67.979996,34.600006,73.799995
140.069992,67.979996,34.600006,73.799995
136.069992,67.979996,34.600006,73.799995
136.069992,67.979996,34.600006,73.799995
136.069992,67.979996,34.600006,73.799995
136.069992,67.979996,34.600006,73.799995
136.069992,67.979996,34.600006,73.799995
