1
438.750000,380.250000,93.500000,54.500000
438.750000,380.250000,93.500000,54.500000
442.750000,380.250000,93.500000,54.500000
442.750000,380.250000,93.500000,54.500000
442.750000,380.250000,93.500000,54.500000
442.750000,380.250000,93.500000,54.500000
446.750000,380.250000,93.500000,54.500000
446.750000,380.250000,93.500000,54.500000
446.750000,380.250000,93.500000,54.500000
450.750000,380.250000,93.500000,54.500000
454.750000,380.250000,93.500000,54.500000
458.750000,380.250000,93.500000,54.500000
462.750000,380.250000,93.500000,54.500000
462.750000,380.250000,93.500000,54.500000
478.750000,380.250000,93.500000,54.500000
478.750000,380.250000,93.500000,54.500000
482.750000,380.250000,93.500000,54.500000
482.750000,380.250000,93.500000,54.500000
482.750000,380.250000,93.500000,54.500000
486.750000,380.250000,93.500000,54.500000
486.750000,380.250000,93.500000,54.500000
486.750000,380.250000,93.500000,54.500000
490.750000,380.250000,93.500000,54.500000
490.750000,380.250000,93.500000,54.500000
490.750000,380.250000,93.500000,54.500000
494.750000,380.250000,93.500000,54.500000
498.750000,380.250000,93.500000,54.500000
502.750000,380.250000,93.500000,54.500000
506.750000,380.250000,93.500000,54.500000
506.750000,380.250000,93.500000,54.500000
510.750000,376.250000,93.500000,54.500000
510.750000,376.250000,93.500000,54.500000
510.750000,376.250000,93.500000,54.500000
514.750000,376.250000,93.500000,54.500000
514.750000,376.250000,93.500000,54.500000
514.750000,376.250000,93.500000,54.500000
514.750000,376.250000,93.500000,54.500000
514.750000,376.250000,93.500000,54.500000
514.750000,376.250000,93.500000,54.500000
514.750000,376.250000,93.500000,54.500000
514.750000,376.250000,93.500000,54.500000
514.750000,380.250000,93.500000,54.500000
514.750000,380.250000,93.500000,54.500000
514.750000,380.250000,93.500000,54.500000
514.750000,380.250000,93.500000,54.500000
518.750000,380.250000,93.500000,54.500000
518.750000,380.250000,93.500000,54.500000
518.750000,380.250000,93.500000,54.500000
518.750000,380.250000,93.500000,54.500000
518.750000,380.250000,93.500000,54.500000
518.750000,380.250000,93.500000,54.500000
518.750000,380.250000,93.500000,54.500000
518.750000,380.250000,93.500000,54.500000
518.750000,380.250000,93.500000,54.500000
518.750000,380.250000,93.500000,54.500000
522.750000,380.250000,93.500000,54.500000
522.750000,380.250000,93.500000,54.500000
522.750000,380.250000,93.500000,54.500000
522.750000,380.250000,93.500000,54.500000
522.750000,380.250000,93.500000,54.500000
522.750000,380.250000,93.500000,54.500000
522.750000,380.250000,93.500000,54.500000
522.750000,380.250000,93.500000,54.500000
2
0
0
0
0
1
542.250000,374.250000,42.500000,59.500000
538.250000,374.250000,42.500000,59.500000
534.250000,374.250000,42.500000,59.500000
534.250000,374.250000,42.500000,59.500000
530.250000,374.250000,42.500000,59.500000
530.250000,374.250000,42.500000,59.500000
526.250000,374.250000,42.500000,59.500000
526.250000,374.250000,42.500000,59.500000
526.250000,374.250000,42.500000,59.500000
522.250000,374.250000,42.500000,59.500000
522.250000,374.250000,42.500000,59.500000
522.250000,374.250000,42.500000,59.500000
518.250000,374.250000,42.500000,59.500000
518.250000,374.250000,42.500000,59.500000
518.250000,374.250000,42.500000,59.500000
518.250000,374.250000,42.500000,59.500000
518.250000,374.250000,42.500000,59.500000
514.250000,374.250000,42.500000,59.500000
514.250000,374.250000,42.500000,59.500000
514.250000,374.250000,42.500000,59.500000
514.250000,374.250000,42.500000,59.500000
514.250000,374.250000,42.500000,59.500000
510.250000,374.250000,42.500000,59.500000
510.250000,374.250000,42.500000,59.500000
510.250000,374.250000,42.500000,59.500000
510.250000,374.250000,42.500000,59.500000
510.250000,374.250000,42.500000,59.500000
514.250000,374.250000,42.500000,59.500000
514.250000,374.250000,42.500000,59.500000
514.250000,374.250000,42.500000,59.500000
514.250000,374.250000,42.500000,59.500000
514.250000,374.250000,42.500000,59.500000
514.250000,374.250000,42.500000,59.500000
514.250000,374.250000,42.500000,59.500000
514.250000,374.250000,42.500000,59.500000
514.250000,374.250000,42.500000,59.500000
514.250000,374.250000,42.500000,59.500000
514.250000,374.250000,42.500000,59.500000
514.250000,374.250000,42.500000,59.500000
514.250000,374.250000,42.500000,59.500000
514.250000,374.250000,42.500000,59.500000
514.250000,374.250000,42.500000,59.500000
518.250000,374.250000,42.500000,59.500000
518.250000,374.250000,42.500000,59.500000
518.250000,374.250000,42.500000,59.500000
518.250000,374.250000,42.500000,59.500000
522.250000,374.250000,42.500000,59.500000
522.250000,374.250000,42.500000,59.500000
522.250000,374.250000,42.500000,59.500000
530.250000,374.250000,42.500000,59.500000
530.250000,374.250000,42.500000,59.500000
534.250000,374.250000,42.500000,59.500000
538.250000,374.250000,42.500000,59.500000
538.250000,374.250000,42.500000,59.500000
538.250000,374.250000,42.500000,59.500000
538.250000,374.250000,42.500000,59.500000
538.250000,374.250000,42.500000,59.500000
538.250000,374.250000,42.500000,59.500000
538.250000,374.250000,42.500000,59.500000
534.250000,374.250000,42.500000,59.500000
534.250000,374.250000,42.500000,59.500000
530.250000,374.250000,42.500000,59.500000
530.250000,374.250000,42.500000,59.500000
526.250000,374.250000,42.500000,59.500000
526.250000,374.250000,42.500000,59.500000
526.250000,374.250000,42.500000,59.500000
522.250000,374.250000,42.500000,59.500000
522.250000,374.250000,42.500000,59.500000
522.250000,374.250000,42.500000,59.500000
522.250000,374.250000,42.500000,59.500000
522.250000,374.250000,42.500000,59.500000
518.250000,374.250000,42.500000,59.500000
518.250000,374.250000,42.500000,59.500000
518.250000,374.250000,42.500000,59.500000
518.250000,374.250000,42.500000,59.500000
518.250000,374.250000,42.500000,59.500000
518.250000,374.250000,42.500000,59.500000
518.250000,374.250000,42.500000,59.500000
518.250000,374.250000,42.500000,59.500000
518.250000,374.250000,42.500000,59.500000
518.250000,374.250000,42.500000,59.500000
518.250000,374.250000,42.500000,59.500000
518.250000,374.250000,42.500000,59.500000
518.250000,374.250000,42.500000,59.500000
518.250000,374.250000,42.500000,59.500000
518.250000,374.250000,42.500000,59.500000
522.250000,374.250000,42.500000,59.500000
522.250000,374.250000,42.500000,59.500000
522.250000,374.250000,42.500000,59.500000
522.250000,374.250000,42.500000,59.500000
522.250000,374.250000,42.500000,59.500000
526.250000,374.250000,42.500000,59.500000
526.250000,374.250000,42.500000,59.500000
526.250000,374.250000,42.500000,59.500000
526.250000,374.250000,42.500000,59.500000
530.250000,374.250000,42.500000,59.500000
534.250000,374.250000,42.500000,59.500000
534.250000,374.250000,42.500000,59.500000
538.250000,374.250000,42.500000,59.500000
538.250000,374.250000,42.500000,59.500000
542.250000,374.250000,42.500000,59.500000
542.250000,374.250000,42.500000,59.500000
546.250000,374.250000,42.500000,59.500000
550.250000,374.250000,42.500000,59.500000
554.250000,374.250000,42.500000,59.500000
558.250000,374.250000,42.500000,59.500000
558.250000,374.250000,42.500000,59.500000
558.250000,374.250000,42.500000,59.500000
558.250000,374.250000,42.500000,59.500000
558.250000,374.250000,42.500000,59.500000
558.250000,374.250000,42.500000,59.500000
558.250000,374.250000,42.500000,59.500000
558.250000,374.250000,42.500000,59.500000
558.250000,374.250000,42.500000,59.500000
558.250000,374.250000,42.500000,59.500000
558.250000,374.250000,42.500000,59.500000
558.250000,374.250000,42.500000,59.500000
562.250000,374.250000,42.500000,59.500000
562.250000,374.250000,42.500000,59.500000
566.250000,374.250000,42.500000,59.500000
570.250000,374.250000,42.500000,59.500000
574.250000,374.250000,42.500000,59.500000
574.250000,374.250000,42.500000,59.500000
578.250000,374.250000,42.500000,59.500000
582.250000,374.250000,42.500000,59.500000
582.250000,374.250000,42.500000,59.500000
586.250000,374.250000,42.500000,59.500000
586.250000,374.250000,42.500000,59.500000
586.250000,374.250000,42.500000,59.500000
586.250000,374.250000,42.500000,59.500000
586.250000,374.250000,42.500000,59.500000
586.250000,374.250000,42.500000,59.500000
586.250000,374.250000,42.500000,59.500000
586.250000,374.250000,42.500000,59.500000
586.250000,374.250000,42.500000,59.500000
586.250000,374.250000,42.500000,59.500000
586.250000,374.250000,42.500000,59.500000
586.250000,374.250000,42.500000,59.500000
590.250000,374.250000,42.500000,59.500000
590.250000,374.250000,42.500000,59.500000
590.250000,374.250000,42.500000,59.500000
590.250000,374.250000,42.500000,59.500000
590.250000,374.250000,42.500000,59.500000
590.250000,374.250000,42.500000,59.500000
590.250000,374.250000,42.500000,59.500000
590.250000,374.250000,42.500000,59.500000
590.250000,374.250000,42.500000,59.500000
594.250000,370.250000,42.500000,59.500000
594.250000,370.250000,42.500000,59.500000
594.250000,370.250000,42.500000,59.500000
594.250000,370.250000,42.500000,59.500000
594.250000,370.250000,42.500000,59.500000
594.250000,370.250000,42.500000,59.500000
594.250000,370.250000,42.500000,59.500000
594.250000,370.250000,42.500000,59.500000
594.250000,370.250000,42.500000,59.500000
594.250000,370.250000,42.500000,59.500000
594.250000,370.250000,42.500000,59.500000
594.250000,370.250000,42.500000,59.500000
594.250000,370.250000,42.500000,59.500000
594.250000,370.250000,42.500000,59.500000
594.250000,370.250000,42.500000,59.500000
594.250000,370.250000,42.500000,59.500000
594.250000,370.250000,42.500000,59.500000
594.250000,370.250000,42.500000,59.500000
594.250000,370.250000,42.500000,59.500000
594.250000,370.250000,42.500000,59.500000
594.250000,370.250000,42.500000,59.500000
594.250000,370.250000,42.500000,59.500000
594.250000,370.250000,42.500000,59.500000
594.250000,370.250000,42.500000,59.500000
594.250000,370.250000,42.500000,59.500000
594.250000,370.250000,42.500000,59.500000
594.250000,370.250000,42.500000,59.500000
594.250000,370.250000,42.500000,59.500000
594.250000,370.250000,42.500000,59.500000
594.250000,370.250000,42.500000,59.500000
594.250000,370.250000,42.500000,59.500000
594.250000,370.250000,42.500000,59.500000
594.250000,370.250000,42.500000,59.500000
594.250000,370.250000,42.500000,59.500000
594.250000,370.250000,42.500000,59.500000
594.250000,370.250000,42.500000,59.500000
594.250000,370.250000,42.500000,59.500000
594.250000,370.250000,42.500000,59.500000
594.250000,370.250000,42.500000,59.500000
594.250000,370.250000,42.500000,59.500000
594.250000,370.250000,42.500000,59.500000
594.250000,370.250000,42.500000,59.500000
594.250000,370.250000,42.500000,59.500000
594.250000,370.250000,42.500000,59.500000
594.250000,370.250000,42.500000,59.500000
594.250000,370.250000,42.500000,59.500000
594.250000,370.250000,42.500000,59.500000
594.250000,370.250000,42.500000,59.500000
594.250000,370.250000,42.500000,59.500000
594.250000,370.250000,42.500000,59.500000
594.250000,370.250000,42.500000,59.500000
594.250000,370.250000,42.500000,59.500000
594.250000,370.250000,42.500000,59.500000
594.250000,370.250000,42.500000,59.500000
594.250000,370.250000,42.500000,59.500000
594.250000,370.250000,42.500000,59.500000
594.250000,370.250000,42.500000,59.500000
594.250000,370.250000,42.500000,59.500000
594.250000,370.250000,42.500000,59.500000
594.250000,370.250000,42.500000,59.500000
594.250000,370.250000,42.500000,59.500000
594.250000,370.250000,42.500000,59.500000
594.250000,370.250000,42.500000,59.500000
594.250000,370.250000,42.500000,59.500000
594.250000,370.250000,42.500000,59.500000
594.250000,370.250000,42.500000,59.500000
594.250000,370.250000,42.500000,59.500000
594.250000,370.250000,42.500000,59.500000
594.250000,370.250000,42.500000,59.500000
594.250000,370.250000,42.500000,59.500000
594.250000,370.250000,42.500000,59.500000
594.250000,370.250000,42.500000,59.500000
594.250000,370.250000,42.500000,59.500000
594.250000,370.250000,42.500000,59.500000
594.250000,370.250000,42.500000,59.500000
594.250000,370.250000,42.500000,59.500000
594.250000,370.250000,42.500000,59.500000
594.250000,370.250000,42.500000,59.500000
594.250000,370.250000,42.500000,59.500000
594.250000,370.250000,42.500000,59.500000
594.250000,370.250000,42.500000,59.500000
594.250000,370.250000,42.500000,59.500000
594.250000,370.250000,42.500000,59.500000
594.250000,370.250000,42.500000,59.500000
594.250000,370.250000,42.500000,59.500000
594.250000,370.250000,42.500000,59.500000
594.250000,370.250000,42.500000,59.500000
594.250000,370.250000,42.500000,59.500000
594.250000,370.250000,42.500000,59.500000
594.250000,370.250000,42.500000,59.500000
594.250000,370.250000,42.500000,59.500000
594.250000,370.250000,42.500000,59.500000
594.250000,370.250000,42.500000,59.500000
594.250000,370.250000,42.500000,59.500000
594.250000,370.250000,42.500000,59.500000
594.250000,370.250000,42.500000,59.500000
594.250000,370.250000,42.500000,59.500000
594.250000,370.250000,42.500000,59.500000
594.250000,370.250000,42.500000,59.500000
594.250000,370.250000,42.500000,59.500000
594.250000,370.250000,42.500000,59.500000
594.250000,370.250000,42.500000,59.500000
594.250000,370.250000,42.500000,59.500000
594.250000,370.250000,42.500000,59.500000
594.250000,370.250000,42.500000,59.500000
594.250000,370.250000,42.500000,59.500000
594.250000,370.250000,42.500000,59.500000
590.250000,370.250000,42.500000,59.500000
590.250000,370.250000,42.500000,59.500000
590.250000,370.250000,42.500000,59.500000
590.250000,370.250000,42.500000,59.500000
590.250000,370.250000,42.500000,59.500000
590.250000,370.250000,42.500000,59.500000
586.250000,370.250000,42.500000,59.500000
586.250000,370.250000,42.500000,59.500000
586.250000,370.250000,42.500000,59.500000
586.250000,370.250000,42.500000,59.500000
586.250000,370.250000,42.500000,59.500000
586.250000,370.250000,42.500000,59.500000
582.250000,370.250000,42.500000,59.500000
582.250000,370.250000,42.500000,59.500000
582.250000,370.250000,42.500000,59.500000
582.250000,370.250000,42.500000,59.500000
582.250000,370.250000,42.500000,59.500000
578.250000,370.250000,42.500000,59.500000
578.250000,370.250000,42.500000,59.500000
578.250000,370.250000,42.500000,59.500000
578.250000,370.250000,42.500000,59.500000
578.250000,370.250000,42.500000,59.500000
578.250000,370.250000,42.500000,59.500000
578.250000,370.250000,42.500000,59.500000
578.250000,370.250000,42.500000,59.500000
578.250000,374.250000,42.500000,59.500000
578.250000,378.250000,42.500000,59.500000
590.250000,382.250000,42.500000,59.500000
590.250000,390.250000,42.500000,59.500000
594.250000,394.250000,42.500000,59.500000
594.250000,402.250000,42.500000,59.500000
602.250000,406.250000,42.500000,59.500000
610.250000,418.250000,42.500000,59.500000
618.250000,426.250000,42.500000,59.500000
622.250000,430.250000,42.500000,59.500000
626.250000,442.250000,42.500000,59.500000
634.250000,446.250000,42.500000,59.500000
646.250000,458.250000,42.500000,59.500000
654.250000,470.250000,42.500000,59.500000
662.250000,478.250000,42.500000,59.500000
666.250000,486.250000,42.500000,59.500000
670.250000,486.250000,42.500000,59.500000
670.250000,486.250000,42.500000,59.500000
670.250000,486.250000,42.500000,59.500000
670.250000,486.250000,42.500000,59.500000
670.250000,486.250000,42.500000,59.500000
670.250000,486.250000,42.500000,59.500000
670.250000,486.250000,42.500000,59.500000
670.250000,486.250000,42.500000,59.500000
670.250000,486.250000,42.500000,59.500000
670.250000,486.250000,42.500000,59.500000
670.250000,486.250000,42.500000,59.500000
670.250000,486.250000,42.500000,59.500000
670.250000,486.250000,42.500000,59.500000
670.250000,486.250000,42.500000,59.500000
670.250000,482.250000,42.500000,59.500000
670.250000,482.250000,42.500000,59.500000
670.250000,482.250000,42.500000,59.500000
670.250000,482.250000,42.500000,59.500000
670.250000,482.250000,42.500000,59.500000
670.250000,482.250000,42.500000,59.500000
670.250000,482.250000,42.500000,59.500000
670.250000,482.250000,42.500000,59.500000
670.250000,482.250000,42.500000,59.500000
670.250000,482.250000,42.500000,59.500000
670.250000,482.250000,42.500000,59.500000
670.250000,482.250000,42.500000,59.500000
670.250000,482.250000,42.500000,59.500000
670.250000,482.250000,42.500000,59.500000
670.250000,482.250000,42.500000,59.500000
670.250000,478.250000,42.500000,59.500000
670.250000,478.250000,42.500000,59.500000
670.250000,478.250000,42.500000,59.500000
670.250000,478.250000,42.500000,59.500000
670.250000,478.250000,42.500000,59.500000
670.250000,478.250000,42.500000,59.500000
670.250000,478.250000,42.500000,59.500000
670.250000,478.250000,42.500000,59.500000
670.250000,478.250000,42.500000,59.500000
666.250000,478.250000,42.500000,59.500000
666.250000,478.250000,42.500000,59.500000
666.250000,478.250000,42.500000,59.500000
666.250000,478.250000,42.500000,59.500000
658.250000,466.250000,42.500000,59.500000
650.250000,466.250000,42.500000,59.500000
642.250000,458.250000,42.500000,59.500000
634.250000,454.250000,42.500000,59.500000
626.250000,442.250000,42.500000,59.500000
618.250000,430.250000,42.500000,59.500000
614.250000,426.250000,42.500000,59.500000
606.250000,422.250000,42.500000,59.500000
598.250000,414.250000,42.500000,59.500000
590.250000,402.250000,42.500000,59.500000
586.250000,394.250000,42.500000,59.500000
586.250000,394.250000,42.500000,59.500000
578.250000,390.250000,42.500000,59.500000
578.250000,390.250000,42.500000,59.500000
578.250000,386.250000,42.500000,59.500000
578.250000,386.250000,42.500000,59.500000
578.250000,386.250000,42.500000,59.500000
578.250000,386.250000,42.500000,59.500000
578.250000,386.250000,42.500000,59.500000
574.250000,386.250000,42.500000,59.500000
574.250000,386.250000,42.500000,59.500000
554.250000,398.250000,42.500000,59.500000
554.250000,398.250000,42.500000,59.500000
554.250000,398.250000,42.500000,59.500000
554.250000,398.250000,42.500000,59.500000
554.250000,398.250000,42.500000,59.500000
554.250000,398.250000,42.500000,59.500000
554.250000,398.250000,42.500000,59.500000
554.250000,398.250000,42.500000,59.500000
554.250000,398.250000,42.500000,59.500000
554.250000,398.250000,42.500000,59.500000
554.250000,398.250000,42.500000,59.500000
554.250000,398.250000,42.500000,59.500000
554.250000,398.250000,42.500000,59.500000
554.250000,398.250000,42.500000,59.500000
554.250000,398.250000,42.500000,59.500000
554.250000,398.250000,42.500000,59.500000
554.250000,398.250000,42.500000,59.500000
554.250000,398.250000,42.500000,59.500000
558.250000,398.250000,42.500000,59.500000
558.250000,398.250000,42.500000,59.500000
558.250000,398.250000,42.500000,59.500000
558.250000,398.250000,42.500000,59.500000
558.250000,398.250000,42.500000,59.500000
562.250000,398.250000,42.500000,59.500000
566.250000,398.250000,42.500000,59.500000
566.250000,398.250000,42.500000,59.500000
566.250000,398.250000,42.500000,59.500000
570.250000,398.250000,42.500000,59.500000
570.250000,398.250000,42.500000,59.500000
570.250000,398.250000,42.500000,59.500000
570.250000,398.250000,42.500000,59.500000
570.250000,398.250000,42.500000,59.500000
570.250000,398.250000,42.500000,59.500000
570.250000,398.250000,42.500000,59.500000
570.250000,398.250000,42.500000,59.500000
570.250000,398.250000,42.500000,59.500000
570.250000,398.250000,42.500000,59.500000
570.250000,398.250000,42.500000,59.500000
570.250000,398.250000,42.500000,59.500000
570.250000,398.250000,42.500000,59.500000
570.250000,398.250000,42.500000,59.500000
570.250000,398.250000,42.500000,59.500000
570.250000,398.250000,42.500000,59.500000
570.250000,398.250000,42.500000,59.500000
570.250000,398.250000,42.500000,59.500000
570.250000,398.250000,42.500000,59.500000
570.250000,398.250000,42.500000,59.500000
570.250000,398.250000,42.500000,59.500000
570.250000,398.250000,42.500000,59.500000
570.250000,398.250000,42.500000,59.500000
570.250000,398.250000,42.500000,59.500000
570.250000,398.250000,42.500000,59.500000
570.250000,398.250000,42.500000,59.500000
574.250000,398.250000,42.500000,59.500000
574.250000,398.250000,42.500000,59.500000
574.250000,398.250000,42.500000,59.500000
574.250000,398.250000,42.500000,59.500000
574.250000,398.250000,42.500000,59.500000
578.250000,398.250000,42.500000,59.500000
578.250000,398.250000,42.500000,59.500000
578.250000,398.250000,42.500000,59.500000
578.250000,398.250000,42.500000,59.500000
578.250000,398.250000,42.500000,59.500000
578.250000,398.250000,42.500000,59.500000
578.250000,398.250000,42.500000,59.500000
578.250000,398.250000,42.500000,59.500000
578.250000,398.250000,42.500000,59.500000
578.250000,398.250000,42.500000,59.500000
578.250000,398.250000,42.500000,59.500000
578.250000,398.250000,42.500000,59.500000
578.250000,398.250000,42.500000,59.500000
578.250000,398.250000,42.500000,59.500000
578.250000,398.250000,42.500000,59.500000
578.250000,398.250000,42.500000,59.500000
578.250000,398.250000,42.500000,59.500000
578.250000,398.250000,42.500000,59.500000
578.250000,398.250000,42.500000,59.500000
578.250000,398.250000,42.500000,59.500000
578.250000,398.250000,42.500000,59.500000
578.250000,398.250000,42.500000,59.500000
578.250000,398.250000,42.500000,59.500000
578.250000,398.250000,42.500000,59.500000
578.250000,398.250000,42.500000,59.500000
574.250000,398.250000,42.500000,59.500000
574.250000,398.250000,42.500000,59.500000
574.250000,398.250000,42.500000,59.500000
574.250000,398.250000,42.500000,59.500000
574.250000,398.250000,42.500000,59.500000
574.250000,398.250000,42.500000,59.500000
574.250000,398.250000,42.500000,59.500000
574.250000,398.250000,42.500000,59.500000
574.250000,398.250000,42.500000,59.500000
574.250000,398.250000,42.500000,59.500000
574.250000,398.250000,42.500000,59.500000
574.250000,398.250000,42.500000,59.500000
574.250000,398.250000,42.500000,59.500000
574.250000,398.250000,42.500000,59.500000
574.250000,398.250000,42.500000,59.500000
574.250000,398.250000,42.500000,59.500000
574.250000,398.250000,42.500000,59.500000
574.250000,398.250000,42.500000,59.500000
574.250000,398.250000,42.500000,59.500000
574.250000,398.250000,42.500000,59.500000
574.250000,398.250000,42.500000,59.500000
574.250000,398.250000,42.500000,59.500000
574.250000,398.250000,42.500000,59.500000
574.250000,398.250000,42.500000,59.500000
574.250000,398.250000,42.500000,59.500000
574.250000,398.250000,42.500000,59.500000
574.250000,398.250000,42.500000,59.500000
574.250000,398.250000,42.500000,59.500000
