1.4162,1.3843,1.3635,0,0,0,0,0,0,0,0,0,0,0,0
1.4162,1.3843,1.3635,0,0,0,0,0,0,0,0,0,0,0,0
1.4162,1.3843,1.3635,0,0,0,0,0,0,0,0,0,0,0,0
1.4162,1.3843,1.3635,0,0,0,0,0,0,0,0,0,0,0,0
1.4162,1.3843,1.3635,0,0,0,0,0,0,0,0,0,0,0,0
1.4162,1.3843,1.3635,0,0,0,0,0,0,0,0,0,0,0,0
1.4162,1.3843,1.3635,0,0,0,0,0,0,0,0,0,0,0,0
1.4162,1.3843,1.3635,0,0,0,0,0,0,0,0,0,0,0,0
1.4162,1.3843,1.3635,0,0,0,0,0,0,0,0,0,0,0,0
1.4162,1.3843,1.3635,0,0,0,0,0,0,0,0,0,0,0,0
1.4162,1.3843,1.3635,0,0,0,0,0,0,0,0,0,0,0,0
1.4162,1.3843,1.3635,0,0,0,0,0,0,0,0,0,0,0,0
1.4162,1.3843,1.3635,0,0,0,0,0,0,0,0,0,0,0,0
1.4162,1.3843,1.3635,0,0,0,0,0,0,0,0,0,0,0,0
1.4162,1.3843,1.3635,0,0,0,0,0,0,0,0,0,0,0,0
1.4162,1.3843,1.3635,0,0,0,0,0,0,0,0,0,0,0,0
1.4162,1.3843,1.3635,0,0,0,0,0,0,0,0,0,0,0,0
1.4162,1.3843,1.3635,0,0,0,0,0,0,0,0,0,0,0,0
1.4162,1.3843,1.3635,0,0,0,0,0,0,0,0,0,0,0,0
1.4162,1.3843,1.3635,0,0,0,0,0,0,0,0,0,0,0,0
1.4162,1.3843,1.3635,0,0,0,0,0,0,0,0,0,0,0,0
1.4162,1.3843,1.3635,0,0,0,0,0,0,0,0,0,0,0,0
1.4162,1.3843,1.3635,0,0,0,0,0,0,0,0,0,0,0,0
1.4162,1.3843,1.3635,0,0,0,0,0,0,0,0,0,0,0,0
1.4162,1.3843,1.3635,0,0,0,0,0,0,0,0,0,0,0,0
1.4162,1.3843,1.3635,0,0,0,0,0,0,0,0,0,0,0,0
1.4162,1.3843,1.3635,0,0,0,0,0,0,0,0,0,0,0,0
1.4162,1.3843,1.3635,0,0,0,0,0,0,0,0,0,0,0,0
1.4162,1.3843,1.3635,0,0,0,0,0,0,0,0,0,0,0,0
1.4162,1.3843,1.3635,0,0,0,0,0,0,0,0,0,0,0,0
1.4162,1.3843,1.3635,0,0,0,0,0,0,0,0,0,0,0,0
1.4162,1.3843,1.3635,0,0,0,0,0,0,0,0,0,0,0,0
1.4162,1.3843,1.3635,0,0,0,0,0,0,0,0,0,0,0,0
1.4162,1.3843,1.3635,0,0,0,0,0,0,0,0,0,0,0,0
1.4162,1.3843,1.3635,0,0,0,0,0,0,0,0,0,0,0,0
1.4162,1.3843,1.3635,0,0,0,0,0,0,0,0,0,0,0,0
1.4162,1.3843,1.3635,0,0,0,0,0,0,0,0,0,0,0,0
1.4162,1.3843,1.3635,0,0,0,0,0,0,0,0,0,0,0,0
1.4162,1.3843,1.3635,0,0,0,0,0,0,0,0,0,0,0,0
1.4162,1.3843,1.3635,0,0,0,0,0,0,0,0,0,0,0,0
1.4162,1.3843,1.3635,0,0,0,0,0,0,0,0,0,0,0,0
1.4162,1.3843,1.3635,0,0,0,0,0,0,0,0,0,0,0,0
1.4162,1.3843,1.3635,0,0,0,0,0,0,0,0,0,0,0,0
1.4162,1.3843,1.3635,0,0,0,0,0,0,0,0,0,0,0,0
1.4162,1.3843,1.3635,0,0,0,0,0,0,0,0,0,0,0,0
1.4162,1.3843,1.3635,0,0,0,0,0,0,0,0,0,0,0,0
1.4162,1.3843,1.3635,0,0,0,0,0,0,0,0,0,0,0,0
1.4162,1.3843,1.3635,0,0,0,0,0,0,0,0,0,0,0,0
1.4162,1.3843,1.3635,0,0,0,0,0,0,0,0,0,0,0,0
1.4162,1.3843,1.3635,0,0,0,0,0,0,0,0,0,0,0,0
1.4162,1.3843,1.3635,0,0,0,0,0,0,0,0,0,0,0,0
1.4162,1.3843,1.3635,0,0,0,0,0,0,0,0,0,0,0,0
1.4162,1.3843,1.3635,0,0,0,0,0,0,0,0,0,0,0,0
1.4162,1.3843,1.3635,0,0,0,0,0,0,0,0,0,0,0,0
1.4162,1.3843,1.3635,0,0,0,0,0,0,0,0,0,0,0,0
1.4162,1.3843,1.3635,0,0,0,0,0,0,0,0,0,0,0,0
1.4162,1.3843,1.3635,0,0,0,0,0,0,0,0,0,0,0,0
1.4162,1.3843,1.3635,0,0,0,0,0,0,0,0,0,0,0,0
1.4162,1.3843,1.3635,0,0,0,0,0,0,0,0,0,0,0,0
1.4162,1.3843,1.3635,0,0,0,0,0,0,0,0,0,0,0,0
1.4162,1.3843,1.3635,0,0,0,0,0,0,0,0,0,0,0,0
1.4162,1.3843,1.3635,0,0,0,0,0,0,0,0,0,0,0,0
1.4162,1.3843,1.3635,0,0,0,0,0,0,0,0,0,0,0,0
1.4162,1.3843,1.3635,0,0,0,0,0,0,0,0,0,0,0,0
1.4162,1.3843,1.3635,0,0,0,0,0,0,0,0,0,0,0,0
1.4162,1.3843,1.3635,0,0,0,0,0,0,0,0,0,0,0,0
1.4162,1.3843,1.3635,0,0,0,0,0,0,0,0,0,0,0,0
1.4162,1.3843,1.3635,0,0,0,0,0,0,0,0,0,0,0,0
1.4162,1.3843,1.3635,0,0,0,0,0,0,0,0,0,0,0,0
1.4162,1.3843,1.3635,0,0,0,0,0,0,0,0,0,0,0,0
1.4162,1.3843,1.3635,0,0,0,0,0,0,0,0,0,0,0,0
1.4162,1.3843,1.3635,0,0,0,0,0,0,0,0,0,0,0,0
1.4162,1.3843,1.3635,0,0,0,0,0,0,0,0,0,0,0,0
1.4162,1.3843,1.3635,0,0,0,0,0,0,0,0,0,0,0,0
1.4162,1.3843,1.3635,0,0,0,0,0,0,0,0,0,0,0,0
1.4162,1.3843,1.3635,0,0,0,0,0,0,0,0,0,0,0,0
1.4162,1.3843,1.3635,0,0,0,0,0,0,0,0,0,0,0,0
1.4162,1.3843,1.3635,0,0,0,0,0,0,0,0,0,0,0,0
1.4162,1.3843,1.3635,0,0,0,0,0,0,0,0,0,0,0,0
1.4162,1.3843,1.3635,0,0,0,0,0,0,0,0,0,0,0,0
1.4162,1.3843,1.3635,0,0,0,0,0,0,0,0,0,0,0,0
1.4162,1.3843,1.3635,0,0,0,0,0,0,0,0,0,0,0,0
1.4162,1.3843,1.3635,0,0,0,0,0,0,0,0,0,0,0,0
1.4162,1.3843,1.3635,0,0,0,0,0,0,0,0,0,0,0,0
1.4162,1.3843,1.3635,0,0,0,0,0,0,0,0,0,0,0,0
1.4162,1.3843,1.3635,0,0,0,0,0,0,0,0,0,0,0,0
1.4162,1.3843,1.3635,0,0,0,0,0,0,0,0,0,0,0,0
1.4162,1.3843,1.3635,0,0,0,0,0,0,0,0,0,0,0,0
1.4162,1.3843,1.3635,0,0,0,0,0,0,0,0,0,0,0,0
1.4162,1.3843,1.3635,0,0,0,0,0,0,0,0,0,0,0,0
1.4162,1.3843,1.3635,0,0,0,0,0,0,0,0,0,0,0,0
1.4162,1.3843,1.3635,0,0,0,0,0,0,0,0,0,0,0,0
1.4162,1.3843,1.3635,0,0,0,0,0,0,0,0,0,0,0,0
1.4162,1.3843,1.3635,0,0,0,0,0,0,0,0,0,0,0,0
1.4162,1.3843,1.3635,0,0,0,0,0,0,0,0,0,0,0,0
1.4162,1.3843,1.3635,0,0,0,0,0,0,0,0,0,0,0,0
1.4162,1.3843,1.3635,0,0,0,0,0,0,0,0,0,0,0,0
1.4162,1.3843,1.3635,0,0,0,0,0,0,0,0,0,0,0,0
1.4162,1.3843,1.3635,0,0,0,0,0,0,0,0,0,0,0,0
1.4162,1.3843,1.3635,0,0,0,0,0,0,0,0,0,0,0,0
1.4162,1.3843,1.3635,0,0,0,0,0,0,0,0,0,0,0,0
1.4162,1.3843,1.3635,0,0,0,0,0,0,0,0,0,0,0,0
1.4162,1.3843,1.3635,0,0,0,0,0,0,0,0,0,0,0,0
1.4162,1.3843,1.3635,0,0,0,0,0,0,0,0,0,0,0,0
1.4162,1.3843,1.3635,0,0,0,0,0,0,0,0,0,0,0,0
1.4162,1.3843,1.3635,0,0,0,0,0,0,0,0,0,0,0,0
1.4162,1.3843,1.3635,0,0,0,0,0,0,0,0,0,0,0,0
1.4162,1.3843,1.3635,0,0,0,0,0,0,0,0,0,0,0,0
1.4162,1.3843,1.3635,0,0,0,0,0,0,0,0,0,0,0,0
1.4162,1.3843,1.3635,0,0,0,0,0,0,0,0,0,0,0,0
1.4162,1.3843,1.3635,0,0,0,0,0,0,0,0,0,0,0,0
1.4162,1.3843,1.3635,0,0,0,0,0,0,0,0,0,0,0,0
1.4162,1.3843,1.3635,0,0,0,0,0,0,0,0,0,0,0,0
1.4162,1.3843,1.3635,0,0,0,0,0,0,0,0,0,0,0,0
1.4162,1.3843,1.3635,0,0,0,0,0,0,0,0,0,0,0,0
1.4162,1.3843,1.3635,0,0,0,0,0,0,0,0,0,0,0,0
1.4162,1.3843,1.3635,0,0,0,0,0,0,0,0,0,0,0,0
1.4162,1.3843,1.3635,0,0,0,0,0,0,0,0,0,0,0,0
1.4162,1.3843,1.3635,0,0,0,0,0,0,0,0,0,0,0,0
1.4162,1.3843,1.3635,0,0,0,0,0,0,0,0,0,0,0,0
1.4162,1.3843,1.3635,0,0,0,0,0,0,0,0,0,0,0,0
1.4162,1.3843,1.3635,0,0,0,0,0,0,0,0,0,0,0,0
1.4162,1.3843,1.3635,0,0,0,0,0,0,0,0,0,0,0,0
1.4162,1.3843,1.3635,0,0,0,0,0,0,0,0,0,0,0,0
1.4162,1.3843,1.3635,0,0,0,0,0,0,0,0,0,0,0,0
1.4162,1.3843,1.3635,0,0,0,0,0,0,0,0,0,0,0,0
1.4162,1.3843,1.3635,0,0,0,0,0,0,0,0,0,0,0,0
1.4162,1.3843,1.3635,0,0,0,0,0,0,0,0,0,0,0,0
1.4162,1.3843,1.3635,0,0,0,0,0,0,0,0,0,0,0,0
1.4162,1.3843,1.3635,0,0,0,0,0,0,0,0,0,0,0,0
1.4162,1.3843,1.3635,0,0,0,0,0,0,0,0,0,0,0,0
1.4162,1.3843,1.3635,0,0,0,0,0,0,0,0,0,0,0,0
1.4162,1.3843,1.3635,0,0,0,0,0,0,0,0,0,0,0,0
1.4162,1.3843,1.3635,0,0,0,0,0,0,0,0,0,0,0,0
1.4162,1.3843,1.3635,0,0,0,0,0,0,0,0,0,0,0,0
1.4162,1.3843,1.3635,0,0,0,0,0,0,0,0,0,0,0,0
1.4162,1.3843,1.3635,0,0,0,0,0,0,0,0,0,0,0,0
1.4162,1.3843,1.3635,0,0,0,0,0,0,0,0,0,0,0,0
1.4162,1.3843,1.3635,0,0,0,0,0,0,0,0,0,0,0,0
1.4162,1.3843,1.3635,0,0,0,0,0,0,0,0,0,0,0,0
1.4162,1.3843,1.3635,0,0,0,0,0,0,0,0,0,0,0,0
1.4162,1.3843,1.3635,0,0,0,0,0,0,0,0,0,0,0,0
1.4162,1.3843,1.3635,0,0,0,0,0,0,0,0,0,0,0,0
1.4162,1.3843,1.3635,0,0,0,0,0,0,0,0,0,0,0,0
1.4162,1.3843,1.3635,0,0,0,0,0,0,0,0,0,0,0,0
1.4162,1.3843,1.3635,0,0,0,0,0,0,0,0,0,0,0,0
1.4162,1.3843,1.3635,0,0,0,0,0,0,0,0,0,0,0,0
1.4162,1.3843,1.3635,0,0,0,0,0,0,0,0,0,0,0,0
1.4162,1.3843,1.3635,0,0,0,0,0,0,0,0,0,0,0,0
1.4162,1.3843,1.3635,0,0,0,0,0,0,0,0,0,0,0,0
1.4162,1.3843,1.3635,0,0,0,0,0,0,0,0,0,0,0,0
1.4162,1.3843,1.3635,0,0,0,0,0,0,0,0,0,0,0,0
1.4162,1.3843,1.3635,0,0,0,0,0,0,0,0,0,0,0,0
1.4162,1.3843,1.3635,0,0,0,0,0,0,0,0,0,0,0,0
1.4162,1.3843,1.3635,0,0,0,0,0,0,0,0,0,0,0,0
1.4162,1.3843,1.3635,0,0,0,0,0,0,0,0,0,0,0,0
1.4162,1.3843,1.3635,0,0,0,0,0,0,0,0,0,0,0,0
1.4162,1.3843,1.3635,0,0,0,0,0,0,0,0,0,0,0,0
1.4162,1.3843,1.3635,0,0,0,0,0,0,0,0,0,0,0,0
1.4162,1.3843,1.3635,0,0,0,0,0,0,0,0,0,0,0,0
1.4162,1.3843,1.3635,0,0,0,0,0,0,0,0,0,0,0,0
1.4162,1.3843,1.3635,0,0,0,0,0,0,0,0,0,0,0,0
1.4162,1.3843,1.3635,0,0,0,0,0,0,0,0,0,0,0,0
1.4162,1.3843,1.3635,0,0,0,0,0,0,0,0,0,0,0,0
1.4162,1.3843,1.3635,0,0,0,0,0,0,0,0,0,0,0,0
1.4162,1.3843,1.3635,0,0,0,0,0,0,0,0,0,0,0,0
1.4162,1.3843,1.3635,0,0,0,0,0,0,0,0,0,0,0,0
1.4162,1.3843,1.3635,0,0,0,0,0,0,0,0,0,0,0,0
1.4162,1.3843,1.3635,0,0,0,0,0,0,0,0,0,0,0,0
1.4162,1.3843,1.3635,0,0,0,0,0,0,0,0,0,0,0,0
1.4162,1.3843,1.3635,0,0,0,0,0,0,0,0,0,0,0,0
1.4162,1.3843,1.3635,0,0,0,0,0,0,0,0,0,0,0,0
1.4162,1.3843,1.3635,0,0,0,0,0,0,0,0,0,0,0,0
1.4162,1.3843,1.3635,0,0,0,0,0,0,0,0,0,0,0,0
1.4162,1.3843,1.3635,0,0,0,0,0,0,0,0,0,0,0,0
1.4162,1.3843,1.3635,0,0,0,0,0,0,0,0,0,0,0,0
1.4162,1.3843,1.3635,0,0,0,0,0,0,0,0,0,0,0,0
1.4162,1.3843,1.3635,0,0,0,0,0,0,0,0,0,0,0,0
1.4162,1.3843,1.3635,0,0,0,0,0,0,0,0,0,0,0,0
1.4162,1.3843,1.3635,0,0,0,0,0,0,0,0,0,0,0,0
1.4162,1.3843,1.3635,0,0,0,0,0,0,0,0,0,0,0,0
1.4162,1.3843,1.3635,0,0,0,0,0,0,0,0,0,0,0,0
1.4162,1.3843,1.3635,0,0,0,0,0,0,0,0,0,0,0,0
1.4162,1.3843,1.3635,0,0,0,0,0,0,0,0,0,0,0,0
1.4162,1.3843,1.3635,0,0,0,0,0,0,0,0,0,0,0,0
1.4162,1.3843,1.3635,0,0,0,0,0,0,0,0,0,0,0,0
1.4162,1.3843,1.3635,0,0,0,0,0,0,0,0,0,0,0,0
1.4162,1.3843,1.3635,0,0,0,0,0,0,0,0,0,0,0,0
1.4162,1.3843,1.3635,0,0,0,0,0,0,0,0,0,0,0,0
1.4162,1.3843,1.3635,0,0,0,0,0,0,0,0,0,0,0,0
1.4162,1.3843,1.3635,0,0,0,0,0,0,0,0,0,0,0,0
1.4162,1.3843,1.3635,0,0,0,0,0,0,0,0,0,0,0,0
1.4162,1.3843,1.3635,0,0,0,0,0,0,0,0,0,0,0,0
1.4162,1.3843,1.3635,0,0,0,0,0,0,0,0,0,0,0,0
1.4162,1.3843,1.3635,0,0,0,0,0,0,0,0,0,0,0,0
1.4162,1.3843,1.3635,0,0,0,0,0,0,0,0,0,0,0,0
1.4162,1.3843,1.3635,0,0,0,0,0,0,0,0,0,0,0,0
1.4162,1.3843,1.3635,0,0,0,0,0,0,0,0,0,0,0,0
1.4162,1.3843,1.3635,0,0,0,0,0,0,0,0,0,0,0,0
1.4162,1.3843,1.3635,0,0,0,0,0,0,0,0,0,0,0,0
1.4162,1.3843,1.3635,0,0,0,0,0,0,0,0,0,0,0,0
1.4162,1.3843,1.3635,0,0,0,0,0,0,0,0,0,0,0,0
1.4162,1.3843,1.3635,0,0,0,0,0,0,0,0,0,0,0,0
1.4162,1.3843,1.3635,0,0,0,0,0,0,0,0,0,0,0,0
1.4162,1.3843,1.3635,0,0,0,0,0,0,0,0,0,0,0,0
1.4162,1.3843,1.3635,0,0,0,0,0,0,0,0,0,0,0,0
1.4162,1.3843,1.3635,0,0,0,0,0,0,0,0,0,0,0,0
1.4162,1.3843,1.3635,0,0,0,0,0,0,0,0,0,0,0,0
1.4162,1.3843,1.3635,0,0,0,0,0,0,0,0,0,0,0,0
1.4162,1.3843,1.3635,0,0,0,0,0,0,0,0,0,0,0,0
1.4162,1.3843,1.3635,0,0,0,0,0,0,0,0,0,0,0,0
1.4162,1.3843,1.3635,0,0,0,0,0,0,0,0,0,0,0,0
1.4162,1.3843,1.3635,0,0,0,0,0,0,0,0,0,0,0,0
1.4162,1.3843,1.3635,0,0,0,0,0,0,0,0,0,0,0,0
1.4162,1.3843,1.3635,0,0,0,0,0,0,0,0,0,0,0,0
1.4162,1.3843,1.3635,0,0,0,0,0,0,0,0,0,0,0,0
1.4162,1.3843,1.3635,0,0,0,0,0,0,0,0,0,0,0,0
1.4162,1.3843,1.3635,0,0,0,0,0,0,0,0,0,0,0,0
1.4162,1.3843,1.3635,0,0,0,0,0,0,0,0,0,0,0,0
1.4162,1.3843,1.3635,0,0,0,0,0,0,0,0,0,0,0,0
1.4162,1.3843,1.3635,0,0,0,0,0,0,0,0,0,0,0,0
1.4162,1.3843,1.3635,0,0,0,0,0,0,0,0,0,0,0,0
1.4162,1.3843,1.3635,0,0,0,0,0,0,0,0,0,0,0,0
1.4162,1.3843,1.3635,0,0,0,0,0,0,0,0,0,0,0,0
1.4162,1.3843,1.3635,0,0,0,0,0,0,0,0,0,0,0,0
1.4162,1.3843,1.3635,0,0,0,0,0,0,0,0,0,0,0,0
1.4162,1.3843,1.3635,0,0,0,0,0,0,0,0,0,0,0,0
1.4162,1.3843,1.3635,0,0,0,0,0,0,0,0,0,0,0,0
1.4162,1.3843,1.3635,0,0,0,0,0,0,0,0,0,0,0,0
1.4162,1.3843,1.3635,0,0,0,0,0,0,0,0,0,0,0,0
1.4162,1.3843,1.3635,0,0,0,0,0,0,0,0,0,0,0,0
1.4162,1.3843,1.3635,0,0,0,0,0,0,0,0,0,0,0,0
1.4162,1.3843,1.3635,0,0,0,0,0,0,0,0,0,0,0,0
1.4162,1.3843,1.3635,0,0,0,0,0,0,0,0,0,0,0,0
1.4162,1.3843,1.3635,0,0,0,0,0,0,0,0,0,0,0,0
1.4162,1.3843,1.3635,0,0,0,0,0,0,0,0,0,0,0,0
1.4162,1.3843,1.3635,0,0,0,0,0,0,0,0,0,0,0,0
1.4162,1.3843,1.3635,0,0,0,0,0,0,0,0,0,0,0,0
1.4162,1.3843,1.3635,0,0,0,0,0,0,0,0,0,0,0,0
1.4162,1.3843,1.3635,0,0,0,0,0,0,0,0,0,0,0,0
1.4162,1.3843,1.3635,0,0,0,0,0,0,0,0,0,0,0,0
1.4162,1.3843,1.3635,0,0,0,0,0,0,0,0,0,0,0,0
1.4162,1.3843,1.3635,0,0,0,0,0,0,0,0,0,0,0,0
1.4162,1.3843,1.3635,0,0,0,0,0,0,0,0,0,0,0,0
1.4162,1.3843,1.3635,0,0,0,0,0,0,0,0,0,0,0,0
1.4162,1.3843,1.3635,0,0,0,0,0,0,0,0,0,0,0,0
1.4162,1.3843,1.3635,0,0,0,0,0,0,0,0,0,0,0,0
1.4162,1.3843,1.3635,0,0,0,0,0,0,0,0,0,0,0,0
1.4162,1.3843,1.3635,0,0,0,0,0,0,0,0,0,0,0,0
1.4162,1.3843,1.3635,0,0,0,0,0,0,0,0,0,0,0,0
1.4162,1.3843,1.3635,0,0,0,0,0,0,0,0,0,0,0,0
1.4162,1.3843,1.3635,0,0,0,0,0,0,0,0,0,0,0,0
1.4162,1.3843,1.3635,0,0,0,0,0,0,0,0,0,0,0,0
1.4162,1.3843,1.3635,0,0,0,0,0,0,0,0,0,0,0,0
1.4162,1.3843,1.3635,0,0,0,0,0,0,0,0,0,0,0,0
1.4162,1.3843,1.3635,0,0,0,0,0,0,0,0,0,0,0,0
1.4162,1.3843,1.3635,0,0,0,0,0,0,0,0,0,0,0,0
1.4162,1.3843,1.3635,0,0,0,0,0,0,0,0,0,0,0,0
1.4162,1.3843,1.3635,0,0,0,0,0,0,0,0,0,0,0,0
1.4162,1.3843,1.3635,0,0,0,0,0,0,0,0,0,0,0,0
1.4162,1.3843,1.3635,0,0,0,0,0,0,0,0,0,0,0,0
1.4162,1.3843,1.3635,0,0,0,0,0,0,0,0,0,0,0,0
1.4162,1.3843,1.3635,0,0,0,0,0,0,0,0,0,0,0,0
1.4162,1.3843,1.3635,0,0,0,0,0,0,0,0,0,0,0,0
1.4162,1.3843,1.3635,0,0,0,0,0,0,0,0,0,0,0,0
1.4162,1.3843,1.3635,0,0,0,0,0,0,0,0,0,0,0,0
1.4162,1.3843,1.3635,0,0,0,0,0,0,0,0,0,0,0,0
1.4162,1.3843,1.3635,0,0,0,0,0,0,0,0,0,0,0,0
1.4162,1.3843,1.3635,0,0,0,0,0,0,0,0,0,0,0,0
1.4162,1.3843,1.3635,0,0,0,0,0,0,0,0,0,0,0,0
1.4162,1.3843,1.3635,0,0,0,0,0,0,0,0,0,0,0,0
1.4162,1.3843,1.3635,0,0,0,0,0,0,0,0,0,0,0,0
1.4162,1.3843,1.3635,0,0,0,0,0,0,0,0,0,0,0,0
1.4162,1.3843,1.3635,0,0,0,0,0,0,0,0,0,0,0,0
1.4162,1.3843,1.3635,0,0,0,0,0,0,0,0,0,0,0,0
1.4162,1.3843,1.3635,0,0,0,0,0,0,0,0,0,0,0,0
1.4162,1.3843,1.3635,0,0,0,0,0,0,0,0,0,0,0,0
1.4162,1.3843,1.3635,0,0,0,0,0,0,0,0,0,0,0,0
1.4162,1.3843,1.3635,0,0,0,0,0,0,0,0,0,0,0,0
1.4162,1.3843,1.3635,0,0,0,0,0,0,0,0,0,0,0,0
1.4162,1.3843,1.3635,0,0,0,0,0,0,0,0,0,0,0,0
1.4162,1.3843,1.3635,0,0,0,0,0,0,0,0,0,0,0,0
1.4162,1.3843,1.3635,0,0,0,0,0,0,0,0,0,0,0,0
1.4162,1.3843,1.3635,0,0,0,0,0,0,0,0,0,0,0,0
1.4162,1.3843,1.3635,0,0,0,0,0,0,0,0,0,0,0,0
1.4162,1.3843,1.3635,0,0,0,0,0,0,0,0,0,0,0,0
1.4162,1.3843,1.3635,0,0,0,0,0,0,0,0,0,0,0,0
1.4162,1.3843,1.3635,0,0,0,0,0,0,0,0,0,0,0,0
1.4162,1.3843,1.3635,0,0,0,0,0,0,0,0,0,0,0,0
1.4162,1.3843,1.3635,0,0,0,0,0,0,0,0,0,0,0,0
1.4162,1.3843,1.3635,0,0,0,0,0,0,0,0,0,0,0,0
1.4162,1.3843,1.3635,0,0,0,0,0,0,0,0,0,0,0,0
1.4162,1.3843,1.3635,0,0,0,0,0,0,0,0,0,0,0,0
1.4162,1.3843,1.3635,0,0,0,0,0,0,0,0,0,0,0,0
1.4162,1.3843,1.3635,0,0,0,0,0,0,0,0,0,0,0,0
1.4162,1.3843,1.3635,0,0,0,0,0,0,0,0,0,0,0,0
1.4162,1.3843,1.3635,0,0,0,0,0,0,0,0,0,0,0,0
1.4162,1.3843,1.3635,0,0,0,0,0,0,0,0,0,0,0,0
1.4162,1.3843,1.3635,0,0,0,0,0,0,0,0,0,0,0,0
1.4162,1.3843,1.3635,0,0,0,0,0,0,0,0,0,0,0,0
1.4162,1.3843,1.3635,0,0,0,0,0,0,0,0,0,0,0,0
1.4162,1.3843,1.3635,0,0,0,0,0,0,0,0,0,0,0,0
1.4162,1.3843,1.3635,0,0,0,0,0,0,0,0,0,0,0,0
1.4162,1.3843,1.3635,0,0,0,0,0,0,0,0,0,0,0,0
1.4162,1.3843,1.3635,0,0,0,0,0,0,0,0,0,0,0,0
1.4162,1.3843,1.3635,0,0,0,0,0,0,0,0,0,0,0,0
1.4162,1.3843,1.3635,0,0,0,0,0,0,0,0,0,0,0,0
1.4162,1.3843,1.3635,0,0,0,0,0,0,0,0,0,0,0,0
1.4162,1.3843,1.3635,0,0,0,0,0,0,0,0,0,0,0,0
1.4162,1.3843,1.3635,0,0,0,0,0,0,0,0,0,0,0,0
1.4162,1.3843,1.3635,0,0,0,0,0,0,0,0,0,0,0,0
1.4162,1.3843,1.3635,0,0,0,0,0,0,0,0,0,0,0,0
1.4162,1.3843,1.3635,0,0,0,0,0,0,0,0,0,0,0,0
1.4162,1.3843,1.3635,0,0,0,0,0,0,0,0,0,0,0,0
1.4162,1.3843,1.3635,0,0,0,0,0,0,0,0,0,0,0,0
1.4162,1.3843,1.3635,0,0,0,0,0,0,0,0,0,0,0,0
1.4162,1.3843,1.3635,0,0,0,0,0,0,0,0,0,0,0,0
1.4162,1.3843,1.3635,0,0,0,0,0,0,0,0,0,0,0,0
1.4162,1.3843,1.3635,0,0,0,0,0,0,0,0,0,0,0,0
1.4162,1.3843,1.3635,0,0,0,0,0,0,0,0,0,0,0,0
1.4162,1.3843,1.3635,0,0,0,0,0,0,0,0,0,0,0,0
1.4162,1.3843,1.3635,0,0,0,0,0,0,0,0,0,0,0,0
1.4162,1.3843,1.3635,0,0,0,0,0,0,0,0,0,0,0,0
1.4162,1.3843,1.3635,0,0,0,0,0,0,0,0,0,0,0,0
1.4162,1.3843,1.3635,0,0,0,0,0,0,0,0,0,0,0,0
1.4162,1.3843,1.3635,0,0,0,0,0,0,0,0,0,0,0,0
1.4162,1.3843,1.3635,0,0,0,0,0,0,0,0,0,0,0,0
1.4162,1.3843,1.3635,0,0,0,0,0,0,0,0,0,0,0,0
1.4162,1.3843,1.3635,0,0,0,0,0,0,0,0,0,0,0,0
1.4162,1.3843,1.3635,0,0,0,0,0,0,0,0,0,0,0,0
1.4162,1.3843,1.3635,0,0,0,0,0,0,0,0,0,0,0,0
1.4162,1.3843,1.3635,0,0,0,0,0,0,0,0,0,0,0,0
1.4162,1.3843,1.3635,0,0,0,0,0,0,0,0,0,0,0,0
1.4162,1.3843,1.3635,0,0,0,0,0,0,0,0,0,0,0,0
1.4162,1.3843,1.3635,0,0,0,0,0,0,0,0,0,0,0,0
1.4162,1.3843,1.3635,0,0,0,0,0,0,0,0,0,0,0,0
1.4162,1.3843,1.3635,0,0,0,0,0,0,0,0,0,0,0,0
1.4162,1.3843,1.3635,0,0,0,0,0,0,0,0,0,0,0,0
1.4162,1.3843,1.3635,0,0,0,0,0,0,0,0,0,0,0,0
1.4162,1.3843,1.3635,0,0,0,0,0,0,0,0,0,0,0,0
1.4162,1.3843,1.3635,0,0,0,0,0,0,0,0,0,0,0,0
1.4162,1.3843,1.3635,0,0,0,0,0,0,0,0,0,0,0,0
1.4162,1.3843,1.3635,0,0,0,0,0,0,0,0,0,0,0,0
1.4162,1.3843,1.3635,0,0,0,0,0,0,0,0,0,0,0,0
1.4162,1.3843,1.3635,0,0,0,0,0,0,0,0,0,0,0,0
1.4162,1.3843,1.3635,0,0,0,0,0,0,0,0,0,0,0,0
1.4162,1.3843,1.3635,0,0,0,0,0,0,0,0,0,0,0,0
1.4162,1.3843,1.3635,0,0,0,0,0,0,0,0,0,0,0,0
1.4162,1.3843,1.3635,0,0,0,0,0,0,0,0,0,0,0,0
1.4162,1.3843,1.3635,0,0,0,0,0,0,0,0,0,0,0,0
1.4162,1.3843,1.3635,0,0,0,0,0,0,0,0,0,0,0,0
1.4162,1.3843,1.3635,0,0,0,0,0,0,0,0,0,0,0,0
1.4162,1.3843,1.3635,0,0,0,0,0,0,0,0,0,0,0,0
1.4162,1.3843,1.3635,0,0,0,0,0,0,0,0,0,0,0,0
1.4162,1.3843,1.3635,0,0,0,0,0,0,0,0,0,0,0,0
1.4162,1.3843,1.3635,0,0,0,0,0,0,0,0,0,0,0,0
1.4162,1.3843,1.3635,0,0,0,0,0,0,0,0,0,0,0,0
1.4162,1.3843,1.3635,0,0,0,0,0,0,0,0,0,0,0,0
1.4162,1.3843,1.3635,0,0,0,0,0,0,0,0,0,0,0,0
1.4162,1.3843,1.3635,0,0,0,0,0,0,0,0,0,0,0,0
1.4162,1.3843,1.3635,0,0,0,0,0,0,0,0,0,0,0,0
1.4162,1.3843,1.3635,0,0,0,0,0,0,0,0,0,0,0,0
1.4162,1.3843,1.3635,0,0,0,0,0,0,0,0,0,0,0,0
1.4162,1.3843,1.3635,0,0,0,0,0,0,0,0,0,0,0,0
1.4162,1.3843,1.3635,0,0,0,0,0,0,0,0,0,0,0,0
1.4162,1.3843,1.3635,0,0,0,0,0,0,0,0,0,0,0,0
1.4162,1.3843,1.3635,0,0,0,0,0,0,0,0,0,0,0,0
1.4162,1.3843,1.3635,0,0,0,0,0,0,0,0,0,0,0,0
1.4162,1.3843,1.3635,0,0,0,0,0,0,0,0,0,0,0,0
1.4162,1.3843,1.3635,0,0,0,0,0,0,0,0,0,0,0,0
1.4162,1.3843,1.3635,0,0,0,0,0,0,0,0,0,0,0,0
1.4162,1.3843,1.3635,0,0,0,0,0,0,0,0,0,0,0,0
1.4162,1.3843,1.3635,0,0,0,0,0,0,0,0,0,0,0,0
1.4162,1.3843,1.3635,0,0,0,0,0,0,0,0,0,0,0,0
1.4162,1.3843,1.3635,0,0,0,0,0,0,0,0,0,0,0,0
1.4162,1.3843,1.3635,0,0,0,0,0,0,0,0,0,0,0,0
1.4162,1.3843,1.3635,0,0,0,0,0,0,0,0,0,0,0,0
1.4162,1.3843,1.3635,0,0,0,0,0,0,0,0,0,0,0,0
1.4162,1.3843,1.3635,0,0,0,0,0,0,0,0,0,0,0,0
1.4162,1.3843,1.3635,0,0,0,0,0,0,0,0,0,0,0,0
1.4162,1.3843,1.3635,0,0,0,0,0,0,0,0,0,0,0,0
1.4162,1.3843,1.3635,0,0,0,0,0,0,0,0,0,0,0,0
1.4162,1.3843,1.3635,0,0,0,0,0,0,0,0,0,0,0,0
1.4162,1.3843,1.3635,0,0,0,0,0,0,0,0,0,0,0,0
1.4162,1.3843,1.3635,0,0,0,0,0,0,0,0,0,0,0,0
1.4162,1.3843,1.3635,0,0,0,0,0,0,0,0,0,0,0,0
1.4162,1.3843,1.3635,0,0,0,0,0,0,0,0,0,0,0,0
1.4162,1.3843,1.3635,0,0,0,0,0,0,0,0,0,0,0,0
1.4162,1.3843,1.3635,0,0,0,0,0,0,0,0,0,0,0,0
1.4162,1.3843,1.3635,0,0,0,0,0,0,0,0,0,0,0,0
1.4162,1.3843,1.3635,0,0,0,0,0,0,0,0,0,0,0,0
1.4162,1.3843,1.3635,0,0,0,0,0,0,0,0,0,0,0,0
1.4162,1.3843,1.3635,0,0,0,0,0,0,0,0,0,0,0,0
1.4162,1.3843,1.3635,0,0,0,0,0,0,0,0,0,0,0,0
1.4162,1.3843,1.3635,0,0,0,0,0,0,0,0,0,0,0,0
1.4162,1.3843,1.3635,0,0,0,0,0,0,0,0,0,0,0,0
1.4162,1.3843,1.3635,0,0,0,0,0,0,0,0,0,0,0,0
1.4162,1.3843,1.3635,0,0,0,0,0,0,0,0,0,0,0,0
1.4162,1.3843,1.3635,0,0,0,0,0,0,0,0,0,0,0,0
1.4162,1.3843,1.3635,0,0,0,0,0,0,0,0,0,0,0,0
1.4162,1.3843,1.3635,0,0,0,0,0,0,0,0,0,0,0,0
1.4162,1.3843,1.3635,0,0,0,0,0,0,0,0,0,0,0,0
1.4162,1.3843,1.3635,0,0,0,0,0,0,0,0,0,0,0,0
1.4162,1.3843,1.3635,0,0,0,0,0,0,0,0,0,0,0,0
1.4162,1.3843,1.3635,0,0,0,0,0,0,0,0,0,0,0,0
1.4162,1.3843,1.3635,0,0,0,0,0,0,0,0,0,0,0,0
1.4162,1.3843,1.3635,0,0,0,0,0,0,0,0,0,0,0,0
1.4162,1.3843,1.3635,0,0,0,0,0,0,0,0,0,0,0,0
1.4162,1.3843,1.3635,0,0,0,0,0,0,0,0,0,0,0,0
1.4162,1.3843,1.3635,0,0,0,0,0,0,0,0,0,0,0,0
1.4162,1.3843,1.3635,0,0,0,0,0,0,0,0,0,0,0,0
1.4162,1.3843,1.3635,0,0,0,0,0,0,0,0,0,0,0,0
1.4162,1.3843,1.3635,0,0,0,0,0,0,0,0,0,0,0,0
1.4162,1.3843,1.3635,0,0,0,0,0,0,0,0,0,0,0,0
1.4162,1.3843,1.3635,0,0,0,0,0,0,0,0,0,0,0,0
1.4162,1.3843,1.3635,0,0,0,0,0,0,0,0,0,0,0,0
1.4162,1.3843,1.3635,0,0,0,0,0,0,0,0,0,0,0,0
1.4162,1.3843,1.3635,0,0,0,0,0,0,0,0,0,0,0,0
1.4162,1.3843,1.3635,0,0,0,0,0,0,0,0,0,0,0,0
1.4162,1.3843,1.3635,0,0,0,0,0,0,0,0,0,0,0,0
1.4162,1.3843,1.3635,0,0,0,0,0,0,0,0,0,0,0,0
1.4162,1.3843,1.3635,0,0,0,0,0,0,0,0,0,0,0,0
1.4162,1.3843,1.3635,0,0,0,0,0,0,0,0,0,0,0,0
1.4162,1.3843,1.3635,0,0,0,0,0,0,0,0,0,0,0,0
1.4162,1.3843,1.3635,0,0,0,0,0,0,0,0,0,0,0,0
1.4162,1.3843,1.3635,0,0,0,0,0,0,0,0,0,0,0,0
1.4162,1.3843,1.3635,0,0,0,0,0,0,0,0,0,0,0,0
1.4162,1.3843,1.3635,0,0,0,0,0,0,0,0,0,0,0,0
1.4162,1.3843,1.3635,0,0,0,0,0,0,0,0,0,0,0,0
1.4162,1.3843,1.3635,0,0,0,0,0,0,0,0,0,0,0,0
1.4162,1.3843,1.3635,0,0,0,0,0,0,0,0,0,0,0,0
1.4162,1.3843,1.3635,0,0,0,0,0,0,0,0,0,0,0,0
1.4162,1.3843,1.3635,0,0,0,0,0,0,0,0,0,0,0,0
1.4162,1.3843,1.3635,0,0,0,0,0,0,0,0,0,0,0,0
1.4162,1.3843,1.3635,0,0,0,0,0,0,0,0,0,0,0,0
1.4162,1.3843,1.3635,0,0,0,0,0,0,0,0,0,0,0,0
1.4162,1.3843,1.3635,0,0,0,0,0,0,0,0,0,0,0,0
1.4162,1.3843,1.3635,0,0,0,0,0,0,0,0,0,0,0,0
1.4162,1.3843,1.3635,0,0,0,0,0,0,0,0,0,0,0,0
1.4162,1.3843,1.3635,0,0,0,0,0,0,0,0,0,0,0,0
1.4162,1.3843,1.3635,0,0,0,0,0,0,0,0,0,0,0,0
1.4162,1.3843,1.3635,0,0,0,0,0,0,0,0,0,0,0,0
1.4162,1.3843,1.3635,0,0,0,0,0,0,0,0,0,0,0,0
1.4162,1.3843,1.3635,0,0,0,0,0,0,0,0,0,0,0,0
1.4162,1.3843,1.3635,0,0,0,0,0,0,0,0,0,0,0,0
1.4162,1.3843,1.3635,0,0,0,0,0,0,0,0,0,0,0,0
1.4162,1.3843,1.3635,0,0,0,0,0,0,0,0,0,0,0,0
1.4162,1.3843,1.3635,0,0,0,0,0,0,0,0,0,0,0,0
1.4162,1.3843,1.3635,0,0,0,0,0,0,0,0,0,0,0,0
1.4162,1.3843,1.3635,0,0,0,0,0,0,0,0,0,0,0,0
1.4162,1.3843,1.3635,0,0,0,0,0,0,0,0,0,0,0,0
1.4162,1.3843,1.3635,0,0,0,0,0,0,0,0,0,0,0,0
1.4162,1.3843,1.3635,0,0,0,0,0,0,0,0,0,0,0,0
1.4162,1.3843,1.3635,0,0,0,0,0,0,0,0,0,0,0,0
1.4162,1.3843,1.3635,0,0,0,0,0,0,0,0,0,0,0,0
1.4162,1.3843,1.3635,0,0,0,0,0,0,0,0,0,0,0,0
1.4162,1.3843,1.3635,0,0,0,0,0,0,0,0,0,0,0,0
1.4162,1.3843,1.3635,0,0,0,0,0,0,0,0,0,0,0,0
1.4162,1.3843,1.3635,0,0,0,0,0,0,0,0,0,0,0,0
1.4162,1.3843,1.3635,0,0,0,0,0,0,0,0,0,0,0,0
1.4162,1.3843,1.3635,0,0,0,0,0,0,0,0,0,0,0,0
1.4162,1.3843,1.3635,0,0,0,0,0,0,0,0,0,0,0,0
1.4162,1.3843,1.3635,0,0,0,0,0,0,0,0,0,0,0,0
1.4162,1.3843,1.3635,0,0,0,0,0,0,0,0,0,0,0,0
1.4162,1.3843,1.3635,0,0,0,0,0,0,0,0,0,0,0,0
1.4162,1.3843,1.3635,0,0,0,0,0,0,0,0,0,0,0,0
1.4162,1.3843,1.3635,0,0,0,0,0,0,0,0,0,0,0,0
1.4162,1.3843,1.3635,0,0,0,0,0,0,0,0,0,0,0,0
1.4162,1.3843,1.3635,0,0,0,0,0,0,0,0,0,0,0,0
1.4162,1.3843,1.3635,0,0,0,0,0,0,0,0,0,0,0,0
1.4162,1.3843,1.3635,0,0,0,0,0,0,0,0,0,0,0,0
1.4162,1.3843,1.3635,0,0,0,0,0,0,0,0,0,0,0,0
1.4162,1.3843,1.3635,0,0,0,0,0,0,0,0,0,0,0,0
1.4162,1.3843,1.3635,0,0,0,0,0,0,0,0,0,0,0,0
1.4162,1.3843,1.3635,0,0,0,0,0,0,0,0,0,0,0,0
1.4162,1.3843,1.3635,0,0,0,0,0,0,0,0,0,0,0,0
1.4162,1.3843,1.3635,0,0,0,0,0,0,0,0,0,0,0,0
1.4162,1.3843,1.3635,0,0,0,0,0,0,0,0,0,0,0,0
1.4162,1.3843,1.3635,0,0,0,0,0,0,0,0,0,0,0,0
1.4162,1.3843,1.3635,0,0,0,0,0,0,0,0,0,0,0,0
1.4162,1.3843,1.3635,0,0,0,0,0,0,0,0,0,0,0,0
1.4162,1.3843,1.3635,0,0,0,0,0,0,0,0,0,0,0,0
1.4162,1.3843,1.3635,0,0,0,0,0,0,0,0,0,0,0,0
1.4162,1.3843,1.3635,0,0,0,0,0,0,0,0,0,0,0,0
1.4162,1.3843,1.3635,0,0,0,0,0,0,0,0,0,0,0,0
1.4162,1.3843,1.3635,0,0,0,0,0,0,0,0,0,0,0,0
1.4162,1.3843,1.3635,0,0,0,0,0,0,0,0,0,0,0,0
1.4162,1.3843,1.3635,0,0,0,0,0,0,0,0,0,0,0,0
1.4162,1.3843,1.3635,0,0,0,0,0,0,0,0,0,0,0,0
1.4162,1.3843,1.3635,0,0,0,0,0,0,0,0,0,0,0,0
1.4162,1.3843,1.3635,0,0,0,0,0,0,0,0,0,0,0,0
1.4162,1.3843,1.3635,0,0,0,0,0,0,0,0,0,0,0,0
1.4162,1.3843,1.3635,0,0,0,0,0,0,0,0,0,0,0,0
1.4162,1.3843,1.3635,0,0,0,0,0,0,0,0,0,0,0,0
1.4162,1.3843,1.3635,0,0,0,0,0,0,0,0,0,0,0,0
1.4162,1.3843,1.3635,0,0,0,0,0,0,0,0,0,0,0,0
1.4162,1.3843,1.3635,0,0,0,0,0,0,0,0,0,0,0,0
1.4162,1.3843,1.3635,0,0,0,0,0,0,0,0,0,0,0,0
1.4162,1.3843,1.3635,0,0,0,0,0,0,0,0,0,0,0,0
1.4162,1.3843,1.3635,0,0,0,0,0,0,0,0,0,0,0,0
1.4162,1.3843,1.3635,0,0,0,0,0,0,0,0,0,0,0,0
1.4162,1.3843,1.3635,0,0,0,0,0,0,0,0,0,0,0,0
1.4162,1.3843,1.3635,0,0,0,0,0,0,0,0,0,0,0,0
1.4162,1.3843,1.3635,0,0,0,0,0,0,0,0,0,0,0,0
1.4162,1.3843,1.3635,0,0,0,0,0,0,0,0,0,0,0,0
1.4162,1.3843,1.3635,0,0,0,0,0,0,0,0,0,0,0,0
1.4162,1.3843,1.3635,0,0,0,0,0,0,0,0,0,0,0,0
1.4162,1.3843,1.3635,0,0,0,0,0,0,0,0,0,0,0,0
1.4162,1.3843,1.3635,0,0,0,0,0,0,0,0,0,0,0,0
1.4162,1.3843,1.3635,0,0,0,0,0,0,0,0,0,0,0,0
1.4162,1.3843,1.3635,0,0,0,0,0,0,0,0,0,0,0,0
1.4162,1.3843,1.3635,0,0,0,0,0,0,0,0,0,0,0,0
1.4162,1.3843,1.3635,0,0,0,0,0,0,0,0,0,0,0,0
1.4162,1.3843,1.3635,0,0,0,0,0,0,0,0,0,0,0,0
1.4162,1.3843,1.3635,0,0,0,0,0,0,0,0,0,0,0,0
1.4162,1.3843,1.3635,0,0,0,0,0,0,0,0,0,0,0,0
1.4162,1.3843,1.3635,0,0,0,0,0,0,0,0,0,0,0,0
1.4162,1.3843,1.3635,0,0,0,0,0,0,0,0,0,0,0,0
1.4162,1.3843,1.3635,0,0,0,0,0,0,0,0,0,0,0,0
1.4162,1.3843,1.3635,0,0,0,0,0,0,0,0,0,0,0,0
1.4162,1.3843,1.3635,0,0,0,0,0,0,0,0,0,0,0,0
1.4162,1.3843,1.3635,0,0,0,0,0,0,0,0,0,0,0,0
1.4162,1.3843,1.3635,0,0,0,0,0,0,0,0,0,0,0,0
1.4162,1.3843,1.3635,0,0,0,0,0,0,0,0,0,0,0,0
1.4162,1.3843,1.3635,0,0,0,0,0,0,0,0,0,0,0,0
1.4162,1.3843,1.3635,0,0,0,0,0,0,0,0,0,0,0,0
1.4162,1.3843,1.3635,0,0,0,0,0,0,0,0,0,0,0,0
1.4162,1.3843,1.3635,0,0,0,0,0,0,0,0,0,0,0,0
1.4162,1.3843,1.3635,0,0,0,0,0,0,0,0,0,0,0,0
1.4162,1.3843,1.3635,0,0,0,0,0,0,0,0,0,0,0,0
1.4162,1.3843,1.3635,0,0,0,0,0,0,0,0,0,0,0,0
1.4162,1.3843,1.3635,0,0,0,0,0,0,0,0,0,0,0,0
1.4162,1.3843,1.3635,0,0,0,0,0,0,0,0,0,0,0,0
1.4162,1.3843,1.3635,0,0,0,0,0,0,0,0,0,0,0,0
1.4162,1.3843,1.3635,0,0,0,0,0,0,0,0,0,0,0,0
1.4162,1.3843,1.3635,0,0,0,0,0,0,0,0,0,0,0,0
1.4162,1.3843,1.3635,0,0,0,0,0,0,0,0,0,0,0,0
1.4162,1.3843,1.3635,0,0,0,0,0,0,0,0,0,0,0,0
1.4162,1.3843,1.3635,0,0,0,0,0,0,0,0,0,0,0,0
