1
397.000000,186.000000,36.000000,30.000000
397.000000,186.000000,36.000000,30.000000
397.000000,186.000000,36.000000,30.000000
397.000000,186.000000,36.000000,30.000000
397.000000,186.000000,36.000000,30.000000
397.000000,186.000000,36.000000,30.000000
397.000000,186.000000,36.000000,30.000000
397.000000,186.000000,36.000000,30.000000
397.000000,186.000000,36.000000,30.000000
397.000000,186.000000,36.000000,30.000000
397.000000,186.000000,36.000000,30.000000
401.000000,186.000000,36.000000,30.000000
401.000000,186.000000,36.000000,30.000000
401.000000,186.000000,36.000000,30.000000
401.000000,186.000000,36.000000,30.000000
401.000000,186.000000,36.000000,30.000000
401.000000,186.000000,36.000000,30.000000
401.000000,186.000000,36.000000,30.000000
401.000000,182.000000,36.000000,30.000000
401.000000,182.000000,36.000000,30.000000
401.000000,182.000000,36.000000,30.000000
401.000000,182.000000,36.000000,30.000000
401.000000,182.000000,36.000000,30.000000
401.000000,182.000000,36.000000,30.000000
401.000000,182.000000,36.000000,30.000000
401.000000,182.000000,36.000000,30.000000
401.000000,182.000000,36.000000,30.000000
401.000000,182.000000,36.000000,30.000000
401.000000,182.000000,36.000000,30.000000
401.000000,182.000000,36.000000,30.000000
401.000000,182.000000,36.000000,30.000000
401.000000,182.000000,36.000000,30.000000
401.000000,182.000000,36.000000,30.000000
401.000000,182.000000,36.000000,30.000000
401.000000,182.000000,36.000000,30.000000
401.000000,182.000000,36.000000,30.000000
401.000000,182.000000,36.000000,30.000000
401.000000,182.000000,36.000000,30.000000
401.000000,182.000000,36.000000,30.000000
401.000000,182.000000,36.000000,30.000000
401.000000,182.000000,36.000000,30.000000
401.000000,182.000000,36.000000,30.000000
401.000000,182.000000,36.000000,30.000000
401.000000,182.000000,36.000000,30.000000
401.000000,182.000000,36.000000,30.000000
401.000000,182.000000,36.000000,30.000000
401.000000,182.000000,36.000000,30.000000
401.000000,182.000000,36.000000,30.000000
401.000000,182.000000,36.000000,30.000000
401.000000,182.000000,36.000000,30.000000
401.000000,182.000000,36.000000,30.000000
401.000000,182.000000,36.000000,30.000000
397.000000,182.000000,36.000000,30.000000
397.000000,182.000000,36.000000,30.000000
397.000000,182.000000,36.000000,30.000000
397.000000,182.000000,36.000000,30.000000
397.000000,182.000000,36.000000,30.000000
397.000000,182.000000,36.000000,30.000000
397.000000,182.000000,36.000000,30.000000
397.000000,186.000000,36.000000,30.000000
397.000000,186.000000,36.000000,30.000000
397.000000,186.000000,36.000000,30.000000
397.000000,186.000000,36.000000,30.000000
397.000000,186.000000,36.000000,30.000000
397.000000,186.000000,36.000000,30.000000
397.000000,186.000000,36.000000,30.000000
393.000000,186.000000,36.000000,30.000000
393.000000,186.000000,36.000000,30.000000
393.000000,186.000000,36.000000,30.000000
393.000000,186.000000,36.000000,30.000000
389.000000,186.000000,36.000000,30.000000
389.000000,186.000000,36.000000,30.000000
389.000000,186.000000,36.000000,30.000000
389.000000,186.000000,36.000000,30.000000
389.000000,186.000000,36.000000,30.000000
389.000000,186.000000,36.000000,30.000000
385.000000,186.000000,36.000000,30.000000
385.000000,186.000000,36.000000,30.000000
385.000000,186.000000,36.000000,30.000000
385.000000,186.000000,36.000000,30.000000
385.000000,186.000000,36.000000,30.000000
381.000000,186.000000,36.000000,30.000000
381.000000,186.000000,36.000000,30.000000
381.000000,186.000000,36.000000,30.000000
381.000000,186.000000,36.000000,30.000000
377.000000,186.000000,36.000000,30.000000
377.000000,186.000000,36.000000,30.000000
377.000000,186.000000,36.000000,30.000000
377.000000,186.000000,36.000000,30.000000
377.000000,186.000000,36.000000,30.000000
377.000000,186.000000,36.000000,30.000000
377.000000,186.000000,36.000000,30.000000
373.000000,186.000000,36.000000,30.000000
373.000000,186.000000,36.000000,30.000000
373.000000,186.000000,36.000000,30.000000
369.000000,186.000000,36.000000,30.000000
369.000000,186.000000,36.000000,30.000000
369.000000,186.000000,36.000000,30.000000
369.000000,186.000000,36.000000,30.000000
365.000000,190.000000,36.000000,30.000000
365.000000,190.000000,36.000000,30.000000
365.000000,190.000000,36.000000,30.000000
361.000000,190.000000,36.000000,30.000000
361.000000,190.000000,36.000000,30.000000
361.000000,190.000000,36.000000,30.000000
357.000000,190.000000,36.000000,30.000000
357.000000,190.000000,36.000000,30.000000
357.000000,190.000000,36.000000,30.000000
353.000000,190.000000,36.000000,30.000000
353.000000,190.000000,36.000000,30.000000
353.000000,190.000000,36.000000,30.000000
353.000000,194.000000,36.000000,30.000000
353.000000,194.000000,36.000000,30.000000
349.000000,194.000000,36.000000,30.000000
349.000000,194.000000,36.000000,30.000000
349.000000,194.000000,36.000000,30.000000
349.000000,194.000000,36.000000,30.000000
345.000000,194.000000,36.000000,30.000000
345.000000,194.000000,36.000000,30.000000
345.000000,194.000000,36.000000,30.000000
341.000000,194.000000,36.000000,30.000000
341.000000,194.000000,36.000000,30.000000
337.000000,194.000000,36.000000,30.000000
337.000000,194.000000,36.000000,30.000000
333.000000,194.000000,36.000000,30.000000
333.000000,194.000000,36.000000,30.000000
333.000000,194.000000,36.000000,30.000000
329.000000,194.000000,36.000000,30.000000
329.000000,194.000000,36.000000,30.000000
329.000000,194.000000,36.000000,30.000000
329.000000,194.000000,36.000000,30.000000
325.000000,194.000000,36.000000,30.000000
325.000000,194.000000,36.000000,30.000000
325.000000,194.000000,36.000000,30.000000
325.000000,194.000000,36.000000,30.000000
321.000000,194.000000,36.000000,30.000000
321.000000,198.000000,36.000000,30.000000
321.000000,198.000000,36.000000,30.000000
317.000000,198.000000,36.000000,30.000000
317.000000,198.000000,36.000000,30.000000
317.000000,198.000000,36.000000,30.000000
313.000000,198.000000,36.000000,30.000000
313.000000,198.000000,36.000000,30.000000
313.000000,198.000000,36.000000,30.000000
309.000000,198.000000,36.000000,30.000000
309.000000,198.000000,36.000000,30.000000
305.000000,198.000000,36.000000,30.000000
305.000000,198.000000,36.000000,30.000000
301.000000,198.000000,36.000000,30.000000
301.000000,198.000000,36.000000,30.000000
297.000000,198.000000,36.000000,30.000000
297.000000,198.000000,36.000000,30.000000
297.000000,202.000000,36.000000,30.000000
297.000000,202.000000,36.000000,30.000000
293.000000,202.000000,36.000000,30.000000
289.000000,202.000000,36.000000,30.000000
285.000000,202.000000,36.000000,30.000000
285.000000,202.000000,36.000000,30.000000
285.000000,202.000000,36.000000,30.000000
277.000000,202.000000,36.000000,30.000000
277.000000,202.000000,36.000000,30.000000
277.000000,202.000000,36.000000,30.000000
277.000000,202.000000,36.000000,30.000000
273.000000,202.000000,36.000000,30.000000
273.000000,202.000000,36.000000,30.000000
269.000000,202.000000,36.000000,30.000000
269.000000,202.000000,36.000000,30.000000
265.000000,202.000000,36.000000,30.000000
265.000000,202.000000,36.000000,30.000000
261.000000,202.000000,36.000000,30.000000
257.000000,202.000000,36.000000,30.000000
257.000000,202.000000,36.000000,30.000000
257.000000,206.000000,36.000000,30.000000
257.000000,206.000000,36.000000,30.000000
257.000000,206.000000,36.000000,30.000000
257.000000,206.000000,36.000000,30.000000
257.000000,206.000000,36.000000,30.000000
257.000000,206.000000,36.000000,30.000000
257.000000,206.000000,36.000000,30.000000
257.000000,206.000000,36.000000,30.000000
257.000000,206.000000,36.000000,30.000000
257.000000,206.000000,36.000000,30.000000
257.000000,206.000000,36.000000,30.000000
257.000000,206.000000,36.000000,30.000000
2
0
0
0
0
1
157.095001,209.255005,84.569992,36.409988
157.095001,209.255005,84.569992,36.409988
149.095001,213.255005,84.569992,36.409988
149.095001,213.255005,84.569992,36.409988
149.095001,213.255005,84.569992,36.409988
145.095001,213.255005,84.569992,36.409988
145.095001,213.255005,84.569992,36.409988
141.095001,213.255005,84.569992,36.409988
141.095001,213.255005,84.569992,36.409988
137.095001,213.255005,84.569992,36.409988
133.095001,213.255005,84.569992,36.409988
133.095001,213.255005,84.569992,36.409988
133.095001,213.255005,84.569992,36.409988
117.095009,213.255005,84.569992,36.409988
117.095009,213.255005,84.569992,36.409988
117.095009,213.255005,84.569992,36.409988
117.095009,213.255005,84.569992,36.409988
117.095009,213.255005,84.569992,36.409988
117.095009,213.255005,84.569992,36.409988
113.095009,213.255005,84.569992,36.409988
113.095009,213.255005,84.569992,36.409988
109.095009,213.255005,84.569992,36.409988
109.095009,209.255005,84.569992,36.409988
109.095009,209.255005,84.569992,36.409988
93.095009,213.255005,84.569992,36.409988
93.095009,213.255005,84.569992,36.409988
93.095009,213.255005,84.569992,36.409988
93.095009,213.255005,84.569992,36.409988
93.095009,209.255005,84.569992,36.409988
93.095009,209.255005,84.569992,36.409988
93.095009,209.255005,84.569992,36.409988
77.095009,209.255005,84.569992,36.409988
77.095009,209.255005,84.569992,36.409988
77.095009,209.255005,84.569992,36.409988
77.095009,213.255005,84.569992,36.409988
77.095009,213.255005,84.569992,36.409988
77.095009,213.255005,84.569992,36.409988
77.095009,213.255005,84.569992,36.409988
61.095009,213.255005,84.569992,36.409988
61.095009,213.255005,84.569992,36.409988
61.095009,213.255005,84.569992,36.409988
61.095009,213.255005,84.569992,36.409988
61.095009,213.255005,84.569992,36.409988
61.095009,217.255005,84.569992,36.409988
45.095009,217.255005,84.569992,36.409988
45.095009,217.255005,84.569992,36.409988
45.095009,217.255005,84.569992,36.409988
45.095009,217.255005,84.569992,36.409988
45.095009,217.255005,84.569992,36.409988
45.095009,217.255005,84.569992,36.409988
29.095009,217.255005,84.569992,36.409988
29.095009,217.255005,84.569992,36.409988
29.095009,217.255005,84.569992,36.409988
29.095009,217.255005,84.569992,36.409988
29.095009,217.255005,84.569992,36.409988
29.095009,217.255005,84.569992,36.409988
13.095009,217.255005,84.569992,36.409988
13.095009,217.255005,84.569992,36.409988
13.095009,217.255005,84.569992,36.409988
13.095009,217.255005,84.569992,36.409988
