1.3748,1.2342,1.2328,0,0,0,0,0,0,0,0,0,0,0,0
1.3748,1.2342,1.2328,0,0,0,0,0,0,0,0,0,0,0,0
1.3748,1.2342,1.2328,0,0,0,0,0,0,0,0,0,0,0,0
1.3748,1.2342,1.2328,0,0,0,0,0,0,0,0,0,0,0,0
1.3748,1.2342,1.2328,0,0,0,0,0,0,0,0,0,0,0,0
1.3748,1.2342,1.2328,0,0,0,0,0,0,0,0,0,0,0,0
1.3748,1.2342,1.2328,0,0,0,0,0,0,0,0,0,0,0,0
1.3748,1.2342,1.2328,0,0,0,0,0,0,0,0,0,0,0,0
1.3748,1.2342,1.2328,0,0,0,0,0,0,0,0,0,0,0,0
1.3748,1.2342,1.2328,0,0,0,0,0,0,0,0,0,0,0,0
1.3748,1.2342,1.2328,0,0,0,0,0,0,0,0,0,0,0,0
1.3748,1.2342,1.2328,0,0,0,0,0,0,0,0,0,0,0,0
1.3748,1.2342,1.2328,0,0,0,0,0,0,0,0,0,0,0,0
1.3748,1.2342,1.2328,0,0,0,0,0,0,0,0,0,0,0,0
1.3748,1.2342,1.2328,0,0,0,0,0,0,0,0,0,0,0,0
1.3748,1.2342,1.2328,0,0,0,0,0,0,0,0,0,0,0,0
1.3748,1.2342,1.2328,0,0,0,0,0,0,0,0,0,0,0,0
1.3748,1.2342,1.2328,0,0,0,0,0,0,0,0,0,0,0,0
1.3748,1.2342,1.2328,0,0,0,0,0,0,0,0,0,0,0,0
1.3748,1.2342,1.2328,0,0,0,0,0,0,0,0,0,0,0,0
1.3748,1.2342,1.2328,0,0,0,0,0,0,0,0,0,0,0,0
1.3748,1.2342,1.2328,0,0,0,0,0,0,0,0,0,0,0,0
1.3748,1.2342,1.2328,0,0,0,0,0,0,0,0,0,0,0,0
1.3748,1.2342,1.2328,0,0,0,0,0,0,0,0,0,0,0,0
1.3748,1.2342,1.2328,0,0,0,0,0,0,0,0,0,0,0,0
1.3748,1.2342,1.2328,0,0,0,0,0,0,0,0,0,0,0,0
1.3748,1.2342,1.2328,0,0,0,0,0,0,0,0,0,0,0,0
1.3748,1.2342,1.2328,0,0,0,0,0,0,0,0,0,0,0,0
1.3748,1.2342,1.2328,0,0,0,0,0,0,0,0,0,0,0,0
1.3748,1.2342,1.2328,0,0,0,0,0,0,0,0,0,0,0,0
1.3748,1.2342,1.2328,0,0,0,0,0,0,0,0,0,0,0,0
1.3748,1.2342,1.2328,0,0,0,0,0,0,0,0,0,0,0,0
1.3748,1.2342,1.2328,0,0,0,0,0,0,0,0,0,0,0,0
1.3748,1.2342,1.2328,0,0,0,0,0,0,0,0,0,0,0,0
1.3748,1.2342,1.2328,0,0,0,0,0,0,0,0,0,0,0,0
1.3748,1.2342,1.2328,0,0,0,0,0,0,0,0,0,0,0,0
1.3748,1.2342,1.2328,0,0,0,0,0,0,0,0,0,0,0,0
1.3748,1.2342,1.2328,0,0,0,0,0,0,0,0,0,0,0,0
1.3748,1.2342,1.2328,0,0,0,0,0,0,0,0,0,0,0,0
1.3748,1.2342,1.2328,0,0,0,0,0,0,0,0,0,0,0,0
1.3748,1.2342,1.2328,0,0,0,0,0,0,0,0,0,0,0,0
1.3748,1.2342,1.2328,0,0,0,0,0,0,0,0,0,0,0,0
1.3748,1.2342,1.2328,0,0,0,0,0,0,0,0,0,0,0,0
1.3748,1.2342,1.2328,0,0,0,0,0,0,0,0,0,0,0,0
1.3748,1.2342,1.2328,0,0,0,0,0,0,0,0,0,0,0,0
1.3748,1.2342,1.2328,0,0,0,0,0,0,0,0,0,0,0,0
1.3748,1.2342,1.2328,0,0,0,0,0,0,0,0,0,0,0,0
1.3748,1.2342,1.2328,0,0,0,0,0,0,0,0,0,0,0,0
1.3748,1.2342,1.2328,0,0,0,0,0,0,0,0,0,0,0,0
1.3748,1.2342,1.2328,0,0,0,0,0,0,0,0,0,0,0,0
1.3748,1.2342,1.2328,0,0,0,0,0,0,0,0,0,0,0,0
1.3748,1.2342,1.2328,0,0,0,0,0,0,0,0,0,0,0,0
1.3748,1.2342,1.2328,0,0,0,0,0,0,0,0,0,0,0,0
1.3748,1.2342,1.2328,0,0,0,0,0,0,0,0,0,0,0,0
1.3748,1.2342,1.2328,0,0,0,0,0,0,0,0,0,0,0,0
1.3748,1.2342,1.2328,0,0,0,0,0,0,0,0,0,0,0,0
1.3748,1.2342,1.2328,0,0,0,0,0,0,0,0,0,0,0,0
1.3748,1.2342,1.2328,0,0,0,0,0,0,0,0,0,0,0,0
1.3748,1.2342,1.2328,0,0,0,0,0,0,0,0,0,0,0,0
1.3748,1.2342,1.2328,0,0,0,0,0,0,0,0,0,0,0,0
1.3748,1.2342,1.2328,0,0,0,0,0,0,0,0,0,0,0,0
1.3748,1.2342,1.2328,0,0,0,0,0,0,0,0,0,0,0,0
1.3748,1.2342,1.2328,0,0,0,0,0,0,0,0,0,0,0,0
1.3748,1.2342,1.2328,0,0,0,0,0,0,0,0,0,0,0,0
1.3748,1.2342,1.2328,0,0,0,0,0,0,0,0,0,0,0,0
1.3748,1.2342,1.2328,0,0,0,0,0,0,0,0,0,0,0,0
1.3748,1.2342,1.2328,0,0,0,0,0,0,0,0,0,0,0,0
1.3748,1.2342,1.2328,0,0,0,0,0,0,0,0,0,0,0,0
1.3748,1.2342,1.2328,0,0,0,0,0,0,0,0,0,0,0,0
1.3748,1.2342,1.2328,0,0,0,0,0,0,0,0,0,0,0,0
1.3748,1.2342,1.2328,0,0,0,0,0,0,0,0,0,0,0,0
1.3748,1.2342,1.2328,0,0,0,0,0,0,0,0,0,0,0,0
1.3748,1.2342,1.2328,0,0,0,0,0,0,0,0,0,0,0,0
1.3748,1.2342,1.2328,0,0,0,0,0,0,0,0,0,0,0,0
1.3748,1.2342,1.2328,0,0,0,0,0,0,0,0,0,0,0,0
1.3748,1.2342,1.2328,0,0,0,0,0,0,0,0,0,0,0,0
1.3748,1.2342,1.2328,0,0,0,0,0,0,0,0,0,0,0,0
1.3748,1.2342,1.2328,0,0,0,0,0,0,0,0,0,0,0,0
1.3748,1.2342,1.2328,0,0,0,0,0,0,0,0,0,0,0,0
1.3748,1.2342,1.2328,0,0,0,0,0,0,0,0,0,0,0,0
1.3748,1.2342,1.2328,0,0,0,0,0,0,0,0,0,0,0,0
1.3748,1.2342,1.2328,0,0,0,0,0,0,0,0,0,0,0,0
1.3748,1.2342,1.2328,0,0,0,0,0,0,0,0,0,0,0,0
1.3748,1.2342,1.2328,0,0,0,0,0,0,0,0,0,0,0,0
1.3748,1.2342,1.2328,0,0,0,0,0,0,0,0,0,0,0,0
1.3748,1.2342,1.2328,0,0,0,0,0,0,0,0,0,0,0,0
1.3748,1.2342,1.2328,0,0,0,0,0,0,0,0,0,0,0,0
1.3748,1.2342,1.2328,0,0,0,0,0,0,0,0,0,0,0,0
1.3748,1.2342,1.2328,0,0,0,0,0,0,0,0,0,0,0,0
1.3748,1.2342,1.2328,0,0,0,0,0,0,0,0,0,0,0,0
1.3748,1.2342,1.2328,0,0,0,0,0,0,0,0,0,0,0,0
1.3748,1.2342,1.2328,0,0,0,0,0,0,0,0,0,0,0,0
1.3748,1.2342,1.2328,0,0,0,0,0,0,0,0,0,0,0,0
1.3748,1.2342,1.2328,0,0,0,0,0,0,0,0,0,0,0,0
1.3748,1.2342,1.2328,0,0,0,0,0,0,0,0,0,0,0,0
1.3748,1.2342,1.2328,0,0,0,0,0,0,0,0,0,0,0,0
1.3748,1.2342,1.2328,0,0,0,0,0,0,0,0,0,0,0,0
1.3748,1.2342,1.2328,0,0,0,0,0,0,0,0,0,0,0,0
1.3748,1.2342,1.2328,0,0,0,0,0,0,0,0,0,0,0,0
1.3748,1.2342,1.2328,0,0,0,0,0,0,0,0,0,0,0,0
1.3748,1.2342,1.2328,0,0,0,0,0,0,0,0,0,0,0,0
1.3748,1.2342,1.2328,0,0,0,0,0,0,0,0,0,0,0,0
1.3748,1.2342,1.2328,0,0,0,0,0,0,0,0,0,0,0,0
1.3748,1.2342,1.2328,0,0,0,0,0,0,0,0,0,0,0,0
1.3748,1.2342,1.2328,0,0,0,0,0,0,0,0,0,0,0,0
1.3748,1.2342,1.2328,0,0,0,0,0,0,0,0,0,0,0,0
1.3748,1.2342,1.2328,0,0,0,0,0,0,0,0,0,0,0,0
1.3748,1.2342,1.2328,0,0,0,0,0,0,0,0,0,0,0,0
1.3748,1.2342,1.2328,0,0,0,0,0,0,0,0,0,0,0,0
1.3748,1.2342,1.2328,0,0,0,0,0,0,0,0,0,0,0,0
1.3748,1.2342,1.2328,0,0,0,0,0,0,0,0,0,0,0,0
1.3748,1.2342,1.2328,0,0,0,0,0,0,0,0,0,0,0,0
1.3748,1.2342,1.2328,0,0,0,0,0,0,0,0,0,0,0,0
1.3748,1.2342,1.2328,0,0,0,0,0,0,0,0,0,0,0,0
1.3748,1.2342,1.2328,0,0,0,0,0,0,0,0,0,0,0,0
1.3748,1.2342,1.2328,0,0,0,0,0,0,0,0,0,0,0,0
1.3748,1.2342,1.2328,0,0,0,0,0,0,0,0,0,0,0,0
1.3748,1.2342,1.2328,0,0,0,0,0,0,0,0,0,0,0,0
1.3748,1.2342,1.2328,0,0,0,0,0,0,0,0,0,0,0,0
1.3748,1.2342,1.2328,0,0,0,0,0,0,0,0,0,0,0,0
1.3748,1.2342,1.2328,0,0,0,0,0,0,0,0,0,0,0,0
1.3748,1.2342,1.2328,0,0,0,0,0,0,0,0,0,0,0,0
1.3748,1.2342,1.2328,0,0,0,0,0,0,0,0,0,0,0,0
1.3748,1.2342,1.2328,0,0,0,0,0,0,0,0,0,0,0,0
1.3748,1.2342,1.2328,0,0,0,0,0,0,0,0,0,0,0,0
1.3748,1.2342,1.2328,0,0,0,0,0,0,0,0,0,0,0,0
1.3748,1.2342,1.2328,0,0,0,0,0,0,0,0,0,0,0,0
1.3748,1.2342,1.2328,0,0,0,0,0,0,0,0,0,0,0,0
1.3748,1.2342,1.2328,0,0,0,0,0,0,0,0,0,0,0,0
1.3748,1.2342,1.2328,0,0,0,0,0,0,0,0,0,0,0,0
1.3748,1.2342,1.2328,0,0,0,0,0,0,0,0,0,0,0,0
1.3748,1.2342,1.2328,0,0,0,0,0,0,0,0,0,0,0,0
1.3748,1.2342,1.2328,0,0,0,0,0,0,0,0,0,0,0,0
1.3748,1.2342,1.2328,0,0,0,0,0,0,0,0,0,0,0,0
1.3748,1.2342,1.2328,0,0,0,0,0,0,0,0,0,0,0,0
1.3748,1.2342,1.2328,0,0,0,0,0,0,0,0,0,0,0,0
1.3748,1.2342,1.2328,0,0,0,0,0,0,0,0,0,0,0,0
1.3748,1.2342,1.2328,0,0,0,0,0,0,0,0,0,0,0,0
1.3748,1.2342,1.2328,0,0,0,0,0,0,0,0,0,0,0,0
1.3748,1.2342,1.2328,0,0,0,0,0,0,0,0,0,0,0,0
1.3748,1.2342,1.2328,0,0,0,0,0,0,0,0,0,0,0,0
1.3748,1.2342,1.2328,0,0,0,0,0,0,0,0,0,0,0,0
1.3748,1.2342,1.2328,0,0,0,0,0,0,0,0,0,0,0,0
1.3748,1.2342,1.2328,0,0,0,0,0,0,0,0,0,0,0,0
1.3748,1.2342,1.2328,0,0,0,0,0,0,0,0,0,0,0,0
1.3748,1.2342,1.2328,0,0,0,0,0,0,0,0,0,0,0,0
1.3748,1.2342,1.2328,0,0,0,0,0,0,0,0,0,0,0,0
1.3748,1.2342,1.2328,0,0,0,0,0,0,0,0,0,0,0,0
1.3748,1.2342,1.2328,0,0,0,0,0,0,0,0,0,0,0,0
1.3748,1.2342,1.2328,0,0,0,0,0,0,0,0,0,0,0,0
1.3748,1.2342,1.2328,0,0,0,0,0,0,0,0,0,0,0,0
1.3748,1.2342,1.2328,0,0,0,0,0,0,0,0,0,0,0,0
1.3748,1.2342,1.2328,0,0,0,0,0,0,0,0,0,0,0,0
1.3748,1.2342,1.2328,0,0,0,0,0,0,0,0,0,0,0,0
1.3748,1.2342,1.2328,0,0,0,0,0,0,0,0,0,0,0,0
1.3748,1.2342,1.2328,0,0,0,0,0,0,0,0,0,0,0,0
1.3748,1.2342,1.2328,0,0,0,0,0,0,0,0,0,0,0,0
1.3748,1.2342,1.2328,0,0,0,0,0,0,0,0,0,0,0,0
1.3748,1.2342,1.2328,0,0,0,0,0,0,0,0,0,0,0,0
1.3748,1.2342,1.2328,0,0,0,0,0,0,0,0,0,0,0,0
1.3748,1.2342,1.2328,0,0,0,0,0,0,0,0,0,0,0,0
1.3748,1.2342,1.2328,0,0,0,0,0,0,0,0,0,0,0,0
1.3748,1.2342,1.2328,0,0,0,0,0,0,0,0,0,0,0,0
1.3748,1.2342,1.2328,0,0,0,0,0,0,0,0,0,0,0,0
1.3748,1.2342,1.2328,0,0,0,0,0,0,0,0,0,0,0,0
1.3748,1.2342,1.2328,0,0,0,0,0,0,0,0,0,0,0,0
1.3748,1.2342,1.2328,0,0,0,0,0,0,0,0,0,0,0,0
1.3748,1.2342,1.2328,0,0,0,0,0,0,0,0,0,0,0,0
1.3748,1.2342,1.2328,0,0,0,0,0,0,0,0,0,0,0,0
1.3748,1.2342,1.2328,0,0,0,0,0,0,0,0,0,0,0,0
1.3748,1.2342,1.2328,0,0,0,0,0,0,0,0,0,0,0,0
1.3748,1.2342,1.2328,0,0,0,0,0,0,0,0,0,0,0,0
1.3748,1.2342,1.2328,0,0,0,0,0,0,0,0,0,0,0,0
1.3748,1.2342,1.2328,0,0,0,0,0,0,0,0,0,0,0,0
1.3748,1.2342,1.2328,0,0,0,0,0,0,0,0,0,0,0,0
1.3748,1.2342,1.2328,0,0,0,0,0,0,0,0,0,0,0,0
1.3748,1.2342,1.2328,0,0,0,0,0,0,0,0,0,0,0,0
1.3748,1.2342,1.2328,0,0,0,0,0,0,0,0,0,0,0,0
1.3748,1.2342,1.2328,0,0,0,0,0,0,0,0,0,0,0,0
1.3748,1.2342,1.2328,0,0,0,0,0,0,0,0,0,0,0,0
1.3748,1.2342,1.2328,0,0,0,0,0,0,0,0,0,0,0,0
1.3748,1.2342,1.2328,0,0,0,0,0,0,0,0,0,0,0,0
1.3748,1.2342,1.2328,0,0,0,0,0,0,0,0,0,0,0,0
1.3748,1.2342,1.2328,0,0,0,0,0,0,0,0,0,0,0,0
1.3748,1.2342,1.2328,0,0,0,0,0,0,0,0,0,0,0,0
1.3748,1.2342,1.2328,0,0,0,0,0,0,0,0,0,0,0,0
1.3748,1.2342,1.2328,0,0,0,0,0,0,0,0,0,0,0,0
1.3748,1.2342,1.2328,0,0,0,0,0,0,0,0,0,0,0,0
1.3748,1.2342,1.2328,0,0,0,0,0,0,0,0,0,0,0,0
1.3748,1.2342,1.2328,0,0,0,0,0,0,0,0,0,0,0,0
1.3748,1.2342,1.2328,0,0,0,0,0,0,0,0,0,0,0,0
1.3748,1.2342,1.2328,0,0,0,0,0,0,0,0,0,0,0,0
1.3748,1.2342,1.2328,0,0,0,0,0,0,0,0,0,0,0,0
1.3748,1.2342,1.2328,0,0,0,0,0,0,0,0,0,0,0,0
1.3748,1.2342,1.2328,0,0,0,0,0,0,0,0,0,0,0,0
1.3748,1.2342,1.2328,0,0,0,0,0,0,0,0,0,0,0,0
1.3748,1.2342,1.2328,0,0,0,0,0,0,0,0,0,0,0,0
1.3748,1.2342,1.2328,0,0,0,0,0,0,0,0,0,0,0,0
1.3748,1.2342,1.2328,0,0,0,0,0,0,0,0,0,0,0,0
1.3748,1.2342,1.2328,0,0,0,0,0,0,0,0,0,0,0,0
1.3748,1.2342,1.2328,0,0,0,0,0,0,0,0,0,0,0,0
1.3748,1.2342,1.2328,0,0,0,0,0,0,0,0,0,0,0,0
1.3748,1.2342,1.2328,0,0,0,0,0,0,0,0,0,0,0,0
1.3748,1.2342,1.2328,0,0,0,0,0,0,0,0,0,0,0,0
1.3748,1.2342,1.2328,0,0,0,0,0,0,0,0,0,0,0,0
1.3748,1.2342,1.2328,0,0,0,0,0,0,0,0,0,0,0,0
1.3748,1.2342,1.2328,0,0,0,0,0,0,0,0,0,0,0,0
1.3748,1.2342,1.2328,0,0,0,0,0,0,0,0,0,0,0,0
1.3748,1.2342,1.2328,0,0,0,0,0,0,0,0,0,0,0,0
1.3748,1.2342,1.2328,0,0,0,0,0,0,0,0,0,0,0,0
1.3748,1.2342,1.2328,0,0,0,0,0,0,0,0,0,0,0,0
1.3748,1.2342,1.2328,0,0,0,0,0,0,0,0,0,0,0,0
1.3748,1.2342,1.2328,0,0,0,0,0,0,0,0,0,0,0,0
1.3748,1.2342,1.2328,0,0,0,0,0,0,0,0,0,0,0,0
1.3748,1.2342,1.2328,0,0,0,0,0,0,0,0,0,0,0,0
1.3748,1.2342,1.2328,0,0,0,0,0,0,0,0,0,0,0,0
1.3748,1.2342,1.2328,0,0,0,0,0,0,0,0,0,0,0,0
1.3748,1.2342,1.2328,0,0,0,0,0,0,0,0,0,0,0,0
1.3748,1.2342,1.2328,0,0,0,0,0,0,0,0,0,0,0,0
1.3748,1.2342,1.2328,0,0,0,0,0,0,0,0,0,0,0,0
1.3748,1.2342,1.2328,0,0,0,0,0,0,0,0,0,0,0,0
1.3748,1.2342,1.2328,0,0,0,0,0,0,0,0,0,0,0,0
1.3748,1.2342,1.2328,0,0,0,0,0,0,0,0,0,0,0,0
1.3748,1.2342,1.2328,0,0,0,0,0,0,0,0,0,0,0,0
1.3748,1.2342,1.2328,0,0,0,0,0,0,0,0,0,0,0,0
