1
36.000000,60.000000,68.000000,78.000000
40.000000,68.000000,68.000000,78.000000
48.000000,76.000000,68.000000,78.000000
60.000000,76.000000,68.000000,78.000000
68.000000,80.000000,68.000000,78.000000
76.000000,80.000000,68.000000,78.000000
80.000000,80.000000,68.000000,78.000000
92.000000,84.000000,68.000000,78.000000
104.000000,92.000000,68.000000,78.000000
112.000000,92.000000,68.000000,78.000000
120.000000,92.000000,68.000000,78.000000
128.000000,92.000000,68.000000,78.000000
132.000000,88.000000,68.000000,78.000000
136.000000,84.000000,68.000000,78.000000
140.000000,80.000000,68.000000,78.000000
148.000000,80.000000,68.000000,78.000000
152.000000,76.000000,68.000000,78.000000
164.000000,76.000000,68.000000,78.000000
176.000000,72.000000,68.000000,78.000000
184.000000,68.000000,68.000000,78.000000
196.000000,64.000000,68.000000,78.000000
208.000000,64.000000,68.000000,78.000000
224.000000,64.000000,68.000000,78.000000
244.000000,64.000000,68.000000,78.000000
260.000000,64.000000,68.000000,78.000000
272.000000,64.000000,68.000000,78.000000
288.000000,76.000000,68.000000,78.000000
292.000000,64.000000,68.000000,78.000000
292.000000,64.000000,68.000000,78.000000
284.000000,64.000000,68.000000,78.000000
276.000000,64.000000,68.000000,78.000000
264.000000,64.000000,68.000000,78.000000
248.000000,64.000000,68.000000,78.000000
232.000000,60.000000,68.000000,78.000000
216.000000,56.000000,68.000000,78.000000
196.000000,56.000000,68.000000,78.000000
180.000000,56.000000,68.000000,78.000000
168.000000,64.000000,68.000000,78.000000
156.000000,64.000000,68.000000,78.000000
156.000000,80.000000,68.000000,78.000000
156.000000,92.000000,68.000000,78.000000
148.000000,92.000000,68.000000,78.000000
140.000000,92.000000,68.000000,78.000000
136.000000,92.000000,68.000000,78.000000
132.000000,92.000000,68.000000,78.000000
128.000000,92.000000,68.000000,78.000000
124.000000,92.000000,68.000000,78.000000
124.000000,92.000000,68.000000,78.000000
120.000000,92.000000,68.000000,78.000000
120.000000,92.000000,68.000000,78.000000
120.000000,92.000000,68.000000,78.000000
128.000000,92.000000,68.000000,78.000000
140.000000,92.000000,68.000000,78.000000
156.000000,92.000000,68.000000,78.000000
172.000000,88.000000,68.000000,78.000000
184.000000,76.000000,68.000000,78.000000
208.000000,92.000000,68.000000,78.000000
224.000000,88.000000,68.000000,78.000000
240.000000,76.000000,68.000000,78.000000
256.000000,76.000000,68.000000,78.000000
272.000000,76.000000,68.000000,78.000000
284.000000,76.000000,68.000000,78.000000
296.000000,72.000000,68.000000,78.000000
304.000000,68.000000,68.000000,78.000000
308.000000,64.000000,68.000000,78.000000
308.000000,64.000000,68.000000,78.000000
308.000000,64.000000,68.000000,78.000000
300.000000,64.000000,68.000000,78.000000
288.000000,72.000000,68.000000,78.000000
276.000000,80.000000,68.000000,78.000000
260.000000,84.000000,68.000000,78.000000
236.000000,88.000000,68.000000,78.000000
216.000000,92.000000,68.000000,78.000000
196.000000,92.000000,68.000000,78.000000
172.000000,92.000000,68.000000,78.000000
156.000000,92.000000,68.000000,78.000000
136.000000,88.000000,68.000000,78.000000
120.000000,84.000000,68.000000,78.000000
96.000000,72.000000,68.000000,78.000000
80.000000,72.000000,68.000000,78.000000
60.000000,72.000000,68.000000,78.000000
32.000000,72.000000,68.000000,78.000000
12.000000,80.000000,68.000000,78.000000
4.000000,88.000000,68.000000,78.000000
0.000000,92.000000,68.000000,78.000000
0.000000,92.000000,68.000000,78.000000
4.000000,88.000000,68.000000,78.000000
8.000000,84.000000,68.000000,78.000000
16.000000,68.000000,68.000000,78.000000
20.000000,64.000000,68.000000,78.000000
20.000000,64.000000,68.000000,78.000000
24.000000,64.000000,68.000000,78.000000
24.000000,76.000000,68.000000,78.000000
28.000000,76.000000,68.000000,78.000000
32.000000,80.000000,68.000000,78.000000
44.000000,88.000000,68.000000,78.000000
56.000000,88.000000,68.000000,78.000000
64.000000,88.000000,68.000000,78.000000
76.000000,88.000000,68.000000,78.000000
88.000000,92.000000,68.000000,78.000000
108.000000,96.000000,68.000000,78.000000
120.000000,96.000000,68.000000,78.000000
140.000000,100.000000,68.000000,78.000000
160.000000,100.000000,68.000000,78.000000
184.000000,104.000000,68.000000,78.000000
208.000000,108.000000,68.000000,78.000000
228.000000,108.000000,68.000000,78.000000
252.000000,112.000000,68.000000,78.000000
276.000000,112.000000,68.000000,78.000000
300.000000,112.000000,68.000000,78.000000
320.000000,112.000000,68.000000,78.000000
336.000000,108.000000,68.000000,78.000000
348.000000,108.000000,68.000000,78.000000
356.000000,100.000000,68.000000,78.000000
356.000000,96.000000,68.000000,78.000000
356.000000,92.000000,68.000000,78.000000
352.000000,88.000000,68.000000,78.000000
348.000000,88.000000,68.000000,78.000000
344.000000,84.000000,68.000000,78.000000
332.000000,80.000000,68.000000,78.000000
320.000000,80.000000,68.000000,78.000000
308.000000,80.000000,68.000000,78.000000
300.000000,80.000000,68.000000,78.000000
300.000000,80.000000,68.000000,78.000000
292.000000,80.000000,68.000000,78.000000
288.000000,84.000000,68.000000,78.000000
284.000000,88.000000,68.000000,78.000000
276.000000,92.000000,68.000000,78.000000
268.000000,92.000000,68.000000,78.000000
252.000000,92.000000,68.000000,78.000000
240.000000,92.000000,68.000000,78.000000
2
0
0
0
0
1
204.500000,92.000000,77.000000,84.000000
204.500000,92.000000,77.000000,84.000000
204.500000,92.000000,77.000000,84.000000
204.500000,92.000000,77.000000,84.000000
204.500000,92.000000,77.000000,84.000000
204.500000,92.000000,77.000000,84.000000
204.500000,92.000000,77.000000,84.000000
204.500000,92.000000,77.000000,84.000000
204.500000,92.000000,77.000000,84.000000
204.500000,92.000000,77.000000,84.000000
204.500000,92.000000,77.000000,84.000000
200.500000,92.000000,77.000000,84.000000
200.500000,92.000000,77.000000,84.000000
204.500000,92.000000,77.000000,84.000000
204.500000,92.000000,77.000000,84.000000
204.500000,92.000000,77.000000,84.000000
204.500000,88.000000,77.000000,84.000000
2
0
0
0
0
1
293.750000,73.625000,73.000000,69.250000
289.750000,81.625000,73.000000,69.250000
281.750000,93.625000,73.000000,69.250000
273.750000,105.625000,73.000000,69.250000
269.750000,109.625000,73.000000,69.250000
265.750000,117.625000,73.000000,69.250000
261.750000,113.625000,73.000000,69.250000
253.750000,109.625000,73.000000,69.250000
245.750000,101.625000,73.000000,69.250000
233.750000,89.625000,73.000000,69.250000
221.750000,85.625000,73.000000,69.250000
209.750000,85.625000,73.000000,69.250000
205.750000,85.625000,73.000000,69.250000
205.750000,85.625000,73.000000,69.250000
205.750000,85.625000,73.000000,69.250000
201.750000,81.625000,73.000000,69.250000
181.750000,89.625000,73.000000,69.250000
169.750000,97.625000,73.000000,69.250000
165.750000,105.625000,73.000000,69.250000
165.750000,101.625000,73.000000,69.250000
165.750000,97.625000,73.000000,69.250000
165.750000,97.625000,73.000000,69.250000
169.750000,97.625000,73.000000,69.250000
181.750000,97.625000,73.000000,69.250000
193.750000,97.625000,73.000000,69.250000
197.750000,93.625000,73.000000,69.250000
197.750000,85.625000,73.000000,69.250000
197.750000,85.625000,73.000000,69.250000
201.750000,85.625000,73.000000,69.250000
205.750000,81.625000,73.000000,69.250000
205.750000,77.625000,73.000000,69.250000
205.750000,77.625000,73.000000,69.250000
205.750000,77.625000,73.000000,69.250000
213.750000,77.625000,73.000000,69.250000
217.750000,77.625000,73.000000,69.250000
217.750000,81.625000,73.000000,69.250000
217.750000,81.625000,73.000000,69.250000
217.750000,85.625000,73.000000,69.250000
217.750000,85.625000,73.000000,69.250000
221.750000,81.625000,73.000000,69.250000
233.750000,81.625000,73.000000,69.250000
249.750000,81.625000,73.000000,69.250000
257.750000,93.625000,73.000000,69.250000
265.750000,97.625000,73.000000,69.250000
265.750000,93.625000,73.000000,69.250000
257.750000,85.625000,73.000000,69.250000
241.750000,81.625000,73.000000,69.250000
229.750000,85.625000,73.000000,69.250000
237.750000,85.625000,73.000000,69.250000
237.750000,85.625000,73.000000,69.250000
237.750000,85.625000,73.000000,69.250000
225.750000,85.625000,73.000000,69.250000
209.750000,85.625000,73.000000,69.250000
193.750000,85.625000,73.000000,69.250000
177.750000,93.625000,73.000000,69.250000
161.750000,101.625000,73.000000,69.250000
149.750000,105.625000,73.000000,69.250000
149.750000,109.625000,73.000000,69.250000
153.750000,109.625000,73.000000,69.250000
157.750000,105.625000,73.000000,69.250000
169.750000,97.625000,73.000000,69.250000
177.750000,89.625000,73.000000,69.250000
185.750000,81.625000,73.000000,69.250000
197.750000,73.625000,73.000000,69.250000
209.750000,69.625000,73.000000,69.250000
221.750000,69.625000,73.000000,69.250000
225.750000,69.625000,73.000000,69.250000
233.750000,73.625000,73.000000,69.250000
233.750000,73.625000,73.000000,69.250000
233.750000,77.625000,73.000000,69.250000
221.750000,81.625000,73.000000,69.250000
217.750000,85.625000,73.000000,69.250000
201.750000,89.625000,73.000000,69.250000
185.750000,101.625000,73.000000,69.250000
177.750000,105.625000,73.000000,69.250000
177.750000,105.625000,73.000000,69.250000
177.750000,105.625000,73.000000,69.250000
181.750000,105.625000,73.000000,69.250000
193.750000,97.625000,73.000000,69.250000
205.750000,93.625000,73.000000,69.250000
217.750000,81.625000,73.000000,69.250000
217.750000,85.625000,73.000000,69.250000
221.750000,85.625000,73.000000,69.250000
225.750000,85.625000,73.000000,69.250000
229.750000,89.625000,73.000000,69.250000
233.750000,93.625000,73.000000,69.250000
233.750000,93.625000,73.000000,69.250000
233.750000,93.625000,73.000000,69.250000
221.750000,97.625000,73.000000,69.250000
209.750000,97.625000,73.000000,69.250000
209.750000,101.625000,73.000000,69.250000
197.750000,105.625000,73.000000,69.250000
197.750000,109.625000,73.000000,69.250000
193.750000,117.625000,73.000000,69.250000
193.750000,117.625000,73.000000,69.250000
197.750000,117.625000,73.000000,69.250000
201.750000,113.625000,73.000000,69.250000
213.750000,109.625000,73.000000,69.250000
221.750000,101.625000,73.000000,69.250000
221.750000,97.625000,73.000000,69.250000
221.750000,97.625000,73.000000,69.250000
217.750000,93.625000,73.000000,69.250000
205.750000,93.625000,73.000000,69.250000
193.750000,93.625000,73.000000,69.250000
185.750000,89.625000,73.000000,69.250000
185.750000,85.625000,73.000000,69.250000
189.750000,73.625000,73.000000,69.250000
197.750000,69.625000,73.000000,69.250000
201.750000,69.625000,73.000000,69.250000
201.750000,65.625000,73.000000,69.250000
201.750000,61.625000,73.000000,69.250000
201.750000,65.625000,73.000000,69.250000
197.750000,65.625000,73.000000,69.250000
185.750000,65.625000,73.000000,69.250000
177.750000,65.625000,73.000000,69.250000
165.750000,69.625000,73.000000,69.250000
153.750000,69.625000,73.000000,69.250000
141.750000,73.625000,73.000000,69.250000
133.750000,81.625000,73.000000,69.250000
133.750000,77.625000,73.000000,69.250000
133.750000,69.625000,73.000000,69.250000
145.750000,69.625000,73.000000,69.250000
157.750000,65.625000,73.000000,69.250000
181.750000,65.625000,73.000000,69.250000
197.750000,69.625000,73.000000,69.250000
221.750000,73.625000,73.000000,69.250000
237.750000,85.625000,73.000000,69.250000
253.750000,85.625000,73.000000,69.250000
265.750000,85.625000,73.000000,69.250000
261.750000,85.625000,73.000000,69.250000
257.750000,77.625000,73.000000,69.250000
253.750000,77.625000,73.000000,69.250000
249.750000,77.625000,73.000000,69.250000
245.750000,77.625000,73.000000,69.250000
241.750000,77.625000,73.000000,69.250000
237.750000,81.625000,73.000000,69.250000
233.750000,81.625000,73.000000,69.250000
225.750000,81.625000,73.000000,69.250000
213.750000,81.625000,73.000000,69.250000
209.750000,85.625000,73.000000,69.250000
201.750000,89.625000,73.000000,69.250000
201.750000,89.625000,73.000000,69.250000
217.750000,93.625000,73.000000,69.250000
229.750000,97.625000,73.000000,69.250000
241.750000,97.625000,73.000000,69.250000
249.750000,97.625000,73.000000,69.250000
249.750000,93.625000,73.000000,69.250000
245.750000,93.625000,73.000000,69.250000
241.750000,89.625000,73.000000,69.250000
241.750000,89.625000,73.000000,69.250000
241.750000,85.625000,73.000000,69.250000
233.750000,81.625000,73.000000,69.250000
205.750000,77.625000,73.000000,69.250000
177.750000,77.625000,73.000000,69.250000
165.750000,81.625000,73.000000,69.250000
161.750000,81.625000,73.000000,69.250000
173.750000,81.625000,73.000000,69.250000
197.750000,81.625000,73.000000,69.250000
225.750000,81.625000,73.000000,69.250000
257.750000,81.625000,73.000000,69.250000
281.750000,73.625000,73.000000,69.250000
281.750000,69.625000,73.000000,69.250000
265.750000,61.625000,73.000000,69.250000
237.750000,69.625000,73.000000,69.250000
205.750000,81.625000,73.000000,69.250000
181.750000,93.625000,73.000000,69.250000
169.750000,105.625000,73.000000,69.250000
173.750000,109.625000,73.000000,69.250000
189.750000,109.625000,73.000000,69.250000
205.750000,101.625000,73.000000,69.250000
217.750000,97.625000,73.000000,69.250000
233.750000,85.625000,73.000000,69.250000
233.750000,85.625000,73.000000,69.250000
221.750000,85.625000,73.000000,69.250000
201.750000,93.625000,73.000000,69.250000
189.750000,97.625000,73.000000,69.250000
189.750000,105.625000,73.000000,69.250000
209.750000,117.625000,73.000000,69.250000
233.750000,121.625000,73.000000,69.250000
257.750000,121.625000,73.000000,69.250000
285.750000,113.625000,73.000000,69.250000
309.750000,101.625000,73.000000,69.250000
321.750000,85.625000,73.000000,69.250000
305.750000,73.625000,73.000000,69.250000
277.750000,73.625000,73.000000,69.250000
249.750000,77.625000,73.000000,69.250000
221.750000,81.625000,73.000000,69.250000
193.750000,85.625000,73.000000,69.250000
165.750000,89.625000,73.000000,69.250000
137.750000,101.625000,73.000000,69.250000
129.750000,105.625000,73.000000,69.250000
141.750000,113.625000,73.000000,69.250000
157.750000,129.625000,73.000000,69.250000
177.750000,133.625000,73.000000,69.250000
189.750000,133.625000,73.000000,69.250000
197.750000,113.625000,73.000000,69.250000
189.750000,101.625000,73.000000,69.250000
169.750000,97.625000,73.000000,69.250000
145.750000,93.625000,73.000000,69.250000
129.750000,93.625000,73.000000,69.250000
121.750000,97.625000,73.000000,69.250000
125.750000,97.625000,73.000000,69.250000
141.750000,97.625000,73.000000,69.250000
153.750000,85.625000,73.000000,69.250000
