1.0167,1.0312,1.0068,0,0,0,0,0,0,0,0,0,0,0,0
1.0167,1.0312,1.0068,0,0,0,0,0,0,0,0,0,0,0,0
1.0167,1.0312,1.0068,0,0,0,0,0,0,0,0,0,0,0,0
1.0167,1.0312,1.0068,0,0,0,0,0,0,0,0,0,0,0,0
1.0167,1.0312,1.0068,0,0,0,0,0,0,0,0,0,0,0,0
1.0167,1.0312,1.0068,0,0,0,0,0,0,0,0,0,0,0,0
1.0167,1.0312,1.0068,0,0,0,0,0,0,0,0,0,0,0,0
1.0167,1.0312,1.0068,0,0,0,0,0,0,0,0,0,0,0,0
1.0167,1.0312,1.0068,0,0,0,0,0,0,0,0,0,0,0,0
1.0167,1.0312,1.0068,0,0,0,0,0,0,0,0,0,0,0,0
1.0167,1.0312,1.0068,0,0,0,0,0,0,0,0,0,0,0,0
1.0167,1.0312,1.0068,0,0,0,0,0,0,0,0,0,0,0,0
1.0167,1.0312,1.0068,0,0,0,0,0,0,0,0,0,0,0,0
1.0167,1.0312,1.0068,0,0,0,0,0,0,0,0,0,0,0,0
1.0167,1.0312,1.0068,0,0,0,0,0,0,0,0,0,0,0,0
1.0167,1.0312,1.0068,0,0,0,0,0,0,0,0,0,0,0,0
1.0167,1.0312,1.0068,0,0,0,0,0,0,0,0,0,0,0,0
1.0167,1.0312,1.0068,0,0,0,0,0,0,0,0,0,0,0,0
1.0167,1.0312,1.0068,0,0,0,0,0,0,0,0,0,0,0,0
1.0167,1.0312,1.0068,0,0,0,0,0,0,0,0,0,0,0,0
1.0167,1.0312,1.0068,0,0,0,0,0,0,0,0,0,0,0,0
1.0167,1.0312,1.0068,0,0,0,0,0,0,0,0,0,0,0,0
1.0167,1.0312,1.0068,0,0,0,0,0,0,0,0,0,0,0,0
1.0167,1.0312,1.0068,0,0,0,0,0,0,0,0,0,0,0,0
1.0167,1.0312,1.0068,0,0,0,0,0,0,0,0,0,0,0,0
1.0167,1.0312,1.0068,0,0,0,0,0,0,0,0,0,0,0,0
1.0167,1.0312,1.0068,0,0,0,0,0,0,0,0,0,0,0,0
1.0167,1.0312,1.0068,0,0,0,0,0,0,0,0,0,0,0,0
1.0167,1.0312,1.0068,0,0,0,0,0,0,0,0,0,0,0,0
1.0167,1.0312,1.0068,0,0,0,0,0,0,0,0,0,0,0,0
1.0167,1.0312,1.0068,0,0,0,0,0,0,0,0,0,0,0,0
1.0167,1.0312,1.0068,0,0,0,0,0,0,0,0,0,0,0,0
1.0167,1.0312,1.0068,0,0,0,0,0,0,0,0,0,0,0,0
1.0167,1.0312,1.0068,0,0,0,0,0,0,0,0,0,0,0,0
1.0167,1.0312,1.0068,0,0,0,0,0,0,0,0,0,0,0,0
1.0167,1.0312,1.0068,0,0,0,0,0,0,0,0,0,0,0,0
1.0167,1.0312,1.0068,0,0,0,0,0,0,0,0,0,0,0,0
1.0167,1.0312,1.0068,0,0,0,0,0,0,0,0,0,0,0,0
1.0167,1.0312,1.0068,0,0,0,0,0,0,0,0,0,0,0,0
1.0167,1.0312,1.0068,0,0,0,0,0,0,0,0,0,0,0,0
1.0167,1.0312,1.0068,0,0,0,0,0,0,0,0,0,0,0,0
1.0167,1.0312,1.0068,0,0,0,0,0,0,0,0,0,0,0,0
1.0167,1.0312,1.0068,0,0,0,0,0,0,0,0,0,0,0,0
1.0167,1.0312,1.0068,0,0,0,0,0,0,0,0,0,0,0,0
1.0167,1.0312,1.0068,0,0,0,0,0,0,0,0,0,0,0,0
1.0167,1.0312,1.0068,0,0,0,0,0,0,0,0,0,0,0,0
1.0167,1.0312,1.0068,0,0,0,0,0,0,0,0,0,0,0,0
1.0167,1.0312,1.0068,0,0,0,0,0,0,0,0,0,0,0,0
1.0167,1.0312,1.0068,0,0,0,0,0,0,0,0,0,0,0,0
1.0167,1.0312,1.0068,0,0,0,0,0,0,0,0,0,0,0,0
1.0167,1.0312,1.0068,0,0,0,0,0,0,0,0,0,0,0,0
1.0167,1.0312,1.0068,0,0,0,0,0,0,0,0,0,0,0,0
1.0167,1.0312,1.0068,0,0,0,0,0,0,0,0,0,0,0,0
1.0167,1.0312,1.0068,0,0,0,0,0,0,0,0,0,0,0,0
1.0167,1.0312,1.0068,0,0,0,0,0,0,0,0,0,0,0,0
1.0167,1.0312,1.0068,0,0,0,0,0,0,0,0,0,0,0,0
1.0167,1.0312,1.0068,0,0,0,0,0,0,0,0,0,0,0,0
1.0167,1.0312,1.0068,0,0,0,0,0,0,0,0,0,0,0,0
1.0167,1.0312,1.0068,0,0,0,0,0,0,0,0,0,0,0,0
1.0167,1.0312,1.0068,0,0,0,0,0,0,0,0,0,0,0,0
1.0167,1.0312,1.0068,0,0,0,0,0,0,0,0,0,0,0,0
1.0167,1.0312,1.0068,0,0,0,0,0,0,0,0,0,0,0,0
1.0167,1.0312,1.0068,0,0,0,0,0,0,0,0,0,0,0,0
1.0167,1.0312,1.0068,0,0,0,0,0,0,0,0,0,0,0,0
1.0167,1.0312,1.0068,0,0,0,0,0,0,0,0,0,0,0,0
1.0167,1.0312,1.0068,0,0,0,0,0,0,0,0,0,0,0,0
1.0167,1.0312,1.0068,0,0,0,0,0,0,0,0,0,0,0,0
1.0167,1.0312,1.0068,0,0,0,0,0,0,0,0,0,0,0,0
1.0167,1.0312,1.0068,0,0,0,0,0,0,0,0,0,0,0,0
1.0167,1.0312,1.0068,0,0,0,0,0,0,0,0,0,0,0,0
1.0167,1.0312,1.0068,0,0,0,0,0,0,0,0,0,0,0,0
1.0167,1.0312,1.0068,0,0,0,0,0,0,0,0,0,0,0,0
1.0167,1.0312,1.0068,0,0,0,0,0,0,0,0,0,0,0,0
1.0167,1.0312,1.0068,0,0,0,0,0,0,0,0,0,0,0,0
1.0167,1.0312,1.0068,0,0,0,0,0,0,0,0,0,0,0,0
1.0167,1.0312,1.0068,0,0,0,0,0,0,0,0,0,0,0,0
1.0167,1.0312,1.0068,0,0,0,0,0,0,0,0,0,0,0,0
1.0167,1.0312,1.0068,0,0,0,0,0,0,0,0,0,0,0,0
1.0167,1.0312,1.0068,0,0,0,0,0,0,0,0,0,0,0,0
1.0167,1.0312,1.0068,0,0,0,0,0,0,0,0,0,0,0,0
1.0167,1.0312,1.0068,0,0,0,0,0,0,0,0,0,0,0,0
1.0167,1.0312,1.0068,0,0,0,0,0,0,0,0,0,0,0,0
1.0167,1.0312,1.0068,0,0,0,0,0,0,0,0,0,0,0,0
1.0167,1.0312,1.0068,0,0,0,0,0,0,0,0,0,0,0,0
1.0167,1.0312,1.0068,0,0,0,0,0,0,0,0,0,0,0,0
1.0167,1.0312,1.0068,0,0,0,0,0,0,0,0,0,0,0,0
1.0167,1.0312,1.0068,0,0,0,0,0,0,0,0,0,0,0,0
1.0167,1.0312,1.0068,0,0,0,0,0,0,0,0,0,0,0,0
1.0167,1.0312,1.0068,0,0,0,0,0,0,0,0,0,0,0,0
1.0167,1.0312,1.0068,0,0,0,0,0,0,0,0,0,0,0,0
1.0167,1.0312,1.0068,0,0,0,0,0,0,0,0,0,0,0,0
1.0167,1.0312,1.0068,0,0,0,0,0,0,0,0,0,0,0,0
1.0167,1.0312,1.0068,0,0,0,0,0,0,0,0,0,0,0,0
1.0167,1.0312,1.0068,0,0,0,0,0,0,0,0,0,0,0,0
1.0167,1.0312,1.0068,0,0,0,0,0,0,0,0,0,0,0,0
1.0167,1.0312,1.0068,0,0,0,0,0,0,0,0,0,0,0,0
1.0167,1.0312,1.0068,0,0,0,0,0,0,0,0,0,0,0,0
1.0167,1.0312,1.0068,0,0,0,0,0,0,0,0,0,0,0,0
1.0167,1.0312,1.0068,0,0,0,0,0,0,0,0,0,0,0,0
1.0167,1.0312,1.0068,0,0,0,0,0,0,0,0,0,0,0,0
1.0167,1.0312,1.0068,0,0,0,0,0,0,0,0,0,0,0,0
1.0167,1.0312,1.0068,0,0,0,0,0,0,0,0,0,0,0,0
1.0167,1.0312,1.0068,0,0,0,0,0,0,0,0,0,0,0,0
1.0167,1.0312,1.0068,0,0,0,0,0,0,0,0,0,0,0,0
1.0167,1.0312,1.0068,0,0,0,0,0,0,0,0,0,0,0,0
1.0167,1.0312,1.0068,0,0,0,0,0,0,0,0,0,0,0,0
1.0167,1.0312,1.0068,0,0,0,0,0,0,0,0,0,0,0,0
1.0167,1.0312,1.0068,0,0,0,0,0,0,0,0,0,0,0,0
1.0167,1.0312,1.0068,0,0,0,0,0,0,0,0,0,0,0,0
1.0167,1.0312,1.0068,0,0,0,0,0,0,0,0,0,0,0,0
1.0167,1.0312,1.0068,0,0,0,0,0,0,0,0,0,0,0,0
1.0167,1.0312,1.0068,0,0,0,0,0,0,0,0,0,0,0,0
1.0167,1.0312,1.0068,0,0,0,0,0,0,0,0,0,0,0,0
1.0167,1.0312,1.0068,0,0,0,0,0,0,0,0,0,0,0,0
1.0167,1.0312,1.0068,0,0,0,0,0,0,0,0,0,0,0,0
1.0167,1.0312,1.0068,0,0,0,0,0,0,0,0,0,0,0,0
1.0167,1.0312,1.0068,0,0,0,0,0,0,0,0,0,0,0,0
1.0167,1.0312,1.0068,0,0,0,0,0,0,0,0,0,0,0,0
1.0167,1.0312,1.0068,0,0,0,0,0,0,0,0,0,0,0,0
1.0167,1.0312,1.0068,0,0,0,0,0,0,0,0,0,0,0,0
1.0167,1.0312,1.0068,0,0,0,0,0,0,0,0,0,0,0,0
1.0167,1.0312,1.0068,0,0,0,0,0,0,0,0,0,0,0,0
1.0167,1.0312,1.0068,0,0,0,0,0,0,0,0,0,0,0,0
1.0167,1.0312,1.0068,0,0,0,0,0,0,0,0,0,0,0,0
1.0167,1.0312,1.0068,0,0,0,0,0,0,0,0,0,0,0,0
1.0167,1.0312,1.0068,0,0,0,0,0,0,0,0,0,0,0,0
1.0167,1.0312,1.0068,0,0,0,0,0,0,0,0,0,0,0,0
1.0167,1.0312,1.0068,0,0,0,0,0,0,0,0,0,0,0,0
1.0167,1.0312,1.0068,0,0,0,0,0,0,0,0,0,0,0,0
1.0167,1.0312,1.0068,0,0,0,0,0,0,0,0,0,0,0,0
1.0167,1.0312,1.0068,0,0,0,0,0,0,0,0,0,0,0,0
1.0167,1.0312,1.0068,0,0,0,0,0,0,0,0,0,0,0,0
1.0167,1.0312,1.0068,0,0,0,0,0,0,0,0,0,0,0,0
1.0167,1.0312,1.0068,0,0,0,0,0,0,0,0,0,0,0,0
1.0167,1.0312,1.0068,0,0,0,0,0,0,0,0,0,0,0,0
1.0167,1.0312,1.0068,0,0,0,0,0,0,0,0,0,0,0,0
1.0167,1.0312,1.0068,0,0,0,0,0,0,0,0,0,0,0,0
1.0167,1.0312,1.0068,0,0,0,0,0,0,0,0,0,0,0,0
1.0167,1.0312,1.0068,0,0,0,0,0,0,0,0,0,0,0,0
1.0167,1.0312,1.0068,0,0,0,0,0,0,0,0,0,0,0,0
1.0167,1.0312,1.0068,0,0,0,0,0,0,0,0,0,0,0,0
1.0167,1.0312,1.0068,0,0,0,0,0,0,0,0,0,0,0,0
1.0167,1.0312,1.0068,0,0,0,0,0,0,0,0,0,0,0,0
1.0167,1.0312,1.0068,0,0,0,0,0,0,0,0,0,0,0,0
1.0167,1.0312,1.0068,0,0,0,0,0,0,0,0,0,0,0,0
1.0167,1.0312,1.0068,0,0,0,0,0,0,0,0,0,0,0,0
1.0167,1.0312,1.0068,0,0,0,0,0,0,0,0,0,0,0,0
1.0167,1.0312,1.0068,0,0,0,0,0,0,0,0,0,0,0,0
1.0167,1.0312,1.0068,0,0,0,0,0,0,0,0,0,0,0,0
1.0167,1.0312,1.0068,0,0,0,0,0,0,0,0,0,0,0,0
1.0167,1.0312,1.0068,0,0,0,0,0,0,0,0,0,0,0,0
1.0167,1.0312,1.0068,0,0,0,0,0,0,0,0,0,0,0,0
1.0167,1.0312,1.0068,0,0,0,0,0,0,0,0,0,0,0,0
1.0167,1.0312,1.0068,0,0,0,0,0,0,0,0,0,0,0,0
1.0167,1.0312,1.0068,0,0,0,0,0,0,0,0,0,0,0,0
1.0167,1.0312,1.0068,0,0,0,0,0,0,0,0,0,0,0,0
1.0167,1.0312,1.0068,0,0,0,0,0,0,0,0,0,0,0,0
1.0167,1.0312,1.0068,0,0,0,0,0,0,0,0,0,0,0,0
1.0167,1.0312,1.0068,0,0,0,0,0,0,0,0,0,0,0,0
1.0167,1.0312,1.0068,0,0,0,0,0,0,0,0,0,0,0,0
1.0167,1.0312,1.0068,0,0,0,0,0,0,0,0,0,0,0,0
1.0167,1.0312,1.0068,0,0,0,0,0,0,0,0,0,0,0,0
1.0167,1.0312,1.0068,0,0,0,0,0,0,0,0,0,0,0,0
1.0167,1.0312,1.0068,0,0,0,0,0,0,0,0,0,0,0,0
1.0167,1.0312,1.0068,0,0,0,0,0,0,0,0,0,0,0,0
1.0167,1.0312,1.0068,0,0,0,0,0,0,0,0,0,0,0,0
1.0167,1.0312,1.0068,0,0,0,0,0,0,0,0,0,0,0,0
1.0167,1.0312,1.0068,0,0,0,0,0,0,0,0,0,0,0,0
1.0167,1.0312,1.0068,0,0,0,0,0,0,0,0,0,0,0,0
1.0167,1.0312,1.0068,0,0,0,0,0,0,0,0,0,0,0,0
1.0167,1.0312,1.0068,0,0,0,0,0,0,0,0,0,0,0,0
1.0167,1.0312,1.0068,0,0,0,0,0,0,0,0,0,0,0,0
1.0167,1.0312,1.0068,0,0,0,0,0,0,0,0,0,0,0,0
1.0167,1.0312,1.0068,0,0,0,0,0,0,0,0,0,0,0,0
1.0167,1.0312,1.0068,0,0,0,0,0,0,0,0,0,0,0,0
1.0167,1.0312,1.0068,0,0,0,0,0,0,0,0,0,0,0,0
1.0167,1.0312,1.0068,0,0,0,0,0,0,0,0,0,0,0,0
1.0167,1.0312,1.0068,0,0,0,0,0,0,0,0,0,0,0,0
1.0167,1.0312,1.0068,0,0,0,0,0,0,0,0,0,0,0,0
1.0167,1.0312,1.0068,0,0,0,0,0,0,0,0,0,0,0,0
1.0167,1.0312,1.0068,0,0,0,0,0,0,0,0,0,0,0,0
1.0167,1.0312,1.0068,0,0,0,0,0,0,0,0,0,0,0,0
1.0167,1.0312,1.0068,0,0,0,0,0,0,0,0,0,0,0,0
1.0167,1.0312,1.0068,0,0,0,0,0,0,0,0,0,0,0,0
1.0167,1.0312,1.0068,0,0,0,0,0,0,0,0,0,0,0,0
1.0167,1.0312,1.0068,0,0,0,0,0,0,0,0,0,0,0,0
1.0167,1.0312,1.0068,0,0,0,0,0,0,0,0,0,0,0,0
1.0167,1.0312,1.0068,0,0,0,0,0,0,0,0,0,0,0,0
1.0167,1.0312,1.0068,0,0,0,0,0,0,0,0,0,0,0,0
1.0167,1.0312,1.0068,0,0,0,0,0,0,0,0,0,0,0,0
1.0167,1.0312,1.0068,0,0,0,0,0,0,0,0,0,0,0,0
1.0167,1.0312,1.0068,0,0,0,0,0,0,0,0,0,0,0,0
1.0167,1.0312,1.0068,0,0,0,0,0,0,0,0,0,0,0,0
1.0167,1.0312,1.0068,0,0,0,0,0,0,0,0,0,0,0,0
1.0167,1.0312,1.0068,0,0,0,0,0,0,0,0,0,0,0,0
1.0167,1.0312,1.0068,0,0,0,0,0,0,0,0,0,0,0,0
1.0167,1.0312,1.0068,0,0,0,0,0,0,0,0,0,0,0,0
1.0167,1.0312,1.0068,0,0,0,0,0,0,0,0,0,0,0,0
1.0167,1.0312,1.0068,0,0,0,0,0,0,0,0,0,0,0,0
1.0167,1.0312,1.0068,0,0,0,0,0,0,0,0,0,0,0,0
1.0167,1.0312,1.0068,0,0,0,0,0,0,0,0,0,0,0,0
1.0167,1.0312,1.0068,0,0,0,0,0,0,0,0,0,0,0,0
1.0167,1.0312,1.0068,0,0,0,0,0,0,0,0,0,0,0,0
1.0167,1.0312,1.0068,0,0,0,0,0,0,0,0,0,0,0,0
1.0167,1.0312,1.0068,0,0,0,0,0,0,0,0,0,0,0,0
1.0167,1.0312,1.0068,0,0,0,0,0,0,0,0,0,0,0,0
1.0167,1.0312,1.0068,0,0,0,0,0,0,0,0,0,0,0,0
1.0167,1.0312,1.0068,0,0,0,0,0,0,0,0,0,0,0,0
1.0167,1.0312,1.0068,0,0,0,0,0,0,0,0,0,0,0,0
1.0167,1.0312,1.0068,0,0,0,0,0,0,0,0,0,0,0,0
1.0167,1.0312,1.0068,0,0,0,0,0,0,0,0,0,0,0,0
1.0167,1.0312,1.0068,0,0,0,0,0,0,0,0,0,0,0,0
1.0167,1.0312,1.0068,0,0,0,0,0,0,0,0,0,0,0,0
1.0167,1.0312,1.0068,0,0,0,0,0,0,0,0,0,0,0,0
1.0167,1.0312,1.0068,0,0,0,0,0,0,0,0,0,0,0,0
1.0167,1.0312,1.0068,0,0,0,0,0,0,0,0,0,0,0,0
1.0167,1.0312,1.0068,0,0,0,0,0,0,0,0,0,0,0,0
1.0167,1.0312,1.0068,0,0,0,0,0,0,0,0,0,0,0,0
1.0167,1.0312,1.0068,0,0,0,0,0,0,0,0,0,0,0,0
1.0167,1.0312,1.0068,0,0,0,0,0,0,0,0,0,0,0,0
1.0167,1.0312,1.0068,0,0,0,0,0,0,0,0,0,0,0,0
1.0167,1.0312,1.0068,0,0,0,0,0,0,0,0,0,0,0,0
1.0167,1.0312,1.0068,0,0,0,0,0,0,0,0,0,0,0,0
1.0167,1.0312,1.0068,0,0,0,0,0,0,0,0,0,0,0,0
1.0167,1.0312,1.0068,0,0,0,0,0,0,0,0,0,0,0,0
1.0167,1.0312,1.0068,0,0,0,0,0,0,0,0,0,0,0,0
1.0167,1.0312,1.0068,0,0,0,0,0,0,0,0,0,0,0,0
1.0167,1.0312,1.0068,0,0,0,0,0,0,0,0,0,0,0,0
1.0167,1.0312,1.0068,0,0,0,0,0,0,0,0,0,0,0,0
1.0167,1.0312,1.0068,0,0,0,0,0,0,0,0,0,0,0,0
1.0167,1.0312,1.0068,0,0,0,0,0,0,0,0,0,0,0,0
1.0167,1.0312,1.0068,0,0,0,0,0,0,0,0,0,0,0,0
1.0167,1.0312,1.0068,0,0,0,0,0,0,0,0,0,0,0,0
1.0167,1.0312,1.0068,0,0,0,0,0,0,0,0,0,0,0,0
1.0167,1.0312,1.0068,0,0,0,0,0,0,0,0,0,0,0,0
1.0167,1.0312,1.0068,0,0,0,0,0,0,0,0,0,0,0,0
1.0167,1.0312,1.0068,0,0,0,0,0,0,0,0,0,0,0,0
1.0167,1.0312,1.0068,0,0,0,0,0,0,0,0,0,0,0,0
1.0167,1.0312,1.0068,0,0,0,0,0,0,0,0,0,0,0,0
1.0167,1.0312,1.0068,0,0,0,0,0,0,0,0,0,0,0,0
1.0167,1.0312,1.0068,0,0,0,0,0,0,0,0,0,0,0,0
1.0167,1.0312,1.0068,0,0,0,0,0,0,0,0,0,0,0,0
1.0167,1.0312,1.0068,0,0,0,0,0,0,0,0,0,0,0,0
1.0167,1.0312,1.0068,0,0,0,0,0,0,0,0,0,0,0,0
1.0167,1.0312,1.0068,0,0,0,0,0,0,0,0,0,0,0,0
1.0167,1.0312,1.0068,0,0,0,0,0,0,0,0,0,0,0,0
1.0167,1.0312,1.0068,0,0,0,0,0,0,0,0,0,0,0,0
1.0167,1.0312,1.0068,0,0,0,0,0,0,0,0,0,0,0,0
1.0167,1.0312,1.0068,0,0,0,0,0,0,0,0,0,0,0,0
1.0167,1.0312,1.0068,0,0,0,0,0,0,0,0,0,0,0,0
1.0167,1.0312,1.0068,0,0,0,0,0,0,0,0,0,0,0,0
1.0167,1.0312,1.0068,0,0,0,0,0,0,0,0,0,0,0,0
1.0167,1.0312,1.0068,0,0,0,0,0,0,0,0,0,0,0,0
1.0167,1.0312,1.0068,0,0,0,0,0,0,0,0,0,0,0,0
1.0167,1.0312,1.0068,0,0,0,0,0,0,0,0,0,0,0,0
1.0167,1.0312,1.0068,0,0,0,0,0,0,0,0,0,0,0,0
1.0167,1.0312,1.0068,0,0,0,0,0,0,0,0,0,0,0,0
1.0167,1.0312,1.0068,0,0,0,0,0,0,0,0,0,0,0,0
1.0167,1.0312,1.0068,0,0,0,0,0,0,0,0,0,0,0,0
1.0167,1.0312,1.0068,0,0,0,0,0,0,0,0,0,0,0,0
1.0167,1.0312,1.0068,0,0,0,0,0,0,0,0,0,0,0,0
1.0167,1.0312,1.0068,0,0,0,0,0,0,0,0,0,0,0,0
1.0167,1.0312,1.0068,0,0,0,0,0,0,0,0,0,0,0,0
1.0167,1.0312,1.0068,0,0,0,0,0,0,0,0,0,0,0,0
1.0167,1.0312,1.0068,0,0,0,0,0,0,0,0,0,0,0,0
1.0167,1.0312,1.0068,0,0,0,0,0,0,0,0,0,0,0,0
1.0167,1.0312,1.0068,0,0,0,0,0,0,0,0,0,0,0,0
1.0167,1.0312,1.0068,0,0,0,0,0,0,0,0,0,0,0,0
1.0167,1.0312,1.0068,0,0,0,0,0,0,0,0,0,0,0,0
1.0167,1.0312,1.0068,0,0,0,0,0,0,0,0,0,0,0,0
1.0167,1.0312,1.0068,0,0,0,0,0,0,0,0,0,0,0,0
1.0167,1.0312,1.0068,0,0,0,0,0,0,0,0,0,0,0,0
1.0167,1.0312,1.0068,0,0,0,0,0,0,0,0,0,0,0,0
1.0167,1.0312,1.0068,0,0,0,0,0,0,0,0,0,0,0,0
1.0167,1.0312,1.0068,0,0,0,0,0,0,0,0,0,0,0,0
1.0167,1.0312,1.0068,0,0,0,0,0,0,0,0,0,0,0,0
1.0167,1.0312,1.0068,0,0,0,0,0,0,0,0,0,0,0,0
1.0167,1.0312,1.0068,0,0,0,0,0,0,0,0,0,0,0,0
1.0167,1.0312,1.0068,0,0,0,0,0,0,0,0,0,0,0,0
1.0167,1.0312,1.0068,0,0,0,0,0,0,0,0,0,0,0,0
1.0167,1.0312,1.0068,0,0,0,0,0,0,0,0,0,0,0,0
1.0167,1.0312,1.0068,0,0,0,0,0,0,0,0,0,0,0,0
1.0167,1.0312,1.0068,0,0,0,0,0,0,0,0,0,0,0,0
1.0167,1.0312,1.0068,0,0,0,0,0,0,0,0,0,0,0,0
1.0167,1.0312,1.0068,0,0,0,0,0,0,0,0,0,0,0,0
1.0167,1.0312,1.0068,0,0,0,0,0,0,0,0,0,0,0,0
1.0167,1.0312,1.0068,0,0,0,0,0,0,0,0,0,0,0,0
1.0167,1.0312,1.0068,0,0,0,0,0,0,0,0,0,0,0,0
1.0167,1.0312,1.0068,0,0,0,0,0,0,0,0,0,0,0,0
1.0167,1.0312,1.0068,0,0,0,0,0,0,0,0,0,0,0,0
1.0167,1.0312,1.0068,0,0,0,0,0,0,0,0,0,0,0,0
1.0167,1.0312,1.0068,0,0,0,0,0,0,0,0,0,0,0,0
1.0167,1.0312,1.0068,0,0,0,0,0,0,0,0,0,0,0,0
1.0167,1.0312,1.0068,0,0,0,0,0,0,0,0,0,0,0,0
1.0167,1.0312,1.0068,0,0,0,0,0,0,0,0,0,0,0,0
1.0167,1.0312,1.0068,0,0,0,0,0,0,0,0,0,0,0,0
1.0167,1.0312,1.0068,0,0,0,0,0,0,0,0,0,0,0,0
1.0167,1.0312,1.0068,0,0,0,0,0,0,0,0,0,0,0,0
1.0167,1.0312,1.0068,0,0,0,0,0,0,0,0,0,0,0,0
1.0167,1.0312,1.0068,0,0,0,0,0,0,0,0,0,0,0,0
1.0167,1.0312,1.0068,0,0,0,0,0,0,0,0,0,0,0,0
1.0167,1.0312,1.0068,0,0,0,0,0,0,0,0,0,0,0,0
1.0167,1.0312,1.0068,0,0,0,0,0,0,0,0,0,0,0,0
1.0167,1.0312,1.0068,0,0,0,0,0,0,0,0,0,0,0,0
1.0167,1.0312,1.0068,0,0,0,0,0,0,0,0,0,0,0,0
1.0167,1.0312,1.0068,0,0,0,0,0,0,0,0,0,0,0,0
1.0167,1.0312,1.0068,0,0,0,0,0,0,0,0,0,0,0,0
1.0167,1.0312,1.0068,0,0,0,0,0,0,0,0,0,0,0,0
1.0167,1.0312,1.0068,0,0,0,0,0,0,0,0,0,0,0,0
1.0167,1.0312,1.0068,0,0,0,0,0,0,0,0,0,0,0,0
1.0167,1.0312,1.0068,0,0,0,0,0,0,0,0,0,0,0,0
1.0167,1.0312,1.0068,0,0,0,0,0,0,0,0,0,0,0,0
1.0167,1.0312,1.0068,0,0,0,0,0,0,0,0,0,0,0,0
1.0167,1.0312,1.0068,0,0,0,0,0,0,0,0,0,0,0,0
1.0167,1.0312,1.0068,0,0,0,0,0,0,0,0,0,0,0,0
1.0167,1.0312,1.0068,0,0,0,0,0,0,0,0,0,0,0,0
1.0167,1.0312,1.0068,0,0,0,0,0,0,0,0,0,0,0,0
1.0167,1.0312,1.0068,0,0,0,0,0,0,0,0,0,0,0,0
1.0167,1.0312,1.0068,0,0,0,0,0,0,0,0,0,0,0,0
1.0167,1.0312,1.0068,0,0,0,0,0,0,0,0,0,0,0,0
1.0167,1.0312,1.0068,0,0,0,0,0,0,0,0,0,0,0,0
1.0167,1.0312,1.0068,0,0,0,0,0,0,0,0,0,0,0,0
1.0167,1.0312,1.0068,0,0,0,0,0,0,0,0,0,0,0,0
1.0167,1.0312,1.0068,0,0,0,0,0,0,0,0,0,0,0,0
1.0167,1.0312,1.0068,0,0,0,0,0,0,0,0,0,0,0,0
1.0167,1.0312,1.0068,0,0,0,0,0,0,0,0,0,0,0,0
1.0167,1.0312,1.0068,0,0,0,0,0,0,0,0,0,0,0,0
1.0167,1.0312,1.0068,0,0,0,0,0,0,0,0,0,0,0,0
1.0167,1.0312,1.0068,0,0,0,0,0,0,0,0,0,0,0,0
1.0167,1.0312,1.0068,0,0,0,0,0,0,0,0,0,0,0,0
1.0167,1.0312,1.0068,0,0,0,0,0,0,0,0,0,0,0,0
1.0167,1.0312,1.0068,0,0,0,0,0,0,0,0,0,0,0,0
1.0167,1.0312,1.0068,0,0,0,0,0,0,0,0,0,0,0,0
1.0167,1.0312,1.0068,0,0,0,0,0,0,0,0,0,0,0,0
1.0167,1.0312,1.0068,0,0,0,0,0,0,0,0,0,0,0,0
1.0167,1.0312,1.0068,0,0,0,0,0,0,0,0,0,0,0,0
1.0167,1.0312,1.0068,0,0,0,0,0,0,0,0,0,0,0,0
1.0167,1.0312,1.0068,0,0,0,0,0,0,0,0,0,0,0,0
1.0167,1.0312,1.0068,0,0,0,0,0,0,0,0,0,0,0,0
1.0167,1.0312,1.0068,0,0,0,0,0,0,0,0,0,0,0,0
1.0167,1.0312,1.0068,0,0,0,0,0,0,0,0,0,0,0,0
1.0167,1.0312,1.0068,0,0,0,0,0,0,0,0,0,0,0,0
1.0167,1.0312,1.0068,0,0,0,0,0,0,0,0,0,0,0,0
1.0167,1.0312,1.0068,0,0,0,0,0,0,0,0,0,0,0,0
1.0167,1.0312,1.0068,0,0,0,0,0,0,0,0,0,0,0,0
1.0167,1.0312,1.0068,0,0,0,0,0,0,0,0,0,0,0,0
1.0167,1.0312,1.0068,0,0,0,0,0,0,0,0,0,0,0,0
1.0167,1.0312,1.0068,0,0,0,0,0,0,0,0,0,0,0,0
1.0167,1.0312,1.0068,0,0,0,0,0,0,0,0,0,0,0,0
1.0167,1.0312,1.0068,0,0,0,0,0,0,0,0,0,0,0,0
1.0167,1.0312,1.0068,0,0,0,0,0,0,0,0,0,0,0,0
1.0167,1.0312,1.0068,0,0,0,0,0,0,0,0,0,0,0,0
1.0167,1.0312,1.0068,0,0,0,0,0,0,0,0,0,0,0,0
1.0167,1.0312,1.0068,0,0,0,0,0,0,0,0,0,0,0,0
1.0167,1.0312,1.0068,0,0,0,0,0,0,0,0,0,0,0,0
1.0167,1.0312,1.0068,0,0,0,0,0,0,0,0,0,0,0,0
1.0167,1.0312,1.0068,0,0,0,0,0,0,0,0,0,0,0,0
1.0167,1.0312,1.0068,0,0,0,0,0,0,0,0,0,0,0,0
1.0167,1.0312,1.0068,0,0,0,0,0,0,0,0,0,0,0,0
1.0167,1.0312,1.0068,0,0,0,0,0,0,0,0,0,0,0,0
1.0167,1.0312,1.0068,0,0,0,0,0,0,0,0,0,0,0,0
1.0167,1.0312,1.0068,0,0,0,0,0,0,0,0,0,0,0,0
1.0167,1.0312,1.0068,0,0,0,0,0,0,0,0,0,0,0,0
1.0167,1.0312,1.0068,0,0,0,0,0,0,0,0,0,0,0,0
1.0167,1.0312,1.0068,0,0,0,0,0,0,0,0,0,0,0,0
