1
528.500000,60.000000,19.000000,20.000000
524.500000,64.000000,19.000000,20.000000
520.500000,80.000000,19.000000,20.000000
520.500000,88.000000,19.000000,20.000000
520.500000,104.000000,19.000000,20.000000
516.500000,116.000000,19.000000,20.000000
516.500000,124.000000,19.000000,20.000000
512.500000,144.000000,19.000000,20.000000
512.500000,148.000000,19.000000,20.000000
520.500000,164.000000,19.000000,20.000000
528.500000,168.000000,19.000000,20.000000
532.500000,176.000000,19.000000,20.000000
540.500000,184.000000,19.000000,20.000000
544.500000,188.000000,19.000000,20.000000
2
0
0
0
0
1
605.260010,260.760010,15.340027,14.339996
613.260010,256.760010,15.340027,14.339996
613.260010,264.760010,15.340027,14.339996
617.260010,264.760010,15.340027,14.339996
621.260010,264.760010,15.340027,14.339996
625.260010,268.760010,15.340027,14.339996
625.260010,264.760010,15.340027,14.339996
629.260010,268.760010,15.340027,14.339996
633.260010,272.760010,15.340027,14.339996
637.260010,272.760010,15.340027,14.339996
637.260010,272.760010,15.340027,14.339996
637.260010,268.760010,15.340027,14.339996
641.260010,268.760010,15.340027,14.339996
641.260010,268.760010,15.340027,14.339996
641.260010,272.760010,15.340027,14.339996
641.260010,272.760010,15.340027,14.339996
641.260010,276.760010,15.340027,14.339996
645.260010,276.760010,15.340027,14.339996
649.260010,276.760010,15.340027,14.339996
649.260010,276.760010,15.340027,14.339996
