1
1098.399902,606.099976,48.100098,68.400024
1098.399902,606.099976,48.100098,68.400024
1062.399902,602.099976,48.100098,68.400024
1062.399902,610.099976,48.100098,68.400024
2
0
0
0
0
1
871.275024,595.849976,67.349976,48.900024
859.275024,587.849976,67.349976,48.900024
835.275024,575.849976,67.349976,48.900024
835.275024,571.849976,67.349976,48.900024
823.275024,563.849976,67.349976,48.900024
815.275024,563.849976,67.349976,48.900024
815.275024,559.849976,67.349976,48.900024
803.275024,559.849976,67.349976,48.900024
791.275024,559.849976,67.349976,48.900024
791.275024,559.849976,67.349976,48.900024
779.275024,547.849976,67.349976,48.900024
775.275024,547.849976,67.349976,48.900024
775.275024,547.849976,67.349976,48.900024
775.275024,547.849976,67.349976,48.900024
779.275024,547.849976,67.349976,48.900024
807.275024,571.849976,67.349976,48.900024
815.275024,575.849976,67.349976,48.900024
791.275024,539.849976,67.349976,48.900024
791.275024,523.849976,67.349976,48.900024
791.275024,511.849976,67.349976,48.900024
791.275024,503.849976,67.349976,48.900024
791.275024,491.849976,67.349976,48.900024
791.275024,483.849976,67.349976,48.900024
779.275024,479.849976,67.349976,48.900024
779.275024,479.849976,67.349976,48.900024
771.275024,475.849976,67.349976,48.900024
771.275024,471.849976,67.349976,48.900024
2
0
0
0
0
1
652.579956,463.159973,40.420044,29.340027
632.579956,459.159973,40.420044,29.340027
612.579956,455.159973,40.420044,29.340027
588.579956,451.159973,40.420044,29.340027
564.579956,451.159973,40.420044,29.340027
536.579956,447.159973,40.420044,29.340027
508.579956,443.159973,40.420044,29.340027
476.579956,443.159973,40.420044,29.340027
444.579956,439.159973,40.420044,29.340027
412.579956,439.159973,40.420044,29.340027
376.579956,439.159973,40.420044,29.340027
340.579956,439.159973,40.420044,29.340027
300.579956,439.159973,40.420044,29.340027
260.579956,439.159973,40.420044,29.340027
216.579956,439.159973,40.420044,29.340027
172.579956,439.159973,40.420044,29.340027
128.579956,439.159973,40.420044,29.340027
96.579956,443.159973,40.420044,29.340027
2
