1.4209,1.3322,1.2792,0,0,0,0,0,0,0,0,0,0,0,0
1.4209,1.3322,1.2792,0,0,0,0,0,0,0,0,0,0,0,0
1.4209,1.3322,1.2792,0,0,0,0,0,0,0,0,0,0,0,0
1.4209,1.3322,1.2792,0,0,0,0,0,0,0,0,0,0,0,0
1.4209,1.3322,1.2792,0,0,0,0,0,0,0,0,0,0,0,0
1.4209,1.3322,1.2792,0,0,0,0,0,0,0,0,0,0,0,0
1.4209,1.3322,1.2792,0,0,0,0,0,0,0,0,0,0,0,0
1.4209,1.3322,1.2792,0,0,0,0,0,0,0,0,0,0,0,0
1.4209,1.3322,1.2792,0,0,0,0,0,0,0,0,0,0,0,0
1.4209,1.3322,1.2792,0,0,0,0,0,0,0,0,0,0,0,0
1.4209,1.3322,1.2792,0,0,0,0,0,0,0,0,0,0,0,0
1.4209,1.3322,1.2792,0,0,0,0,0,0,0,0,0,0,0,0
1.4209,1.3322,1.2792,0,0,0,0,0,0,0,0,0,0,0,0
1.4209,1.3322,1.2792,0,0,0,0,0,0,0,0,0,0,0,0
1.4209,1.3322,1.2792,0,0,0,0,0,0,0,0,0,0,0,0
1.4209,1.3322,1.2792,0,0,0,0,0,0,0,0,0,0,0,0
1.4209,1.3322,1.2792,0,0,0,0,0,0,0,0,0,0,0,0
1.4209,1.3322,1.2792,0,0,0,0,0,0,0,0,0,0,0,0
1.4209,1.3322,1.2792,0,0,0,0,0,0,0,0,0,0,0,0
1.4209,1.3322,1.2792,0,0,0,0,0,0,0,0,0,0,0,0
1.4209,1.3322,1.2792,0,0,0,0,0,0,0,0,0,0,0,0
1.4209,1.3322,1.2792,0,0,0,0,0,0,0,0,0,0,0,0
1.4209,1.3322,1.2792,0,0,0,0,0,0,0,0,0,0,0,0
1.4209,1.3322,1.2792,0,0,0,0,0,0,0,0,0,0,0,0
1.4209,1.3322,1.2792,0,0,0,0,0,0,0,0,0,0,0,0
1.4209,1.3322,1.2792,0,0,0,0,0,0,0,0,0,0,0,0
1.4209,1.3322,1.2792,0,0,0,0,0,0,0,0,0,0,0,0
1.4209,1.3322,1.2792,0,0,0,0,0,0,0,0,0,0,0,0
1.4209,1.3322,1.2792,0,0,0,0,0,0,0,0,0,0,0,0
1.4209,1.3322,1.2792,0,0,0,0,0,0,0,0,0,0,0,0
1.4209,1.3322,1.2792,0,0,0,0,0,0,0,0,0,0,0,0
1.4209,1.3322,1.2792,0,0,0,0,0,0,0,0,0,0,0,0
1.4209,1.3322,1.2792,0,0,0,0,0,0,0,0,0,0,0,0
1.4209,1.3322,1.2792,0,0,0,0,0,0,0,0,0,0,0,0
1.4209,1.3322,1.2792,0,0,0,0,0,0,0,0,0,0,0,0
1.4209,1.3322,1.2792,0,0,0,0,0,0,0,0,0,0,0,0
1.4209,1.3322,1.2792,0,0,0,0,0,0,0,0,0,0,0,0
1.4209,1.3322,1.2792,0,0,0,0,0,0,0,0,0,0,0,0
1.4209,1.3322,1.2792,0,0,0,0,0,0,0,0,0,0,0,0
1.4209,1.3322,1.2792,0,0,0,0,0,0,0,0,0,0,0,0
1.4209,1.3322,1.2792,0,0,0,0,0,0,0,0,0,0,0,0
1.4209,1.3322,1.2792,0,0,0,0,0,0,0,0,0,0,0,0
1.4209,1.3322,1.2792,0,0,0,0,0,0,0,0,0,0,0,0
1.4209,1.3322,1.2792,0,0,0,0,0,0,0,0,0,0,0,0
1.4209,1.3322,1.2792,0,0,0,0,0,0,0,0,0,0,0,0
1.4209,1.3322,1.2792,0,0,0,0,0,0,0,0,0,0,0,0
1.4209,1.3322,1.2792,0,0,0,0,0,0,0,0,0,0,0,0
1.4209,1.3322,1.2792,0,0,0,0,0,0,0,0,0,0,0,0
1.4209,1.3322,1.2792,0,0,0,0,0,0,0,0,0,0,0,0
1.4209,1.3322,1.2792,0,0,0,0,0,0,0,0,0,0,0,0
1.4209,1.3322,1.2792,0,0,0,0,0,0,0,0,0,0,0,0
1.4209,1.3322,1.2792,0,0,0,0,0,0,0,0,0,0,0,0
1.4209,1.3322,1.2792,0,0,0,0,0,0,0,0,0,0,0,0
1.4209,1.3322,1.2792,0,0,0,0,0,0,0,0,0,0,0,0
1.4209,1.3322,1.2792,0,0,0,0,0,0,0,0,0,0,0,0
1.4209,1.3322,1.2792,0,0,0,0,0,0,0,0,0,0,0,0
1.4209,1.3322,1.2792,0,0,0,0,0,0,0,0,0,0,0,0
1.4209,1.3322,1.2792,0,0,0,0,0,0,0,0,0,0,0,0
1.4209,1.3322,1.2792,0,0,0,0,0,0,0,0,0,0,0,0
1.4209,1.3322,1.2792,0,0,0,0,0,0,0,0,0,0,0,0
1.4209,1.3322,1.2792,0,0,0,0,0,0,0,0,0,0,0,0
1.4209,1.3322,1.2792,0,0,0,0,0,0,0,0,0,0,0,0
1.4209,1.3322,1.2792,0,0,0,0,0,0,0,0,0,0,0,0
