1
149.000000,131.500000,78.000000,189.000000
149.000000,131.500000,78.000000,189.000000
145.000000,127.500000,78.000000,189.000000
141.000000,127.500000,78.000000,189.000000
141.000000,123.500000,78.000000,189.000000
137.000000,115.500000,78.000000,189.000000
133.000000,111.500000,78.000000,189.000000
129.000000,107.500000,78.000000,189.000000
125.000000,107.500000,78.000000,189.000000
121.000000,103.500000,78.000000,189.000000
117.000000,99.500000,78.000000,189.000000
117.000000,99.500000,78.000000,189.000000
113.000000,99.500000,78.000000,189.000000
109.000000,99.500000,78.000000,189.000000
105.000000,99.500000,78.000000,189.000000
105.000000,103.500000,78.000000,189.000000
101.000000,103.500000,78.000000,189.000000
101.000000,103.500000,78.000000,189.000000
101.000000,103.500000,78.000000,189.000000
101.000000,103.500000,78.000000,189.000000
101.000000,107.500000,78.000000,189.000000
101.000000,107.500000,78.000000,189.000000
97.000000,107.500000,78.000000,189.000000
101.000000,111.500000,78.000000,189.000000
101.000000,111.500000,78.000000,189.000000
101.000000,111.500000,78.000000,189.000000
97.000000,111.500000,78.000000,189.000000
97.000000,111.500000,78.000000,189.000000
97.000000,111.500000,78.000000,189.000000
97.000000,111.500000,78.000000,189.000000
97.000000,111.500000,78.000000,189.000000
97.000000,111.500000,78.000000,189.000000
97.000000,111.500000,78.000000,189.000000
97.000000,111.500000,78.000000,189.000000
97.000000,111.500000,78.000000,189.000000
101.000000,115.500000,78.000000,189.000000
101.000000,115.500000,78.000000,189.000000
101.000000,115.500000,78.000000,189.000000
101.000000,115.500000,78.000000,189.000000
101.000000,115.500000,78.000000,189.000000
101.000000,115.500000,78.000000,189.000000
101.000000,115.500000,78.000000,189.000000
101.000000,115.500000,78.000000,189.000000
101.000000,115.500000,78.000000,189.000000
101.000000,115.500000,78.000000,189.000000
101.000000,115.500000,78.000000,189.000000
105.000000,111.500000,78.000000,189.000000
105.000000,107.500000,78.000000,189.000000
113.000000,103.500000,78.000000,189.000000
117.000000,103.500000,78.000000,189.000000
125.000000,103.500000,78.000000,189.000000
141.000000,103.500000,78.000000,189.000000
149.000000,115.500000,78.000000,189.000000
161.000000,123.500000,78.000000,189.000000
157.000000,135.500000,78.000000,189.000000
161.000000,139.500000,78.000000,189.000000
161.000000,139.500000,78.000000,189.000000
157.000000,143.500000,78.000000,189.000000
165.000000,143.500000,78.000000,189.000000
169.000000,135.500000,78.000000,189.000000
173.000000,131.500000,78.000000,189.000000
161.000000,135.500000,78.000000,189.000000
165.000000,127.500000,78.000000,189.000000
161.000000,123.500000,78.000000,189.000000
165.000000,107.500000,78.000000,189.000000
165.000000,107.500000,78.000000,189.000000
161.000000,107.500000,78.000000,189.000000
161.000000,103.500000,78.000000,189.000000
157.000000,103.500000,78.000000,189.000000
157.000000,103.500000,78.000000,189.000000
157.000000,103.500000,78.000000,189.000000
157.000000,103.500000,78.000000,189.000000
157.000000,107.500000,78.000000,189.000000
157.000000,107.500000,78.000000,189.000000
157.000000,107.500000,78.000000,189.000000
157.000000,107.500000,78.000000,189.000000
157.000000,107.500000,78.000000,189.000000
157.000000,107.500000,78.000000,189.000000
157.000000,107.500000,78.000000,189.000000
153.000000,107.500000,78.000000,189.000000
153.000000,107.500000,78.000000,189.000000
153.000000,107.500000,78.000000,189.000000
153.000000,107.500000,78.000000,189.000000
153.000000,107.500000,78.000000,189.000000
153.000000,111.500000,78.000000,189.000000
153.000000,111.500000,78.000000,189.000000
153.000000,111.500000,78.000000,189.000000
153.000000,111.500000,78.000000,189.000000
153.000000,115.500000,78.000000,189.000000
153.000000,115.500000,78.000000,189.000000
153.000000,115.500000,78.000000,189.000000
157.000000,119.500000,78.000000,189.000000
157.000000,119.500000,78.000000,189.000000
157.000000,119.500000,78.000000,189.000000
157.000000,119.500000,78.000000,189.000000
157.000000,123.500000,78.000000,189.000000
161.000000,123.500000,78.000000,189.000000
161.000000,123.500000,78.000000,189.000000
161.000000,123.500000,78.000000,189.000000
161.000000,127.500000,78.000000,189.000000
161.000000,127.500000,78.000000,189.000000
161.000000,127.500000,78.000000,189.000000
165.000000,127.500000,78.000000,189.000000
165.000000,127.500000,78.000000,189.000000
165.000000,127.500000,78.000000,189.000000
165.000000,127.500000,78.000000,189.000000
165.000000,127.500000,78.000000,189.000000
169.000000,127.500000,78.000000,189.000000
169.000000,127.500000,78.000000,189.000000
169.000000,127.500000,78.000000,189.000000
169.000000,127.500000,78.000000,189.000000
169.000000,127.500000,78.000000,189.000000
169.000000,127.500000,78.000000,189.000000
169.000000,127.500000,78.000000,189.000000
169.000000,127.500000,78.000000,189.000000
169.000000,127.500000,78.000000,189.000000
169.000000,127.500000,78.000000,189.000000
169.000000,127.500000,78.000000,189.000000
173.000000,127.500000,78.000000,189.000000
173.000000,127.500000,78.000000,189.000000
173.000000,127.500000,78.000000,189.000000
173.000000,127.500000,78.000000,189.000000
173.000000,127.500000,78.000000,189.000000
173.000000,127.500000,78.000000,189.000000
173.000000,127.500000,78.000000,189.000000
173.000000,127.500000,78.000000,189.000000
173.000000,127.500000,78.000000,189.000000
173.000000,123.500000,78.000000,189.000000
173.000000,123.500000,78.000000,189.000000
173.000000,123.500000,78.000000,189.000000
177.000000,123.500000,78.000000,189.000000
177.000000,123.500000,78.000000,189.000000
177.000000,119.500000,78.000000,189.000000
177.000000,119.500000,78.000000,189.000000
177.000000,119.500000,78.000000,189.000000
173.000000,119.500000,78.000000,189.000000
173.000000,119.500000,78.000000,189.000000
173.000000,115.500000,78.000000,189.000000
173.000000,115.500000,78.000000,189.000000
173.000000,115.500000,78.000000,189.000000
173.000000,115.500000,78.000000,189.000000
169.000000,115.500000,78.000000,189.000000
169.000000,115.500000,78.000000,189.000000
169.000000,115.500000,78.000000,189.000000
165.000000,115.500000,78.000000,189.000000
161.000000,115.500000,78.000000,189.000000
157.000000,115.500000,78.000000,189.000000
153.000000,115.500000,78.000000,189.000000
145.000000,115.500000,78.000000,189.000000
145.000000,115.500000,78.000000,189.000000
141.000000,115.500000,78.000000,189.000000
141.000000,115.500000,78.000000,189.000000
137.000000,111.500000,78.000000,189.000000
137.000000,111.500000,78.000000,189.000000
133.000000,111.500000,78.000000,189.000000
133.000000,111.500000,78.000000,189.000000
129.000000,111.500000,78.000000,189.000000
129.000000,107.500000,78.000000,189.000000
129.000000,107.500000,78.000000,189.000000
129.000000,107.500000,78.000000,189.000000
125.000000,107.500000,78.000000,189.000000
125.000000,107.500000,78.000000,189.000000
125.000000,107.500000,78.000000,189.000000
125.000000,107.500000,78.000000,189.000000
121.000000,107.500000,78.000000,189.000000
121.000000,107.500000,78.000000,189.000000
113.000000,107.500000,78.000000,189.000000
109.000000,103.500000,78.000000,189.000000
101.000000,87.500000,78.000000,189.000000
93.000000,83.500000,78.000000,189.000000
89.000000,83.500000,78.000000,189.000000
85.000000,87.500000,78.000000,189.000000
81.000000,91.500000,78.000000,189.000000
77.000000,91.500000,78.000000,189.000000
69.000000,95.500000,78.000000,189.000000
61.000000,99.500000,78.000000,189.000000
57.000000,99.500000,78.000000,189.000000
49.000000,99.500000,78.000000,189.000000
45.000000,99.500000,78.000000,189.000000
37.000000,95.500000,78.000000,189.000000
33.000000,99.500000,78.000000,189.000000
25.000000,99.500000,78.000000,189.000000
13.000000,95.500000,78.000000,189.000000
1.000000,99.500000,78.000000,189.000000
-3.000000,103.500000,78.000000,189.000000
-7.000000,103.500000,78.000000,189.000000
-11.000000,103.500000,78.000000,189.000000
-19.000000,103.500000,78.000000,189.000000
-19.000000,103.500000,78.000000,189.000000
-19.000000,103.500000,78.000000,189.000000
-15.000000,107.500000,78.000000,189.000000
-15.000000,115.500000,78.000000,189.000000
5.000000,83.500000,78.000000,189.000000
13.000000,83.500000,78.000000,189.000000
17.000000,91.500000,78.000000,189.000000
13.000000,91.500000,78.000000,189.000000
17.000000,95.500000,78.000000,189.000000
21.000000,103.500000,78.000000,189.000000
49.000000,95.500000,78.000000,189.000000
57.000000,95.500000,78.000000,189.000000
57.000000,91.500000,78.000000,189.000000
61.000000,95.500000,78.000000,189.000000
61.000000,95.500000,78.000000,189.000000
61.000000,91.500000,78.000000,189.000000
65.000000,107.500000,78.000000,189.000000
61.000000,95.500000,78.000000,189.000000
61.000000,95.500000,78.000000,189.000000
61.000000,95.500000,78.000000,189.000000
57.000000,95.500000,78.000000,189.000000
49.000000,99.500000,78.000000,189.000000
73.000000,103.500000,78.000000,189.000000
81.000000,111.500000,78.000000,189.000000
77.000000,115.500000,78.000000,189.000000
69.000000,115.500000,78.000000,189.000000
73.000000,115.500000,78.000000,189.000000
2
0
0
0
0
1
150.260010,181.449982,56.459991,67.460007
150.260010,181.449982,56.459991,67.460007
150.260010,181.449982,56.459991,67.460007
154.260010,181.449982,56.459991,67.460007
154.260010,181.449982,56.459991,67.460007
158.260010,181.449982,56.459991,67.460007
158.260010,181.449982,56.459991,67.460007
162.260010,177.449982,56.459991,67.460007
166.260010,177.449982,56.459991,67.460007
170.260010,173.449982,56.459991,67.460007
170.260010,169.449982,56.459991,67.460007
174.260010,165.449982,56.459991,67.460007
178.260010,165.449982,56.459991,67.460007
178.260010,165.449982,56.459991,67.460007
182.260010,165.449982,56.459991,67.460007
182.260010,165.449982,56.459991,67.460007
182.260010,165.449982,56.459991,67.460007
182.260010,165.449982,56.459991,67.460007
190.260010,169.449982,56.459991,67.460007
198.260010,173.449982,56.459991,67.460007
218.260010,185.449982,56.459991,67.460007
230.260010,209.449982,56.459991,67.460007
234.260010,221.449982,56.459991,67.460007
234.260010,221.449982,56.459991,67.460007
226.260010,221.449982,56.459991,67.460007
226.260010,221.449982,56.459991,67.460007
226.260010,221.449982,56.459991,67.460007
226.260010,217.449982,56.459991,67.460007
226.260010,209.449982,56.459991,67.460007
222.260010,209.449982,56.459991,67.460007
222.260010,213.449982,56.459991,67.460007
218.260010,225.449982,56.459991,67.460007
222.260010,225.449982,56.459991,67.460007
226.260010,229.449982,56.459991,67.460007
222.260010,237.449982,56.459991,67.460007
218.260010,233.449982,56.459991,67.460007
214.260010,225.449982,56.459991,67.460007
214.260010,221.449982,56.459991,67.460007
214.260010,217.449982,56.459991,67.460007
214.260010,213.449982,56.459991,67.460007
218.260010,213.449982,56.459991,67.460007
218.260010,205.449982,56.459991,67.460007
218.260010,205.449982,56.459991,67.460007
214.260010,201.449982,56.459991,67.460007
214.260010,201.449982,56.459991,67.460007
214.260010,197.449982,56.459991,67.460007
214.260010,197.449982,56.459991,67.460007
214.260010,193.449982,56.459991,67.460007
218.260010,193.449982,56.459991,67.460007
214.260010,193.449982,56.459991,67.460007
214.260010,193.449982,56.459991,67.460007
214.260010,193.449982,56.459991,67.460007
214.260010,197.449982,56.459991,67.460007
214.260010,201.449982,56.459991,67.460007
222.260010,205.449982,56.459991,67.460007
234.260010,217.449982,56.459991,67.460007
242.260010,229.449982,56.459991,67.460007
258.260010,241.449982,56.459991,67.460007
274.260010,253.449982,56.459991,67.460007
294.260010,253.449982,56.459991,67.460007
314.260010,253.449982,56.459991,67.460007
334.260010,241.449982,56.459991,67.460007
366.260010,245.449982,56.459991,67.460007
398.260010,257.449982,56.459991,67.460007
430.260010,269.449982,56.459991,67.460007
466.260010,285.449982,56.459991,67.460007
498.260010,297.449982,56.459991,67.460007
530.260010,301.449982,56.459991,67.460007
562.260010,305.449982,56.459991,67.460007
590.260010,317.449982,56.459991,67.460007
