1
439.559998,175.559998,46.440002,46.440002
435.559998,175.559998,46.440002,46.440002
431.559998,175.559998,46.440002,46.440002
427.559998,175.559998,46.440002,46.440002
423.559998,175.559998,46.440002,46.440002
419.559998,171.559998,46.440002,46.440002
419.559998,171.559998,46.440002,46.440002
415.559998,167.559998,46.440002,46.440002
411.559998,167.559998,46.440002,46.440002
411.559998,167.559998,46.440002,46.440002
407.559998,163.559998,46.440002,46.440002
403.559998,159.559998,46.440002,46.440002
403.559998,159.559998,46.440002,46.440002
403.559998,159.559998,46.440002,46.440002
403.559998,155.559998,46.440002,46.440002
403.559998,155.559998,46.440002,46.440002
403.559998,151.559998,46.440002,46.440002
403.559998,151.559998,46.440002,46.440002
403.559998,151.559998,46.440002,46.440002
411.559998,143.559998,46.440002,46.440002
419.559998,139.559998,46.440002,46.440002
419.559998,139.559998,46.440002,46.440002
431.559998,131.559998,46.440002,46.440002
439.559998,131.559998,46.440002,46.440002
447.559998,131.559998,46.440002,46.440002
455.559998,127.559998,46.440002,46.440002
463.559998,123.559998,46.440002,46.440002
471.559998,119.559998,46.440002,46.440002
479.559998,115.559998,46.440002,46.440002
487.559998,115.559998,46.440002,46.440002
495.559998,107.559998,46.440002,46.440002
503.559998,107.559998,46.440002,46.440002
511.559998,103.559998,46.440002,46.440002
515.559998,103.559998,46.440002,46.440002
515.559998,103.559998,46.440002,46.440002
515.559998,103.559998,46.440002,46.440002
507.559998,111.559998,46.440002,46.440002
499.559998,111.559998,46.440002,46.440002
483.559998,115.559998,46.440002,46.440002
459.559998,123.559998,46.440002,46.440002
435.559998,123.559998,46.440002,46.440002
411.559998,131.559998,46.440002,46.440002
391.559998,139.559998,46.440002,46.440002
371.559998,147.559998,46.440002,46.440002
347.559998,155.559998,46.440002,46.440002
331.559998,163.559998,46.440002,46.440002
319.559998,171.559998,46.440002,46.440002
307.559998,179.559998,46.440002,46.440002
295.559998,183.559998,46.440002,46.440002
287.559998,183.559998,46.440002,46.440002
279.559998,167.559998,46.440002,46.440002
267.559998,155.559998,46.440002,46.440002
259.559998,127.559998,46.440002,46.440002
263.559998,159.559998,46.440002,46.440002
255.559998,167.559998,46.440002,46.440002
271.559998,151.559998,46.440002,46.440002
259.559998,151.559998,46.440002,46.440002
255.559998,139.559998,46.440002,46.440002
235.559998,143.559998,46.440002,46.440002
227.559998,123.559998,46.440002,46.440002
219.559998,119.559998,46.440002,46.440002
199.559998,123.559998,46.440002,46.440002
191.559998,119.559998,46.440002,46.440002
191.559998,115.559998,46.440002,46.440002
207.559998,111.559998,46.440002,46.440002
207.559998,111.559998,46.440002,46.440002
227.559998,95.559998,46.440002,46.440002
251.559998,95.559998,46.440002,46.440002
275.559998,95.559998,46.440002,46.440002
295.559998,95.559998,46.440002,46.440002
315.559998,99.559998,46.440002,46.440002
331.559998,103.559998,46.440002,46.440002
351.559998,111.559998,46.440002,46.440002
367.559998,119.559998,46.440002,46.440002
383.559998,123.559998,46.440002,46.440002
395.559998,131.559998,46.440002,46.440002
407.559998,139.559998,46.440002,46.440002
419.559998,139.559998,46.440002,46.440002
427.559998,135.559998,46.440002,46.440002
439.559998,123.559998,46.440002,46.440002
455.559998,107.559998,46.440002,46.440002
471.559998,95.559998,46.440002,46.440002
491.559998,83.559998,46.440002,46.440002
511.559998,79.559998,46.440002,46.440002
531.559998,79.559998,46.440002,46.440002
543.559998,91.559998,46.440002,46.440002
555.559998,103.559998,46.440002,46.440002
567.559998,111.559998,46.440002,46.440002
571.559998,123.559998,46.440002,46.440002
571.559998,127.559998,46.440002,46.440002
567.559998,127.559998,46.440002,46.440002
555.559998,123.559998,46.440002,46.440002
555.559998,115.559998,46.440002,46.440002
555.559998,131.559998,46.440002,46.440002
531.559998,127.559998,46.440002,46.440002
515.559998,115.559998,46.440002,46.440002
531.559998,127.559998,46.440002,46.440002
499.559998,123.559998,46.440002,46.440002
479.559998,143.559998,46.440002,46.440002
2
0
0
0
0
1
251.250000,96.500000,105.500000,139.000000
251.250000,92.500000,105.500000,139.000000
247.250000,92.500000,105.500000,139.000000
247.250000,96.500000,105.500000,139.000000
239.250000,96.500000,105.500000,139.000000
231.250000,100.500000,105.500000,139.000000
227.250000,104.500000,105.500000,139.000000
235.250000,132.500000,105.500000,139.000000
239.250000,136.500000,105.500000,139.000000
243.250000,136.500000,105.500000,139.000000
243.250000,136.500000,105.500000,139.000000
243.250000,140.500000,105.500000,139.000000
247.250000,140.500000,105.500000,139.000000
251.250000,140.500000,105.500000,139.000000
251.250000,144.500000,105.500000,139.000000
255.250000,172.500000,105.500000,139.000000
255.250000,176.500000,105.500000,139.000000
251.250000,188.500000,105.500000,139.000000
251.250000,192.500000,105.500000,139.000000
251.250000,196.500000,105.500000,139.000000
251.250000,204.500000,105.500000,139.000000
255.250000,208.500000,105.500000,139.000000
259.250000,212.500000,105.500000,139.000000
263.250000,216.500000,105.500000,139.000000
263.250000,220.500000,105.500000,139.000000
