1.859,1.7567,1.6803,0,0,0,0,0,0,0,0,0,0,0,0
1.859,1.7567,1.6803,0,0,0,0,0,0,0,0,0,0,0,0
1.859,1.7567,1.6803,0,0,0,0,0,0,0,0,0,0,0,0
1.859,1.7567,1.6803,0,0,0,0,0,0,0,0,0,0,0,0
1.859,1.7567,1.6803,0,0,0,0,0,0,0,0,0,0,0,0
1.859,1.7567,1.6803,0,0,0,0,0,0,0,0,0,0,0,0
1.859,1.7567,1.6803,0,0,0,0,0,0,0,0,0,0,0,0
1.859,1.7567,1.6803,0,0,0,0,0,0,0,0,0,0,0,0
1.859,1.7567,1.6803,0,0,0,0,0,0,0,0,0,0,0,0
1.859,1.7567,1.6803,0,0,0,0,0,0,0,0,0,0,0,0
1.859,1.7567,1.6803,0,0,0,0,0,0,0,0,0,0,0,0
1.859,1.7567,1.6803,0,0,0,0,0,0,0,0,0,0,0,0
1.859,1.7567,1.6803,0,0,0,0,0,0,0,0,0,0,0,0
1.859,1.7567,1.6803,0,0,0,0,0,0,0,0,0,0,0,0
1.859,1.7567,1.6803,0,0,0,0,0,0,0,0,0,0,0,0
1.859,1.7567,1.6803,0,0,0,0,0,0,0,0,0,0,0,0
1.859,1.7567,1.6803,0,0,0,0,0,0,0,0,0,0,0,0
1.859,1.7567,1.6803,0,0,0,0,0,0,0,0,0,0,0,0
1.859,1.7567,1.6803,0,0,0,0,0,0,0,0,0,0,0,0
1.859,1.7567,1.6803,0,0,0,0,0,0,0,0,0,0,0,0
1.859,1.7567,1.6803,0,0,0,0,0,0,0,0,0,0,0,0
1.859,1.7567,1.6803,0,0,0,0,0,0,0,0,0,0,0,0
1.859,1.7567,1.6803,0,0,0,0,0,0,0,0,0,0,0,0
1.859,1.7567,1.6803,0,0,0,0,0,0,0,0,0,0,0,0
1.859,1.7567,1.6803,0,0,0,0,0,0,0,0,0,0,0,0
1.859,1.7567,1.6803,0,0,0,0,0,0,0,0,0,0,0,0
1.859,1.7567,1.6803,0,0,0,0,0,0,0,0,0,0,0,0
1.859,1.7567,1.6803,0,0,0,0,0,0,0,0,0,0,0,0
1.859,1.7567,1.6803,0,0,0,0,0,0,0,0,0,0,0,0
1.859,1.7567,1.6803,0,0,0,0,0,0,0,0,0,0,0,0
1.859,1.7567,1.6803,0,0,0,0,0,0,0,0,0,0,0,0
1.859,1.7567,1.6803,0,0,0,0,0,0,0,0,0,0,0,0
1.859,1.7567,1.6803,0,0,0,0,0,0,0,0,0,0,0,0
1.859,1.7567,1.6803,0,0,0,0,0,0,0,0,0,0,0,0
1.859,1.7567,1.6803,0,0,0,0,0,0,0,0,0,0,0,0
1.859,1.7567,1.6803,0,0,0,0,0,0,0,0,0,0,0,0
1.859,1.7567,1.6803,0,0,0,0,0,0,0,0,0,0,0,0
1.859,1.7567,1.6803,0,0,0,0,0,0,0,0,0,0,0,0
1.859,1.7567,1.6803,0,0,0,0,0,0,0,0,0,0,0,0
1.859,1.7567,1.6803,0,0,0,0,0,0,0,0,0,0,0,0
1.859,1.7567,1.6803,0,0,0,0,0,0,0,0,0,0,0,0
1.859,1.7567,1.6803,0,0,0,0,0,0,0,0,0,0,0,0
1.859,1.7567,1.6803,0,0,0,0,0,0,0,0,0,0,0,0
1.859,1.7567,1.6803,0,0,0,0,0,0,0,0,0,0,0,0
1.859,1.7567,1.6803,0,0,0,0,0,0,0,0,0,0,0,0
1.859,1.7567,1.6803,0,0,0,0,0,0,0,0,0,0,0,0
1.859,1.7567,1.6803,0,0,0,0,0,0,0,0,0,0,0,0
1.859,1.7567,1.6803,0,0,0,0,0,0,0,0,0,0,0,0
1.859,1.7567,1.6803,0,0,0,0,0,0,0,0,0,0,0,0
1.859,1.7567,1.6803,0,0,0,0,0,0,0,0,0,0,0,0
1.859,1.7567,1.6803,0,0,0,0,0,0,0,0,0,0,0,0
1.859,1.7567,1.6803,0,0,0,0,0,0,0,0,0,0,0,0
1.859,1.7567,1.6803,0,0,0,0,0,0,0,0,0,0,0,0
1.859,1.7567,1.6803,0,0,0,0,0,0,0,0,0,0,0,0
1.859,1.7567,1.6803,0,0,0,0,0,0,0,0,0,0,0,0
1.859,1.7567,1.6803,0,0,0,0,0,0,0,0,0,0,0,0
1.859,1.7567,1.6803,0,0,0,0,0,0,0,0,0,0,0,0
1.859,1.7567,1.6803,0,0,0,0,0,0,0,0,0,0,0,0
1.859,1.7567,1.6803,0,0,0,0,0,0,0,0,0,0,0,0
1.859,1.7567,1.6803,0,0,0,0,0,0,0,0,0,0,0,0
1.859,1.7567,1.6803,0,0,0,0,0,0,0,0,0,0,0,0
1.859,1.7567,1.6803,0,0,0,0,0,0,0,0,0,0,0,0
1.859,1.7567,1.6803,0,0,0,0,0,0,0,0,0,0,0,0
1.859,1.7567,1.6803,0,0,0,0,0,0,0,0,0,0,0,0
1.859,1.7567,1.6803,0,0,0,0,0,0,0,0,0,0,0,0
1.859,1.7567,1.6803,0,0,0,0,0,0,0,0,0,0,0,0
1.859,1.7567,1.6803,0,0,0,0,0,0,0,0,0,0,0,0
1.859,1.7567,1.6803,0,0,0,0,0,0,0,0,0,0,0,0
1.859,1.7567,1.6803,0,0,0,0,0,0,0,0,0,0,0,0
1.859,1.7567,1.6803,0,0,0,0,0,0,0,0,0,0,0,0
1.859,1.7567,1.6803,0,0,0,0,0,0,0,0,0,0,0,0
1.859,1.7567,1.6803,0,0,0,0,0,0,0,0,0,0,0,0
1.859,1.7567,1.6803,0,0,0,0,0,0,0,0,0,0,0,0
1.859,1.7567,1.6803,0,0,0,0,0,0,0,0,0,0,0,0
1.859,1.7567,1.6803,0,0,0,0,0,0,0,0,0,0,0,0
1.859,1.7567,1.6803,0,0,0,0,0,0,0,0,0,0,0,0
1.859,1.7567,1.6803,0,0,0,0,0,0,0,0,0,0,0,0
1.859,1.7567,1.6803,0,0,0,0,0,0,0,0,0,0,0,0
1.859,1.7567,1.6803,0,0,0,0,0,0,0,0,0,0,0,0
1.859,1.7567,1.6803,0,0,0,0,0,0,0,0,0,0,0,0
1.859,1.7567,1.6803,0,0,0,0,0,0,0,0,0,0,0,0
1.859,1.7567,1.6803,0,0,0,0,0,0,0,0,0,0,0,0
1.859,1.7567,1.6803,0,0,0,0,0,0,0,0,0,0,0,0
1.859,1.7567,1.6803,0,0,0,0,0,0,0,0,0,0,0,0
1.859,1.7567,1.6803,0,0,0,0,0,0,0,0,0,0,0,0
1.859,1.7567,1.6803,0,0,0,0,0,0,0,0,0,0,0,0
1.859,1.7567,1.6803,0,0,0,0,0,0,0,0,0,0,0,0
1.859,1.7567,1.6803,0,0,0,0,0,0,0,0,0,0,0,0
1.859,1.7567,1.6803,0,0,0,0,0,0,0,0,0,0,0,0
1.859,1.7567,1.6803,0,0,0,0,0,0,0,0,0,0,0,0
1.859,1.7567,1.6803,0,0,0,0,0,0,0,0,0,0,0,0
1.859,1.7567,1.6803,0,0,0,0,0,0,0,0,0,0,0,0
1.859,1.7567,1.6803,0,0,0,0,0,0,0,0,0,0,0,0
1.859,1.7567,1.6803,0,0,0,0,0,0,0,0,0,0,0,0
1.859,1.7567,1.6803,0,0,0,0,0,0,0,0,0,0,0,0
1.859,1.7567,1.6803,0,0,0,0,0,0,0,0,0,0,0,0
1.859,1.7567,1.6803,0,0,0,0,0,0,0,0,0,0,0,0
1.859,1.7567,1.6803,0,0,0,0,0,0,0,0,0,0,0,0
1.859,1.7567,1.6803,0,0,0,0,0,0,0,0,0,0,0,0
1.859,1.7567,1.6803,0,0,0,0,0,0,0,0,0,0,0,0
1.859,1.7567,1.6803,0,0,0,0,0,0,0,0,0,0,0,0
1.859,1.7567,1.6803,0,0,0,0,0,0,0,0,0,0,0,0
1.859,1.7567,1.6803,0,0,0,0,0,0,0,0,0,0,0,0
1.859,1.7567,1.6803,0,0,0,0,0,0,0,0,0,0,0,0
1.859,1.7567,1.6803,0,0,0,0,0,0,0,0,0,0,0,0
1.859,1.7567,1.6803,0,0,0,0,0,0,0,0,0,0,0,0
1.859,1.7567,1.6803,0,0,0,0,0,0,0,0,0,0,0,0
1.859,1.7567,1.6803,0,0,0,0,0,0,0,0,0,0,0,0
1.859,1.7567,1.6803,0,0,0,0,0,0,0,0,0,0,0,0
1.859,1.7567,1.6803,0,0,0,0,0,0,0,0,0,0,0,0
1.859,1.7567,1.6803,0,0,0,0,0,0,0,0,0,0,0,0
1.859,1.7567,1.6803,0,0,0,0,0,0,0,0,0,0,0,0
1.859,1.7567,1.6803,0,0,0,0,0,0,0,0,0,0,0,0
1.859,1.7567,1.6803,0,0,0,0,0,0,0,0,0,0,0,0
1.859,1.7567,1.6803,0,0,0,0,0,0,0,0,0,0,0,0
1.859,1.7567,1.6803,0,0,0,0,0,0,0,0,0,0,0,0
1.859,1.7567,1.6803,0,0,0,0,0,0,0,0,0,0,0,0
1.859,1.7567,1.6803,0,0,0,0,0,0,0,0,0,0,0,0
1.859,1.7567,1.6803,0,0,0,0,0,0,0,0,0,0,0,0
1.859,1.7567,1.6803,0,0,0,0,0,0,0,0,0,0,0,0
1.859,1.7567,1.6803,0,0,0,0,0,0,0,0,0,0,0,0
1.859,1.7567,1.6803,0,0,0,0,0,0,0,0,0,0,0,0
1.859,1.7567,1.6803,0,0,0,0,0,0,0,0,0,0,0,0
1.859,1.7567,1.6803,0,0,0,0,0,0,0,0,0,0,0,0
1.859,1.7567,1.6803,0,0,0,0,0,0,0,0,0,0,0,0
1.859,1.7567,1.6803,0,0,0,0,0,0,0,0,0,0,0,0
1.859,1.7567,1.6803,0,0,0,0,0,0,0,0,0,0,0,0
1.859,1.7567,1.6803,0,0,0,0,0,0,0,0,0,0,0,0
1.859,1.7567,1.6803,0,0,0,0,0,0,0,0,0,0,0,0
1.859,1.7567,1.6803,0,0,0,0,0,0,0,0,0,0,0,0
1.859,1.7567,1.6803,0,0,0,0,0,0,0,0,0,0,0,0
1.859,1.7567,1.6803,0,0,0,0,0,0,0,0,0,0,0,0
1.859,1.7567,1.6803,0,0,0,0,0,0,0,0,0,0,0,0
1.859,1.7567,1.6803,0,0,0,0,0,0,0,0,0,0,0,0
1.859,1.7567,1.6803,0,0,0,0,0,0,0,0,0,0,0,0
1.859,1.7567,1.6803,0,0,0,0,0,0,0,0,0,0,0,0
1.859,1.7567,1.6803,0,0,0,0,0,0,0,0,0,0,0,0
1.859,1.7567,1.6803,0,0,0,0,0,0,0,0,0,0,0,0
1.859,1.7567,1.6803,0,0,0,0,0,0,0,0,0,0,0,0
1.859,1.7567,1.6803,0,0,0,0,0,0,0,0,0,0,0,0
1.859,1.7567,1.6803,0,0,0,0,0,0,0,0,0,0,0,0
1.859,1.7567,1.6803,0,0,0,0,0,0,0,0,0,0,0,0
1.859,1.7567,1.6803,0,0,0,0,0,0,0,0,0,0,0,0
1.859,1.7567,1.6803,0,0,0,0,0,0,0,0,0,0,0,0
1.859,1.7567,1.6803,0,0,0,0,0,0,0,0,0,0,0,0
1.859,1.7567,1.6803,0,0,0,0,0,0,0,0,0,0,0,0
1.859,1.7567,1.6803,0,0,0,0,0,0,0,0,0,0,0,0
1.859,1.7567,1.6803,0,0,0,0,0,0,0,0,0,0,0,0
1.859,1.7567,1.6803,0,0,0,0,0,0,0,0,0,0,0,0
1.859,1.7567,1.6803,0,0,0,0,0,0,0,0,0,0,0,0
1.859,1.7567,1.6803,0,0,0,0,0,0,0,0,0,0,0,0
1.859,1.7567,1.6803,0,0,0,0,0,0,0,0,0,0,0,0
1.859,1.7567,1.6803,0,0,0,0,0,0,0,0,0,0,0,0
1.859,1.7567,1.6803,0,0,0,0,0,0,0,0,0,0,0,0
1.859,1.7567,1.6803,0,0,0,0,0,0,0,0,0,0,0,0
1.859,1.7567,1.6803,0,0,0,0,0,0,0,0,0,0,0,0
1.859,1.7567,1.6803,0,0,0,0,0,0,0,0,0,0,0,0
1.859,1.7567,1.6803,0,0,0,0,0,0,0,0,0,0,0,0
1.859,1.7567,1.6803,0,0,0,0,0,0,0,0,0,0,0,0
1.859,1.7567,1.6803,0,0,0,0,0,0,0,0,0,0,0,0
1.859,1.7567,1.6803,0,0,0,0,0,0,0,0,0,0,0,0
1.859,1.7567,1.6803,0,0,0,0,0,0,0,0,0,0,0,0
1.859,1.7567,1.6803,0,0,0,0,0,0,0,0,0,0,0,0
1.859,1.7567,1.6803,0,0,0,0,0,0,0,0,0,0,0,0
1.859,1.7567,1.6803,0,0,0,0,0,0,0,0,0,0,0,0
1.859,1.7567,1.6803,0,0,0,0,0,0,0,0,0,0,0,0
1.859,1.7567,1.6803,0,0,0,0,0,0,0,0,0,0,0,0
1.859,1.7567,1.6803,0,0,0,0,0,0,0,0,0,0,0,0
1.859,1.7567,1.6803,0,0,0,0,0,0,0,0,0,0,0,0
1.859,1.7567,1.6803,0,0,0,0,0,0,0,0,0,0,0,0
1.859,1.7567,1.6803,0,0,0,0,0,0,0,0,0,0,0,0
1.859,1.7567,1.6803,0,0,0,0,0,0,0,0,0,0,0,0
1.859,1.7567,1.6803,0,0,0,0,0,0,0,0,0,0,0,0
1.859,1.7567,1.6803,0,0,0,0,0,0,0,0,0,0,0,0
1.859,1.7567,1.6803,0,0,0,0,0,0,0,0,0,0,0,0
1.859,1.7567,1.6803,0,0,0,0,0,0,0,0,0,0,0,0
1.859,1.7567,1.6803,0,0,0,0,0,0,0,0,0,0,0,0
1.859,1.7567,1.6803,0,0,0,0,0,0,0,0,0,0,0,0
1.859,1.7567,1.6803,0,0,0,0,0,0,0,0,0,0,0,0
1.859,1.7567,1.6803,0,0,0,0,0,0,0,0,0,0,0,0
1.859,1.7567,1.6803,0,0,0,0,0,0,0,0,0,0,0,0
1.859,1.7567,1.6803,0,0,0,0,0,0,0,0,0,0,0,0
1.859,1.7567,1.6803,0,0,0,0,0,0,0,0,0,0,0,0
1.859,1.7567,1.6803,0,0,0,0,0,0,0,0,0,0,0,0
1.859,1.7567,1.6803,0,0,0,0,0,0,0,0,0,0,0,0
1.859,1.7567,1.6803,0,0,0,0,0,0,0,0,0,0,0,0
1.859,1.7567,1.6803,0,0,0,0,0,0,0,0,0,0,0,0
1.859,1.7567,1.6803,0,0,0,0,0,0,0,0,0,0,0,0
1.859,1.7567,1.6803,0,0,0,0,0,0,0,0,0,0,0,0
1.859,1.7567,1.6803,0,0,0,0,0,0,0,0,0,0,0,0
1.859,1.7567,1.6803,0,0,0,0,0,0,0,0,0,0,0,0
1.859,1.7567,1.6803,0,0,0,0,0,0,0,0,0,0,0,0
1.859,1.7567,1.6803,0,0,0,0,0,0,0,0,0,0,0,0
1.859,1.7567,1.6803,0,0,0,0,0,0,0,0,0,0,0,0
1.859,1.7567,1.6803,0,0,0,0,0,0,0,0,0,0,0,0
1.859,1.7567,1.6803,0,0,0,0,0,0,0,0,0,0,0,0
1.859,1.7567,1.6803,0,0,0,0,0,0,0,0,0,0,0,0
1.859,1.7567,1.6803,0,0,0,0,0,0,0,0,0,0,0,0
1.859,1.7567,1.6803,0,0,0,0,0,0,0,0,0,0,0,0
1.859,1.7567,1.6803,0,0,0,0,0,0,0,0,0,0,0,0
1.859,1.7567,1.6803,0,0,0,0,0,0,0,0,0,0,0,0
1.859,1.7567,1.6803,0,0,0,0,0,0,0,0,0,0,0,0
1.859,1.7567,1.6803,0,0,0,0,0,0,0,0,0,0,0,0
1.859,1.7567,1.6803,0,0,0,0,0,0,0,0,0,0,0,0
1.859,1.7567,1.6803,0,0,0,0,0,0,0,0,0,0,0,0
1.859,1.7567,1.6803,0,0,0,0,0,0,0,0,0,0,0,0
1.859,1.7567,1.6803,0,0,0,0,0,0,0,0,0,0,0,0
1.859,1.7567,1.6803,0,0,0,0,0,0,0,0,0,0,0,0
1.859,1.7567,1.6803,0,0,0,0,0,0,0,0,0,0,0,0
1.859,1.7567,1.6803,0,0,0,0,0,0,0,0,0,0,0,0
1.859,1.7567,1.6803,0,0,0,0,0,0,0,0,0,0,0,0
1.859,1.7567,1.6803,0,0,0,0,0,0,0,0,0,0,0,0
1.859,1.7567,1.6803,0,0,0,0,0,0,0,0,0,0,0,0
1.859,1.7567,1.6803,0,0,0,0,0,0,0,0,0,0,0,0
1.859,1.7567,1.6803,0,0,0,0,0,0,0,0,0,0,0,0
1.859,1.7567,1.6803,0,0,0,0,0,0,0,0,0,0,0,0
1.859,1.7567,1.6803,0,0,0,0,0,0,0,0,0,0,0,0
1.859,1.7567,1.6803,0,0,0,0,0,0,0,0,0,0,0,0
1.859,1.7567,1.6803,0,0,0,0,0,0,0,0,0,0,0,0
1.859,1.7567,1.6803,0,0,0,0,0,0,0,0,0,0,0,0
1.859,1.7567,1.6803,0,0,0,0,0,0,0,0,0,0,0,0
1.859,1.7567,1.6803,0,0,0,0,0,0,0,0,0,0,0,0
1.859,1.7567,1.6803,0,0,0,0,0,0,0,0,0,0,0,0
1.859,1.7567,1.6803,0,0,0,0,0,0,0,0,0,0,0,0
1.859,1.7567,1.6803,0,0,0,0,0,0,0,0,0,0,0,0
1.859,1.7567,1.6803,0,0,0,0,0,0,0,0,0,0,0,0
1.859,1.7567,1.6803,0,0,0,0,0,0,0,0,0,0,0,0
1.859,1.7567,1.6803,0,0,0,0,0,0,0,0,0,0,0,0
1.859,1.7567,1.6803,0,0,0,0,0,0,0,0,0,0,0,0
1.859,1.7567,1.6803,0,0,0,0,0,0,0,0,0,0,0,0
1.859,1.7567,1.6803,0,0,0,0,0,0,0,0,0,0,0,0
1.859,1.7567,1.6803,0,0,0,0,0,0,0,0,0,0,0,0
1.859,1.7567,1.6803,0,0,0,0,0,0,0,0,0,0,0,0
1.859,1.7567,1.6803,0,0,0,0,0,0,0,0,0,0,0,0
1.859,1.7567,1.6803,0,0,0,0,0,0,0,0,0,0,0,0
1.859,1.7567,1.6803,0,0,0,0,0,0,0,0,0,0,0,0
1.859,1.7567,1.6803,0,0,0,0,0,0,0,0,0,0,0,0
1.859,1.7567,1.6803,0,0,0,0,0,0,0,0,0,0,0,0
1.859,1.7567,1.6803,0,0,0,0,0,0,0,0,0,0,0,0
1.859,1.7567,1.6803,0,0,0,0,0,0,0,0,0,0,0,0
1.859,1.7567,1.6803,0,0,0,0,0,0,0,0,0,0,0,0
1.859,1.7567,1.6803,0,0,0,0,0,0,0,0,0,0,0,0
1.859,1.7567,1.6803,0,0,0,0,0,0,0,0,0,0,0,0
1.859,1.7567,1.6803,0,0,0,0,0,0,0,0,0,0,0,0
1.859,1.7567,1.6803,0,0,0,0,0,0,0,0,0,0,0,0
1.859,1.7567,1.6803,0,0,0,0,0,0,0,0,0,0,0,0
1.859,1.7567,1.6803,0,0,0,0,0,0,0,0,0,0,0,0
1.859,1.7567,1.6803,0,0,0,0,0,0,0,0,0,0,0,0
1.859,1.7567,1.6803,0,0,0,0,0,0,0,0,0,0,0,0
1.859,1.7567,1.6803,0,0,0,0,0,0,0,0,0,0,0,0
1.859,1.7567,1.6803,0,0,0,0,0,0,0,0,0,0,0,0
1.859,1.7567,1.6803,0,0,0,0,0,0,0,0,0,0,0,0
1.859,1.7567,1.6803,0,0,0,0,0,0,0,0,0,0,0,0
1.859,1.7567,1.6803,0,0,0,0,0,0,0,0,0,0,0,0
1.859,1.7567,1.6803,0,0,0,0,0,0,0,0,0,0,0,0
1.859,1.7567,1.6803,0,0,0,0,0,0,0,0,0,0,0,0
1.859,1.7567,1.6803,0,0,0,0,0,0,0,0,0,0,0,0
1.859,1.7567,1.6803,0,0,0,0,0,0,0,0,0,0,0,0
1.859,1.7567,1.6803,0,0,0,0,0,0,0,0,0,0,0,0
1.859,1.7567,1.6803,0,0,0,0,0,0,0,0,0,0,0,0
1.859,1.7567,1.6803,0,0,0,0,0,0,0,0,0,0,0,0
1.859,1.7567,1.6803,0,0,0,0,0,0,0,0,0,0,0,0
1.859,1.7567,1.6803,0,0,0,0,0,0,0,0,0,0,0,0
1.859,1.7567,1.6803,0,0,0,0,0,0,0,0,0,0,0,0
1.859,1.7567,1.6803,0,0,0,0,0,0,0,0,0,0,0,0
1.859,1.7567,1.6803,0,0,0,0,0,0,0,0,0,0,0,0
1.859,1.7567,1.6803,0,0,0,0,0,0,0,0,0,0,0,0
1.859,1.7567,1.6803,0,0,0,0,0,0,0,0,0,0,0,0
1.859,1.7567,1.6803,0,0,0,0,0,0,0,0,0,0,0,0
1.859,1.7567,1.6803,0,0,0,0,0,0,0,0,0,0,0,0
1.859,1.7567,1.6803,0,0,0,0,0,0,0,0,0,0,0,0
1.859,1.7567,1.6803,0,0,0,0,0,0,0,0,0,0,0,0
1.859,1.7567,1.6803,0,0,0,0,0,0,0,0,0,0,0,0
1.859,1.7567,1.6803,0,0,0,0,0,0,0,0,0,0,0,0
1.859,1.7567,1.6803,0,0,0,0,0,0,0,0,0,0,0,0
1.859,1.7567,1.6803,0,0,0,0,0,0,0,0,0,0,0,0
1.859,1.7567,1.6803,0,0,0,0,0,0,0,0,0,0,0,0
1.859,1.7567,1.6803,0,0,0,0,0,0,0,0,0,0,0,0
1.859,1.7567,1.6803,0,0,0,0,0,0,0,0,0,0,0,0
1.859,1.7567,1.6803,0,0,0,0,0,0,0,0,0,0,0,0
1.859,1.7567,1.6803,0,0,0,0,0,0,0,0,0,0,0,0
1.859,1.7567,1.6803,0,0,0,0,0,0,0,0,0,0,0,0
1.859,1.7567,1.6803,0,0,0,0,0,0,0,0,0,0,0,0
1.859,1.7567,1.6803,0,0,0,0,0,0,0,0,0,0,0,0
1.859,1.7567,1.6803,0,0,0,0,0,0,0,0,0,0,0,0
1.859,1.7567,1.6803,0,0,0,0,0,0,0,0,0,0,0,0
1.859,1.7567,1.6803,0,0,0,0,0,0,0,0,0,0,0,0
1.859,1.7567,1.6803,0,0,0,0,0,0,0,0,0,0,0,0
1.859,1.7567,1.6803,0,0,0,0,0,0,0,0,0,0,0,0
1.859,1.7567,1.6803,0,0,0,0,0,0,0,0,0,0,0,0
1.859,1.7567,1.6803,0,0,0,0,0,0,0,0,0,0,0,0
1.859,1.7567,1.6803,0,0,0,0,0,0,0,0,0,0,0,0
1.859,1.7567,1.6803,0,0,0,0,0,0,0,0,0,0,0,0
1.859,1.7567,1.6803,0,0,0,0,0,0,0,0,0,0,0,0
1.859,1.7567,1.6803,0,0,0,0,0,0,0,0,0,0,0,0
1.859,1.7567,1.6803,0,0,0,0,0,0,0,0,0,0,0,0
1.859,1.7567,1.6803,0,0,0,0,0,0,0,0,0,0,0,0
1.859,1.7567,1.6803,0,0,0,0,0,0,0,0,0,0,0,0
1.859,1.7567,1.6803,0,0,0,0,0,0,0,0,0,0,0,0
1.859,1.7567,1.6803,0,0,0,0,0,0,0,0,0,0,0,0
1.859,1.7567,1.6803,0,0,0,0,0,0,0,0,0,0,0,0
1.859,1.7567,1.6803,0,0,0,0,0,0,0,0,0,0,0,0
1.859,1.7567,1.6803,0,0,0,0,0,0,0,0,0,0,0,0
1.859,1.7567,1.6803,0,0,0,0,0,0,0,0,0,0,0,0
1.859,1.7567,1.6803,0,0,0,0,0,0,0,0,0,0,0,0
1.859,1.7567,1.6803,0,0,0,0,0,0,0,0,0,0,0,0
1.859,1.7567,1.6803,0,0,0,0,0,0,0,0,0,0,0,0
1.859,1.7567,1.6803,0,0,0,0,0,0,0,0,0,0,0,0
1.859,1.7567,1.6803,0,0,0,0,0,0,0,0,0,0,0,0
1.859,1.7567,1.6803,0,0,0,0,0,0,0,0,0,0,0,0
1.859,1.7567,1.6803,0,0,0,0,0,0,0,0,0,0,0,0
1.859,1.7567,1.6803,0,0,0,0,0,0,0,0,0,0,0,0
1.859,1.7567,1.6803,0,0,0,0,0,0,0,0,0,0,0,0
1.859,1.7567,1.6803,0,0,0,0,0,0,0,0,0,0,0,0
1.859,1.7567,1.6803,0,0,0,0,0,0,0,0,0,0,0,0
1.859,1.7567,1.6803,0,0,0,0,0,0,0,0,0,0,0,0
1.859,1.7567,1.6803,0,0,0,0,0,0,0,0,0,0,0,0
1.859,1.7567,1.6803,0,0,0,0,0,0,0,0,0,0,0,0
1.859,1.7567,1.6803,0,0,0,0,0,0,0,0,0,0,0,0
1.859,1.7567,1.6803,0,0,0,0,0,0,0,0,0,0,0,0
1.859,1.7567,1.6803,0,0,0,0,0,0,0,0,0,0,0,0
1.859,1.7567,1.6803,0,0,0,0,0,0,0,0,0,0,0,0
1.859,1.7567,1.6803,0,0,0,0,0,0,0,0,0,0,0,0
1.859,1.7567,1.6803,0,0,0,0,0,0,0,0,0,0,0,0
1.859,1.7567,1.6803,0,0,0,0,0,0,0,0,0,0,0,0
1.859,1.7567,1.6803,0,0,0,0,0,0,0,0,0,0,0,0
1.859,1.7567,1.6803,0,0,0,0,0,0,0,0,0,0,0,0
1.859,1.7567,1.6803,0,0,0,0,0,0,0,0,0,0,0,0
1.859,1.7567,1.6803,0,0,0,0,0,0,0,0,0,0,0,0
1.859,1.7567,1.6803,0,0,0,0,0,0,0,0,0,0,0,0
1.859,1.7567,1.6803,0,0,0,0,0,0,0,0,0,0,0,0
1.859,1.7567,1.6803,0,0,0,0,0,0,0,0,0,0,0,0
1.859,1.7567,1.6803,0,0,0,0,0,0,0,0,0,0,0,0
1.859,1.7567,1.6803,0,0,0,0,0,0,0,0,0,0,0,0
1.859,1.7567,1.6803,0,0,0,0,0,0,0,0,0,0,0,0
1.859,1.7567,1.6803,0,0,0,0,0,0,0,0,0,0,0,0
1.859,1.7567,1.6803,0,0,0,0,0,0,0,0,0,0,0,0
1.859,1.7567,1.6803,0,0,0,0,0,0,0,0,0,0,0,0
1.859,1.7567,1.6803,0,0,0,0,0,0,0,0,0,0,0,0
1.859,1.7567,1.6803,0,0,0,0,0,0,0,0,0,0,0,0
1.859,1.7567,1.6803,0,0,0,0,0,0,0,0,0,0,0,0
1.859,1.7567,1.6803,0,0,0,0,0,0,0,0,0,0,0,0
1.859,1.7567,1.6803,0,0,0,0,0,0,0,0,0,0,0,0
1.859,1.7567,1.6803,0,0,0,0,0,0,0,0,0,0,0,0
1.859,1.7567,1.6803,0,0,0,0,0,0,0,0,0,0,0,0
1.859,1.7567,1.6803,0,0,0,0,0,0,0,0,0,0,0,0
1.859,1.7567,1.6803,0,0,0,0,0,0,0,0,0,0,0,0
1.859,1.7567,1.6803,0,0,0,0,0,0,0,0,0,0,0,0
1.859,1.7567,1.6803,0,0,0,0,0,0,0,0,0,0,0,0
1.859,1.7567,1.6803,0,0,0,0,0,0,0,0,0,0,0,0
1.859,1.7567,1.6803,0,0,0,0,0,0,0,0,0,0,0,0
1.859,1.7567,1.6803,0,0,0,0,0,0,0,0,0,0,0,0
1.859,1.7567,1.6803,0,0,0,0,0,0,0,0,0,0,0,0
1.859,1.7567,1.6803,0,0,0,0,0,0,0,0,0,0,0,0
1.859,1.7567,1.6803,0,0,0,0,0,0,0,0,0,0,0,0
1.859,1.7567,1.6803,0,0,0,0,0,0,0,0,0,0,0,0
1.859,1.7567,1.6803,0,0,0,0,0,0,0,0,0,0,0,0
1.859,1.7567,1.6803,0,0,0,0,0,0,0,0,0,0,0,0
1.859,1.7567,1.6803,0,0,0,0,0,0,0,0,0,0,0,0
1.859,1.7567,1.6803,0,0,0,0,0,0,0,0,0,0,0,0
1.859,1.7567,1.6803,0,0,0,0,0,0,0,0,0,0,0,0
1.859,1.7567,1.6803,0,0,0,0,0,0,0,0,0,0,0,0
1.859,1.7567,1.6803,0,0,0,0,0,0,0,0,0,0,0,0
1.859,1.7567,1.6803,0,0,0,0,0,0,0,0,0,0,0,0
1.859,1.7567,1.6803,0,0,0,0,0,0,0,0,0,0,0,0
1.859,1.7567,1.6803,0,0,0,0,0,0,0,0,0,0,0,0
1.859,1.7567,1.6803,0,0,0,0,0,0,0,0,0,0,0,0
1.859,1.7567,1.6803,0,0,0,0,0,0,0,0,0,0,0,0
1.859,1.7567,1.6803,0,0,0,0,0,0,0,0,0,0,0,0
1.859,1.7567,1.6803,0,0,0,0,0,0,0,0,0,0,0,0
1.859,1.7567,1.6803,0,0,0,0,0,0,0,0,0,0,0,0
1.859,1.7567,1.6803,0,0,0,0,0,0,0,0,0,0,0,0
1.859,1.7567,1.6803,0,0,0,0,0,0,0,0,0,0,0,0
1.859,1.7567,1.6803,0,0,0,0,0,0,0,0,0,0,0,0
1.859,1.7567,1.6803,0,0,0,0,0,0,0,0,0,0,0,0
1.859,1.7567,1.6803,0,0,0,0,0,0,0,0,0,0,0,0
1.859,1.7567,1.6803,0,0,0,0,0,0,0,0,0,0,0,0
1.859,1.7567,1.6803,0,0,0,0,0,0,0,0,0,0,0,0
1.859,1.7567,1.6803,0,0,0,0,0,0,0,0,0,0,0,0
1.859,1.7567,1.6803,0,0,0,0,0,0,0,0,0,0,0,0
1.859,1.7567,1.6803,0,0,0,0,0,0,0,0,0,0,0,0
1.859,1.7567,1.6803,0,0,0,0,0,0,0,0,0,0,0,0
1.859,1.7567,1.6803,0,0,0,0,0,0,0,0,0,0,0,0
1.859,1.7567,1.6803,0,0,0,0,0,0,0,0,0,0,0,0
1.859,1.7567,1.6803,0,0,0,0,0,0,0,0,0,0,0,0
1.859,1.7567,1.6803,0,0,0,0,0,0,0,0,0,0,0,0
1.859,1.7567,1.6803,0,0,0,0,0,0,0,0,0,0,0,0
1.859,1.7567,1.6803,0,0,0,0,0,0,0,0,0,0,0,0
1.859,1.7567,1.6803,0,0,0,0,0,0,0,0,0,0,0,0
1.859,1.7567,1.6803,0,0,0,0,0,0,0,0,0,0,0,0
1.859,1.7567,1.6803,0,0,0,0,0,0,0,0,0,0,0,0
1.859,1.7567,1.6803,0,0,0,0,0,0,0,0,0,0,0,0
1.859,1.7567,1.6803,0,0,0,0,0,0,0,0,0,0,0,0
1.859,1.7567,1.6803,0,0,0,0,0,0,0,0,0,0,0,0
1.859,1.7567,1.6803,0,0,0,0,0,0,0,0,0,0,0,0
1.859,1.7567,1.6803,0,0,0,0,0,0,0,0,0,0,0,0
1.859,1.7567,1.6803,0,0,0,0,0,0,0,0,0,0,0,0
1.859,1.7567,1.6803,0,0,0,0,0,0,0,0,0,0,0,0
1.859,1.7567,1.6803,0,0,0,0,0,0,0,0,0,0,0,0
1.859,1.7567,1.6803,0,0,0,0,0,0,0,0,0,0,0,0
1.859,1.7567,1.6803,0,0,0,0,0,0,0,0,0,0,0,0
1.859,1.7567,1.6803,0,0,0,0,0,0,0,0,0,0,0,0
1.859,1.7567,1.6803,0,0,0,0,0,0,0,0,0,0,0,0
1.859,1.7567,1.6803,0,0,0,0,0,0,0,0,0,0,0,0
1.859,1.7567,1.6803,0,0,0,0,0,0,0,0,0,0,0,0
1.859,1.7567,1.6803,0,0,0,0,0,0,0,0,0,0,0,0
1.859,1.7567,1.6803,0,0,0,0,0,0,0,0,0,0,0,0
1.859,1.7567,1.6803,0,0,0,0,0,0,0,0,0,0,0,0
1.859,1.7567,1.6803,0,0,0,0,0,0,0,0,0,0,0,0
1.859,1.7567,1.6803,0,0,0,0,0,0,0,0,0,0,0,0
1.859,1.7567,1.6803,0,0,0,0,0,0,0,0,0,0,0,0
1.859,1.7567,1.6803,0,0,0,0,0,0,0,0,0,0,0,0
1.859,1.7567,1.6803,0,0,0,0,0,0,0,0,0,0,0,0
1.859,1.7567,1.6803,0,0,0,0,0,0,0,0,0,0,0,0
1.859,1.7567,1.6803,0,0,0,0,0,0,0,0,0,0,0,0
1.859,1.7567,1.6803,0,0,0,0,0,0,0,0,0,0,0,0
1.859,1.7567,1.6803,0,0,0,0,0,0,0,0,0,0,0,0
1.859,1.7567,1.6803,0,0,0,0,0,0,0,0,0,0,0,0
1.859,1.7567,1.6803,0,0,0,0,0,0,0,0,0,0,0,0
1.859,1.7567,1.6803,0,0,0,0,0,0,0,0,0,0,0,0
1.859,1.7567,1.6803,0,0,0,0,0,0,0,0,0,0,0,0
1.859,1.7567,1.6803,0,0,0,0,0,0,0,0,0,0,0,0
1.859,1.7567,1.6803,0,0,0,0,0,0,0,0,0,0,0,0
1.859,1.7567,1.6803,0,0,0,0,0,0,0,0,0,0,0,0
1.859,1.7567,1.6803,0,0,0,0,0,0,0,0,0,0,0,0
1.859,1.7567,1.6803,0,0,0,0,0,0,0,0,0,0,0,0
1.859,1.7567,1.6803,0,0,0,0,0,0,0,0,0,0,0,0
1.859,1.7567,1.6803,0,0,0,0,0,0,0,0,0,0,0,0
1.859,1.7567,1.6803,0,0,0,0,0,0,0,0,0,0,0,0
1.859,1.7567,1.6803,0,0,0,0,0,0,0,0,0,0,0,0
1.859,1.7567,1.6803,0,0,0,0,0,0,0,0,0,0,0,0
1.859,1.7567,1.6803,0,0,0,0,0,0,0,0,0,0,0,0
1.859,1.7567,1.6803,0,0,0,0,0,0,0,0,0,0,0,0
1.859,1.7567,1.6803,0,0,0,0,0,0,0,0,0,0,0,0
1.859,1.7567,1.6803,0,0,0,0,0,0,0,0,0,0,0,0
1.859,1.7567,1.6803,0,0,0,0,0,0,0,0,0,0,0,0
1.859,1.7567,1.6803,0,0,0,0,0,0,0,0,0,0,0,0
1.859,1.7567,1.6803,0,0,0,0,0,0,0,0,0,0,0,0
1.859,1.7567,1.6803,0,0,0,0,0,0,0,0,0,0,0,0
1.859,1.7567,1.6803,0,0,0,0,0,0,0,0,0,0,0,0
1.859,1.7567,1.6803,0,0,0,0,0,0,0,0,0,0,0,0
1.859,1.7567,1.6803,0,0,0,0,0,0,0,0,0,0,0,0
1.859,1.7567,1.6803,0,0,0,0,0,0,0,0,0,0,0,0
1.859,1.7567,1.6803,0,0,0,0,0,0,0,0,0,0,0,0
1.859,1.7567,1.6803,0,0,0,0,0,0,0,0,0,0,0,0
1.859,1.7567,1.6803,0,0,0,0,0,0,0,0,0,0,0,0
1.859,1.7567,1.6803,0,0,0,0,0,0,0,0,0,0,0,0
1.859,1.7567,1.6803,0,0,0,0,0,0,0,0,0,0,0,0
1.859,1.7567,1.6803,0,0,0,0,0,0,0,0,0,0,0,0
1.859,1.7567,1.6803,0,0,0,0,0,0,0,0,0,0,0,0
1.859,1.7567,1.6803,0,0,0,0,0,0,0,0,0,0,0,0
1.859,1.7567,1.6803,0,0,0,0,0,0,0,0,0,0,0,0
1.859,1.7567,1.6803,0,0,0,0,0,0,0,0,0,0,0,0
1.859,1.7567,1.6803,0,0,0,0,0,0,0,0,0,0,0,0
1.859,1.7567,1.6803,0,0,0,0,0,0,0,0,0,0,0,0
1.859,1.7567,1.6803,0,0,0,0,0,0,0,0,0,0,0,0
1.859,1.7567,1.6803,0,0,0,0,0,0,0,0,0,0,0,0
1.859,1.7567,1.6803,0,0,0,0,0,0,0,0,0,0,0,0
1.859,1.7567,1.6803,0,0,0,0,0,0,0,0,0,0,0,0
1.859,1.7567,1.6803,0,0,0,0,0,0,0,0,0,0,0,0
1.859,1.7567,1.6803,0,0,0,0,0,0,0,0,0,0,0,0
1.859,1.7567,1.6803,0,0,0,0,0,0,0,0,0,0,0,0
1.859,1.7567,1.6803,0,0,0,0,0,0,0,0,0,0,0,0
1.859,1.7567,1.6803,0,0,0,0,0,0,0,0,0,0,0,0
1.859,1.7567,1.6803,0,0,0,0,0,0,0,0,0,0,0,0
1.859,1.7567,1.6803,0,0,0,0,0,0,0,0,0,0,0,0
1.859,1.7567,1.6803,0,0,0,0,0,0,0,0,0,0,0,0
1.859,1.7567,1.6803,0,0,0,0,0,0,0,0,0,0,0,0
1.859,1.7567,1.6803,0,0,0,0,0,0,0,0,0,0,0,0
1.859,1.7567,1.6803,0,0,0,0,0,0,0,0,0,0,0,0
1.859,1.7567,1.6803,0,0,0,0,0,0,0,0,0,0,0,0
1.859,1.7567,1.6803,0,0,0,0,0,0,0,0,0,0,0,0
1.859,1.7567,1.6803,0,0,0,0,0,0,0,0,0,0,0,0
1.859,1.7567,1.6803,0,0,0,0,0,0,0,0,0,0,0,0
1.859,1.7567,1.6803,0,0,0,0,0,0,0,0,0,0,0,0
1.859,1.7567,1.6803,0,0,0,0,0,0,0,0,0,0,0,0
1.859,1.7567,1.6803,0,0,0,0,0,0,0,0,0,0,0,0
1.859,1.7567,1.6803,0,0,0,0,0,0,0,0,0,0,0,0
1.859,1.7567,1.6803,0,0,0,0,0,0,0,0,0,0,0,0
1.859,1.7567,1.6803,0,0,0,0,0,0,0,0,0,0,0,0
1.859,1.7567,1.6803,0,0,0,0,0,0,0,0,0,0,0,0
1.859,1.7567,1.6803,0,0,0,0,0,0,0,0,0,0,0,0
1.859,1.7567,1.6803,0,0,0,0,0,0,0,0,0,0,0,0
1.859,1.7567,1.6803,0,0,0,0,0,0,0,0,0,0,0,0
1.859,1.7567,1.6803,0,0,0,0,0,0,0,0,0,0,0,0
1.859,1.7567,1.6803,0,0,0,0,0,0,0,0,0,0,0,0
1.859,1.7567,1.6803,0,0,0,0,0,0,0,0,0,0,0,0
1.859,1.7567,1.6803,0,0,0,0,0,0,0,0,0,0,0,0
1.859,1.7567,1.6803,0,0,0,0,0,0,0,0,0,0,0,0
1.859,1.7567,1.6803,0,0,0,0,0,0,0,0,0,0,0,0
1.859,1.7567,1.6803,0,0,0,0,0,0,0,0,0,0,0,0
1.859,1.7567,1.6803,0,0,0,0,0,0,0,0,0,0,0,0
1.859,1.7567,1.6803,0,0,0,0,0,0,0,0,0,0,0,0
1.859,1.7567,1.6803,0,0,0,0,0,0,0,0,0,0,0,0
1.859,1.7567,1.6803,0,0,0,0,0,0,0,0,0,0,0,0
1.859,1.7567,1.6803,0,0,0,0,0,0,0,0,0,0,0,0
1.859,1.7567,1.6803,0,0,0,0,0,0,0,0,0,0,0,0
1.859,1.7567,1.6803,0,0,0,0,0,0,0,0,0,0,0,0
1.859,1.7567,1.6803,0,0,0,0,0,0,0,0,0,0,0,0
1.859,1.7567,1.6803,0,0,0,0,0,0,0,0,0,0,0,0
1.859,1.7567,1.6803,0,0,0,0,0,0,0,0,0,0,0,0
1.859,1.7567,1.6803,0,0,0,0,0,0,0,0,0,0,0,0
1.859,1.7567,1.6803,0,0,0,0,0,0,0,0,0,0,0,0
1.859,1.7567,1.6803,0,0,0,0,0,0,0,0,0,0,0,0
1.859,1.7567,1.6803,0,0,0,0,0,0,0,0,0,0,0,0
1.859,1.7567,1.6803,0,0,0,0,0,0,0,0,0,0,0,0
1.859,1.7567,1.6803,0,0,0,0,0,0,0,0,0,0,0,0
1.859,1.7567,1.6803,0,0,0,0,0,0,0,0,0,0,0,0
1.859,1.7567,1.6803,0,0,0,0,0,0,0,0,0,0,0,0
1.859,1.7567,1.6803,0,0,0,0,0,0,0,0,0,0,0,0
1.859,1.7567,1.6803,0,0,0,0,0,0,0,0,0,0,0,0
1.859,1.7567,1.6803,0,0,0,0,0,0,0,0,0,0,0,0
1.859,1.7567,1.6803,0,0,0,0,0,0,0,0,0,0,0,0
1.859,1.7567,1.6803,0,0,0,0,0,0,0,0,0,0,0,0
1.859,1.7567,1.6803,0,0,0,0,0,0,0,0,0,0,0,0
1.859,1.7567,1.6803,0,0,0,0,0,0,0,0,0,0,0,0
1.859,1.7567,1.6803,0,0,0,0,0,0,0,0,0,0,0,0
1.859,1.7567,1.6803,0,0,0,0,0,0,0,0,0,0,0,0
1.859,1.7567,1.6803,0,0,0,0,0,0,0,0,0,0,0,0
1.859,1.7567,1.6803,0,0,0,0,0,0,0,0,0,0,0,0
1.859,1.7567,1.6803,0,0,0,0,0,0,0,0,0,0,0,0
1.859,1.7567,1.6803,0,0,0,0,0,0,0,0,0,0,0,0
1.859,1.7567,1.6803,0,0,0,0,0,0,0,0,0,0,0,0
1.859,1.7567,1.6803,0,0,0,0,0,0,0,0,0,0,0,0
1.859,1.7567,1.6803,0,0,0,0,0,0,0,0,0,0,0,0
1.859,1.7567,1.6803,0,0,0,0,0,0,0,0,0,0,0,0
1.859,1.7567,1.6803,0,0,0,0,0,0,0,0,0,0,0,0
1.859,1.7567,1.6803,0,0,0,0,0,0,0,0,0,0,0,0
1.859,1.7567,1.6803,0,0,0,0,0,0,0,0,0,0,0,0
1.859,1.7567,1.6803,0,0,0,0,0,0,0,0,0,0,0,0
1.859,1.7567,1.6803,0,0,0,0,0,0,0,0,0,0,0,0
1.859,1.7567,1.6803,0,0,0,0,0,0,0,0,0,0,0,0
1.859,1.7567,1.6803,0,0,0,0,0,0,0,0,0,0,0,0
1.859,1.7567,1.6803,0,0,0,0,0,0,0,0,0,0,0,0
1.859,1.7567,1.6803,0,0,0,0,0,0,0,0,0,0,0,0
1.859,1.7567,1.6803,0,0,0,0,0,0,0,0,0,0,0,0
1.859,1.7567,1.6803,0,0,0,0,0,0,0,0,0,0,0,0
1.859,1.7567,1.6803,0,0,0,0,0,0,0,0,0,0,0,0
1.859,1.7567,1.6803,0,0,0,0,0,0,0,0,0,0,0,0
1.859,1.7567,1.6803,0,0,0,0,0,0,0,0,0,0,0,0
1.859,1.7567,1.6803,0,0,0,0,0,0,0,0,0,0,0,0
1.859,1.7567,1.6803,0,0,0,0,0,0,0,0,0,0,0,0
1.859,1.7567,1.6803,0,0,0,0,0,0,0,0,0,0,0,0
1.859,1.7567,1.6803,0,0,0,0,0,0,0,0,0,0,0,0
1.859,1.7567,1.6803,0,0,0,0,0,0,0,0,0,0,0,0
1.859,1.7567,1.6803,0,0,0,0,0,0,0,0,0,0,0,0
1.859,1.7567,1.6803,0,0,0,0,0,0,0,0,0,0,0,0
1.859,1.7567,1.6803,0,0,0,0,0,0,0,0,0,0,0,0
1.859,1.7567,1.6803,0,0,0,0,0,0,0,0,0,0,0,0
1.859,1.7567,1.6803,0,0,0,0,0,0,0,0,0,0,0,0
1.859,1.7567,1.6803,0,0,0,0,0,0,0,0,0,0,0,0
1.859,1.7567,1.6803,0,0,0,0,0,0,0,0,0,0,0,0
1.859,1.7567,1.6803,0,0,0,0,0,0,0,0,0,0,0,0
1.859,1.7567,1.6803,0,0,0,0,0,0,0,0,0,0,0,0
1.859,1.7567,1.6803,0,0,0,0,0,0,0,0,0,0,0,0
1.859,1.7567,1.6803,0,0,0,0,0,0,0,0,0,0,0,0
1.859,1.7567,1.6803,0,0,0,0,0,0,0,0,0,0,0,0
1.859,1.7567,1.6803,0,0,0,0,0,0,0,0,0,0,0,0
1.859,1.7567,1.6803,0,0,0,0,0,0,0,0,0,0,0,0
1.859,1.7567,1.6803,0,0,0,0,0,0,0,0,0,0,0,0
1.859,1.7567,1.6803,0,0,0,0,0,0,0,0,0,0,0,0
1.859,1.7567,1.6803,0,0,0,0,0,0,0,0,0,0,0,0
1.859,1.7567,1.6803,0,0,0,0,0,0,0,0,0,0,0,0
1.859,1.7567,1.6803,0,0,0,0,0,0,0,0,0,0,0,0
1.859,1.7567,1.6803,0,0,0,0,0,0,0,0,0,0,0,0
1.859,1.7567,1.6803,0,0,0,0,0,0,0,0,0,0,0,0
1.859,1.7567,1.6803,0,0,0,0,0,0,0,0,0,0,0,0
1.859,1.7567,1.6803,0,0,0,0,0,0,0,0,0,0,0,0
1.859,1.7567,1.6803,0,0,0,0,0,0,0,0,0,0,0,0
1.859,1.7567,1.6803,0,0,0,0,0,0,0,0,0,0,0,0
1.859,1.7567,1.6803,0,0,0,0,0,0,0,0,0,0,0,0
1.859,1.7567,1.6803,0,0,0,0,0,0,0,0,0,0,0,0
1.859,1.7567,1.6803,0,0,0,0,0,0,0,0,0,0,0,0
1.859,1.7567,1.6803,0,0,0,0,0,0,0,0,0,0,0,0
1.859,1.7567,1.6803,0,0,0,0,0,0,0,0,0,0,0,0
1.859,1.7567,1.6803,0,0,0,0,0,0,0,0,0,0,0,0
1.859,1.7567,1.6803,0,0,0,0,0,0,0,0,0,0,0,0
1.859,1.7567,1.6803,0,0,0,0,0,0,0,0,0,0,0,0
1.859,1.7567,1.6803,0,0,0,0,0,0,0,0,0,0,0,0
1.859,1.7567,1.6803,0,0,0,0,0,0,0,0,0,0,0,0
1.859,1.7567,1.6803,0,0,0,0,0,0,0,0,0,0,0,0
1.859,1.7567,1.6803,0,0,0,0,0,0,0,0,0,0,0,0
1.859,1.7567,1.6803,0,0,0,0,0,0,0,0,0,0,0,0
1.859,1.7567,1.6803,0,0,0,0,0,0,0,0,0,0,0,0
1.859,1.7567,1.6803,0,0,0,0,0,0,0,0,0,0,0,0
1.859,1.7567,1.6803,0,0,0,0,0,0,0,0,0,0,0,0
1.859,1.7567,1.6803,0,0,0,0,0,0,0,0,0,0,0,0
1.859,1.7567,1.6803,0,0,0,0,0,0,0,0,0,0,0,0
1.859,1.7567,1.6803,0,0,0,0,0,0,0,0,0,0,0,0
1.859,1.7567,1.6803,0,0,0,0,0,0,0,0,0,0,0,0
1.859,1.7567,1.6803,0,0,0,0,0,0,0,0,0,0,0,0
1.859,1.7567,1.6803,0,0,0,0,0,0,0,0,0,0,0,0
1.859,1.7567,1.6803,0,0,0,0,0,0,0,0,0,0,0,0
1.859,1.7567,1.6803,0,0,0,0,0,0,0,0,0,0,0,0
1.859,1.7567,1.6803,0,0,0,0,0,0,0,0,0,0,0,0
1.859,1.7567,1.6803,0,0,0,0,0,0,0,0,0,0,0,0
1.859,1.7567,1.6803,0,0,0,0,0,0,0,0,0,0,0,0
1.859,1.7567,1.6803,0,0,0,0,0,0,0,0,0,0,0,0
1.859,1.7567,1.6803,0,0,0,0,0,0,0,0,0,0,0,0
1.859,1.7567,1.6803,0,0,0,0,0,0,0,0,0,0,0,0
1.859,1.7567,1.6803,0,0,0,0,0,0,0,0,0,0,0,0
1.859,1.7567,1.6803,0,0,0,0,0,0,0,0,0,0,0,0
1.859,1.7567,1.6803,0,0,0,0,0,0,0,0,0,0,0,0
1.859,1.7567,1.6803,0,0,0,0,0,0,0,0,0,0,0,0
1.859,1.7567,1.6803,0,0,0,0,0,0,0,0,0,0,0,0
1.859,1.7567,1.6803,0,0,0,0,0,0,0,0,0,0,0,0
1.859,1.7567,1.6803,0,0,0,0,0,0,0,0,0,0,0,0
1.859,1.7567,1.6803,0,0,0,0,0,0,0,0,0,0,0,0
1.859,1.7567,1.6803,0,0,0,0,0,0,0,0,0,0,0,0
1.859,1.7567,1.6803,0,0,0,0,0,0,0,0,0,0,0,0
1.859,1.7567,1.6803,0,0,0,0,0,0,0,0,0,0,0,0
1.859,1.7567,1.6803,0,0,0,0,0,0,0,0,0,0,0,0
1.859,1.7567,1.6803,0,0,0,0,0,0,0,0,0,0,0,0
1.859,1.7567,1.6803,0,0,0,0,0,0,0,0,0,0,0,0
1.859,1.7567,1.6803,0,0,0,0,0,0,0,0,0,0,0,0
1.859,1.7567,1.6803,0,0,0,0,0,0,0,0,0,0,0,0
1.859,1.7567,1.6803,0,0,0,0,0,0,0,0,0,0,0,0
1.859,1.7567,1.6803,0,0,0,0,0,0,0,0,0,0,0,0
1.859,1.7567,1.6803,0,0,0,0,0,0,0,0,0,0,0,0
1.859,1.7567,1.6803,0,0,0,0,0,0,0,0,0,0,0,0
1.859,1.7567,1.6803,0,0,0,0,0,0,0,0,0,0,0,0
1.859,1.7567,1.6803,0,0,0,0,0,0,0,0,0,0,0,0
1.859,1.7567,1.6803,0,0,0,0,0,0,0,0,0,0,0,0
1.859,1.7567,1.6803,0,0,0,0,0,0,0,0,0,0,0,0
1.859,1.7567,1.6803,0,0,0,0,0,0,0,0,0,0,0,0
1.859,1.7567,1.6803,0,0,0,0,0,0,0,0,0,0,0,0
1.859,1.7567,1.6803,0,0,0,0,0,0,0,0,0,0,0,0
1.859,1.7567,1.6803,0,0,0,0,0,0,0,0,0,0,0,0
1.859,1.7567,1.6803,0,0,0,0,0,0,0,0,0,0,0,0
1.859,1.7567,1.6803,0,0,0,0,0,0,0,0,0,0,0,0
1.859,1.7567,1.6803,0,0,0,0,0,0,0,0,0,0,0,0
1.859,1.7567,1.6803,0,0,0,0,0,0,0,0,0,0,0,0
1.859,1.7567,1.6803,0,0,0,0,0,0,0,0,0,0,0,0
1.859,1.7567,1.6803,0,0,0,0,0,0,0,0,0,0,0,0
1.859,1.7567,1.6803,0,0,0,0,0,0,0,0,0,0,0,0
1.859,1.7567,1.6803,0,0,0,0,0,0,0,0,0,0,0,0
1.859,1.7567,1.6803,0,0,0,0,0,0,0,0,0,0,0,0
1.859,1.7567,1.6803,0,0,0,0,0,0,0,0,0,0,0,0
1.859,1.7567,1.6803,0,0,0,0,0,0,0,0,0,0,0,0
1.859,1.7567,1.6803,0,0,0,0,0,0,0,0,0,0,0,0
1.859,1.7567,1.6803,0,0,0,0,0,0,0,0,0,0,0,0
1.859,1.7567,1.6803,0,0,0,0,0,0,0,0,0,0,0,0
1.859,1.7567,1.6803,0,0,0,0,0,0,0,0,0,0,0,0
1.859,1.7567,1.6803,0,0,0,0,0,0,0,0,0,0,0,0
1.859,1.7567,1.6803,0,0,0,0,0,0,0,0,0,0,0,0
1.859,1.7567,1.6803,0,0,0,0,0,0,0,0,0,0,0,0
1.859,1.7567,1.6803,0,0,0,0,0,0,0,0,0,0,0,0
1.859,1.7567,1.6803,0,0,0,0,0,0,0,0,0,0,0,0
1.859,1.7567,1.6803,0,0,0,0,0,0,0,0,0,0,0,0
1.859,1.7567,1.6803,0,0,0,0,0,0,0,0,0,0,0,0
1.859,1.7567,1.6803,0,0,0,0,0,0,0,0,0,0,0,0
1.859,1.7567,1.6803,0,0,0,0,0,0,0,0,0,0,0,0
1.859,1.7567,1.6803,0,0,0,0,0,0,0,0,0,0,0,0
1.859,1.7567,1.6803,0,0,0,0,0,0,0,0,0,0,0,0
1.859,1.7567,1.6803,0,0,0,0,0,0,0,0,0,0,0,0
1.859,1.7567,1.6803,0,0,0,0,0,0,0,0,0,0,0,0
1.859,1.7567,1.6803,0,0,0,0,0,0,0,0,0,0,0,0
1.859,1.7567,1.6803,0,0,0,0,0,0,0,0,0,0,0,0
1.859,1.7567,1.6803,0,0,0,0,0,0,0,0,0,0,0,0
1.859,1.7567,1.6803,0,0,0,0,0,0,0,0,0,0,0,0
1.859,1.7567,1.6803,0,0,0,0,0,0,0,0,0,0,0,0
1.859,1.7567,1.6803,0,0,0,0,0,0,0,0,0,0,0,0
1.859,1.7567,1.6803,0,0,0,0,0,0,0,0,0,0,0,0
1.859,1.7567,1.6803,0,0,0,0,0,0,0,0,0,0,0,0
1.859,1.7567,1.6803,0,0,0,0,0,0,0,0,0,0,0,0
1.859,1.7567,1.6803,0,0,0,0,0,0,0,0,0,0,0,0
1.859,1.7567,1.6803,0,0,0,0,0,0,0,0,0,0,0,0
1.859,1.7567,1.6803,0,0,0,0,0,0,0,0,0,0,0,0
1.859,1.7567,1.6803,0,0,0,0,0,0,0,0,0,0,0,0
1.859,1.7567,1.6803,0,0,0,0,0,0,0,0,0,0,0,0
1.859,1.7567,1.6803,0,0,0,0,0,0,0,0,0,0,0,0
1.859,1.7567,1.6803,0,0,0,0,0,0,0,0,0,0,0,0
1.859,1.7567,1.6803,0,0,0,0,0,0,0,0,0,0,0,0
1.859,1.7567,1.6803,0,0,0,0,0,0,0,0,0,0,0,0
1.859,1.7567,1.6803,0,0,0,0,0,0,0,0,0,0,0,0
1.859,1.7567,1.6803,0,0,0,0,0,0,0,0,0,0,0,0
1.859,1.7567,1.6803,0,0,0,0,0,0,0,0,0,0,0,0
1.859,1.7567,1.6803,0,0,0,0,0,0,0,0,0,0,0,0
1.859,1.7567,1.6803,0,0,0,0,0,0,0,0,0,0,0,0
1.859,1.7567,1.6803,0,0,0,0,0,0,0,0,0,0,0,0
1.859,1.7567,1.6803,0,0,0,0,0,0,0,0,0,0,0,0
1.859,1.7567,1.6803,0,0,0,0,0,0,0,0,0,0,0,0
1.859,1.7567,1.6803,0,0,0,0,0,0,0,0,0,0,0,0
1.859,1.7567,1.6803,0,0,0,0,0,0,0,0,0,0,0,0
1.859,1.7567,1.6803,0,0,0,0,0,0,0,0,0,0,0,0
1.859,1.7567,1.6803,0,0,0,0,0,0,0,0,0,0,0,0
1.859,1.7567,1.6803,0,0,0,0,0,0,0,0,0,0,0,0
1.859,1.7567,1.6803,0,0,0,0,0,0,0,0,0,0,0,0
1.859,1.7567,1.6803,0,0,0,0,0,0,0,0,0,0,0,0
1.859,1.7567,1.6803,0,0,0,0,0,0,0,0,0,0,0,0
1.859,1.7567,1.6803,0,0,0,0,0,0,0,0,0,0,0,0
1.859,1.7567,1.6803,0,0,0,0,0,0,0,0,0,0,0,0
1.859,1.7567,1.6803,0,0,0,0,0,0,0,0,0,0,0,0
1.859,1.7567,1.6803,0,0,0,0,0,0,0,0,0,0,0,0
1.859,1.7567,1.6803,0,0,0,0,0,0,0,0,0,0,0,0
1.859,1.7567,1.6803,0,0,0,0,0,0,0,0,0,0,0,0
1.859,1.7567,1.6803,0,0,0,0,0,0,0,0,0,0,0,0
1.859,1.7567,1.6803,0,0,0,0,0,0,0,0,0,0,0,0
1.859,1.7567,1.6803,0,0,0,0,0,0,0,0,0,0,0,0
1.859,1.7567,1.6803,0,0,0,0,0,0,0,0,0,0,0,0
1.859,1.7567,1.6803,0,0,0,0,0,0,0,0,0,0,0,0
1.859,1.7567,1.6803,0,0,0,0,0,0,0,0,0,0,0,0
1.859,1.7567,1.6803,0,0,0,0,0,0,0,0,0,0,0,0
1.859,1.7567,1.6803,0,0,0,0,0,0,0,0,0,0,0,0
1.859,1.7567,1.6803,0,0,0,0,0,0,0,0,0,0,0,0
1.859,1.7567,1.6803,0,0,0,0,0,0,0,0,0,0,0,0
1.859,1.7567,1.6803,0,0,0,0,0,0,0,0,0,0,0,0
1.859,1.7567,1.6803,0,0,0,0,0,0,0,0,0,0,0,0
1.859,1.7567,1.6803,0,0,0,0,0,0,0,0,0,0,0,0
1.859,1.7567,1.6803,0,0,0,0,0,0,0,0,0,0,0,0
1.859,1.7567,1.6803,0,0,0,0,0,0,0,0,0,0,0,0
1.859,1.7567,1.6803,0,0,0,0,0,0,0,0,0,0,0,0
1.859,1.7567,1.6803,0,0,0,0,0,0,0,0,0,0,0,0
1.859,1.7567,1.6803,0,0,0,0,0,0,0,0,0,0,0,0
1.859,1.7567,1.6803,0,0,0,0,0,0,0,0,0,0,0,0
1.859,1.7567,1.6803,0,0,0,0,0,0,0,0,0,0,0,0
1.859,1.7567,1.6803,0,0,0,0,0,0,0,0,0,0,0,0
1.859,1.7567,1.6803,0,0,0,0,0,0,0,0,0,0,0,0
1.859,1.7567,1.6803,0,0,0,0,0,0,0,0,0,0,0,0
1.859,1.7567,1.6803,0,0,0,0,0,0,0,0,0,0,0,0
1.859,1.7567,1.6803,0,0,0,0,0,0,0,0,0,0,0,0
1.859,1.7567,1.6803,0,0,0,0,0,0,0,0,0,0,0,0
1.859,1.7567,1.6803,0,0,0,0,0,0,0,0,0,0,0,0
1.859,1.7567,1.6803,0,0,0,0,0,0,0,0,0,0,0,0
1.859,1.7567,1.6803,0,0,0,0,0,0,0,0,0,0,0,0
1.859,1.7567,1.6803,0,0,0,0,0,0,0,0,0,0,0,0
1.859,1.7567,1.6803,0,0,0,0,0,0,0,0,0,0,0,0
1.859,1.7567,1.6803,0,0,0,0,0,0,0,0,0,0,0,0
1.859,1.7567,1.6803,0,0,0,0,0,0,0,0,0,0,0,0
1.859,1.7567,1.6803,0,0,0,0,0,0,0,0,0,0,0,0
1.859,1.7567,1.6803,0,0,0,0,0,0,0,0,0,0,0,0
1.859,1.7567,1.6803,0,0,0,0,0,0,0,0,0,0,0,0
1.859,1.7567,1.6803,0,0,0,0,0,0,0,0,0,0,0,0
1.859,1.7567,1.6803,0,0,0,0,0,0,0,0,0,0,0,0
1.859,1.7567,1.6803,0,0,0,0,0,0,0,0,0,0,0,0
1.859,1.7567,1.6803,0,0,0,0,0,0,0,0,0,0,0,0
1.859,1.7567,1.6803,0,0,0,0,0,0,0,0,0,0,0,0
1.859,1.7567,1.6803,0,0,0,0,0,0,0,0,0,0,0,0
1.859,1.7567,1.6803,0,0,0,0,0,0,0,0,0,0,0,0
1.859,1.7567,1.6803,0,0,0,0,0,0,0,0,0,0,0,0
1.859,1.7567,1.6803,0,0,0,0,0,0,0,0,0,0,0,0
1.859,1.7567,1.6803,0,0,0,0,0,0,0,0,0,0,0,0
