1
658.000000,123.995003,38.880005,66.789993
658.000000,123.995003,38.880005,66.789993
654.000000,131.994995,38.880005,66.789993
654.000000,139.994995,38.880005,66.789993
654.000000,139.994995,38.880005,66.789993
654.000000,139.994995,38.880005,66.789993
654.000000,135.994995,38.880005,66.789993
654.000000,135.994995,38.880005,66.789993
650.000000,139.994995,38.880005,66.789993
650.000000,143.994995,38.880005,66.789993
650.000000,143.994995,38.880005,66.789993
650.000000,143.994995,38.880005,66.789993
646.000000,135.994995,38.880005,66.789993
642.000000,131.994995,38.880005,66.789993
638.000000,131.994995,38.880005,66.789993
630.000000,131.994995,38.880005,66.789993
626.000000,143.994995,38.880005,66.789993
626.000000,151.994995,38.880005,66.789993
622.000000,155.994995,38.880005,66.789993
622.000000,155.994995,38.880005,66.789993
626.000000,155.994995,38.880005,66.789993
626.000000,151.994995,38.880005,66.789993
630.000000,151.994995,38.880005,66.789993
630.000000,147.994995,38.880005,66.789993
630.000000,147.994995,38.880005,66.789993
634.000000,143.994995,38.880005,66.789993
634.000000,131.994995,38.880005,66.789993
634.000000,127.995003,38.880005,66.789993
634.000000,127.995003,38.880005,66.789993
634.000000,131.994995,38.880005,66.789993
634.000000,143.994995,38.880005,66.789993
634.000000,131.994995,38.880005,66.789993
634.000000,143.994995,38.880005,66.789993
638.000000,155.994995,38.880005,66.789993
638.000000,155.994995,38.880005,66.789993
638.000000,143.994995,38.880005,66.789993
638.000000,139.994995,38.880005,66.789993
638.000000,131.994995,38.880005,66.789993
638.000000,127.995003,38.880005,66.789993
638.000000,127.995003,38.880005,66.789993
634.000000,127.995003,38.880005,66.789993
634.000000,115.995003,38.880005,66.789993
634.000000,115.995003,38.880005,66.789993
634.000000,115.995003,38.880005,66.789993
634.000000,123.995003,38.880005,66.789993
634.000000,123.995003,38.880005,66.789993
634.000000,127.995003,38.880005,66.789993
634.000000,127.995003,38.880005,66.789993
634.000000,127.995003,38.880005,66.789993
638.000000,127.995003,38.880005,66.789993
638.000000,127.995003,38.880005,66.789993
638.000000,131.994995,38.880005,66.789993
638.000000,131.994995,38.880005,66.789993
638.000000,131.994995,38.880005,66.789993
638.000000,131.994995,38.880005,66.789993
638.000000,131.994995,38.880005,66.789993
638.000000,143.994995,38.880005,66.789993
638.000000,143.994995,38.880005,66.789993
642.000000,143.994995,38.880005,66.789993
642.000000,143.994995,38.880005,66.789993
642.000000,143.994995,38.880005,66.789993
642.000000,143.994995,38.880005,66.789993
642.000000,143.994995,38.880005,66.789993
642.000000,143.994995,38.880005,66.789993
642.000000,143.994995,38.880005,66.789993
646.000000,143.994995,38.880005,66.789993
650.000000,143.994995,38.880005,66.789993
650.000000,147.994995,38.880005,66.789993
654.000000,147.994995,38.880005,66.789993
654.000000,143.994995,38.880005,66.789993
654.000000,135.994995,38.880005,66.789993
658.000000,131.994995,38.880005,66.789993
658.000000,131.994995,38.880005,66.789993
658.000000,131.994995,38.880005,66.789993
654.000000,119.995003,38.880005,66.789993
654.000000,123.995003,38.880005,66.789993
654.000000,131.994995,38.880005,66.789993
658.000000,143.994995,38.880005,66.789993
658.000000,155.994995,38.880005,66.789993
662.000000,159.994995,38.880005,66.789993
662.000000,159.994995,38.880005,66.789993
662.000000,159.994995,38.880005,66.789993
662.000000,159.994995,38.880005,66.789993
666.000000,159.994995,38.880005,66.789993
666.000000,159.994995,38.880005,66.789993
666.000000,147.994995,38.880005,66.789993
662.000000,143.994995,38.880005,66.789993
658.000000,139.994995,38.880005,66.789993
654.000000,139.994995,38.880005,66.789993
650.000000,143.994995,38.880005,66.789993
650.000000,143.994995,38.880005,66.789993
646.000000,147.994995,38.880005,66.789993
642.000000,147.994995,38.880005,66.789993
642.000000,151.994995,38.880005,66.789993
642.000000,151.994995,38.880005,66.789993
646.000000,151.994995,38.880005,66.789993
646.000000,151.994995,38.880005,66.789993
646.000000,151.994995,38.880005,66.789993
646.000000,151.994995,38.880005,66.789993
646.000000,151.994995,38.880005,66.789993
646.000000,151.994995,38.880005,66.789993
646.000000,151.994995,38.880005,66.789993
642.000000,151.994995,38.880005,66.789993
642.000000,151.994995,38.880005,66.789993
642.000000,151.994995,38.880005,66.789993
642.000000,151.994995,38.880005,66.789993
642.000000,151.994995,38.880005,66.789993
642.000000,151.994995,38.880005,66.789993
642.000000,151.994995,38.880005,66.789993
642.000000,151.994995,38.880005,66.789993
642.000000,151.994995,38.880005,66.789993
642.000000,151.994995,38.880005,66.789993
642.000000,151.994995,38.880005,66.789993
642.000000,159.994995,38.880005,66.789993
642.000000,159.994995,38.880005,66.789993
638.000000,159.994995,38.880005,66.789993
638.000000,159.994995,38.880005,66.789993
638.000000,159.994995,38.880005,66.789993
638.000000,159.994995,38.880005,66.789993
638.000000,155.994995,38.880005,66.789993
638.000000,155.994995,38.880005,66.789993
638.000000,155.994995,38.880005,66.789993
638.000000,155.994995,38.880005,66.789993
638.000000,151.994995,38.880005,66.789993
638.000000,151.994995,38.880005,66.789993
638.000000,151.994995,38.880005,66.789993
638.000000,151.994995,38.880005,66.789993
638.000000,151.994995,38.880005,66.789993
638.000000,151.994995,38.880005,66.789993
634.000000,151.994995,38.880005,66.789993
634.000000,151.994995,38.880005,66.789993
634.000000,151.994995,38.880005,66.789993
634.000000,151.994995,38.880005,66.789993
634.000000,147.994995,38.880005,66.789993
638.000000,143.994995,38.880005,66.789993
638.000000,139.994995,38.880005,66.789993
638.000000,135.994995,38.880005,66.789993
638.000000,135.994995,38.880005,66.789993
638.000000,135.994995,38.880005,66.789993
638.000000,135.994995,38.880005,66.789993
638.000000,135.994995,38.880005,66.789993
638.000000,139.994995,38.880005,66.789993
638.000000,143.994995,38.880005,66.789993
638.000000,143.994995,38.880005,66.789993
638.000000,143.994995,38.880005,66.789993
638.000000,143.994995,38.880005,66.789993
638.000000,147.994995,38.880005,66.789993
638.000000,147.994995,38.880005,66.789993
638.000000,151.994995,38.880005,66.789993
638.000000,151.994995,38.880005,66.789993
638.000000,155.994995,38.880005,66.789993
642.000000,159.994995,38.880005,66.789993
642.000000,159.994995,38.880005,66.789993
642.000000,159.994995,38.880005,66.789993
642.000000,159.994995,38.880005,66.789993
642.000000,159.994995,38.880005,66.789993
642.000000,159.994995,38.880005,66.789993
646.000000,159.994995,38.880005,66.789993
646.000000,159.994995,38.880005,66.789993
646.000000,159.994995,38.880005,66.789993
646.000000,159.994995,38.880005,66.789993
646.000000,159.994995,38.880005,66.789993
646.000000,159.994995,38.880005,66.789993
646.000000,159.994995,38.880005,66.789993
642.000000,159.994995,38.880005,66.789993
642.000000,159.994995,38.880005,66.789993
642.000000,159.994995,38.880005,66.789993
642.000000,159.994995,38.880005,66.789993
646.000000,159.994995,38.880005,66.789993
646.000000,159.994995,38.880005,66.789993
646.000000,159.994995,38.880005,66.789993
646.000000,159.994995,38.880005,66.789993
646.000000,159.994995,38.880005,66.789993
650.000000,159.994995,38.880005,66.789993
650.000000,159.994995,38.880005,66.789993
650.000000,159.994995,38.880005,66.789993
654.000000,159.994995,38.880005,66.789993
650.000000,159.994995,38.880005,66.789993
650.000000,159.994995,38.880005,66.789993
650.000000,159.994995,38.880005,66.789993
650.000000,159.994995,38.880005,66.789993
650.000000,159.994995,38.880005,66.789993
654.000000,159.994995,38.880005,66.789993
654.000000,159.994995,38.880005,66.789993
654.000000,159.994995,38.880005,66.789993
654.000000,159.994995,38.880005,66.789993
658.000000,159.994995,38.880005,66.789993
662.000000,159.994995,38.880005,66.789993
662.000000,147.994995,38.880005,66.789993
662.000000,147.994995,38.880005,66.789993
