1
333.000000,32.000000,38.000000,42.000000
333.000000,24.000000,38.000000,42.000000
337.000000,16.000000,38.000000,42.000000
337.000000,12.000000,38.000000,42.000000
341.000000,12.000000,38.000000,42.000000
345.000000,16.000000,38.000000,42.000000
349.000000,24.000000,38.000000,42.000000
349.000000,32.000000,38.000000,42.000000
357.000000,32.000000,38.000000,42.000000
333.000000,32.000000,38.000000,42.000000
333.000000,32.000000,38.000000,42.000000
333.000000,32.000000,38.000000,42.000000
333.000000,32.000000,38.000000,42.000000
329.000000,28.000000,38.000000,42.000000
329.000000,32.000000,38.000000,42.000000
333.000000,32.000000,38.000000,42.000000
329.000000,28.000000,38.000000,42.000000
329.000000,24.000000,38.000000,42.000000
329.000000,24.000000,38.000000,42.000000
329.000000,24.000000,38.000000,42.000000
329.000000,20.000000,38.000000,42.000000
325.000000,24.000000,38.000000,42.000000
325.000000,24.000000,38.000000,42.000000
329.000000,28.000000,38.000000,42.000000
329.000000,28.000000,38.000000,42.000000
329.000000,28.000000,38.000000,42.000000
333.000000,28.000000,38.000000,42.000000
333.000000,24.000000,38.000000,42.000000
337.000000,20.000000,38.000000,42.000000
345.000000,20.000000,38.000000,42.000000
353.000000,24.000000,38.000000,42.000000
365.000000,32.000000,38.000000,42.000000
373.000000,28.000000,38.000000,42.000000
373.000000,28.000000,38.000000,42.000000
2
0
0
0
0
1
394.500000,110.500000,45.000000,41.000000
394.500000,102.500000,45.000000,41.000000
386.500000,90.500000,45.000000,41.000000
378.500000,74.500000,45.000000,41.000000
366.500000,50.500000,45.000000,41.000000
366.500000,54.500000,45.000000,41.000000
2
0
0
0
0
1
306.829987,23.330000,49.000000,52.000000
310.829987,23.330000,49.000000,52.000000
310.829987,23.330000,49.000000,52.000000
306.829987,19.330000,49.000000,52.000000
306.829987,11.330000,49.000000,52.000000
302.829987,7.330000,49.000000,52.000000
298.829987,7.330000,49.000000,52.000000
294.829987,15.330000,49.000000,52.000000
298.829987,15.330000,49.000000,52.000000
306.829987,11.330000,49.000000,52.000000
322.829987,3.330000,49.000000,52.000000
330.829987,3.330000,49.000000,52.000000
322.829987,3.330000,49.000000,52.000000
318.829987,7.330000,49.000000,52.000000
326.829987,7.330000,49.000000,52.000000
326.829987,7.330000,49.000000,52.000000
322.829987,7.330000,49.000000,52.000000
330.829987,-4.670000,49.000000,52.000000
326.829987,-0.670000,49.000000,52.000000
326.829987,-0.670000,49.000000,52.000000
318.829987,-0.670000,49.000000,52.000000
306.829987,7.330000,49.000000,52.000000
298.829987,23.330000,49.000000,52.000000
318.829987,31.330000,49.000000,52.000000
2
0
0
0
0
1
312.000000,167.000000,80.000000,76.000000
288.000000,151.000000,80.000000,76.000000
272.000000,135.000000,80.000000,76.000000
256.000000,127.000000,80.000000,76.000000
240.000000,111.000000,80.000000,76.000000
224.000000,83.000000,80.000000,76.000000
212.000000,67.000000,80.000000,76.000000
200.000000,51.000000,80.000000,76.000000
232.000000,51.000000,80.000000,76.000000
236.000000,39.000000,80.000000,76.000000
232.000000,39.000000,80.000000,76.000000
232.000000,55.000000,80.000000,76.000000
200.000000,63.000000,80.000000,76.000000
180.000000,39.000000,80.000000,76.000000
180.000000,51.000000,80.000000,76.000000
196.000000,51.000000,80.000000,76.000000
212.000000,51.000000,80.000000,76.000000
