1.7459,1.5927,1.6141,0,0,0,0,0,0,0,0,0,0,0,0
1.7459,1.5927,1.6141,0,0,0,0,0,0,0,0,0,0,0,0
1.7459,1.5927,1.6141,0,0,0,0,0,0,0,0,0,0,0,0
1.7459,1.5927,1.6141,0,0,0,0,0,0,0,0,0,0,0,0
1.7459,1.5927,1.6141,0,0,0,0,0,0,0,0,0,0,0,0
1.7459,1.5927,1.6141,0,0,0,0,0,0,0,0,0,0,0,0
1.7459,1.5927,1.6141,0,0,0,0,0,0,0,0,0,0,0,0
1.7459,1.5927,1.6141,0,0,0,0,0,0,0,0,0,0,0,0
1.7459,1.5927,1.6141,0,0,0,0,0,0,0,0,0,0,0,0
1.7459,1.5927,1.6141,0,0,0,0,0,0,0,0,0,0,0,0
1.7459,1.5927,1.6141,0,0,0,0,0,0,0,0,0,0,0,0
1.7459,1.5927,1.6141,0,0,0,0,0,0,0,0,0,0,0,0
1.7459,1.5927,1.6141,0,0,0,0,0,0,0,0,0,0,0,0
1.7459,1.5927,1.6141,0,0,0,0,0,0,0,0,0,0,0,0
1.7459,1.5927,1.6141,0,0,0,0,0,0,0,0,0,0,0,0
1.7459,1.5927,1.6141,0,0,0,0,0,0,0,0,0,0,0,0
1.7459,1.5927,1.6141,0,0,0,0,0,0,0,0,0,0,0,0
1.7459,1.5927,1.6141,0,0,0,0,0,0,0,0,0,0,0,0
1.7459,1.5927,1.6141,0,0,0,0,0,0,0,0,0,0,0,0
1.7459,1.5927,1.6141,0,0,0,0,0,0,0,0,0,0,0,0
1.7459,1.5927,1.6141,0,0,0,0,0,0,0,0,0,0,0,0
1.7459,1.5927,1.6141,0,0,0,0,0,0,0,0,0,0,0,0
1.7459,1.5927,1.6141,0,0,0,0,0,0,0,0,0,0,0,0
1.7459,1.5927,1.6141,0,0,0,0,0,0,0,0,0,0,0,0
1.7459,1.5927,1.6141,0,0,0,0,0,0,0,0,0,0,0,0
1.7459,1.5927,1.6141,0,0,0,0,0,0,0,0,0,0,0,0
1.7459,1.5927,1.6141,0,0,0,0,0,0,0,0,0,0,0,0
1.7459,1.5927,1.6141,0,0,0,0,0,0,0,0,0,0,0,0
1.7459,1.5927,1.6141,0,0,0,0,0,0,0,0,0,0,0,0
1.7459,1.5927,1.6141,0,0,0,0,0,0,0,0,0,0,0,0
1.7459,1.5927,1.6141,0,0,0,0,0,0,0,0,0,0,0,0
1.7459,1.5927,1.6141,0,0,0,0,0,0,0,0,0,0,0,0
1.7459,1.5927,1.6141,0,0,0,0,0,0,0,0,0,0,0,0
1.7459,1.5927,1.6141,0,0,0,0,0,0,0,0,0,0,0,0
1.7459,1.5927,1.6141,0,0,0,0,0,0,0,0,0,0,0,0
1.7459,1.5927,1.6141,0,0,0,0,0,0,0,0,0,0,0,0
1.7459,1.5927,1.6141,0,0,0,0,0,0,0,0,0,0,0,0
1.7459,1.5927,1.6141,0,0,0,0,0,0,0,0,0,0,0,0
1.7459,1.5927,1.6141,0,0,0,0,0,0,0,0,0,0,0,0
1.7459,1.5927,1.6141,0,0,0,0,0,0,0,0,0,0,0,0
1.7459,1.5927,1.6141,0,0,0,0,0,0,0,0,0,0,0,0
1.7459,1.5927,1.6141,0,0,0,0,0,0,0,0,0,0,0,0
1.7459,1.5927,1.6141,0,0,0,0,0,0,0,0,0,0,0,0
1.7459,1.5927,1.6141,0,0,0,0,0,0,0,0,0,0,0,0
1.7459,1.5927,1.6141,0,0,0,0,0,0,0,0,0,0,0,0
1.7459,1.5927,1.6141,0,0,0,0,0,0,0,0,0,0,0,0
1.7459,1.5927,1.6141,0,0,0,0,0,0,0,0,0,0,0,0
1.7459,1.5927,1.6141,0,0,0,0,0,0,0,0,0,0,0,0
1.7459,1.5927,1.6141,0,0,0,0,0,0,0,0,0,0,0,0
1.7459,1.5927,1.6141,0,0,0,0,0,0,0,0,0,0,0,0
1.7459,1.5927,1.6141,0,0,0,0,0,0,0,0,0,0,0,0
1.7459,1.5927,1.6141,0,0,0,0,0,0,0,0,0,0,0,0
1.7459,1.5927,1.6141,0,0,0,0,0,0,0,0,0,0,0,0
1.7459,1.5927,1.6141,0,0,0,0,0,0,0,0,0,0,0,0
1.7459,1.5927,1.6141,0,0,0,0,0,0,0,0,0,0,0,0
1.7459,1.5927,1.6141,0,0,0,0,0,0,0,0,0,0,0,0
1.7459,1.5927,1.6141,0,0,0,0,0,0,0,0,0,0,0,0
1.7459,1.5927,1.6141,0,0,0,0,0,0,0,0,0,0,0,0
1.7459,1.5927,1.6141,0,0,0,0,0,0,0,0,0,0,0,0
1.7459,1.5927,1.6141,0,0,0,0,0,0,0,0,0,0,0,0
1.7459,1.5927,1.6141,0,0,0,0,0,0,0,0,0,0,0,0
1.7459,1.5927,1.6141,0,0,0,0,0,0,0,0,0,0,0,0
1.7459,1.5927,1.6141,0,0,0,0,0,0,0,0,0,0,0,0
1.7459,1.5927,1.6141,0,0,0,0,0,0,0,0,0,0,0,0
1.7459,1.5927,1.6141,0,0,0,0,0,0,0,0,0,0,0,0
1.7459,1.5927,1.6141,0,0,0,0,0,0,0,0,0,0,0,0
1.7459,1.5927,1.6141,0,0,0,0,0,0,0,0,0,0,0,0
1.7459,1.5927,1.6141,0,0,0,0,0,0,0,0,0,0,0,0
1.7459,1.5927,1.6141,0,0,0,0,0,0,0,0,0,0,0,0
1.7459,1.5927,1.6141,0,0,0,0,0,0,0,0,0,0,0,0
1.7459,1.5927,1.6141,0,0,0,0,0,0,0,0,0,0,0,0
1.7459,1.5927,1.6141,0,0,0,0,0,0,0,0,0,0,0,0
1.7459,1.5927,1.6141,0,0,0,0,0,0,0,0,0,0,0,0
1.7459,1.5927,1.6141,0,0,0,0,0,0,0,0,0,0,0,0
1.7459,1.5927,1.6141,0,0,0,0,0,0,0,0,0,0,0,0
1.7459,1.5927,1.6141,0,0,0,0,0,0,0,0,0,0,0,0
1.7459,1.5927,1.6141,0,0,0,0,0,0,0,0,0,0,0,0
1.7459,1.5927,1.6141,0,0,0,0,0,0,0,0,0,0,0,0
1.7459,1.5927,1.6141,0,0,0,0,0,0,0,0,0,0,0,0
1.7459,1.5927,1.6141,0,0,0,0,0,0,0,0,0,0,0,0
1.7459,1.5927,1.6141,0,0,0,0,0,0,0,0,0,0,0,0
1.7459,1.5927,1.6141,0,0,0,0,0,0,0,0,0,0,0,0
1.7459,1.5927,1.6141,0,0,0,0,0,0,0,0,0,0,0,0
1.7459,1.5927,1.6141,0,0,0,0,0,0,0,0,0,0,0,0
1.7459,1.5927,1.6141,0,0,0,0,0,0,0,0,0,0,0,0
1.7459,1.5927,1.6141,0,0,0,0,0,0,0,0,0,0,0,0
1.7459,1.5927,1.6141,0,0,0,0,0,0,0,0,0,0,0,0
1.7459,1.5927,1.6141,0,0,0,0,0,0,0,0,0,0,0,0
1.7459,1.5927,1.6141,0,0,0,0,0,0,0,0,0,0,0,0
1.7459,1.5927,1.6141,0,0,0,0,0,0,0,0,0,0,0,0
1.7459,1.5927,1.6141,0,0,0,0,0,0,0,0,0,0,0,0
1.7459,1.5927,1.6141,0,0,0,0,0,0,0,0,0,0,0,0
1.7459,1.5927,1.6141,0,0,0,0,0,0,0,0,0,0,0,0
1.7459,1.5927,1.6141,0,0,0,0,0,0,0,0,0,0,0,0
1.7459,1.5927,1.6141,0,0,0,0,0,0,0,0,0,0,0,0
1.7459,1.5927,1.6141,0,0,0,0,0,0,0,0,0,0,0,0
1.7459,1.5927,1.6141,0,0,0,0,0,0,0,0,0,0,0,0
1.7459,1.5927,1.6141,0,0,0,0,0,0,0,0,0,0,0,0
1.7459,1.5927,1.6141,0,0,0,0,0,0,0,0,0,0,0,0
1.7459,1.5927,1.6141,0,0,0,0,0,0,0,0,0,0,0,0
1.7459,1.5927,1.6141,0,0,0,0,0,0,0,0,0,0,0,0
1.7459,1.5927,1.6141,0,0,0,0,0,0,0,0,0,0,0,0
1.7459,1.5927,1.6141,0,0,0,0,0,0,0,0,0,0,0,0
1.7459,1.5927,1.6141,0,0,0,0,0,0,0,0,0,0,0,0
1.7459,1.5927,1.6141,0,0,0,0,0,0,0,0,0,0,0,0
1.7459,1.5927,1.6141,0,0,0,0,0,0,0,0,0,0,0,0
1.7459,1.5927,1.6141,0,0,0,0,0,0,0,0,0,0,0,0
1.7459,1.5927,1.6141,0,0,0,0,0,0,0,0,0,0,0,0
1.7459,1.5927,1.6141,0,0,0,0,0,0,0,0,0,0,0,0
1.7459,1.5927,1.6141,0,0,0,0,0,0,0,0,0,0,0,0
1.7459,1.5927,1.6141,0,0,0,0,0,0,0,0,0,0,0,0
1.7459,1.5927,1.6141,0,0,0,0,0,0,0,0,0,0,0,0
1.7459,1.5927,1.6141,0,0,0,0,0,0,0,0,0,0,0,0
1.7459,1.5927,1.6141,0,0,0,0,0,0,0,0,0,0,0,0
1.7459,1.5927,1.6141,0,0,0,0,0,0,0,0,0,0,0,0
1.7459,1.5927,1.6141,0,0,0,0,0,0,0,0,0,0,0,0
1.7459,1.5927,1.6141,0,0,0,0,0,0,0,0,0,0,0,0
1.7459,1.5927,1.6141,0,0,0,0,0,0,0,0,0,0,0,0
1.7459,1.5927,1.6141,0,0,0,0,0,0,0,0,0,0,0,0
1.7459,1.5927,1.6141,0,0,0,0,0,0,0,0,0,0,0,0
1.7459,1.5927,1.6141,0,0,0,0,0,0,0,0,0,0,0,0
1.7459,1.5927,1.6141,0,0,0,0,0,0,0,0,0,0,0,0
1.7459,1.5927,1.6141,0,0,0,0,0,0,0,0,0,0,0,0
1.7459,1.5927,1.6141,0,0,0,0,0,0,0,0,0,0,0,0
1.7459,1.5927,1.6141,0,0,0,0,0,0,0,0,0,0,0,0
1.7459,1.5927,1.6141,0,0,0,0,0,0,0,0,0,0,0,0
1.7459,1.5927,1.6141,0,0,0,0,0,0,0,0,0,0,0,0
1.7459,1.5927,1.6141,0,0,0,0,0,0,0,0,0,0,0,0
1.7459,1.5927,1.6141,0,0,0,0,0,0,0,0,0,0,0,0
1.7459,1.5927,1.6141,0,0,0,0,0,0,0,0,0,0,0,0
1.7459,1.5927,1.6141,0,0,0,0,0,0,0,0,0,0,0,0
1.7459,1.5927,1.6141,0,0,0,0,0,0,0,0,0,0,0,0
1.7459,1.5927,1.6141,0,0,0,0,0,0,0,0,0,0,0,0
1.7459,1.5927,1.6141,0,0,0,0,0,0,0,0,0,0,0,0
1.7459,1.5927,1.6141,0,0,0,0,0,0,0,0,0,0,0,0
1.7459,1.5927,1.6141,0,0,0,0,0,0,0,0,0,0,0,0
1.7459,1.5927,1.6141,0,0,0,0,0,0,0,0,0,0,0,0
1.7459,1.5927,1.6141,0,0,0,0,0,0,0,0,0,0,0,0
1.7459,1.5927,1.6141,0,0,0,0,0,0,0,0,0,0,0,0
1.7459,1.5927,1.6141,0,0,0,0,0,0,0,0,0,0,0,0
1.7459,1.5927,1.6141,0,0,0,0,0,0,0,0,0,0,0,0
1.7459,1.5927,1.6141,0,0,0,0,0,0,0,0,0,0,0,0
1.7459,1.5927,1.6141,0,0,0,0,0,0,0,0,0,0,0,0
1.7459,1.5927,1.6141,0,0,0,0,0,0,0,0,0,0,0,0
1.7459,1.5927,1.6141,0,0,0,0,0,0,0,0,0,0,0,0
1.7459,1.5927,1.6141,0,0,0,0,0,0,0,0,0,0,0,0
1.7459,1.5927,1.6141,0,0,0,0,0,0,0,0,0,0,0,0
1.7459,1.5927,1.6141,0,0,0,0,0,0,0,0,0,0,0,0
1.7459,1.5927,1.6141,0,0,0,0,0,0,0,0,0,0,0,0
1.7459,1.5927,1.6141,0,0,0,0,0,0,0,0,0,0,0,0
1.7459,1.5927,1.6141,0,0,0,0,0,0,0,0,0,0,0,0
1.7459,1.5927,1.6141,0,0,0,0,0,0,0,0,0,0,0,0
1.7459,1.5927,1.6141,0,0,0,0,0,0,0,0,0,0,0,0
1.7459,1.5927,1.6141,0,0,0,0,0,0,0,0,0,0,0,0
1.7459,1.5927,1.6141,0,0,0,0,0,0,0,0,0,0,0,0
1.7459,1.5927,1.6141,0,0,0,0,0,0,0,0,0,0,0,0
1.7459,1.5927,1.6141,0,0,0,0,0,0,0,0,0,0,0,0
1.7459,1.5927,1.6141,0,0,0,0,0,0,0,0,0,0,0,0
1.7459,1.5927,1.6141,0,0,0,0,0,0,0,0,0,0,0,0
1.7459,1.5927,1.6141,0,0,0,0,0,0,0,0,0,0,0,0
1.7459,1.5927,1.6141,0,0,0,0,0,0,0,0,0,0,0,0
1.7459,1.5927,1.6141,0,0,0,0,0,0,0,0,0,0,0,0
1.7459,1.5927,1.6141,0,0,0,0,0,0,0,0,0,0,0,0
1.7459,1.5927,1.6141,0,0,0,0,0,0,0,0,0,0,0,0
