1
173.000000,63.500000,82.000000,63.000000
157.000000,99.500000,82.000000,63.000000
133.000000,115.500000,82.000000,63.000000
117.000000,123.500000,82.000000,63.000000
105.000000,135.500000,82.000000,63.000000
105.000000,151.500000,82.000000,63.000000
105.000000,159.500000,82.000000,63.000000
73.000000,159.500000,82.000000,63.000000
105.000000,151.500000,82.000000,63.000000
137.000000,151.500000,82.000000,63.000000
169.000000,131.500000,82.000000,63.000000
201.000000,123.500000,82.000000,63.000000
233.000000,123.500000,82.000000,63.000000
253.000000,135.500000,82.000000,63.000000
285.000000,135.500000,82.000000,63.000000
297.000000,135.500000,82.000000,63.000000
285.000000,135.500000,82.000000,63.000000
297.000000,135.500000,82.000000,63.000000
329.000000,135.500000,82.000000,63.000000
357.000000,147.500000,82.000000,63.000000
369.000000,159.500000,82.000000,63.000000
373.000000,171.500000,82.000000,63.000000
373.000000,179.500000,82.000000,63.000000
373.000000,175.500000,82.000000,63.000000
369.000000,163.500000,82.000000,63.000000
345.000000,147.500000,82.000000,63.000000
313.000000,131.500000,82.000000,63.000000
281.000000,139.500000,82.000000,63.000000
265.000000,143.500000,82.000000,63.000000
261.000000,139.500000,82.000000,63.000000
257.000000,143.500000,82.000000,63.000000
229.000000,151.500000,82.000000,63.000000
213.000000,151.500000,82.000000,63.000000
197.000000,147.500000,82.000000,63.000000
181.000000,143.500000,82.000000,63.000000
165.000000,139.500000,82.000000,63.000000
149.000000,139.500000,82.000000,63.000000
149.000000,135.500000,82.000000,63.000000
149.000000,131.500000,82.000000,63.000000
161.000000,127.500000,82.000000,63.000000
161.000000,127.500000,82.000000,63.000000
161.000000,143.500000,82.000000,63.000000
157.000000,155.500000,82.000000,63.000000
161.000000,155.500000,82.000000,63.000000
169.000000,155.500000,82.000000,63.000000
2
0
0
0
0
1
309.559998,141.579987,52.940002,51.920013
309.559998,145.579987,52.940002,51.920013
301.559998,157.579987,52.940002,51.920013
301.559998,161.579987,52.940002,51.920013
305.559998,161.579987,52.940002,51.920013
305.559998,165.579987,52.940002,51.920013
309.559998,161.579987,52.940002,51.920013
309.559998,161.579987,52.940002,51.920013
309.559998,157.579987,52.940002,51.920013
309.559998,157.579987,52.940002,51.920013
309.559998,157.579987,52.940002,51.920013
309.559998,157.579987,52.940002,51.920013
309.559998,157.579987,52.940002,51.920013
309.559998,157.579987,52.940002,51.920013
309.559998,161.579987,52.940002,51.920013
309.559998,161.579987,52.940002,51.920013
309.559998,161.579987,52.940002,51.920013
309.559998,161.579987,52.940002,51.920013
309.559998,165.579987,52.940002,51.920013
305.559998,165.579987,52.940002,51.920013
305.559998,161.579987,52.940002,51.920013
305.559998,161.579987,52.940002,51.920013
305.559998,161.579987,52.940002,51.920013
305.559998,161.579987,52.940002,51.920013
309.559998,161.579987,52.940002,51.920013
309.559998,161.579987,52.940002,51.920013
309.559998,165.579987,52.940002,51.920013
309.559998,165.579987,52.940002,51.920013
301.559998,165.579987,52.940002,51.920013
289.559998,165.579987,52.940002,51.920013
277.559998,165.579987,52.940002,51.920013
261.559998,165.579987,52.940002,51.920013
253.559998,157.579987,52.940002,51.920013
257.559998,157.579987,52.940002,51.920013
261.559998,153.579987,52.940002,51.920013
265.559998,153.579987,52.940002,51.920013
277.559998,153.579987,52.940002,51.920013
297.559998,157.579987,52.940002,51.920013
309.559998,157.579987,52.940002,51.920013
317.559998,157.579987,52.940002,51.920013
325.559998,157.579987,52.940002,51.920013
329.559998,153.579987,52.940002,51.920013
341.559998,153.579987,52.940002,51.920013
345.559998,153.579987,52.940002,51.920013
353.559998,157.579987,52.940002,51.920013
357.559998,157.579987,52.940002,51.920013
369.559998,161.579987,52.940002,51.920013
377.559998,161.579987,52.940002,51.920013
377.559998,169.579987,52.940002,51.920013
385.559998,165.579987,52.940002,51.920013
393.559998,157.579987,52.940002,51.920013
2
0
0
0
0
1
170.380005,189.119995,41.619995,59.380005
166.380005,189.119995,41.619995,59.380005
166.380005,189.119995,41.619995,59.380005
166.380005,189.119995,41.619995,59.380005
158.380005,189.119995,41.619995,59.380005
2
0
0
0
0
1
316.659973,214.660004,60.840027,60.840012
320.659973,214.660004,60.840027,60.840012
332.659973,214.660004,60.840027,60.840012
348.659973,210.660004,60.840027,60.840012
348.659973,210.660004,60.840027,60.840012
352.659973,210.660004,60.840027,60.840012
352.659973,206.660004,60.840027,60.840012
332.659973,214.660004,60.840027,60.840012
328.659973,218.660004,60.840027,60.840012
320.659973,218.660004,60.840027,60.840012
308.659973,226.660004,60.840027,60.840012
324.659973,218.660004,60.840027,60.840012
324.659973,214.660004,60.840027,60.840012
324.659973,210.660004,60.840027,60.840012
328.659973,206.660004,60.840027,60.840012
344.659973,206.660004,60.840027,60.840012
352.659973,206.660004,60.840027,60.840012
352.659973,206.660004,60.840027,60.840012
352.659973,206.660004,60.840027,60.840012
340.659973,202.660004,60.840027,60.840012
332.659973,198.660004,60.840027,60.840012
320.659973,182.660004,60.840027,60.840012
316.659973,178.660004,60.840027,60.840012
304.659973,174.660004,60.840027,60.840012
304.659973,170.660004,60.840027,60.840012
304.659973,162.660004,60.840027,60.840012
308.659973,162.660004,60.840027,60.840012
300.659973,158.660004,60.840027,60.840012
300.659973,158.660004,60.840027,60.840012
300.659973,162.660004,60.840027,60.840012
300.659973,162.660004,60.840027,60.840012
284.659973,162.660004,60.840027,60.840012
272.659973,170.660004,60.840027,60.840012
272.659973,158.660004,60.840027,60.840012
284.659973,166.660004,60.840027,60.840012
288.659973,186.660004,60.840027,60.840012
312.659973,182.660004,60.840027,60.840012
320.659973,178.660004,60.840027,60.840012
320.659973,146.660004,60.840027,60.840012
328.659973,142.660004,60.840027,60.840012
360.659973,130.660004,60.840027,60.840012
376.659973,154.660004,60.840027,60.840012
380.659973,166.660004,60.840027,60.840012
372.659973,186.660004,60.840027,60.840012
368.659973,182.660004,60.840027,60.840012
372.659973,174.660004,60.840027,60.840012
372.659973,170.660004,60.840027,60.840012
364.659973,170.660004,60.840027,60.840012
364.659973,170.660004,60.840027,60.840012
364.659973,166.660004,60.840027,60.840012
364.659973,162.660004,60.840027,60.840012
356.659973,158.660004,60.840027,60.840012
356.659973,150.660004,60.840027,60.840012
380.659973,154.660004,60.840027,60.840012
424.659973,166.660004,60.840027,60.840012
